\relax 
\providecommand\hyper@newdestlabel[2]{}
\providecommand\HyperFirstAtBeginDocument{\AtBeginDocument}
\HyperFirstAtBeginDocument{\ifx\hyper@anchor\@undefined
\global\let\oldcontentsline\contentsline
\gdef\contentsline#1#2#3#4{\oldcontentsline{#1}{#2}{#3}}
\global\let\oldnewlabel\newlabel
\gdef\newlabel#1#2{\newlabelxx{#1}#2}
\gdef\newlabelxx#1#2#3#4#5#6{\oldnewlabel{#1}{{#2}{#3}}}
\AtEndDocument{\ifx\hyper@anchor\@undefined
\let\contentsline\oldcontentsline
\let\newlabel\oldnewlabel
\fi}
\fi}
\global\let\hyper@last\relax 
\gdef\HyperFirstAtBeginDocument#1{#1}
\providecommand\HyField@AuxAddToFields[1]{}
\providecommand\HyField@AuxAddToCoFields[2]{}
\select@language{english}
\@writefile{toc}{\select@language{english}}
\@writefile{lof}{\select@language{english}}
\@writefile{lot}{\select@language{english}}
\pgfsyspdfmark {pgfid2}{0}{0}
\pgfsyspdfmark {pgfid1}{6577079}{47493192}
\@writefile{toc}{\contentsline {section}{\numberline {1}Expectation Maximization (EM) Algorithm}{1}{section.1}}
\newlabel{eq:rbf}{{1}{1}{Expectation Maximization (EM) Algorithm}{equation.1.1}{}}
\providecommand*\caption@xref[2]{\@setref\relax\@undefined{#1}}
\newlabel{fig:demgmm1data}{{1a}{2}{Data of the first example.\relax }{figure.caption.2}{}}
\newlabel{sub@fig:demgmm1data}{{a}{2}{Data of the first example.\relax }{figure.caption.2}{}}
\newlabel{fig:demgmm1initial}{{1b}{2}{Initialization of the Gaussian distributions for the first example.\relax }{figure.caption.2}{}}
\newlabel{sub@fig:demgmm1initial}{{b}{2}{Initialization of the Gaussian distributions for the first example.\relax }{figure.caption.2}{}}
\newlabel{fig:demgmm1step1}{{1c}{2}{Probabilities that each point belongs to a certain class. The more red the more they belong to the top left distribution and the more blue the more to the bottom right one\relax }{figure.caption.2}{}}
\newlabel{sub@fig:demgmm1step1}{{c}{2}{Probabilities that each point belongs to a certain class. The more red the more they belong to the top left distribution and the more blue the more to the bottom right one\relax }{figure.caption.2}{}}
\newlabel{fig:demgmm1step1m}{{1d}{2}{Result of the first M-step where the means and variances are updated to fit the red and blue data points better.\relax }{figure.caption.2}{}}
\newlabel{sub@fig:demgmm1step1m}{{d}{2}{Result of the first M-step where the means and variances are updated to fit the red and blue data points better.\relax }{figure.caption.2}{}}
\@writefile{lof}{\contentsline {figure}{\numberline {1}{\ignorespaces The first steps of the EM-algorithm for the first toy example \texttt  {demgmm1}.\relax }}{2}{figure.caption.2}}
\@writefile{toc}{\contentsline {subsection}{\numberline {1.1}Example: two Gaussians with diagonal covariance matrices}{2}{subsection.1.1}}
\@writefile{lof}{\contentsline {figure}{\numberline {2}{\ignorespaces Resulting densities for the first toy example.\relax }}{3}{figure.caption.3}}
\newlabel{fig:demgmm1result}{{2}{3}{Resulting densities for the first toy example.\relax }{figure.caption.3}{}}
\@writefile{toc}{\contentsline {subsection}{\numberline {1.2}A second example: three Gaussian distributions}{3}{subsection.1.2}}
\@writefile{lot}{\contentsline {table}{\numberline {1}{\ignorespaces Prior parameters of the three Gaussian distributions of which the data was sampled.\relax }}{3}{table.caption.5}}
\newlabel{tab:example2sampling}{{1}{3}{Prior parameters of the three Gaussian distributions of which the data was sampled.\relax }{table.caption.5}{}}
\@writefile{lot}{\contentsline {table}{\numberline {2}{\ignorespaces Initial parameters for the EM algorithm after applying k-means to the data in \ref  {fig:demgmm2data}.\relax }}{3}{table.caption.6}}
\newlabel{tab:example2kmeans}{{2}{3}{Initial parameters for the EM algorithm after applying k-means to the data in \ref {fig:demgmm2data}.\relax }{table.caption.6}{}}
\@writefile{lof}{\contentsline {figure}{\numberline {3}{\ignorespaces Data points for the second toy example.\relax }}{4}{figure.caption.4}}
\newlabel{fig:demgmm2data}{{3}{4}{Data points for the second toy example.\relax }{figure.caption.4}{}}
\@writefile{lot}{\contentsline {table}{\numberline {3}{\ignorespaces The final parameters of the EM-algorithm after 10 iterations for the second example.\relax }}{4}{table.caption.7}}
\newlabel{tab:example2finalparameters}{{3}{4}{The final parameters of the EM-algorithm after 10 iterations for the second example.\relax }{table.caption.7}{}}
\@writefile{toc}{\contentsline {subsection}{\numberline {1.3}Example 3: Diagonal covariance matrices}{4}{subsection.1.3}}
\@writefile{lot}{\contentsline {table}{\numberline {4}{\ignorespaces The results of applying the k-means algorithm for 10 iterations on the data of example 3. These are the intial values for the EM-algorithm.\relax }}{4}{table.caption.10}}
\newlabel{tab:example3kmeans}{{4}{4}{The results of applying the k-means algorithm for 10 iterations on the data of example 3. These are the intial values for the EM-algorithm.\relax }{table.caption.10}{}}
\newlabel{fig:example2densities}{{4a}{5}{3D representation of the estimated density of the EM-algorithm for the second example.\relax }{figure.caption.8}{}}
\newlabel{sub@fig:example2densities}{{a}{5}{3D representation of the estimated density of the EM-algorithm for the second example.\relax }{figure.caption.8}{}}
\newlabel{fig:demgmm2result}{{4b}{5}{Final estimated densities for the second example.\relax }{figure.caption.8}{}}
\newlabel{sub@fig:demgmm2result}{{b}{5}{Final estimated densities for the second example.\relax }{figure.caption.8}{}}
\@writefile{lof}{\contentsline {figure}{\numberline {4}{\ignorespaces Results from the EM-algorithm for the second example.\relax }}{5}{figure.caption.8}}
\@writefile{lof}{\contentsline {figure}{\numberline {5}{\ignorespaces The data for the third example sampled from three Gaussian distributions.\relax }}{5}{figure.caption.9}}
\newlabel{fig:demgmm3data}{{5}{5}{The data for the third example sampled from three Gaussian distributions.\relax }{figure.caption.9}{}}
\newlabel{fig:demgmm3densities}{{6a}{6}{3D representation of resulting densities of the EM-algorithm for the third example.\relax }{figure.caption.11}{}}
\newlabel{sub@fig:demgmm3densities}{{a}{6}{3D representation of resulting densities of the EM-algorithm for the third example.\relax }{figure.caption.11}{}}
\newlabel{fig:demgmm3result}{{6b}{6}{Two dimensional representation of the centers and variances of the three Gaussians computed by the EM-algorithm for the third example.\relax }{figure.caption.11}{}}
\newlabel{sub@fig:demgmm3result}{{b}{6}{Two dimensional representation of the centers and variances of the three Gaussians computed by the EM-algorithm for the third example.\relax }{figure.caption.11}{}}
\@writefile{lot}{\contentsline {table}{\numberline {5}{\ignorespaces The final parameters of the EM-algorithm after 20 iterations for the third example.\relax }}{6}{table.caption.12}}
\newlabel{tab:example3results}{{5}{6}{The final parameters of the EM-algorithm after 20 iterations for the third example.\relax }{table.caption.12}{}}
\@writefile{lot}{\contentsline {table}{\numberline {6}{\ignorespaces The parameters of the data generator for the data of the third example.\relax }}{6}{table.caption.13}}
\newlabel{tab:example3datagenerator}{{6}{6}{The parameters of the data generator for the data of the third example.\relax }{table.caption.13}{}}
\@writefile{toc}{\contentsline {subsection}{\numberline {1.4}Fourth example: full covariance matrices}{6}{subsection.1.4}}
\@writefile{lot}{\contentsline {table}{\numberline {7}{\ignorespaces The parameters of the data generator for the data of the fourth example.\relax }}{7}{table.caption.14}}
\newlabel{tab:example4datagenerator}{{7}{7}{The parameters of the data generator for the data of the fourth example.\relax }{table.caption.14}{}}
\@writefile{lof}{\contentsline {figure}{\numberline {7}{\ignorespaces The training data for the last example on the EM-algorithm.\relax }}{7}{figure.caption.15}}
\newlabel{fig:demgmm4datagenerator}{{7}{7}{The training data for the last example on the EM-algorithm.\relax }{figure.caption.15}{}}
\@writefile{toc}{\contentsline {subsection}{\numberline {1.5}Conclusion on EM}{7}{subsection.1.5}}
\@writefile{lot}{\contentsline {table}{\numberline {8}{\ignorespaces The initial parameter values for the EM-algorithm computed by a few iterations of k-means.\relax }}{8}{table.caption.16}}
\newlabel{tab:example4kmeans}{{8}{8}{The initial parameter values for the EM-algorithm computed by a few iterations of k-means.\relax }{table.caption.16}{}}
\@writefile{lot}{\contentsline {table}{\numberline {9}{\ignorespaces The final parameters computed by 50 iteration of the EM-algorithm for the fourth example.\relax }}{8}{table.caption.17}}
\newlabel{tab:example4results}{{9}{8}{The final parameters computed by 50 iteration of the EM-algorithm for the fourth example.\relax }{table.caption.17}{}}
\@writefile{toc}{\contentsline {section}{\numberline {2}Self Organizing Maps - SOM}{8}{section.2}}
\@writefile{toc}{\contentsline {subsection}{\numberline {2.1}First example of SOM: Manifold fitting}{8}{subsection.2.1}}
\newlabel{fig:demgmm4density}{{8a}{9}{3D representation of the unconditional density for the fourth example.\relax }{figure.caption.18}{}}
\newlabel{sub@fig:demgmm4density}{{a}{9}{3D representation of the unconditional density for the fourth example.\relax }{figure.caption.18}{}}
\newlabel{fig:demgmm4result}{{8b}{9}{2D view of the locations and variances of each of the three Gaussians making up the fixed model by the EM-algorithm for the fourth example.\relax }{figure.caption.18}{}}
\newlabel{sub@fig:demgmm4result}{{b}{9}{2D view of the locations and variances of each of the three Gaussians making up the fixed model by the EM-algorithm for the fourth example.\relax }{figure.caption.18}{}}
\@writefile{lof}{\contentsline {figure}{\numberline {9}{\ignorespaces Possible grid types for the output space of SOM algorithms.\relax }}{9}{figure.caption.19}}
\newlabel{fig:som1grid}{{9}{9}{Possible grid types for the output space of SOM algorithms.\relax }{figure.caption.19}{}}
\@writefile{lof}{\contentsline {figure}{\numberline {10}{\ignorespaces The hexagonal map (left), training data with initial prototype vectors (middle) and the final result of SOM (right) for the first 2D example.\relax }}{10}{figure.caption.20}}
\newlabel{fig:som1result}{{10}{10}{The hexagonal map (left), training data with initial prototype vectors (middle) and the final result of SOM (right) for the first 2D example.\relax }{figure.caption.20}{}}
\@writefile{toc}{\contentsline {subsection}{\numberline {2.2}A second example: classification of flowers}{10}{subsection.2.2}}
\@writefile{lof}{\contentsline {figure}{\numberline {11}{\ignorespaces Input data (left), prototype vector initialization (middle) and fitted surface (right) for the 3D case of the first example.\relax }}{11}{figure.caption.21}}
\newlabel{fig:som13dresult}{{11}{11}{Input data (left), prototype vector initialization (middle) and fitted surface (right) for the 3D case of the first example.\relax }{figure.caption.21}{}}
\@writefile{lof}{\contentsline {figure}{\numberline {12}{\ignorespaces Normalized training data for the IRIS data set with marginal distributions and correlations between the components.\relax }}{12}{figure.caption.22}}
\newlabel{fig:som2datanormalized}{{12}{12}{Normalized training data for the IRIS data set with marginal distributions and correlations between the components.\relax }{figure.caption.22}{}}
\@writefile{toc}{\contentsline {subsection}{\numberline {2.3}Data analysis using SOM}{12}{subsection.2.3}}
\@writefile{lof}{\contentsline {figure}{\numberline {13}{\ignorespaces Result of the SOM algorithm trained on the IRIS dataset.\relax }}{13}{figure.caption.23}}
\newlabel{fig:som2hexresult}{{13}{13}{Result of the SOM algorithm trained on the IRIS dataset.\relax }{figure.caption.23}{}}
\@writefile{lof}{\contentsline {figure}{\numberline {14}{\ignorespaces Hit map for each of the three kinds of flower, together with their classification.\relax }}{14}{figure.caption.24}}
\newlabel{fig:som2hitmap}{{14}{14}{Hit map for each of the three kinds of flower, together with their classification.\relax }{figure.caption.24}{}}
\@writefile{lof}{\contentsline {figure}{\numberline {15}{\ignorespaces Different visualisations of the 2D map and the first three components of the prototype vectors of the IRIS dataset.\relax }}{14}{figure.caption.25}}
\newlabel{fig:som2metrics}{{15}{14}{Different visualisations of the 2D map and the first three components of the prototype vectors of the IRIS dataset.\relax }{figure.caption.25}{}}
\@writefile{lof}{\contentsline {figure}{\numberline {16}{\ignorespaces Color maps of the projections of each components of the prototype vectors, together with the labelling based on hit maps.\relax }}{15}{figure.caption.26}}
\newlabel{fig:som3hexdata}{{16}{15}{Color maps of the projections of each components of the prototype vectors, together with the labelling based on hit maps.\relax }{figure.caption.26}{}}
\@writefile{lof}{\contentsline {figure}{\numberline {17}{\ignorespaces Color map and PCA analysis of the IRIS datatset.\relax }}{15}{figure.caption.27}}
\newlabel{fig:som3colorcode}{{17}{15}{Color map and PCA analysis of the IRIS datatset.\relax }{figure.caption.27}{}}
\@writefile{lof}{\contentsline {figure}{\numberline {18}{\ignorespaces Correlations between data components and projections of the prototype vectors on two of these components respectively. \relax }}{16}{figure.caption.28}}
\newlabel{fig:som3plots}{{18}{16}{Correlations between data components and projections of the prototype vectors on two of these components respectively. \relax }{figure.caption.28}{}}
\@writefile{toc}{\contentsline {section}{\numberline {3}Application of SOM: Diabetes liver disorder}{16}{section.3}}
\@writefile{lof}{\contentsline {figure}{\numberline {19}{\ignorespaces More clusters discovered by the k-means clustering algorithm as well as the Davies-Boulding index on the left.\relax }}{17}{figure.caption.29}}
\newlabel{fig:som3clustering}{{19}{17}{More clusters discovered by the k-means clustering algorithm as well as the Davies-Boulding index on the left.\relax }{figure.caption.29}{}}
\@writefile{lof}{\contentsline {figure}{\numberline {20}{\ignorespaces Probability density in the output space as a function of $x$ for one data point.\relax }}{17}{figure.caption.30}}
\newlabel{fig:som3probability}{{20}{17}{Probability density in the output space as a function of $x$ for one data point.\relax }{figure.caption.30}{}}
\@writefile{lof}{\contentsline {figure}{\numberline {21}{\ignorespaces A supervised SOM classifier that takes class labels into account on the IRIS dataset.\relax }}{18}{figure.caption.31}}
\newlabel{fig:vq}{{21}{18}{A supervised SOM classifier that takes class labels into account on the IRIS dataset.\relax }{figure.caption.31}{}}
\@writefile{toc}{\contentsline {subsection}{\numberline {3.1}Online versus batch learning}{18}{subsection.3.1}}
\@writefile{toc}{\contentsline {subsection}{\numberline {3.2}Different grid types}{18}{subsection.3.2}}
\@writefile{toc}{\contentsline {subsection}{\numberline {3.3}Effect of the grid size}{18}{subsection.3.3}}
\newlabel{fig:outputspacereference}{{22a}{19}{Output space for the reference classification for the liver disorder data set.\relax }{figure.caption.32}{}}
\newlabel{sub@fig:outputspacereference}{{a}{19}{Output space for the reference classification for the liver disorder data set.\relax }{figure.caption.32}{}}
\newlabel{fig:labelsreference}{{22b}{19}{Labelling for the reference solution. \relax }{figure.caption.32}{}}
\newlabel{sub@fig:labelsreference}{{b}{19}{Labelling for the reference solution. \relax }{figure.caption.32}{}}
\newlabel{fig:hitmapreference}{{22c}{19}{Hit map for the reference solution and associated labelling.\relax }{figure.caption.32}{}}
\newlabel{sub@fig:hitmapreference}{{c}{19}{Hit map for the reference solution and associated labelling.\relax }{figure.caption.32}{}}
\@writefile{lof}{\contentsline {figure}{\numberline {22}{\ignorespaces Classification results for the reference solution.\relax }}{19}{figure.caption.32}}
\newlabel{fig:outputspaceonline}{{23a}{20}{Output space for online learning.\relax }{figure.caption.33}{}}
\newlabel{sub@fig:outputspaceonline}{{a}{20}{Output space for online learning.\relax }{figure.caption.33}{}}
\newlabel{fig:labelsonline}{{23b}{20}{Labels for online learning\relax }{figure.caption.33}{}}
\newlabel{sub@fig:labelsonline}{{b}{20}{Labels for online learning\relax }{figure.caption.33}{}}
\newlabel{fig:hitmaponline}{{23c}{20}{Hit map for online learning.\relax }{figure.caption.33}{}}
\newlabel{sub@fig:hitmaponline}{{c}{20}{Hit map for online learning.\relax }{figure.caption.33}{}}
\@writefile{lof}{\contentsline {figure}{\numberline {23}{\ignorespaces Classification results for online learning.\relax }}{20}{figure.caption.33}}
\newlabel{fig:outputspacerect}{{24a}{21}{Output space with a rectangular grid.\relax }{figure.caption.34}{}}
\newlabel{sub@fig:outputspacerect}{{a}{21}{Output space with a rectangular grid.\relax }{figure.caption.34}{}}
\newlabel{fig:labelsrect}{{24b}{21}{Labels for a rectangular grid.\relax }{figure.caption.34}{}}
\newlabel{sub@fig:labelsrect}{{b}{21}{Labels for a rectangular grid.\relax }{figure.caption.34}{}}
\newlabel{fig:hitmaprect}{{24c}{21}{Hit map with a rectangular grid.\relax }{figure.caption.34}{}}
\newlabel{sub@fig:hitmaprect}{{c}{21}{Hit map with a rectangular grid.\relax }{figure.caption.34}{}}
\@writefile{lof}{\contentsline {figure}{\numberline {25}{\ignorespaces Hit map for a grid with size $52 \times 28$.\relax }}{22}{figure.caption.36}}
\newlabel{fig:hitmapsize}{{25}{22}{Hit map for a grid with size $52 \times 28$.\relax }{figure.caption.36}{}}
\@writefile{lot}{\contentsline {table}{\numberline {10}{\ignorespaces Quantization and topographic errors for the liver data set with varying size of the hexagonal grid.\relax }}{22}{table.caption.35}}
\newlabel{tab:gridsizes}{{10}{22}{Quantization and topographic errors for the liver data set with varying size of the hexagonal grid.\relax }{table.caption.35}{}}
\@writefile{toc}{\contentsline {subsection}{\numberline {3.4}Effect of the training epochs}{22}{subsection.3.4}}
\@writefile{lot}{\contentsline {table}{\numberline {11}{\ignorespaces The effect of the number of fine iterations on the quantization and topographic error.\relax }}{23}{table.caption.37}}
\newlabel{tab:smallradius}{{11}{23}{The effect of the number of fine iterations on the quantization and topographic error.\relax }{table.caption.37}{}}
\@writefile{lot}{\contentsline {table}{\numberline {12}{\ignorespaces The effect of the number of coarse iterations on the quantization and topographic error.\relax }}{23}{table.caption.38}}
\newlabel{tab:coarseradius}{{12}{23}{The effect of the number of coarse iterations on the quantization and topographic error.\relax }{table.caption.38}{}}
\@writefile{toc}{\contentsline {subsection}{\numberline {3.5}Conclusion}{23}{subsection.3.5}}
\newlabel{LastPage}{{}{23}{}{page.23}{}}
\xdef\lastpage@lastpage{23}
\xdef\lastpage@lastpageHy{23}
