%!PS-Adobe-3.0 EPSF-3.0
%%Creator: (MATLAB, The Mathworks, Inc. Version 9.3.0.713579 \(R2017b\). Operating System: Mac OS X)
%%Title: (/Users/hannesvdc/WIT/data-mining/Session 3/report/demard.eps)
%%CreationDate: 2017-12-02T16:26:17
%%Pages: (atend)
%%BoundingBox: 0 0 885 670
%%LanguageLevel: 3
%%EndComments
%%BeginProlog
%%BeginResource: procset (Apache XML Graphics Std ProcSet) 1.2 0
%%Version: 1.2 0
%%Copyright: (Copyright 2001-2003,2010 The Apache Software Foundation. License terms: http://www.apache.org/licenses/LICENSE-2.0)
/bd{bind def}bind def
/ld{load def}bd
/GR/grestore ld
/GS/gsave ld
/RM/rmoveto ld
/C/curveto ld
/t/show ld
/L/lineto ld
/ML/setmiterlimit ld
/CT/concat ld
/f/fill ld
/N/newpath ld
/S/stroke ld
/CC/setcmykcolor ld
/A/ashow ld
/cp/closepath ld
/RC/setrgbcolor ld
/LJ/setlinejoin ld
/GC/setgray ld
/LW/setlinewidth ld
/M/moveto ld
/re {4 2 roll M
1 index 0 rlineto
0 exch rlineto
neg 0 rlineto
cp } bd
/_ctm matrix def
/_tm matrix def
/BT { _ctm currentmatrix pop matrix _tm copy pop 0 0 moveto } bd
/ET { _ctm setmatrix } bd
/iTm { _ctm setmatrix _tm concat } bd
/Tm { _tm astore pop iTm 0 0 moveto } bd
/ux 0.0 def
/uy 0.0 def
/F {
  /Tp exch def
  /Tf exch def
  Tf findfont Tp scalefont setfont
  /cf Tf def  /cs Tp def
} bd
/ULS {currentpoint /uy exch def /ux exch def} bd
/ULE {
  /Tcx currentpoint pop def
  gsave
  newpath
  cf findfont cs scalefont dup
  /FontMatrix get 0 get /Ts exch def /FontInfo get dup
  /UnderlinePosition get Ts mul /To exch def
  /UnderlineThickness get Ts mul /Tt exch def
  ux uy To add moveto  Tcx uy To add lineto
  Tt setlinewidth stroke
  grestore
} bd
/OLE {
  /Tcx currentpoint pop def
  gsave
  newpath
  cf findfont cs scalefont dup
  /FontMatrix get 0 get /Ts exch def /FontInfo get dup
  /UnderlinePosition get Ts mul /To exch def
  /UnderlineThickness get Ts mul /Tt exch def
  ux uy To add cs add moveto Tcx uy To add cs add lineto
  Tt setlinewidth stroke
  grestore
} bd
/SOE {
  /Tcx currentpoint pop def
  gsave
  newpath
  cf findfont cs scalefont dup
  /FontMatrix get 0 get /Ts exch def /FontInfo get dup
  /UnderlinePosition get Ts mul /To exch def
  /UnderlineThickness get Ts mul /Tt exch def
  ux uy To add cs 10 mul 26 idiv add moveto Tcx uy To add cs 10 mul 26 idiv add lineto
  Tt setlinewidth stroke
  grestore
} bd
/QT {
/Y22 exch store
/X22 exch store
/Y21 exch store
/X21 exch store
currentpoint
/Y21 load 2 mul add 3 div exch
/X21 load 2 mul add 3 div exch
/X21 load 2 mul /X22 load add 3 div
/Y21 load 2 mul /Y22 load add 3 div
/X22 load /Y22 load curveto
} bd
/SSPD {
dup length /d exch dict def
{
/v exch def
/k exch def
currentpagedevice k known {
/cpdv currentpagedevice k get def
v cpdv ne {
/upd false def
/nullv v type /nulltype eq def
/nullcpdv cpdv type /nulltype eq def
nullv nullcpdv or
{
/upd true def
} {
/sametype v type cpdv type eq def
sametype {
v type /arraytype eq {
/vlen v length def
/cpdvlen cpdv length def
vlen cpdvlen eq {
0 1 vlen 1 sub {
/i exch def
/obj v i get def
/cpdobj cpdv i get def
obj cpdobj ne {
/upd true def
exit
} if
} for
} {
/upd true def
} ifelse
} {
v type /dicttype eq {
v {
/dv exch def
/dk exch def
/cpddv cpdv dk get def
dv cpddv ne {
/upd true def
exit
} if
} forall
} {
/upd true def
} ifelse
} ifelse
} if
} ifelse
upd true eq {
d k v put
} if
} if
} if
} forall
d length 0 gt {
d setpagedevice
} if
} bd
/RE { % /NewFontName [NewEncodingArray] /FontName RE -
  findfont dup length dict begin
  {
    1 index /FID ne
    {def} {pop pop} ifelse
  } forall
  /Encoding exch def
  /FontName 1 index def
  currentdict definefont pop
  end
} bind def
%%EndResource
%%BeginResource: procset (Apache XML Graphics EPS ProcSet) 1.0 0
%%Version: 1.0 0
%%Copyright: (Copyright 2002-2003 The Apache Software Foundation. License terms: http://www.apache.org/licenses/LICENSE-2.0)
/BeginEPSF { %def
/b4_Inc_state save def         % Save state for cleanup
/dict_count countdictstack def % Count objects on dict stack
/op_count count 1 sub def      % Count objects on operand stack
userdict begin                 % Push userdict on dict stack
/showpage { } def              % Redefine showpage, { } = null proc
0 setgray 0 setlinecap         % Prepare graphics state
1 setlinewidth 0 setlinejoin
10 setmiterlimit [ ] 0 setdash newpath
/languagelevel where           % If level not equal to 1 then
{pop languagelevel             % set strokeadjust and
1 ne                           % overprint to their defaults.
{false setstrokeadjust false setoverprint
} if
} if
} bd
/EndEPSF { %def
count op_count sub {pop} repeat            % Clean up stacks
countdictstack dict_count sub {end} repeat
b4_Inc_state restore
} bd
%%EndResource
%FOPBeginFontDict
%%IncludeResource: font Courier-Oblique
%%IncludeResource: font Courier-BoldOblique
%%IncludeResource: font Courier-Bold
%%IncludeResource: font ZapfDingbats
%%IncludeResource: font Symbol
%%IncludeResource: font Helvetica
%%IncludeResource: font Helvetica-Oblique
%%IncludeResource: font Helvetica-Bold
%%IncludeResource: font Helvetica-BoldOblique
%%IncludeResource: font Times-Roman
%%IncludeResource: font Times-Italic
%%IncludeResource: font Times-Bold
%%IncludeResource: font Times-BoldItalic
%%IncludeResource: font Courier
%FOPEndFontDict
%%BeginResource: encoding WinAnsiEncoding
/WinAnsiEncoding [
/.notdef /.notdef /.notdef /.notdef /.notdef
/.notdef /.notdef /.notdef /.notdef /.notdef
/.notdef /.notdef /.notdef /.notdef /.notdef
/.notdef /.notdef /.notdef /.notdef /.notdef
/.notdef /.notdef /.notdef /.notdef /.notdef
/.notdef /.notdef /.notdef /.notdef /.notdef
/.notdef /.notdef /space /exclam /quotedbl
/numbersign /dollar /percent /ampersand /quotesingle
/parenleft /parenright /asterisk /plus /comma
/hyphen /period /slash /zero /one
/two /three /four /five /six
/seven /eight /nine /colon /semicolon
/less /equal /greater /question /at
/A /B /C /D /E
/F /G /H /I /J
/K /L /M /N /O
/P /Q /R /S /T
/U /V /W /X /Y
/Z /bracketleft /backslash /bracketright /asciicircum
/underscore /quoteleft /a /b /c
/d /e /f /g /h
/i /j /k /l /m
/n /o /p /q /r
/s /t /u /v /w
/x /y /z /braceleft /bar
/braceright /asciitilde /bullet /Euro /bullet
/quotesinglbase /florin /quotedblbase /ellipsis /dagger
/daggerdbl /circumflex /perthousand /Scaron /guilsinglleft
/OE /bullet /Zcaron /bullet /bullet
/quoteleft /quoteright /quotedblleft /quotedblright /bullet
/endash /emdash /asciitilde /trademark /scaron
/guilsinglright /oe /bullet /zcaron /Ydieresis
/space /exclamdown /cent /sterling /currency
/yen /brokenbar /section /dieresis /copyright
/ordfeminine /guillemotleft /logicalnot /sfthyphen /registered
/macron /degree /plusminus /twosuperior /threesuperior
/acute /mu /paragraph /middot /cedilla
/onesuperior /ordmasculine /guillemotright /onequarter /onehalf
/threequarters /questiondown /Agrave /Aacute /Acircumflex
/Atilde /Adieresis /Aring /AE /Ccedilla
/Egrave /Eacute /Ecircumflex /Edieresis /Igrave
/Iacute /Icircumflex /Idieresis /Eth /Ntilde
/Ograve /Oacute /Ocircumflex /Otilde /Odieresis
/multiply /Oslash /Ugrave /Uacute /Ucircumflex
/Udieresis /Yacute /Thorn /germandbls /agrave
/aacute /acircumflex /atilde /adieresis /aring
/ae /ccedilla /egrave /eacute /ecircumflex
/edieresis /igrave /iacute /icircumflex /idieresis
/eth /ntilde /ograve /oacute /ocircumflex
/otilde /odieresis /divide /oslash /ugrave
/uacute /ucircumflex /udieresis /yacute /thorn
/ydieresis
] def
%%EndResource
%FOPBeginFontReencode
/Courier-Oblique findfont
dup length dict begin
  {1 index /FID ne {def} {pop pop} ifelse} forall
  /Encoding WinAnsiEncoding def
  currentdict
end
/Courier-Oblique exch definefont pop
/Courier-BoldOblique findfont
dup length dict begin
  {1 index /FID ne {def} {pop pop} ifelse} forall
  /Encoding WinAnsiEncoding def
  currentdict
end
/Courier-BoldOblique exch definefont pop
/Courier-Bold findfont
dup length dict begin
  {1 index /FID ne {def} {pop pop} ifelse} forall
  /Encoding WinAnsiEncoding def
  currentdict
end
/Courier-Bold exch definefont pop
/Helvetica findfont
dup length dict begin
  {1 index /FID ne {def} {pop pop} ifelse} forall
  /Encoding WinAnsiEncoding def
  currentdict
end
/Helvetica exch definefont pop
/Helvetica-Oblique findfont
dup length dict begin
  {1 index /FID ne {def} {pop pop} ifelse} forall
  /Encoding WinAnsiEncoding def
  currentdict
end
/Helvetica-Oblique exch definefont pop
/Helvetica-Bold findfont
dup length dict begin
  {1 index /FID ne {def} {pop pop} ifelse} forall
  /Encoding WinAnsiEncoding def
  currentdict
end
/Helvetica-Bold exch definefont pop
/Helvetica-BoldOblique findfont
dup length dict begin
  {1 index /FID ne {def} {pop pop} ifelse} forall
  /Encoding WinAnsiEncoding def
  currentdict
end
/Helvetica-BoldOblique exch definefont pop
/Times-Roman findfont
dup length dict begin
  {1 index /FID ne {def} {pop pop} ifelse} forall
  /Encoding WinAnsiEncoding def
  currentdict
end
/Times-Roman exch definefont pop
/Times-Italic findfont
dup length dict begin
  {1 index /FID ne {def} {pop pop} ifelse} forall
  /Encoding WinAnsiEncoding def
  currentdict
end
/Times-Italic exch definefont pop
/Times-Bold findfont
dup length dict begin
  {1 index /FID ne {def} {pop pop} ifelse} forall
  /Encoding WinAnsiEncoding def
  currentdict
end
/Times-Bold exch definefont pop
/Times-BoldItalic findfont
dup length dict begin
  {1 index /FID ne {def} {pop pop} ifelse} forall
  /Encoding WinAnsiEncoding def
  currentdict
end
/Times-BoldItalic exch definefont pop
/Courier findfont
dup length dict begin
  {1 index /FID ne {def} {pop pop} ifelse} forall
  /Encoding WinAnsiEncoding def
  currentdict
end
/Courier exch definefont pop
%FOPEndFontReencode
%%EndProlog
%%Page: 1 1
%%PageBoundingBox: 0 0 885 670
%%BeginPageSetup
[1 0 0 -1 0 670] CT
%%EndPageSetup
GS
1 GC
N
0 0 885 670 re
f
GR
GS
1 GC
N
0 0 885 670 re
f
GR
GS
1 GC
N
115 596.5 M
801 596.5 L
801 50 L
115 50 L
cp
f
GR
GS
0.149 GC
2 setlinecap
1 LJ
0.5 LW
N
115 596.5 M
801 596.5 L
S
GR
GS
0.149 GC
2 setlinecap
1 LJ
0.5 LW
N
115 50 M
801 50 L
S
GR
GS
0.149 GC
2 setlinecap
1 LJ
0.5 LW
N
115 596.5 M
115 589.64 L
S
GR
GS
0.149 GC
2 setlinecap
1 LJ
0.5 LW
N
183.6 596.5 M
183.6 589.64 L
S
GR
GS
0.149 GC
2 setlinecap
1 LJ
0.5 LW
N
252.2 596.5 M
252.2 589.64 L
S
GR
GS
0.149 GC
2 setlinecap
1 LJ
0.5 LW
N
320.8 596.5 M
320.8 589.64 L
S
GR
GS
0.149 GC
2 setlinecap
1 LJ
0.5 LW
N
389.4 596.5 M
389.4 589.64 L
S
GR
GS
0.149 GC
2 setlinecap
1 LJ
0.5 LW
N
458 596.5 M
458 589.64 L
S
GR
GS
0.149 GC
2 setlinecap
1 LJ
0.5 LW
N
526.6 596.5 M
526.6 589.64 L
S
GR
GS
0.149 GC
2 setlinecap
1 LJ
0.5 LW
N
595.2 596.5 M
595.2 589.64 L
S
GR
GS
0.149 GC
2 setlinecap
1 LJ
0.5 LW
N
663.8 596.5 M
663.8 589.64 L
S
GR
GS
0.149 GC
2 setlinecap
1 LJ
0.5 LW
N
732.4 596.5 M
732.4 589.64 L
S
GR
GS
0.149 GC
2 setlinecap
1 LJ
0.5 LW
N
801 596.5 M
801 589.64 L
S
GR
GS
0.149 GC
2 setlinecap
1 LJ
0.5 LW
N
115 50 M
115 56.86 L
S
GR
GS
0.149 GC
2 setlinecap
1 LJ
0.5 LW
N
183.6 50 M
183.6 56.86 L
S
GR
GS
0.149 GC
2 setlinecap
1 LJ
0.5 LW
N
252.2 50 M
252.2 56.86 L
S
GR
GS
0.149 GC
2 setlinecap
1 LJ
0.5 LW
N
320.8 50 M
320.8 56.86 L
S
GR
GS
0.149 GC
2 setlinecap
1 LJ
0.5 LW
N
389.4 50 M
389.4 56.86 L
S
GR
GS
0.149 GC
2 setlinecap
1 LJ
0.5 LW
N
458 50 M
458 56.86 L
S
GR
GS
0.149 GC
2 setlinecap
1 LJ
0.5 LW
N
526.6 50 M
526.6 56.86 L
S
GR
GS
0.149 GC
2 setlinecap
1 LJ
0.5 LW
N
595.2 50 M
595.2 56.86 L
S
GR
GS
0.149 GC
2 setlinecap
1 LJ
0.5 LW
N
663.8 50 M
663.8 56.86 L
S
GR
GS
0.149 GC
2 setlinecap
1 LJ
0.5 LW
N
732.4 50 M
732.4 56.86 L
S
GR
GS
0.149 GC
2 setlinecap
1 LJ
0.5 LW
N
801 50 M
801 56.86 L
S
GR
GS
[1 0 0 1 115 602.09998] CT
0.149 GC
/Helvetica 18 F
GS
[1 0 0 1 0 0] CT
-5.5 18 moveto 
1 -1 scale
(0) t 
GR
GR
GS
[1 0 0 1 183.60001 602.09998] CT
0.149 GC
/Helvetica 18 F
GS
[1 0 0 1 0 0] CT
-13 18 moveto 
1 -1 scale
(0.1) t 
GR
GR
GS
[1 0 0 1 252.2 602.09998] CT
0.149 GC
/Helvetica 18 F
GS
[1 0 0 1 0 0] CT
-13 18 moveto 
1 -1 scale
(0.2) t 
GR
GR
GS
[1 0 0 1 320.80002 602.09998] CT
0.149 GC
/Helvetica 18 F
GS
[1 0 0 1 0 0] CT
-13 18 moveto 
1 -1 scale
(0.3) t 
GR
GR
GS
[1 0 0 1 389.39999 602.09998] CT
0.149 GC
/Helvetica 18 F
GS
[1 0 0 1 0 0] CT
-13 18 moveto 
1 -1 scale
(0.4) t 
GR
GR
GS
[1 0 0 1 458 602.09998] CT
0.149 GC
/Helvetica 18 F
GS
[1 0 0 1 0 0] CT
-13 18 moveto 
1 -1 scale
(0.5) t 
GR
GR
GS
[1 0 0 1 526.60004 602.09998] CT
0.149 GC
/Helvetica 18 F
GS
[1 0 0 1 0 0] CT
-13 18 moveto 
1 -1 scale
(0.6) t 
GR
GR
GS
[1 0 0 1 595.20001 602.09998] CT
0.149 GC
/Helvetica 18 F
GS
[1 0 0 1 0 0] CT
-13 18 moveto 
1 -1 scale
(0.7) t 
GR
GR
GS
[1 0 0 1 663.79999 602.09998] CT
0.149 GC
/Helvetica 18 F
GS
[1 0 0 1 0 0] CT
-13 18 moveto 
1 -1 scale
(0.8) t 
GR
GR
GS
[1 0 0 1 732.39996 602.09998] CT
0.149 GC
/Helvetica 18 F
GS
[1 0 0 1 0 0] CT
-13 18 moveto 
1 -1 scale
(0.9) t 
GR
GR
GS
[1 0 0 1 801 602.09998] CT
0.149 GC
/Helvetica 18 F
GS
[1 0 0 1 0 0] CT
-5.5 18 moveto 
1 -1 scale
(1) t 
GR
GR
GS
[1 0 0 1 448 644] CT
0.149 GC
/Helvetica 19.8 F
GS
[1 0 0 1 0 0] CT
0 0 moveto 
1 -1 scale
(x) t 
GR
GR
GS
[1 0 0 1 459 653] CT
0.149 GC
/Helvetica 15.84 F
GS
[1 0 0 1 0 0] CT
0 0 moveto 
1 -1 scale
(1) t 
GR
GR
GS
0.149 GC
2 setlinecap
1 LJ
0.5 LW
N
115 596.5 M
115 50 L
S
GR
GS
0.149 GC
2 setlinecap
1 LJ
0.5 LW
N
801 596.5 M
801 50 L
S
GR
GS
0.149 GC
2 setlinecap
1 LJ
0.5 LW
N
115 596.5 M
121.86 596.5 L
S
GR
GS
0.149 GC
2 setlinecap
1 LJ
0.5 LW
N
115 505.417 M
121.86 505.417 L
S
GR
GS
0.149 GC
2 setlinecap
1 LJ
0.5 LW
N
115 414.333 M
121.86 414.333 L
S
GR
GS
0.149 GC
2 setlinecap
1 LJ
0.5 LW
N
115 323.25 M
121.86 323.25 L
S
GR
GS
0.149 GC
2 setlinecap
1 LJ
0.5 LW
N
115 232.167 M
121.86 232.167 L
S
GR
GS
0.149 GC
2 setlinecap
1 LJ
0.5 LW
N
115 141.083 M
121.86 141.083 L
S
GR
GS
0.149 GC
2 setlinecap
1 LJ
0.5 LW
N
115 50 M
121.86 50 L
S
GR
GS
0.149 GC
2 setlinecap
1 LJ
0.5 LW
N
801 596.5 M
794.14 596.5 L
S
GR
GS
0.149 GC
2 setlinecap
1 LJ
0.5 LW
N
801 505.417 M
794.14 505.417 L
S
GR
GS
0.149 GC
2 setlinecap
1 LJ
0.5 LW
N
801 414.333 M
794.14 414.333 L
S
GR
GS
0.149 GC
2 setlinecap
1 LJ
0.5 LW
N
801 323.25 M
794.14 323.25 L
S
GR
GS
0.149 GC
2 setlinecap
1 LJ
0.5 LW
N
801 232.167 M
794.14 232.167 L
S
GR
GS
0.149 GC
2 setlinecap
1 LJ
0.5 LW
N
801 141.083 M
794.14 141.083 L
S
GR
GS
0.149 GC
2 setlinecap
1 LJ
0.5 LW
N
801 50 M
794.14 50 L
S
GR
GS
[1 0 0 1 109.4 596.5] CT
0.149 GC
/Helvetica 18 F
GS
[1 0 0 1 0 0] CT
-33 7 moveto 
1 -1 scale
(-1.5) t 
GR
GR
GS
[1 0 0 1 109.4 505.41666] CT
0.149 GC
/Helvetica 18 F
GS
[1 0 0 1 0 0] CT
-18 7 moveto 
1 -1 scale
(-1) t 
GR
GR
GS
[1 0 0 1 109.4 414.33334] CT
0.149 GC
/Helvetica 18 F
GS
[1 0 0 1 0 0] CT
-33 7 moveto 
1 -1 scale
(-0.5) t 
GR
GR
GS
[1 0 0 1 109.4 323.25] CT
0.149 GC
/Helvetica 18 F
GS
[1 0 0 1 0 0] CT
-11 7 moveto 
1 -1 scale
(0) t 
GR
GR
GS
[1 0 0 1 109.4 232.16667] CT
0.149 GC
/Helvetica 18 F
GS
[1 0 0 1 0 0] CT
-26 7 moveto 
1 -1 scale
(0.5) t 
GR
GR
GS
[1 0 0 1 109.4 141.08333] CT
0.149 GC
/Helvetica 18 F
GS
[1 0 0 1 0 0] CT
-11 7 moveto 
1 -1 scale
(1) t 
GR
GR
GS
[1 0 0 1 109.4 50] CT
0.149 GC
/Helvetica 18 F
GS
[1 0 0 1 0 0] CT
-26 7 moveto 
1 -1 scale
(1.5) t 
GR
GR
GS
[0 -1 1 0 73.9 323.24973] CT
0.149 GC
/Helvetica 19.8 F
GS
[1 0 0 1 0 0] CT
-3.5 -5 moveto 
1 -1 scale
(t) t 
GR
GR
GS
[1 0 0 1 766.19519 388.50446] CT
0 0 1 RC
10.0 ML
N
3 0 M
3 -1.657 1.657 -3 0 -3 C
-1.657 -3 -3 -1.657 -3 0 C
-3 1.657 -1.657 3 0 3 C
1.657 3 3 1.657 3 0 C
S
GR
GS
[1 0 0 1 271.27585 141.62024] CT
0 0 1 RC
10.0 ML
N
3 0 M
3 -1.657 1.657 -3 0 -3 C
-1.657 -3 -3 -1.657 -3 0 C
-3 1.657 -1.657 3 0 3 C
1.657 3 3 1.657 3 0 C
S
GR
GS
[1 0 0 1 531.466 438.05109] CT
0 0 1 RC
10.0 ML
N
3 0 M
3 -1.657 1.657 -3 0 -3 C
-1.657 -3 -3 -1.657 -3 0 C
-3 1.657 -1.657 3 0 3 C
1.657 3 3 1.657 3 0 C
S
GR
GS
[1 0 0 1 448.77866 318.47913] CT
0 0 1 RC
10.0 ML
N
3 0 M
3 -1.657 1.657 -3 0 -3 C
-1.657 -3 -3 -1.657 -3 0 C
-3 1.657 -1.657 3 0 3 C
1.657 3 3 1.657 3 0 C
S
GR
GS
[1 0 0 1 724.85815 429.46002] CT
0 0 1 RC
10.0 ML
N
3 0 M
3 -1.657 1.657 -3 0 -3 C
-1.657 -3 -3 -1.657 -3 0 C
-3 1.657 -1.657 3 0 3 C
1.657 3 3 1.657 3 0 C
S
GR
GS
[1 0 0 1 639.43237 504.80392] CT
0 0 1 RC
10.0 ML
N
3 0 M
3 -1.657 1.657 -3 0 -3 C
-1.657 -3 -3 -1.657 -3 0 C
-3 1.657 -1.657 3 0 3 C
1.657 3 3 1.657 3 0 C
S
GR
GS
[1 0 0 1 429.76837 271.78476] CT
0 0 1 RC
10.0 ML
N
3 0 M
3 -1.657 1.657 -3 0 -3 C
-1.657 -3 -3 -1.657 -3 0 C
-3 1.657 -1.657 3 0 3 C
1.657 3 3 1.657 3 0 C
S
GR
GS
[1 0 0 1 127.64187 308.72971] CT
0 0 1 RC
10.0 ML
N
3 0 M
3 -1.657 1.657 -3 0 -3 C
-1.657 -3 -3 -1.657 -3 0 C
-3 1.657 -1.657 3 0 3 C
1.657 3 3 1.657 3 0 C
S
GR
GS
[1 0 0 1 678.93439 493.0318] CT
0 0 1 RC
10.0 ML
N
3 0 M
3 -1.657 1.657 -3 0 -3 C
-1.657 -3 -3 -1.657 -3 0 C
-3 1.657 -1.657 3 0 3 C
1.657 3 3 1.657 3 0 C
S
GR
GS
[1 0 0 1 420.30612 258.7366] CT
0 0 1 RC
10.0 ML
N
3 0 M
3 -1.657 1.657 -3 0 -3 C
-1.657 -3 -3 -1.657 -3 0 C
-3 1.657 -1.657 3 0 3 C
1.657 3 3 1.657 3 0 C
S
GR
GS
[1 0 0 1 536.93042 442.79666] CT
0 0 1 RC
10.0 ML
N
3 0 M
3 -1.657 1.657 -3 0 -3 C
-1.657 -3 -3 -1.657 -3 0 C
-3 1.657 -1.657 3 0 3 C
1.657 3 3 1.657 3 0 C
S
GR
GS
[1 0 0 1 659.26459 481.85492] CT
0 0 1 RC
10.0 ML
N
3 0 M
3 -1.657 1.657 -3 0 -3 C
-1.657 -3 -3 -1.657 -3 0 C
-3 1.657 -1.657 3 0 3 C
1.657 3 3 1.657 3 0 C
S
GR
GS
[1 0 0 1 746.55652 412.87625] CT
0 0 1 RC
10.0 ML
N
3 0 M
3 -1.657 1.657 -3 0 -3 C
-1.657 -3 -3 -1.657 -3 0 C
-3 1.657 -1.657 3 0 3 C
1.657 3 3 1.657 3 0 C
S
GR
GS
[1 0 0 1 624.40552 485.0657] CT
0 0 1 RC
10.0 ML
N
3 0 M
3 -1.657 1.657 -3 0 -3 C
-1.657 -3 -3 -1.657 -3 0 C
-3 1.657 -1.657 3 0 3 C
1.657 3 3 1.657 3 0 C
S
GR
GS
[1 0 0 1 235.73145 146.68513] CT
0 0 1 RC
10.0 ML
N
3 0 M
3 -1.657 1.657 -3 0 -3 C
-1.657 -3 -3 -1.657 -3 0 C
-3 1.657 -1.657 3 0 3 C
1.657 3 3 1.657 3 0 C
S
GR
GS
[1 0 0 1 393.47076 239.45958] CT
0 0 1 RC
10.0 ML
N
3 0 M
3 -1.657 1.657 -3 0 -3 C
-1.657 -3 -3 -1.657 -3 0 C
-3 1.657 -1.657 3 0 3 C
1.657 3 3 1.657 3 0 C
S
GR
GS
[1 0 0 1 758.1958 408.15991] CT
0 0 1 RC
10.0 ML
N
3 0 M
3 -1.657 1.657 -3 0 -3 C
-1.657 -3 -3 -1.657 -3 0 C
-3 1.657 -1.657 3 0 3 C
1.657 3 3 1.657 3 0 C
S
GR
GS
[1 0 0 1 744.07776 419.20383] CT
0 0 1 RC
10.0 ML
N
3 0 M
3 -1.657 1.657 -3 0 -3 C
-1.657 -3 -3 -1.657 -3 0 C
-3 1.657 -1.657 3 0 3 C
1.657 3 3 1.657 3 0 C
S
GR
GS
[1 0 0 1 396.31415 227.40897] CT
0 0 1 RC
10.0 ML
N
3 0 M
3 -1.657 1.657 -3 0 -3 C
-1.657 -3 -3 -1.657 -3 0 C
-3 1.657 -1.657 3 0 3 C
1.657 3 3 1.657 3 0 C
S
GR
GS
[1 0 0 1 726.90161 437.52658] CT
0 0 1 RC
10.0 ML
N
3 0 M
3 -1.657 1.657 -3 0 -3 C
-1.657 -3 -3 -1.657 -3 0 C
-3 1.657 -1.657 3 0 3 C
1.657 3 3 1.657 3 0 C
S
GR
GS
[1 0 0 1 155.11737 250.18726] CT
0 0 1 RC
10.0 ML
N
3 0 M
3 -1.657 1.657 -3 0 -3 C
-1.657 -3 -3 -1.657 -3 0 C
-3 1.657 -1.657 3 0 3 C
1.657 3 3 1.657 3 0 C
S
GR
GS
[1 0 0 1 355.23428 182.58458] CT
0 0 1 RC
10.0 ML
N
3 0 M
3 -1.657 1.657 -3 0 -3 C
-1.657 -3 -3 -1.657 -3 0 C
-3 1.657 -1.657 3 0 3 C
1.657 3 3 1.657 3 0 C
S
GR
GS
[1 0 0 1 673.81226 497.18936] CT
0 0 1 RC
10.0 ML
N
3 0 M
3 -1.657 1.657 -3 0 -3 C
-1.657 -3 -3 -1.657 -3 0 C
-3 1.657 -1.657 3 0 3 C
1.657 3 3 1.657 3 0 C
S
GR
GS
[1 0 0 1 123.99238 310.09564] CT
0 0 1 RC
10.0 ML
N
3 0 M
3 -1.657 1.657 -3 0 -3 C
-1.657 -3 -3 -1.657 -3 0 C
-3 1.657 -1.657 3 0 3 C
1.657 3 3 1.657 3 0 C
S
GR
GS
[1 0 0 1 209.33003 184.91032] CT
0 0 1 RC
10.0 ML
N
3 0 M
3 -1.657 1.657 -3 0 -3 C
-1.657 -3 -3 -1.657 -3 0 C
-3 1.657 -1.657 3 0 3 C
1.657 3 3 1.657 3 0 C
S
GR
GS
[1 0 0 1 255.27411 145.94287] CT
0 0 1 RC
10.0 ML
N
3 0 M
3 -1.657 1.657 -3 0 -3 C
-1.657 -3 -3 -1.657 -3 0 C
-3 1.657 -1.657 3 0 3 C
1.657 3 3 1.657 3 0 C
S
GR
GS
[1 0 0 1 253.04361 139.93013] CT
0 0 1 RC
10.0 ML
N
3 0 M
3 -1.657 1.657 -3 0 -3 C
-1.657 -3 -3 -1.657 -3 0 C
-3 1.657 -1.657 3 0 3 C
1.657 3 3 1.657 3 0 C
S
GR
GS
[1 0 0 1 527.01501 425.22195] CT
0 0 1 RC
10.0 ML
N
3 0 M
3 -1.657 1.657 -3 0 -3 C
-1.657 -3 -3 -1.657 -3 0 C
-3 1.657 -1.657 3 0 3 C
1.657 3 3 1.657 3 0 C
S
GR
GS
[1 0 0 1 299.74393 158.36713] CT
0 0 1 RC
10.0 ML
N
3 0 M
3 -1.657 1.657 -3 0 -3 C
-1.657 -3 -3 -1.657 -3 0 C
-3 1.657 -1.657 3 0 3 C
1.657 3 3 1.657 3 0 C
S
GR
GS
[1 0 0 1 252.17021 143.6629] CT
0 0 1 RC
10.0 ML
N
3 0 M
3 -1.657 1.657 -3 0 -3 C
-1.657 -3 -3 -1.657 -3 0 C
-3 1.657 -1.657 3 0 3 C
1.657 3 3 1.657 3 0 C
S
GR
GS
[1 0 0 1 124.92927 299.31461] CT
0 0 1 RC
10.0 ML
N
3 0 M
3 -1.657 1.657 -3 0 -3 C
-1.657 -3 -3 -1.657 -3 0 C
-3 1.657 -1.657 3 0 3 C
1.657 3 3 1.657 3 0 C
S
GR
GS
[1 0 0 1 628.24164 499.60852] CT
0 0 1 RC
10.0 ML
N
3 0 M
3 -1.657 1.657 -3 0 -3 C
-1.657 -3 -3 -1.657 -3 0 C
-3 1.657 -1.657 3 0 3 C
1.657 3 3 1.657 3 0 C
S
GR
GS
[1 0 0 1 421.45517 251.47476] CT
0 0 1 RC
10.0 ML
N
3 0 M
3 -1.657 1.657 -3 0 -3 C
-1.657 -3 -3 -1.657 -3 0 C
-3 1.657 -1.657 3 0 3 C
1.657 3 3 1.657 3 0 C
S
GR
GS
[1 0 0 1 755.20154 394.46381] CT
0 0 1 RC
10.0 ML
N
3 0 M
3 -1.657 1.657 -3 0 -3 C
-1.657 -3 -3 -1.657 -3 0 C
-3 1.657 -1.657 3 0 3 C
1.657 3 3 1.657 3 0 C
S
GR
GS
[1 0 0 1 436.44235 293.64429] CT
0 0 1 RC
10.0 ML
N
3 0 M
3 -1.657 1.657 -3 0 -3 C
-1.657 -3 -3 -1.657 -3 0 C
-3 1.657 -1.657 3 0 3 C
1.657 3 3 1.657 3 0 C
S
GR
GS
[1 0 0 1 403.11084 236.8373] CT
0 0 1 RC
10.0 ML
N
3 0 M
3 -1.657 1.657 -3 0 -3 C
-1.657 -3 -3 -1.657 -3 0 C
-3 1.657 -1.657 3 0 3 C
1.657 3 3 1.657 3 0 C
S
GR
GS
[1 0 0 1 697.14172 493.86652] CT
0 0 1 RC
10.0 ML
N
3 0 M
3 -1.657 1.657 -3 0 -3 C
-1.657 -3 -3 -1.657 -3 0 C
-3 1.657 -1.657 3 0 3 C
1.657 3 3 1.657 3 0 C
S
GR
GS
[1 0 0 1 473.60483 344.88718] CT
0 0 1 RC
10.0 ML
N
3 0 M
3 -1.657 1.657 -3 0 -3 C
-1.657 -3 -3 -1.657 -3 0 C
-3 1.657 -1.657 3 0 3 C
1.657 3 3 1.657 3 0 C
S
GR
GS
[1 0 0 1 253.98894 148.03496] CT
0 0 1 RC
10.0 ML
N
3 0 M
3 -1.657 1.657 -3 0 -3 C
-1.657 -3 -3 -1.657 -3 0 C
-3 1.657 -1.657 3 0 3 C
1.657 3 3 1.657 3 0 C
S
GR
GS
[1 0 0 1 575.87128 489.26312] CT
0 0 1 RC
10.0 ML
N
3 0 M
3 -1.657 1.657 -3 0 -3 C
-1.657 -3 -3 -1.657 -3 0 C
-3 1.657 -1.657 3 0 3 C
1.657 3 3 1.657 3 0 C
S
GR
GS
[1 0 0 1 687.74847 486.06406] CT
0 0 1 RC
10.0 ML
N
3 0 M
3 -1.657 1.657 -3 0 -3 C
-1.657 -3 -3 -1.657 -3 0 C
-3 1.657 -1.657 3 0 3 C
1.657 3 3 1.657 3 0 C
S
GR
GS
[1 0 0 1 128.82573 310.08649] CT
0 0 1 RC
10.0 ML
N
3 0 M
3 -1.657 1.657 -3 0 -3 C
-1.657 -3 -3 -1.657 -3 0 C
-3 1.657 -1.657 3 0 3 C
1.657 3 3 1.657 3 0 C
S
GR
GS
[1 0 0 1 580.90668 488.10449] CT
0 0 1 RC
10.0 ML
N
3 0 M
3 -1.657 1.657 -3 0 -3 C
-1.657 -3 -3 -1.657 -3 0 C
-3 1.657 -1.657 3 0 3 C
1.657 3 3 1.657 3 0 C
S
GR
GS
[1 0 0 1 377.26556 197.0347] CT
0 0 1 RC
10.0 ML
N
3 0 M
3 -1.657 1.657 -3 0 -3 C
-1.657 -3 -3 -1.657 -3 0 C
-3 1.657 -1.657 3 0 3 C
1.657 3 3 1.657 3 0 C
S
GR
GS
[1 0 0 1 684.50751 485.79031] CT
0 0 1 RC
10.0 ML
N
3 0 M
3 -1.657 1.657 -3 0 -3 C
-1.657 -3 -3 -1.657 -3 0 C
-3 1.657 -1.657 3 0 3 C
1.657 3 3 1.657 3 0 C
S
GR
GS
[1 0 0 1 460.65506 332.23279] CT
0 0 1 RC
10.0 ML
N
3 0 M
3 -1.657 1.657 -3 0 -3 C
-1.657 -3 -3 -1.657 -3 0 C
-3 1.657 -1.657 3 0 3 C
1.657 3 3 1.657 3 0 C
S
GR
GS
[1 0 0 1 601.99829 499.99564] CT
0 0 1 RC
10.0 ML
N
3 0 M
3 -1.657 1.657 -3 0 -3 C
-1.657 -3 -3 -1.657 -3 0 C
-3 1.657 -1.657 3 0 3 C
1.657 3 3 1.657 3 0 C
S
GR
GS
[1 0 0 1 407.95532 244.23582] CT
0 0 1 RC
10.0 ML
N
3 0 M
3 -1.657 1.657 -3 0 -3 C
-1.657 -3 -3 -1.657 -3 0 C
-3 1.657 -1.657 3 0 3 C
1.657 3 3 1.657 3 0 C
S
GR
GS
[1 0 0 1 320.98935 158.81618] CT
0 0 1 RC
10.0 ML
N
3 0 M
3 -1.657 1.657 -3 0 -3 C
-1.657 -3 -3 -1.657 -3 0 C
-3 1.657 -1.657 3 0 3 C
1.657 3 3 1.657 3 0 C
S
GR
GS
[1 0 0 1 245.02126 142.29926] CT
0 0 1 RC
10.0 ML
N
3 0 M
3 -1.657 1.657 -3 0 -3 C
-1.657 -3 -3 -1.657 -3 0 C
-3 1.657 -1.657 3 0 3 C
1.657 3 3 1.657 3 0 C
S
GR
GS
[1 0 0 1 246.30717 149.27235] CT
0 0 1 RC
10.0 ML
N
3 0 M
3 -1.657 1.657 -3 0 -3 C
-1.657 -3 -3 -1.657 -3 0 C
-3 1.657 -1.657 3 0 3 C
1.657 3 3 1.657 3 0 C
S
GR
GS
[1 0 0 1 583.84814 478.05557] CT
0 0 1 RC
10.0 ML
N
3 0 M
3 -1.657 1.657 -3 0 -3 C
-1.657 -3 -3 -1.657 -3 0 C
-3 1.657 -1.657 3 0 3 C
1.657 3 3 1.657 3 0 C
S
GR
GS
[1 0 0 1 323.39301 155.91837] CT
0 0 1 RC
10.0 ML
N
3 0 M
3 -1.657 1.657 -3 0 -3 C
-1.657 -3 -3 -1.657 -3 0 C
-3 1.657 -1.657 3 0 3 C
1.657 3 3 1.657 3 0 C
S
GR
GS
[1 0 0 1 488.91028 384.32706] CT
0 0 1 RC
10.0 ML
N
3 0 M
3 -1.657 1.657 -3 0 -3 C
-1.657 -3 -3 -1.657 -3 0 C
-3 1.657 -1.657 3 0 3 C
1.657 3 3 1.657 3 0 C
S
GR
GS
[1 0 0 1 219.3101 167.14716] CT
0 0 1 RC
10.0 ML
N
3 0 M
3 -1.657 1.657 -3 0 -3 C
-1.657 -3 -3 -1.657 -3 0 C
-3 1.657 -1.657 3 0 3 C
1.657 3 3 1.657 3 0 C
S
GR
GS
[1 0 0 1 592.87537 494.88779] CT
0 0 1 RC
10.0 ML
N
3 0 M
3 -1.657 1.657 -3 0 -3 C
-1.657 -3 -3 -1.657 -3 0 C
-3 1.657 -1.657 3 0 3 C
1.657 3 3 1.657 3 0 C
S
GR
GS
[1 0 0 1 375.08569 204.71515] CT
0 0 1 RC
10.0 ML
N
3 0 M
3 -1.657 1.657 -3 0 -3 C
-1.657 -3 -3 -1.657 -3 0 C
-3 1.657 -1.657 3 0 3 C
1.657 3 3 1.657 3 0 C
S
GR
GS
[1 0 0 1 703.58344 465.87646] CT
0 0 1 RC
10.0 ML
N
3 0 M
3 -1.657 1.657 -3 0 -3 C
-1.657 -3 -3 -1.657 -3 0 C
-3 1.657 -1.657 3 0 3 C
1.657 3 3 1.657 3 0 C
S
GR
GS
[1 0 0 1 700.58063 486.45258] CT
0 0 1 RC
10.0 ML
N
3 0 M
3 -1.657 1.657 -3 0 -3 C
-1.657 -3 -3 -1.657 -3 0 C
-3 1.657 -1.657 3 0 3 C
1.657 3 3 1.657 3 0 C
S
GR
GS
[1 0 0 1 522.11798 414.31369] CT
0 0 1 RC
10.0 ML
N
3 0 M
3 -1.657 1.657 -3 0 -3 C
-1.657 -3 -3 -1.657 -3 0 C
-3 1.657 -1.657 3 0 3 C
1.657 3 3 1.657 3 0 C
S
GR
GS
[1 0 0 1 455.63504 328.24139] CT
0 0 1 RC
10.0 ML
N
3 0 M
3 -1.657 1.657 -3 0 -3 C
-1.657 -3 -3 -1.657 -3 0 C
-3 1.657 -1.657 3 0 3 C
1.657 3 3 1.657 3 0 C
S
GR
GS
[1 0 0 1 731.80554 437.39667] CT
0 0 1 RC
10.0 ML
N
3 0 M
3 -1.657 1.657 -3 0 -3 C
-1.657 -3 -3 -1.657 -3 0 C
-3 1.657 -1.657 3 0 3 C
1.657 3 3 1.657 3 0 C
S
GR
GS
[1 0 0 1 680.13995 473.9704] CT
0 0 1 RC
10.0 ML
N
3 0 M
3 -1.657 1.657 -3 0 -3 C
-1.657 -3 -3 -1.657 -3 0 C
-3 1.657 -1.657 3 0 3 C
1.657 3 3 1.657 3 0 C
S
GR
GS
[1 0 0 1 554.8374 472.73785] CT
0 0 1 RC
10.0 ML
N
3 0 M
3 -1.657 1.657 -3 0 -3 C
-1.657 -3 -3 -1.657 -3 0 C
-3 1.657 -1.657 3 0 3 C
1.657 3 3 1.657 3 0 C
S
GR
GS
[1 0 0 1 676.7179 492.40518] CT
0 0 1 RC
10.0 ML
N
3 0 M
3 -1.657 1.657 -3 0 -3 C
-1.657 -3 -3 -1.657 -3 0 C
-3 1.657 -1.657 3 0 3 C
1.657 3 3 1.657 3 0 C
S
GR
GS
[1 0 0 1 569.1449 482.89444] CT
0 0 1 RC
10.0 ML
N
3 0 M
3 -1.657 1.657 -3 0 -3 C
-1.657 -3 -3 -1.657 -3 0 C
-3 1.657 -1.657 3 0 3 C
1.657 3 3 1.657 3 0 C
S
GR
GS
[1 0 0 1 350.59473 156.82918] CT
0 0 1 RC
10.0 ML
N
3 0 M
3 -1.657 1.657 -3 0 -3 C
-1.657 -3 -3 -1.657 -3 0 C
-3 1.657 -1.657 3 0 3 C
1.657 3 3 1.657 3 0 C
S
GR
GS
[1 0 0 1 314.54477 146.32323] CT
0 0 1 RC
10.0 ML
N
3 0 M
3 -1.657 1.657 -3 0 -3 C
-1.657 -3 -3 -1.657 -3 0 C
-3 1.657 -1.657 3 0 3 C
1.657 3 3 1.657 3 0 C
S
GR
GS
[1 0 0 1 349.11411 180.07462] CT
0 0 1 RC
10.0 ML
N
3 0 M
3 -1.657 1.657 -3 0 -3 C
-1.657 -3 -3 -1.657 -3 0 C
-3 1.657 -1.657 3 0 3 C
1.657 3 3 1.657 3 0 C
S
GR
GS
[1 0 0 1 482.30716 373.71466] CT
0 0 1 RC
10.0 ML
N
3 0 M
3 -1.657 1.657 -3 0 -3 C
-1.657 -3 -3 -1.657 -3 0 C
-3 1.657 -1.657 3 0 3 C
1.657 3 3 1.657 3 0 C
S
GR
GS
[1 0 0 1 614.5802 487.9093] CT
0 0 1 RC
10.0 ML
N
3 0 M
3 -1.657 1.657 -3 0 -3 C
-1.657 -3 -3 -1.657 -3 0 C
-3 1.657 -1.657 3 0 3 C
1.657 3 3 1.657 3 0 C
S
GR
GS
[1 0 0 1 326.82233 135.71916] CT
0 0 1 RC
10.0 ML
N
3 0 M
3 -1.657 1.657 -3 0 -3 C
-1.657 -3 -3 -1.657 -3 0 C
-3 1.657 -1.657 3 0 3 C
1.657 3 3 1.657 3 0 C
S
GR
GS
[1 0 0 1 689.69043 463.53549] CT
0 0 1 RC
10.0 ML
N
3 0 M
3 -1.657 1.657 -3 0 -3 C
-1.657 -3 -3 -1.657 -3 0 C
-3 1.657 -1.657 3 0 3 C
1.657 3 3 1.657 3 0 C
S
GR
GS
[1 0 0 1 504.29175 409.63358] CT
0 0 1 RC
10.0 ML
N
3 0 M
3 -1.657 1.657 -3 0 -3 C
-1.657 -3 -3 -1.657 -3 0 C
-3 1.657 -1.657 3 0 3 C
1.657 3 3 1.657 3 0 C
S
GR
GS
[1 0 0 1 367.0798 190.43056] CT
0 0 1 RC
10.0 ML
N
3 0 M
3 -1.657 1.657 -3 0 -3 C
-1.657 -3 -3 -1.657 -3 0 C
-3 1.657 -1.657 3 0 3 C
1.657 3 3 1.657 3 0 C
S
GR
GS
[1 0 0 1 596.75848 499.09863] CT
0 0 1 RC
10.0 ML
N
3 0 M
3 -1.657 1.657 -3 0 -3 C
-1.657 -3 -3 -1.657 -3 0 C
-3 1.657 -1.657 3 0 3 C
1.657 3 3 1.657 3 0 C
S
GR
GS
[1 0 0 1 490.11032 373.25604] CT
0 0 1 RC
10.0 ML
N
3 0 M
3 -1.657 1.657 -3 0 -3 C
-1.657 -3 -3 -1.657 -3 0 C
-3 1.657 -1.657 3 0 3 C
1.657 3 3 1.657 3 0 C
S
GR
GS
[1 0 0 1 420.61975 267.30551] CT
0 0 1 RC
10.0 ML
N
3 0 M
3 -1.657 1.657 -3 0 -3 C
-1.657 -3 -3 -1.657 -3 0 C
-3 1.657 -1.657 3 0 3 C
1.657 3 3 1.657 3 0 C
S
GR
GS
[1 0 0 1 593.45361 504.483] CT
0 0 1 RC
10.0 ML
N
3 0 M
3 -1.657 1.657 -3 0 -3 C
-1.657 -3 -3 -1.657 -3 0 C
-3 1.657 -1.657 3 0 3 C
1.657 3 3 1.657 3 0 C
S
GR
GS
[1 0 0 1 540.73724 452.52789] CT
0 0 1 RC
10.0 ML
N
3 0 M
3 -1.657 1.657 -3 0 -3 C
-1.657 -3 -3 -1.657 -3 0 C
-3 1.657 -1.657 3 0 3 C
1.657 3 3 1.657 3 0 C
S
GR
GS
[1 0 0 1 661.10236 487.9826] CT
0 0 1 RC
10.0 ML
N
3 0 M
3 -1.657 1.657 -3 0 -3 C
-1.657 -3 -3 -1.657 -3 0 C
-3 1.657 -1.657 3 0 3 C
1.657 3 3 1.657 3 0 C
S
GR
GS
[1 0 0 1 772.49091 348.66769] CT
0 0 1 RC
10.0 ML
N
3 0 M
3 -1.657 1.657 -3 0 -3 C
-1.657 -3 -3 -1.657 -3 0 C
-3 1.657 -1.657 3 0 3 C
1.657 3 3 1.657 3 0 C
S
GR
GS
[1 0 0 1 474.78787 349.0618] CT
0 0 1 RC
10.0 ML
N
3 0 M
3 -1.657 1.657 -3 0 -3 C
-1.657 -3 -3 -1.657 -3 0 C
-3 1.657 -1.657 3 0 3 C
1.657 3 3 1.657 3 0 C
S
GR
GS
[1 0 0 1 717.41638 451.90866] CT
0 0 1 RC
10.0 ML
N
3 0 M
3 -1.657 1.657 -3 0 -3 C
-1.657 -3 -3 -1.657 -3 0 C
-3 1.657 -1.657 3 0 3 C
1.657 3 3 1.657 3 0 C
S
GR
GS
[1 0 0 1 233.93883 155.39734] CT
0 0 1 RC
10.0 ML
N
3 0 M
3 -1.657 1.657 -3 0 -3 C
-1.657 -3 -3 -1.657 -3 0 C
-3 1.657 -1.657 3 0 3 C
1.657 3 3 1.657 3 0 C
S
GR
GS
[1 0 0 1 787.43274 350.26981] CT
0 0 1 RC
10.0 ML
N
3 0 M
3 -1.657 1.657 -3 0 -3 C
-1.657 -3 -3 -1.657 -3 0 C
-3 1.657 -1.657 3 0 3 C
1.657 3 3 1.657 3 0 C
S
GR
GS
[1 0 0 1 299.83017 125.47531] CT
0 0 1 RC
10.0 ML
N
3 0 M
3 -1.657 1.657 -3 0 -3 C
-1.657 -3 -3 -1.657 -3 0 C
-3 1.657 -1.657 3 0 3 C
1.657 3 3 1.657 3 0 C
S
GR
GS
[1 0 0 1 287.07983 131.00433] CT
0 0 1 RC
10.0 ML
N
3 0 M
3 -1.657 1.657 -3 0 -3 C
-1.657 -3 -3 -1.657 -3 0 C
-3 1.657 -1.657 3 0 3 C
1.657 3 3 1.657 3 0 C
S
GR
GS
[1 0 0 1 717.24384 460.86865] CT
0 0 1 RC
10.0 ML
N
3 0 M
3 -1.657 1.657 -3 0 -3 C
-1.657 -3 -3 -1.657 -3 0 C
-3 1.657 -1.657 3 0 3 C
1.657 3 3 1.657 3 0 C
S
GR
GS
[1 0 0 1 620.61145 510.91486] CT
0 0 1 RC
10.0 ML
N
3 0 M
3 -1.657 1.657 -3 0 -3 C
-1.657 -3 -3 -1.657 -3 0 C
-3 1.657 -1.657 3 0 3 C
1.657 3 3 1.657 3 0 C
S
GR
GS
[1 0 0 1 209.18678 172.66565] CT
0 0 1 RC
10.0 ML
N
3 0 M
3 -1.657 1.657 -3 0 -3 C
-1.657 -3 -3 -1.657 -3 0 C
-3 1.657 -1.657 3 0 3 C
1.657 3 3 1.657 3 0 C
S
GR
GS
[1 0 0 1 123.18581 306.07004] CT
0 0 1 RC
10.0 ML
N
3 0 M
3 -1.657 1.657 -3 0 -3 C
-1.657 -3 -3 -1.657 -3 0 C
-3 1.657 -1.657 3 0 3 C
1.657 3 3 1.657 3 0 C
S
GR
GS
[1 0 0 1 727.34216 433.45474] CT
0 0 1 RC
10.0 ML
N
3 0 M
3 -1.657 1.657 -3 0 -3 C
-1.657 -3 -3 -1.657 -3 0 C
-3 1.657 -1.657 3 0 3 C
1.657 3 3 1.657 3 0 C
S
GR
GS
[1 0 0 1 250.84099 166.26427] CT
0 0 1 RC
10.0 ML
N
3 0 M
3 -1.657 1.657 -3 0 -3 C
-1.657 -3 -3 -1.657 -3 0 C
-3 1.657 -1.657 3 0 3 C
1.657 3 3 1.657 3 0 C
S
GR
GS
[1 0 0 1 320.53268 147.78648] CT
0 0 1 RC
10.0 ML
N
3 0 M
3 -1.657 1.657 -3 0 -3 C
-1.657 -3 -3 -1.657 -3 0 C
-3 1.657 -1.657 3 0 3 C
1.657 3 3 1.657 3 0 C
S
GR
GS
[1 0 0 1 567.44629 470.53238] CT
0 0 1 RC
10.0 ML
N
3 0 M
3 -1.657 1.657 -3 0 -3 C
-1.657 -3 -3 -1.657 -3 0 C
-3 1.657 -1.657 3 0 3 C
1.657 3 3 1.657 3 0 C
S
GR
GS
[1 0 0 1 311.17609 151.51633] CT
0 0 1 RC
10.0 ML
N
3 0 M
3 -1.657 1.657 -3 0 -3 C
-1.657 -3 -3 -1.657 -3 0 C
-3 1.657 -1.657 3 0 3 C
1.657 3 3 1.657 3 0 C
S
GR
GS
[1 0 0 1 437.66849 298.65475] CT
0 0 1 RC
10.0 ML
N
3 0 M
3 -1.657 1.657 -3 0 -3 C
-1.657 -3 -3 -1.657 -3 0 C
-3 1.657 -1.657 3 0 3 C
1.657 3 3 1.657 3 0 C
S
GR
GS
[1 0 0 1 158.31245 254.55476] CT
0 0 1 RC
10.0 ML
N
3 0 M
3 -1.657 1.657 -3 0 -3 C
-1.657 -3 -3 -1.657 -3 0 C
-3 1.657 -1.657 3 0 3 C
1.657 3 3 1.657 3 0 C
S
GR
GS
[1 0 0 1 792.63336 346.79651] CT
0 0 1 RC
10.0 ML
N
3 0 M
3 -1.657 1.657 -3 0 -3 C
-1.657 -3 -3 -1.657 -3 0 C
-3 1.657 -1.657 3 0 3 C
1.657 3 3 1.657 3 0 C
S
GR
GS
0 1 0 RC
1 LJ
2 LW
N
115 323.25 M
129.307 299.448 L
146.182 271.928 L
162.505 246.466 L
177.364 224.763 L
192.661 204.327 L
208.545 185.578 L
225.748 168.564 L
232.738 162.726 L
239.727 157.545 L
248.415 152.054 L
252.76 149.713 L
257.104 147.646 L
260.555 146.203 L
264.006 144.936 L
265.732 144.369 L
267.458 143.847 L
269.183 143.37 L
270.909 142.938 L
272.789 142.518 L
274.669 142.152 L
276.549 141.839 L
277.49 141.703 L
278.43 141.581 L
279.37 141.472 L
280.31 141.376 L
281.25 141.294 L
282.19 141.225 L
283.13 141.17 L
284.07 141.128 L
285.01 141.1 L
285.95 141.086 L
286.959 141.085 L
287.968 141.1 L
288.977 141.13 L
289.985 141.176 L
290.994 141.238 L
292.003 141.315 L
293.012 141.407 L
294.02 141.515 L
295.029 141.639 L
296.038 141.778 L
297.047 141.933 L
298.056 142.103 L
300.073 142.489 L
302.091 142.938 L
303.964 143.409 L
305.838 143.933 L
307.711 144.51 L
309.585 145.14 L
313.332 146.557 L
317.079 148.182 L
321.127 150.169 L
325.176 152.394 L
333.273 157.545 L
341.969 164.092 L
350.665 171.647 L
364.455 185.578 L
381.176 205.388 L
395.636 224.763 L
412.047 248.821 L
426.818 271.928 L
442.264 297.086 L
458 323.25 L
473.595 349.182 L
489.182 374.572 L
505.392 399.864 L
520.364 421.737 L
537.204 444.112 L
551.545 460.922 L
566.869 476.257 L
574.798 483.027 L
582.727 488.955 L
590.574 493.961 L
594.497 496.135 L
598.421 498.086 L
602.293 499.79 L
606.165 501.272 L
608.101 501.929 L
610.037 502.53 L
611.973 503.074 L
613.909 503.562 L
615.859 503.997 L
617.81 504.373 L
619.76 504.692 L
620.735 504.83 L
621.711 504.953 L
622.686 505.062 L
623.661 505.156 L
624.636 505.236 L
625.611 505.301 L
626.586 505.352 L
627.562 505.388 L
628.537 505.41 L
629.512 505.417 L
630.486 505.409 L
631.459 505.387 L
632.433 505.351 L
633.407 505.3 L
634.38 505.235 L
635.354 505.155 L
636.328 505.061 L
637.302 504.952 L
638.275 504.829 L
639.249 504.691 L
641.196 504.372 L
643.144 503.996 L
645.091 503.562 L
647.182 503.033 L
649.273 502.437 L
651.364 501.776 L
653.455 501.049 L
657.637 499.401 L
661.819 497.494 L
665.432 495.64 L
669.046 493.597 L
676.273 488.955 L
683.701 483.427 L
691.128 477.158 L
707.455 460.922 L
723.815 441.571 L
738.636 421.737 L
750.405 404.679 L
769.818 374.572 L
785.119 349.653 L
801 323.25 L
S
GR
GS
1 0 0 RC
1 LJ
2 LW
N
115 314.273 M
118.447 308.862 L
121.894 303.487 L
125.342 298.15 L
128.789 292.854 L
132.236 287.6 L
135.683 282.392 L
139.131 277.232 L
142.578 272.122 L
146.025 267.066 L
149.472 262.064 L
152.92 257.121 L
156.367 252.239 L
159.814 247.42 L
163.261 242.668 L
166.709 237.985 L
170.156 233.374 L
173.603 228.839 L
177.05 224.381 L
180.497 220.005 L
183.945 215.712 L
187.392 211.507 L
190.839 207.392 L
194.286 203.37 L
197.734 199.445 L
201.181 195.619 L
204.628 191.897 L
208.075 188.28 L
211.523 184.773 L
214.97 181.379 L
218.417 178.1 L
221.864 174.94 L
225.312 171.902 L
228.759 168.99 L
232.206 166.206 L
235.653 163.554 L
239.101 161.037 L
242.548 158.658 L
245.995 156.421 L
249.442 154.327 L
252.889 152.381 L
256.337 150.584 L
259.784 148.941 L
263.231 147.453 L
266.678 146.124 L
270.126 144.956 L
273.573 143.951 L
277.02 143.113 L
280.467 142.443 L
283.915 141.943 L
287.362 141.616 L
290.809 141.463 L
294.256 141.486 L
297.704 141.687 L
301.151 142.068 L
304.598 142.629 L
308.045 143.372 L
311.492 144.297 L
314.94 145.405 L
318.387 146.698 L
321.834 148.174 L
325.281 149.834 L
328.729 151.678 L
332.176 153.706 L
335.623 155.916 L
339.07 158.308 L
342.518 160.881 L
345.965 163.633 L
349.412 166.563 L
352.859 169.668 L
356.307 172.947 L
359.754 176.396 L
363.201 180.013 L
366.648 183.795 L
370.095 187.739 L
373.543 191.84 L
376.99 196.096 L
380.437 200.501 L
383.884 205.051 L
387.332 209.741 L
390.779 214.568 L
394.226 219.524 L
397.673 224.604 L
401.121 229.804 L
404.568 235.116 L
408.015 240.535 L
411.462 246.054 L
414.91 251.666 L
418.357 257.365 L
421.804 263.144 L
425.251 268.995 L
428.698 274.911 L
432.146 280.884 L
435.593 286.907 L
439.04 292.973 L
442.487 299.073 L
445.935 305.2 L
449.382 311.345 L
452.829 317.502 L
456.276 323.661 L
459.724 329.815 L
463.171 335.956 L
466.618 342.077 L
470.065 348.169 L
473.513 354.224 L
476.96 360.236 L
480.407 366.196 L
483.854 372.097 L
487.302 377.932 L
490.749 383.693 L
494.196 389.375 L
497.643 394.969 L
501.09 400.47 L
504.538 405.871 L
507.985 411.166 L
511.432 416.349 L
514.879 421.414 L
518.327 426.356 L
521.774 431.171 L
525.221 435.852 L
528.668 440.395 L
532.116 444.797 L
535.563 449.052 L
539.01 453.157 L
542.457 457.109 L
545.905 460.904 L
549.352 464.539 L
552.799 468.012 L
556.246 471.32 L
559.693 474.461 L
563.141 477.434 L
566.588 480.235 L
570.035 482.865 L
573.482 485.323 L
576.93 487.606 L
580.377 489.715 L
583.824 491.65 L
587.271 493.409 L
590.719 494.994 L
594.166 496.405 L
597.613 497.642 L
601.06 498.706 L
604.508 499.597 L
607.955 500.318 L
611.402 500.869 L
614.849 501.252 L
618.296 501.468 L
621.744 501.519 L
625.191 501.407 L
628.638 501.134 L
632.085 500.702 L
635.533 500.114 L
638.98 499.371 L
642.427 498.477 L
645.874 497.434 L
649.322 496.244 L
652.769 494.91 L
656.216 493.436 L
659.663 491.823 L
663.111 490.075 L
666.558 488.194 L
670.005 486.185 L
673.452 484.049 L
676.9 481.789 L
680.347 479.41 L
683.794 476.913 L
687.241 474.303 L
690.688 471.581 L
694.136 468.752 L
697.583 465.818 L
701.03 462.782 L
704.477 459.648 L
707.925 456.418 L
711.372 453.096 L
714.819 449.684 L
718.266 446.186 L
721.714 442.605 L
725.161 438.943 L
728.608 435.203 L
732.055 431.389 L
735.503 427.503 L
738.95 423.548 L
742.397 419.527 L
745.844 415.443 L
749.291 411.297 L
752.739 407.094 L
756.186 402.834 L
759.633 398.522 L
763.08 394.159 L
766.528 389.748 L
769.975 385.292 L
773.422 380.792 L
776.869 376.251 L
780.317 371.672 L
783.764 367.056 L
787.211 362.405 L
790.658 357.723 L
794.106 353.01 L
797.553 348.269 L
801 343.503 L
S
GR
GS
1 GC
N
791 122 M
791 60 L
691 60 L
691 122 L
cp
f
GR
GS
[1 0 0 1 728 71.5] CT
/Helvetica 16.2 F
GS
[1 0 0 1 0 0] CT
0 6 moveto 
1 -1 scale
(data) t 
GR
GR
GS
[1 0 0 1 710 71.5] CT
0 0 1 RC
10.0 ML
N
3 0 M
3 -1.657 1.657 -3 0 -3 C
-1.657 -3 -3 -1.657 -3 0 C
-3 1.657 -1.657 3 0 3 C
1.657 3 3 1.657 3 0 C
S
GR
GS
[1 0 0 1 728 91] CT
/Helvetica 16.2 F
GS
[1 0 0 1 0 0] CT
0 6 moveto 
1 -1 scale
(function) t 
GR
GR
GS
0 1 0 RC
1 LJ
2 LW
N
695 91 M
725 91 L
S
GR
GS
[1 0 0 1 728 110.5] CT
/Helvetica 16.2 F
GS
[1 0 0 1 0 0] CT
0 6 moveto 
1 -1 scale
(network) t 
GR
GR
GS
1 0 0 RC
1 LJ
2 LW
N
695 110.5 M
725 110.5 L
S
GR
GS
0.149 GC
10.0 ML
0.5 LW
N
691 122 M
691 60 L
791 60 L
791 122 L
cp
S
GR
%%Trailer
%%Pages: 1
%%EOF
