%!PS-Adobe-3.0 EPSF-3.0
%%Creator: (MATLAB, The Mathworks, Inc. Version 9.3.0.713579 \(R2017b\). Operating System: Mac OS X)
%%Title: (/Users/hannesvdc/WIT/data-mining/Session 3/report/demev1.eps)
%%CreationDate: 2017-12-03T14:05:33
%%Pages: (atend)
%%BoundingBox: 0 0 894 659
%%LanguageLevel: 3
%%EndComments
%%BeginProlog
%%BeginResource: procset (Apache XML Graphics Std ProcSet) 1.2 0
%%Version: 1.2 0
%%Copyright: (Copyright 2001-2003,2010 The Apache Software Foundation. License terms: http://www.apache.org/licenses/LICENSE-2.0)
/bd{bind def}bind def
/ld{load def}bd
/GR/grestore ld
/GS/gsave ld
/RM/rmoveto ld
/C/curveto ld
/t/show ld
/L/lineto ld
/ML/setmiterlimit ld
/CT/concat ld
/f/fill ld
/N/newpath ld
/S/stroke ld
/CC/setcmykcolor ld
/A/ashow ld
/cp/closepath ld
/RC/setrgbcolor ld
/LJ/setlinejoin ld
/GC/setgray ld
/LW/setlinewidth ld
/M/moveto ld
/re {4 2 roll M
1 index 0 rlineto
0 exch rlineto
neg 0 rlineto
cp } bd
/_ctm matrix def
/_tm matrix def
/BT { _ctm currentmatrix pop matrix _tm copy pop 0 0 moveto } bd
/ET { _ctm setmatrix } bd
/iTm { _ctm setmatrix _tm concat } bd
/Tm { _tm astore pop iTm 0 0 moveto } bd
/ux 0.0 def
/uy 0.0 def
/F {
  /Tp exch def
  /Tf exch def
  Tf findfont Tp scalefont setfont
  /cf Tf def  /cs Tp def
} bd
/ULS {currentpoint /uy exch def /ux exch def} bd
/ULE {
  /Tcx currentpoint pop def
  gsave
  newpath
  cf findfont cs scalefont dup
  /FontMatrix get 0 get /Ts exch def /FontInfo get dup
  /UnderlinePosition get Ts mul /To exch def
  /UnderlineThickness get Ts mul /Tt exch def
  ux uy To add moveto  Tcx uy To add lineto
  Tt setlinewidth stroke
  grestore
} bd
/OLE {
  /Tcx currentpoint pop def
  gsave
  newpath
  cf findfont cs scalefont dup
  /FontMatrix get 0 get /Ts exch def /FontInfo get dup
  /UnderlinePosition get Ts mul /To exch def
  /UnderlineThickness get Ts mul /Tt exch def
  ux uy To add cs add moveto Tcx uy To add cs add lineto
  Tt setlinewidth stroke
  grestore
} bd
/SOE {
  /Tcx currentpoint pop def
  gsave
  newpath
  cf findfont cs scalefont dup
  /FontMatrix get 0 get /Ts exch def /FontInfo get dup
  /UnderlinePosition get Ts mul /To exch def
  /UnderlineThickness get Ts mul /Tt exch def
  ux uy To add cs 10 mul 26 idiv add moveto Tcx uy To add cs 10 mul 26 idiv add lineto
  Tt setlinewidth stroke
  grestore
} bd
/QT {
/Y22 exch store
/X22 exch store
/Y21 exch store
/X21 exch store
currentpoint
/Y21 load 2 mul add 3 div exch
/X21 load 2 mul add 3 div exch
/X21 load 2 mul /X22 load add 3 div
/Y21 load 2 mul /Y22 load add 3 div
/X22 load /Y22 load curveto
} bd
/SSPD {
dup length /d exch dict def
{
/v exch def
/k exch def
currentpagedevice k known {
/cpdv currentpagedevice k get def
v cpdv ne {
/upd false def
/nullv v type /nulltype eq def
/nullcpdv cpdv type /nulltype eq def
nullv nullcpdv or
{
/upd true def
} {
/sametype v type cpdv type eq def
sametype {
v type /arraytype eq {
/vlen v length def
/cpdvlen cpdv length def
vlen cpdvlen eq {
0 1 vlen 1 sub {
/i exch def
/obj v i get def
/cpdobj cpdv i get def
obj cpdobj ne {
/upd true def
exit
} if
} for
} {
/upd true def
} ifelse
} {
v type /dicttype eq {
v {
/dv exch def
/dk exch def
/cpddv cpdv dk get def
dv cpddv ne {
/upd true def
exit
} if
} forall
} {
/upd true def
} ifelse
} ifelse
} if
} ifelse
upd true eq {
d k v put
} if
} if
} if
} forall
d length 0 gt {
d setpagedevice
} if
} bd
/RE { % /NewFontName [NewEncodingArray] /FontName RE -
  findfont dup length dict begin
  {
    1 index /FID ne
    {def} {pop pop} ifelse
  } forall
  /Encoding exch def
  /FontName 1 index def
  currentdict definefont pop
  end
} bind def
%%EndResource
%%BeginResource: procset (Apache XML Graphics EPS ProcSet) 1.0 0
%%Version: 1.0 0
%%Copyright: (Copyright 2002-2003 The Apache Software Foundation. License terms: http://www.apache.org/licenses/LICENSE-2.0)
/BeginEPSF { %def
/b4_Inc_state save def         % Save state for cleanup
/dict_count countdictstack def % Count objects on dict stack
/op_count count 1 sub def      % Count objects on operand stack
userdict begin                 % Push userdict on dict stack
/showpage { } def              % Redefine showpage, { } = null proc
0 setgray 0 setlinecap         % Prepare graphics state
1 setlinewidth 0 setlinejoin
10 setmiterlimit [ ] 0 setdash newpath
/languagelevel where           % If level not equal to 1 then
{pop languagelevel             % set strokeadjust and
1 ne                           % overprint to their defaults.
{false setstrokeadjust false setoverprint
} if
} if
} bd
/EndEPSF { %def
count op_count sub {pop} repeat            % Clean up stacks
countdictstack dict_count sub {end} repeat
b4_Inc_state restore
} bd
%%EndResource
%FOPBeginFontDict
%%IncludeResource: font Courier-Oblique
%%IncludeResource: font Courier-BoldOblique
%%IncludeResource: font Courier-Bold
%%IncludeResource: font ZapfDingbats
%%IncludeResource: font Symbol
%%IncludeResource: font Helvetica
%%IncludeResource: font Helvetica-Oblique
%%IncludeResource: font Helvetica-Bold
%%IncludeResource: font Helvetica-BoldOblique
%%IncludeResource: font Times-Roman
%%IncludeResource: font Times-Italic
%%IncludeResource: font Times-Bold
%%IncludeResource: font Times-BoldItalic
%%IncludeResource: font Courier
%FOPEndFontDict
%%BeginResource: encoding WinAnsiEncoding
/WinAnsiEncoding [
/.notdef /.notdef /.notdef /.notdef /.notdef
/.notdef /.notdef /.notdef /.notdef /.notdef
/.notdef /.notdef /.notdef /.notdef /.notdef
/.notdef /.notdef /.notdef /.notdef /.notdef
/.notdef /.notdef /.notdef /.notdef /.notdef
/.notdef /.notdef /.notdef /.notdef /.notdef
/.notdef /.notdef /space /exclam /quotedbl
/numbersign /dollar /percent /ampersand /quotesingle
/parenleft /parenright /asterisk /plus /comma
/hyphen /period /slash /zero /one
/two /three /four /five /six
/seven /eight /nine /colon /semicolon
/less /equal /greater /question /at
/A /B /C /D /E
/F /G /H /I /J
/K /L /M /N /O
/P /Q /R /S /T
/U /V /W /X /Y
/Z /bracketleft /backslash /bracketright /asciicircum
/underscore /quoteleft /a /b /c
/d /e /f /g /h
/i /j /k /l /m
/n /o /p /q /r
/s /t /u /v /w
/x /y /z /braceleft /bar
/braceright /asciitilde /bullet /Euro /bullet
/quotesinglbase /florin /quotedblbase /ellipsis /dagger
/daggerdbl /circumflex /perthousand /Scaron /guilsinglleft
/OE /bullet /Zcaron /bullet /bullet
/quoteleft /quoteright /quotedblleft /quotedblright /bullet
/endash /emdash /asciitilde /trademark /scaron
/guilsinglright /oe /bullet /zcaron /Ydieresis
/space /exclamdown /cent /sterling /currency
/yen /brokenbar /section /dieresis /copyright
/ordfeminine /guillemotleft /logicalnot /sfthyphen /registered
/macron /degree /plusminus /twosuperior /threesuperior
/acute /mu /paragraph /middot /cedilla
/onesuperior /ordmasculine /guillemotright /onequarter /onehalf
/threequarters /questiondown /Agrave /Aacute /Acircumflex
/Atilde /Adieresis /Aring /AE /Ccedilla
/Egrave /Eacute /Ecircumflex /Edieresis /Igrave
/Iacute /Icircumflex /Idieresis /Eth /Ntilde
/Ograve /Oacute /Ocircumflex /Otilde /Odieresis
/multiply /Oslash /Ugrave /Uacute /Ucircumflex
/Udieresis /Yacute /Thorn /germandbls /agrave
/aacute /acircumflex /atilde /adieresis /aring
/ae /ccedilla /egrave /eacute /ecircumflex
/edieresis /igrave /iacute /icircumflex /idieresis
/eth /ntilde /ograve /oacute /ocircumflex
/otilde /odieresis /divide /oslash /ugrave
/uacute /ucircumflex /udieresis /yacute /thorn
/ydieresis
] def
%%EndResource
%FOPBeginFontReencode
/Courier-Oblique findfont
dup length dict begin
  {1 index /FID ne {def} {pop pop} ifelse} forall
  /Encoding WinAnsiEncoding def
  currentdict
end
/Courier-Oblique exch definefont pop
/Courier-BoldOblique findfont
dup length dict begin
  {1 index /FID ne {def} {pop pop} ifelse} forall
  /Encoding WinAnsiEncoding def
  currentdict
end
/Courier-BoldOblique exch definefont pop
/Courier-Bold findfont
dup length dict begin
  {1 index /FID ne {def} {pop pop} ifelse} forall
  /Encoding WinAnsiEncoding def
  currentdict
end
/Courier-Bold exch definefont pop
/Helvetica findfont
dup length dict begin
  {1 index /FID ne {def} {pop pop} ifelse} forall
  /Encoding WinAnsiEncoding def
  currentdict
end
/Helvetica exch definefont pop
/Helvetica-Oblique findfont
dup length dict begin
  {1 index /FID ne {def} {pop pop} ifelse} forall
  /Encoding WinAnsiEncoding def
  currentdict
end
/Helvetica-Oblique exch definefont pop
/Helvetica-Bold findfont
dup length dict begin
  {1 index /FID ne {def} {pop pop} ifelse} forall
  /Encoding WinAnsiEncoding def
  currentdict
end
/Helvetica-Bold exch definefont pop
/Helvetica-BoldOblique findfont
dup length dict begin
  {1 index /FID ne {def} {pop pop} ifelse} forall
  /Encoding WinAnsiEncoding def
  currentdict
end
/Helvetica-BoldOblique exch definefont pop
/Times-Roman findfont
dup length dict begin
  {1 index /FID ne {def} {pop pop} ifelse} forall
  /Encoding WinAnsiEncoding def
  currentdict
end
/Times-Roman exch definefont pop
/Times-Italic findfont
dup length dict begin
  {1 index /FID ne {def} {pop pop} ifelse} forall
  /Encoding WinAnsiEncoding def
  currentdict
end
/Times-Italic exch definefont pop
/Times-Bold findfont
dup length dict begin
  {1 index /FID ne {def} {pop pop} ifelse} forall
  /Encoding WinAnsiEncoding def
  currentdict
end
/Times-Bold exch definefont pop
/Times-BoldItalic findfont
dup length dict begin
  {1 index /FID ne {def} {pop pop} ifelse} forall
  /Encoding WinAnsiEncoding def
  currentdict
end
/Times-BoldItalic exch definefont pop
/Courier findfont
dup length dict begin
  {1 index /FID ne {def} {pop pop} ifelse} forall
  /Encoding WinAnsiEncoding def
  currentdict
end
/Courier exch definefont pop
%FOPEndFontReencode
%%EndProlog
%%Page: 1 1
%%PageBoundingBox: 0 0 894 659
%%BeginPageSetup
[1 0 0 -1 0 659] CT
%%EndPageSetup
GS
1 GC
N
0 0 894 659 re
f
GR
GS
1 GC
N
0 0 894 659 re
f
GR
GS
1 GC
N
116 586.5 M
809 586.5 L
809 49.5 L
116 49.5 L
cp
f
GR
GS
0.149 GC
2 setlinecap
1 LJ
0.5 LW
N
116 586.5 M
809 586.5 L
S
GR
GS
0.149 GC
2 setlinecap
1 LJ
0.5 LW
N
116 49.5 M
809 49.5 L
S
GR
GS
0.149 GC
2 setlinecap
1 LJ
0.5 LW
N
116 586.5 M
116 579.57 L
S
GR
GS
0.149 GC
2 setlinecap
1 LJ
0.5 LW
N
254.6 586.5 M
254.6 579.57 L
S
GR
GS
0.149 GC
2 setlinecap
1 LJ
0.5 LW
N
393.2 586.5 M
393.2 579.57 L
S
GR
GS
0.149 GC
2 setlinecap
1 LJ
0.5 LW
N
531.8 586.5 M
531.8 579.57 L
S
GR
GS
0.149 GC
2 setlinecap
1 LJ
0.5 LW
N
670.4 586.5 M
670.4 579.57 L
S
GR
GS
0.149 GC
2 setlinecap
1 LJ
0.5 LW
N
809 586.5 M
809 579.57 L
S
GR
GS
0.149 GC
2 setlinecap
1 LJ
0.5 LW
N
116 49.5 M
116 56.43 L
S
GR
GS
0.149 GC
2 setlinecap
1 LJ
0.5 LW
N
254.6 49.5 M
254.6 56.43 L
S
GR
GS
0.149 GC
2 setlinecap
1 LJ
0.5 LW
N
393.2 49.5 M
393.2 56.43 L
S
GR
GS
0.149 GC
2 setlinecap
1 LJ
0.5 LW
N
531.8 49.5 M
531.8 56.43 L
S
GR
GS
0.149 GC
2 setlinecap
1 LJ
0.5 LW
N
670.4 49.5 M
670.4 56.43 L
S
GR
GS
0.149 GC
2 setlinecap
1 LJ
0.5 LW
N
809 49.5 M
809 56.43 L
S
GR
GS
[1 0 0 1 116 593.29999] CT
0.149 GC
/Helvetica 24 F
GS
[1 0 0 1 0 0] CT
-7 23 moveto 
1 -1 scale
(0) t 
GR
GR
GS
[1 0 0 1 254.60001 593.29999] CT
0.149 GC
/Helvetica 24 F
GS
[1 0 0 1 0 0] CT
-17 23 moveto 
1 -1 scale
(0.2) t 
GR
GR
GS
[1 0 0 1 393.20001 593.29999] CT
0.149 GC
/Helvetica 24 F
GS
[1 0 0 1 0 0] CT
-17 23 moveto 
1 -1 scale
(0.4) t 
GR
GR
GS
[1 0 0 1 531.79999 593.29999] CT
0.149 GC
/Helvetica 24 F
GS
[1 0 0 1 0 0] CT
-17 23 moveto 
1 -1 scale
(0.6) t 
GR
GR
GS
[1 0 0 1 670.40002 593.29999] CT
0.149 GC
/Helvetica 24 F
GS
[1 0 0 1 0 0] CT
-17 23 moveto 
1 -1 scale
(0.8) t 
GR
GR
GS
[1 0 0 1 809 593.29999] CT
0.149 GC
/Helvetica 24 F
GS
[1 0 0 1 0 0] CT
-7 23 moveto 
1 -1 scale
(1) t 
GR
GR
GS
[1 0 0 1 462.50034 622.79999] CT
0.149 GC
/Helvetica 26.4 F
GS
[1 0 0 1 0 0] CT
-30.5 26 moveto 
1 -1 scale
(Input) t 
GR
GR
GS
0.149 GC
2 setlinecap
1 LJ
0.5 LW
N
116 586.5 M
116 49.5 L
S
GR
GS
0.149 GC
2 setlinecap
1 LJ
0.5 LW
N
809 586.5 M
809 49.5 L
S
GR
GS
0.149 GC
2 setlinecap
1 LJ
0.5 LW
N
116 586.5 M
122.93 586.5 L
S
GR
GS
0.149 GC
2 setlinecap
1 LJ
0.5 LW
N
116 497 M
122.93 497 L
S
GR
GS
0.149 GC
2 setlinecap
1 LJ
0.5 LW
N
116 407.5 M
122.93 407.5 L
S
GR
GS
0.149 GC
2 setlinecap
1 LJ
0.5 LW
N
116 318 M
122.93 318 L
S
GR
GS
0.149 GC
2 setlinecap
1 LJ
0.5 LW
N
116 228.5 M
122.93 228.5 L
S
GR
GS
0.149 GC
2 setlinecap
1 LJ
0.5 LW
N
116 139 M
122.93 139 L
S
GR
GS
0.149 GC
2 setlinecap
1 LJ
0.5 LW
N
116 49.5 M
122.93 49.5 L
S
GR
GS
0.149 GC
2 setlinecap
1 LJ
0.5 LW
N
809 586.5 M
802.07 586.5 L
S
GR
GS
0.149 GC
2 setlinecap
1 LJ
0.5 LW
N
809 497 M
802.07 497 L
S
GR
GS
0.149 GC
2 setlinecap
1 LJ
0.5 LW
N
809 407.5 M
802.07 407.5 L
S
GR
GS
0.149 GC
2 setlinecap
1 LJ
0.5 LW
N
809 318 M
802.07 318 L
S
GR
GS
0.149 GC
2 setlinecap
1 LJ
0.5 LW
N
809 228.5 M
802.07 228.5 L
S
GR
GS
0.149 GC
2 setlinecap
1 LJ
0.5 LW
N
809 139 M
802.07 139 L
S
GR
GS
0.149 GC
2 setlinecap
1 LJ
0.5 LW
N
809 49.5 M
802.07 49.5 L
S
GR
GS
[1 0 0 1 109.2 586.5] CT
0.149 GC
/Helvetica 24 F
GS
[1 0 0 1 0 0] CT
-43 8.5 moveto 
1 -1 scale
(-1.5) t 
GR
GR
GS
[1 0 0 1 109.2 497] CT
0.149 GC
/Helvetica 24 F
GS
[1 0 0 1 0 0] CT
-23 8.5 moveto 
1 -1 scale
(-1) t 
GR
GR
GS
[1 0 0 1 109.2 407.5] CT
0.149 GC
/Helvetica 24 F
GS
[1 0 0 1 0 0] CT
-43 8.5 moveto 
1 -1 scale
(-0.5) t 
GR
GR
GS
[1 0 0 1 109.2 318] CT
0.149 GC
/Helvetica 24 F
GS
[1 0 0 1 0 0] CT
-14 8.5 moveto 
1 -1 scale
(0) t 
GR
GR
GS
[1 0 0 1 109.2 228.5] CT
0.149 GC
/Helvetica 24 F
GS
[1 0 0 1 0 0] CT
-34 8.5 moveto 
1 -1 scale
(0.5) t 
GR
GR
GS
[1 0 0 1 109.2 139] CT
0.149 GC
/Helvetica 24 F
GS
[1 0 0 1 0 0] CT
-14 8.5 moveto 
1 -1 scale
(1) t 
GR
GR
GS
[1 0 0 1 109.2 49.5] CT
0.149 GC
/Helvetica 24 F
GS
[1 0 0 1 0 0] CT
-34 8.5 moveto 
1 -1 scale
(1.5) t 
GR
GR
GS
[0 -1 1 0 63.2 317.99976] CT
0.149 GC
/Helvetica 26.4 F
GS
[1 0 0 1 0 0] CT
-38 -6 moveto 
1 -1 scale
(Target) t 
GR
GR
GS
[1 0 0 1 268.2663 123.13462] CT
10.0 ML
N
3.5 0 M
3.5 -1.933 1.933 -3.5 0 -3.5 C
-1.933 -3.5 -3.5 -1.933 -3.5 0 C
-3.5 1.933 -1.933 3.5 0 3.5 C
1.933 3.5 3.5 1.933 3.5 0 C
S
GR
GS
[1 0 0 1 208.4525 183.85895] CT
10.0 ML
N
3.5 0 M
3.5 -1.933 1.933 -3.5 0 -3.5 C
-1.933 -3.5 -3.5 -1.933 -3.5 0 C
-3.5 1.933 -1.933 3.5 0 3.5 C
1.933 3.5 3.5 1.933 3.5 0 C
S
GR
GS
[1 0 0 1 295.32986 140.98399] CT
10.0 ML
N
3.5 0 M
3.5 -1.933 1.933 -3.5 0 -3.5 C
-1.933 -3.5 -3.5 -1.933 -3.5 0 C
-3.5 1.933 -1.933 3.5 0 3.5 C
1.933 3.5 3.5 1.933 3.5 0 C
S
GR
GS
[1 0 0 1 303.20517 155.32996] CT
10.0 ML
N
3.5 0 M
3.5 -1.933 1.933 -3.5 0 -3.5 C
-1.933 -3.5 -3.5 -1.933 -3.5 0 C
-3.5 1.933 -1.933 3.5 0 3.5 C
1.933 3.5 3.5 1.933 3.5 0 C
S
GR
GS
[1 0 0 1 233.63467 156.00842] CT
10.0 ML
N
3.5 0 M
3.5 -1.933 1.933 -3.5 0 -3.5 C
-1.933 -3.5 -3.5 -1.933 -3.5 0 C
-3.5 1.933 -1.933 3.5 0 3.5 C
1.933 3.5 3.5 1.933 3.5 0 C
S
GR
GS
[1 0 0 1 347.0213 186.9164] CT
10.0 ML
N
3.5 0 M
3.5 -1.933 1.933 -3.5 0 -3.5 C
-1.933 -3.5 -3.5 -1.933 -3.5 0 C
-3.5 1.933 -1.933 3.5 0 3.5 C
1.933 3.5 3.5 1.933 3.5 0 C
S
GR
GS
[1 0 0 1 346.93634 150.14343] CT
10.0 ML
N
3.5 0 M
3.5 -1.933 1.933 -3.5 0 -3.5 C
-1.933 -3.5 -3.5 -1.933 -3.5 0 C
-3.5 1.933 -1.933 3.5 0 3.5 C
1.933 3.5 3.5 1.933 3.5 0 C
S
GR
GS
[1 0 0 1 287.42441 109.96277] CT
10.0 ML
N
3.5 0 M
3.5 -1.933 1.933 -3.5 0 -3.5 C
-1.933 -3.5 -3.5 -1.933 -3.5 0 C
-3.5 1.933 -1.933 3.5 0 3.5 C
1.933 3.5 3.5 1.933 3.5 0 C
S
GR
GS
[1 0 0 1 305.12695 153.23419] CT
10.0 ML
N
3.5 0 M
3.5 -1.933 1.933 -3.5 0 -3.5 C
-1.933 -3.5 -3.5 -1.933 -3.5 0 C
-3.5 1.933 -1.933 3.5 0 3.5 C
1.933 3.5 3.5 1.933 3.5 0 C
S
GR
GS
[1 0 0 1 297.72174 124.16964] CT
10.0 ML
N
3.5 0 M
3.5 -1.933 1.933 -3.5 0 -3.5 C
-1.933 -3.5 -3.5 -1.933 -3.5 0 C
-3.5 1.933 -1.933 3.5 0 3.5 C
1.933 3.5 3.5 1.933 3.5 0 C
S
GR
GS
[1 0 0 1 280.19278 117.15659] CT
10.0 ML
N
3.5 0 M
3.5 -1.933 1.933 -3.5 0 -3.5 C
-1.933 -3.5 -3.5 -1.933 -3.5 0 C
-3.5 1.933 -1.933 3.5 0 3.5 C
1.933 3.5 3.5 1.933 3.5 0 C
S
GR
GS
[1 0 0 1 324.4581 176.57071] CT
10.0 ML
N
3.5 0 M
3.5 -1.933 1.933 -3.5 0 -3.5 C
-1.933 -3.5 -3.5 -1.933 -3.5 0 C
-3.5 1.933 -1.933 3.5 0 3.5 C
1.933 3.5 3.5 1.933 3.5 0 C
S
GR
GS
[1 0 0 1 260.71075 170.7523] CT
10.0 ML
N
3.5 0 M
3.5 -1.933 1.933 -3.5 0 -3.5 C
-1.933 -3.5 -3.5 -1.933 -3.5 0 C
-3.5 1.933 -1.933 3.5 0 3.5 C
1.933 3.5 3.5 1.933 3.5 0 C
S
GR
GS
[1 0 0 1 395.15634 205.14795] CT
10.0 ML
N
3.5 0 M
3.5 -1.933 1.933 -3.5 0 -3.5 C
-1.933 -3.5 -3.5 -1.933 -3.5 0 C
-3.5 1.933 -1.933 3.5 0 3.5 C
1.933 3.5 3.5 1.933 3.5 0 C
S
GR
GS
[1 0 0 1 282.63342 146.47995] CT
10.0 ML
N
3.5 0 M
3.5 -1.933 1.933 -3.5 0 -3.5 C
-1.933 -3.5 -3.5 -1.933 -3.5 0 C
-3.5 1.933 -1.933 3.5 0 3.5 C
1.933 3.5 3.5 1.933 3.5 0 C
S
GR
GS
[1 0 0 1 294.77679 126.87373] CT
10.0 ML
N
3.5 0 M
3.5 -1.933 1.933 -3.5 0 -3.5 C
-1.933 -3.5 -3.5 -1.933 -3.5 0 C
-3.5 1.933 -1.933 3.5 0 3.5 C
1.933 3.5 3.5 1.933 3.5 0 C
S
GR
GS
0 1 0 RC
1 LJ
2 LW
N
116 318 M
130.453 294.611 L
147.5 267.57 L
163.99 242.55 L
179 221.225 L
194.453 201.144 L
202.477 191.598 L
210.5 182.721 L
219.189 173.915 L
227.878 166.003 L
234.939 160.266 L
242 155.176 L
246.388 152.347 L
250.777 149.78 L
255.165 147.48 L
259.554 145.449 L
263.04 144.03 L
266.527 142.785 L
270.013 141.716 L
273.5 140.822 L
277.299 140.05 L
281.097 139.489 L
284.896 139.139 L
288.694 139.002 L
292.771 139.091 L
296.847 139.424 L
300.924 140.002 L
305 140.822 L
308.785 141.8 L
312.57 142.986 L
316.355 144.378 L
320.141 145.975 L
324.23 147.927 L
328.32 150.114 L
336.5 155.176 L
345.285 161.608 L
354.069 169.032 L
361.035 175.593 L
368 182.721 L
384.892 202.187 L
399.5 221.225 L
416.078 244.865 L
431 267.57 L
446.604 292.291 L
462.5 318 L
478.254 343.481 L
494 368.43 L
510.376 393.282 L
525.5 414.775 L
542.512 436.761 L
557 453.279 L
564.74 461.165 L
572.48 468.347 L
580.49 474.999 L
588.5 480.824 L
596.427 485.743 L
600.39 487.88 L
604.353 489.796 L
608.265 491.471 L
612.177 492.927 L
616.088 494.163 L
620 495.178 L
623.941 495.975 L
627.881 496.545 L
631.822 496.886 L
635.762 497 L
639.697 496.885 L
643.631 496.543 L
647.566 495.974 L
651.5 495.178 L
655.725 494.073 L
659.949 492.709 L
664.174 491.089 L
668.399 489.215 L
672.049 487.393 L
675.699 485.386 L
683 480.824 L
690.504 475.393 L
698.007 469.233 L
706.254 461.657 L
714.5 453.279 L
731.027 434.264 L
746 414.775 L
757.888 398.013 L
777.5 368.43 L
792.957 343.944 L
809 318 L
S
GR
GS
1 0 0 RC
1 LJ
2 LW
N
116 284.969 M
119.482 280.065 L
122.965 275.173 L
126.447 270.297 L
129.93 265.443 L
133.412 260.615 L
136.894 255.819 L
140.377 251.058 L
143.859 246.339 L
147.342 241.667 L
150.824 237.045 L
154.307 232.48 L
157.789 227.977 L
161.271 223.54 L
164.754 219.174 L
168.236 214.885 L
171.719 210.676 L
175.201 206.553 L
178.683 202.52 L
182.166 198.582 L
185.648 194.742 L
189.131 191.006 L
192.613 187.378 L
196.095 183.86 L
199.578 180.458 L
203.06 177.174 L
206.543 174.013 L
210.025 170.977 L
213.508 168.069 L
216.99 165.293 L
220.472 162.651 L
223.955 160.146 L
227.437 157.78 L
230.92 155.556 L
234.402 153.474 L
237.884 151.537 L
241.367 149.747 L
244.849 148.104 L
248.332 146.61 L
251.814 145.266 L
255.296 144.072 L
258.779 143.029 L
262.261 142.138 L
265.744 141.397 L
269.226 140.808 L
272.709 140.369 L
276.191 140.081 L
279.673 139.943 L
283.156 139.953 L
286.638 140.111 L
290.121 140.416 L
293.603 140.866 L
297.085 141.459 L
300.568 142.195 L
304.05 143.07 L
307.533 144.084 L
311.015 145.233 L
314.497 146.517 L
317.98 147.931 L
321.462 149.475 L
324.945 151.144 L
328.427 152.937 L
331.91 154.85 L
335.392 156.881 L
338.874 159.026 L
342.357 161.282 L
345.839 163.647 L
349.322 166.116 L
352.804 168.687 L
356.286 171.355 L
359.769 174.119 L
363.251 176.973 L
366.734 179.914 L
370.216 182.94 L
373.698 186.046 L
377.181 189.228 L
380.663 192.483 L
384.146 195.807 L
387.628 199.196 L
391.111 202.648 L
394.593 206.157 L
398.075 209.721 L
401.558 213.335 L
405.04 216.997 L
408.523 220.702 L
412.005 224.447 L
415.487 228.228 L
418.97 232.042 L
422.452 235.885 L
425.935 239.755 L
429.417 243.647 L
432.899 247.558 L
436.382 251.485 L
439.864 255.425 L
443.347 259.375 L
446.829 263.332 L
450.312 267.292 L
453.794 271.254 L
457.276 275.213 L
460.759 279.168 L
464.241 283.115 L
467.724 287.053 L
471.206 290.978 L
474.688 294.889 L
478.171 298.783 L
481.653 302.657 L
485.136 306.51 L
488.618 310.34 L
492.101 314.144 L
495.583 317.922 L
499.065 321.67 L
502.548 325.388 L
506.03 329.073 L
509.513 332.725 L
512.995 336.342 L
516.477 339.923 L
519.96 343.466 L
523.442 346.97 L
526.925 350.434 L
530.407 353.857 L
533.889 357.239 L
537.372 360.578 L
540.854 363.873 L
544.337 367.125 L
547.819 370.332 L
551.302 373.494 L
554.784 376.61 L
558.266 379.679 L
561.749 382.703 L
565.231 385.68 L
568.714 388.609 L
572.196 391.492 L
575.678 394.327 L
579.161 397.115 L
582.643 399.856 L
586.126 402.549 L
589.608 405.195 L
593.09 407.794 L
596.573 410.345 L
600.055 412.85 L
603.538 415.309 L
607.02 417.721 L
610.503 420.087 L
613.985 422.408 L
617.467 424.683 L
620.95 426.913 L
624.432 429.099 L
627.915 431.24 L
631.397 433.338 L
634.879 435.393 L
638.362 437.406 L
641.844 439.376 L
645.327 441.304 L
648.809 443.191 L
652.291 445.038 L
655.774 446.845 L
659.256 448.613 L
662.739 450.341 L
666.221 452.032 L
669.703 453.685 L
673.186 455.301 L
676.668 456.88 L
680.151 458.424 L
683.633 459.932 L
687.116 461.406 L
690.598 462.846 L
694.08 464.252 L
697.563 465.626 L
701.045 466.968 L
704.528 468.278 L
708.01 469.557 L
711.492 470.806 L
714.975 472.025 L
718.457 473.215 L
721.94 474.377 L
725.422 475.51 L
728.905 476.617 L
732.387 477.696 L
735.869 478.749 L
739.352 479.777 L
742.834 480.779 L
746.317 481.757 L
749.799 482.711 L
753.281 483.642 L
756.764 484.549 L
760.246 485.434 L
763.729 486.297 L
767.211 487.139 L
770.693 487.959 L
774.176 488.76 L
777.658 489.54 L
781.141 490.301 L
784.623 491.042 L
788.106 491.765 L
791.588 492.47 L
795.07 493.158 L
798.553 493.828 L
802.035 494.481 L
805.518 495.118 L
809 495.738 L
S
GR
GS
0 0 1 RC
1 LJ
2 LW
N
116 197.232 M
119.482 195.492 L
122.965 193.716 L
126.447 191.906 L
129.93 190.064 L
133.412 188.191 L
136.894 186.289 L
140.377 184.358 L
143.859 182.401 L
147.342 180.42 L
150.824 178.415 L
154.307 176.388 L
157.789 174.34 L
161.271 172.274 L
164.754 170.191 L
168.236 168.092 L
171.719 165.979 L
175.201 163.853 L
178.683 161.718 L
182.166 159.574 L
185.648 157.425 L
189.131 155.272 L
192.613 153.119 L
196.095 150.969 L
199.578 148.826 L
203.06 146.694 L
206.543 144.579 L
210.025 142.487 L
213.508 140.424 L
216.99 138.396 L
220.472 136.413 L
223.955 134.481 L
227.437 132.61 L
230.92 130.809 L
234.402 129.086 L
237.884 127.449 L
241.367 125.908 L
244.849 124.47 L
248.332 123.142 L
251.814 121.932 L
255.296 120.845 L
258.779 119.886 L
262.261 119.06 L
265.744 118.371 L
269.226 117.821 L
272.709 117.413 L
276.191 117.148 L
279.673 117.028 L
283.156 117.052 L
286.638 117.22 L
290.121 117.532 L
293.603 117.987 L
297.085 118.582 L
300.568 119.317 L
304.05 120.187 L
307.533 121.192 L
311.015 122.328 L
314.497 123.591 L
317.98 124.978 L
321.462 126.485 L
324.945 128.109 L
328.427 129.845 L
331.91 131.689 L
335.392 133.635 L
338.874 135.68 L
342.357 137.817 L
345.839 140.042 L
349.322 142.35 L
352.804 144.735 L
356.286 147.191 L
359.769 149.712 L
363.251 152.293 L
366.734 154.927 L
370.216 157.609 L
373.698 160.333 L
377.181 163.092 L
380.663 165.881 L
384.146 168.693 L
387.628 171.523 L
391.111 174.366 L
394.593 177.216 L
398.075 180.067 L
401.558 182.914 L
405.04 185.753 L
408.523 188.579 L
412.005 191.387 L
415.487 194.173 L
418.97 196.933 L
422.452 199.664 L
425.935 202.361 L
429.417 205.021 L
432.899 207.641 L
436.382 210.219 L
439.864 212.751 L
443.347 215.235 L
446.829 217.668 L
450.312 220.049 L
453.794 222.374 L
457.276 224.643 L
460.759 226.854 L
464.241 229.005 L
467.724 231.094 L
471.206 233.12 L
474.688 235.083 L
478.171 236.981 L
481.653 238.814 L
485.136 240.58 L
488.618 242.279 L
492.101 243.91 L
495.583 245.474 L
499.065 246.97 L
502.548 248.397 L
506.03 249.757 L
509.513 251.049 L
512.995 252.273 L
516.477 253.429 L
519.96 254.519 L
523.442 255.542 L
526.925 256.5 L
530.407 257.392 L
533.889 258.22 L
537.372 258.984 L
540.854 259.686 L
544.337 260.326 L
547.819 260.906 L
551.302 261.426 L
554.784 261.889 L
558.266 262.294 L
561.749 262.643 L
565.231 262.938 L
568.714 263.18 L
572.196 263.37 L
575.678 263.51 L
579.161 263.6 L
582.643 263.644 L
586.126 263.641 L
589.608 263.594 L
593.09 263.503 L
596.573 263.371 L
600.055 263.199 L
603.538 262.989 L
607.02 262.741 L
610.503 262.457 L
613.985 262.139 L
617.467 261.789 L
620.95 261.406 L
624.432 260.994 L
627.915 260.554 L
631.397 260.086 L
634.879 259.592 L
638.362 259.074 L
641.844 258.532 L
645.327 257.969 L
648.809 257.384 L
652.291 256.78 L
655.774 256.158 L
659.256 255.519 L
662.739 254.863 L
666.221 254.193 L
669.703 253.509 L
673.186 252.812 L
676.668 252.103 L
680.151 251.383 L
683.633 250.653 L
687.116 249.914 L
690.598 249.167 L
694.08 248.413 L
697.563 247.652 L
701.045 246.885 L
704.528 246.113 L
708.01 245.337 L
711.492 244.557 L
714.975 243.775 L
718.457 242.99 L
721.94 242.203 L
725.422 241.415 L
728.905 240.627 L
732.387 239.839 L
735.869 239.05 L
739.352 238.263 L
742.834 237.477 L
746.317 236.693 L
749.799 235.911 L
753.281 235.132 L
756.764 234.355 L
760.246 233.582 L
763.729 232.812 L
767.211 232.046 L
770.693 231.284 L
774.176 230.527 L
777.658 229.774 L
781.141 229.025 L
784.623 228.282 L
788.106 227.544 L
791.588 226.811 L
795.07 226.084 L
798.553 225.363 L
802.035 224.647 L
805.518 223.938 L
809 223.234 L
S
GR
GS
0 0 1 RC
1 LJ
2 LW
N
116 372.705 M
119.482 364.638 L
122.965 356.63 L
126.447 348.689 L
129.93 340.823 L
133.412 333.04 L
136.894 325.349 L
140.377 317.758 L
143.859 310.277 L
147.342 302.914 L
150.824 295.676 L
154.307 288.573 L
157.789 281.614 L
161.271 274.806 L
164.754 268.158 L
168.236 261.678 L
171.719 255.373 L
175.201 249.252 L
178.683 243.322 L
182.166 237.589 L
185.648 232.06 L
189.131 226.741 L
192.613 221.636 L
196.095 216.752 L
199.578 212.09 L
203.06 207.654 L
206.543 203.446 L
210.025 199.466 L
213.508 195.715 L
216.99 192.19 L
220.472 188.89 L
223.955 185.812 L
227.437 182.95 L
230.92 180.302 L
234.402 177.862 L
237.884 175.625 L
241.367 173.586 L
244.849 171.739 L
248.332 170.078 L
251.814 168.6 L
255.296 167.3 L
258.779 166.173 L
262.261 165.215 L
265.744 164.424 L
269.226 163.795 L
272.709 163.326 L
276.191 163.014 L
279.673 162.858 L
283.156 162.854 L
286.638 163.002 L
290.121 163.299 L
293.603 163.745 L
297.085 164.336 L
300.568 165.073 L
304.05 165.953 L
307.533 166.976 L
311.015 168.139 L
314.497 169.443 L
317.98 170.885 L
321.462 172.464 L
324.945 174.179 L
328.427 176.028 L
331.91 178.011 L
335.392 180.126 L
338.874 182.372 L
342.357 184.747 L
345.839 187.251 L
349.322 189.882 L
352.804 192.638 L
356.286 195.52 L
359.769 198.525 L
363.251 201.653 L
366.734 204.902 L
370.216 208.271 L
373.698 211.758 L
377.181 215.363 L
380.663 219.085 L
384.146 222.92 L
387.628 226.869 L
391.111 230.929 L
394.593 235.098 L
398.075 239.375 L
401.558 243.756 L
405.04 248.24 L
408.523 252.824 L
412.005 257.506 L
415.487 262.283 L
418.97 267.151 L
422.452 272.107 L
425.935 277.149 L
429.417 282.272 L
432.899 287.474 L
436.382 292.751 L
439.864 298.1 L
443.347 303.516 L
446.829 308.996 L
450.312 314.536 L
453.794 320.133 L
457.276 325.783 L
460.759 331.482 L
464.241 337.226 L
467.724 343.012 L
471.206 348.836 L
474.688 354.695 L
478.171 360.584 L
481.653 366.501 L
485.136 372.441 L
488.618 378.401 L
492.101 384.379 L
495.583 390.369 L
499.065 396.37 L
502.548 402.378 L
506.03 408.39 L
509.513 414.402 L
512.995 420.412 L
516.477 426.416 L
519.96 432.412 L
523.442 438.397 L
526.925 444.368 L
530.407 450.322 L
533.889 456.258 L
537.372 462.171 L
540.854 468.061 L
544.337 473.924 L
547.819 479.758 L
551.302 485.561 L
554.784 491.331 L
558.266 497.065 L
561.749 502.763 L
565.231 508.421 L
568.714 514.039 L
572.196 519.614 L
575.678 525.145 L
579.161 530.63 L
582.643 536.067 L
586.126 541.457 L
589.608 546.796 L
593.09 552.084 L
596.573 557.319 L
600.055 562.501 L
603.538 567.629 L
607.02 572.701 L
610.503 577.717 L
613.985 582.676 L
616.748 586.564 L
S
GR
GS
1 GC
N
799 169 M
799 59.5 L
664 59.5 L
664 169 L
cp
f
GR
GS
[1 0 0 1 701 74.5] CT
/Helvetica 21.6 F
GS
[1 0 0 1 0 0] CT
0 8 moveto 
1 -1 scale
(data) t 
GR
GR
GS
[1 0 0 1 683 74.5] CT
10.0 ML
N
3.5 0 M
3.5 -1.933 1.933 -3.5 0 -3.5 C
-1.933 -3.5 -3.5 -1.933 -3.5 0 C
-3.5 1.933 -1.933 3.5 0 3.5 C
1.933 3.5 3.5 1.933 3.5 0 C
S
GR
GS
[1 0 0 1 701 101] CT
/Helvetica 21.6 F
GS
[1 0 0 1 0 0] CT
0 8 moveto 
1 -1 scale
(function) t 
GR
GR
GS
0 1 0 RC
1 LJ
2 LW
N
668 101 M
698 101 L
S
GR
GS
[1 0 0 1 701 127.5] CT
/Helvetica 21.6 F
GS
[1 0 0 1 0 0] CT
0 8 moveto 
1 -1 scale
(network) t 
GR
GR
GS
1 0 0 RC
1 LJ
2 LW
N
668 127.5 M
698 127.5 L
S
GR
GS
[1 0 0 1 701 154] CT
/Helvetica 21.6 F
GS
[1 0 0 1 0 0] CT
0 8 moveto 
1 -1 scale
(error bars) t 
GR
GR
GS
0 0 1 RC
1 LJ
2 LW
N
668 154 M
698 154 L
S
GR
GS
0.149 GC
10.0 ML
0.5 LW
N
664 169 M
664 59.5 L
799 59.5 L
799 169 L
cp
S
GR
%%Trailer
%%Pages: 1
%%EOF
