\relax 
\providecommand\hyper@newdestlabel[2]{}
\providecommand\HyperFirstAtBeginDocument{\AtBeginDocument}
\HyperFirstAtBeginDocument{\ifx\hyper@anchor\@undefined
\global\let\oldcontentsline\contentsline
\gdef\contentsline#1#2#3#4{\oldcontentsline{#1}{#2}{#3}}
\global\let\oldnewlabel\newlabel
\gdef\newlabel#1#2{\newlabelxx{#1}#2}
\gdef\newlabelxx#1#2#3#4#5#6{\oldnewlabel{#1}{{#2}{#3}}}
\AtEndDocument{\ifx\hyper@anchor\@undefined
\let\contentsline\oldcontentsline
\let\newlabel\oldnewlabel
\fi}
\fi}
\global\let\hyper@last\relax 
\gdef\HyperFirstAtBeginDocument#1{#1}
\providecommand\HyField@AuxAddToFields[1]{}
\providecommand\HyField@AuxAddToCoFields[2]{}
\select@language{english}
\@writefile{toc}{\select@language{english}}
\@writefile{lof}{\select@language{english}}
\@writefile{lot}{\select@language{english}}
\pgfsyspdfmark {pgfid2}{0}{0}
\pgfsyspdfmark {pgfid1}{6577079}{47493192}
\@writefile{toc}{\contentsline {section}{\numberline {1}Dimensionality reduction by PCA analysis}{1}{section.1}}
\@writefile{toc}{\contentsline {subsection}{\numberline {1.1}Number of hidden units}{1}{subsection.1.1}}
\@writefile{lot}{\contentsline {table}{\numberline {1}{\ignorespaces MSE's for the three different types of cholesterol for neural nets with different hidden layer sizes. The results were averaged over 50 independent runs and trained with the Levenberg-Marquardt algorithm.\relax }}{1}{table.caption.2}}
\providecommand*\caption@xref[2]{\@setref\relax\@undefined{#1}}
\newlabel{tab:hiddenneurons}{{1}{1}{MSE's for the three different types of cholesterol for neural nets with different hidden layer sizes. The results were averaged over 50 independent runs and trained with the Levenberg-Marquardt algorithm.\relax }{table.caption.2}{}}
\@writefile{toc}{\contentsline {subsection}{\numberline {1.2}Comparison with Bayesian Regularization}{1}{subsection.1.2}}
\@writefile{lot}{\contentsline {table}{\numberline {2}{\ignorespaces MSE's for the three different types of cholesterol for neural nets trained with the Levenberg-Marquardt and Bayesian Regularization method.\relax }}{2}{table.caption.3}}
\newlabel{tab:br}{{2}{2}{MSE's for the three different types of cholesterol for neural nets trained with the Levenberg-Marquardt and Bayesian Regularization method.\relax }{table.caption.3}{}}
\@writefile{toc}{\contentsline {subsection}{\numberline {1.3}Dimensionality Reduction using PCA}{2}{subsection.1.3}}
\@writefile{lot}{\contentsline {table}{\numberline {3}{\ignorespaces MSE's for the three different types of cholesterol for neural nets trained with the Bayesian Regularization method and number of inputs indicated in the left column.\relax }}{2}{table.caption.4}}
\newlabel{tab:pca}{{3}{2}{MSE's for the three different types of cholesterol for neural nets trained with the Bayesian Regularization method and number of inputs indicated in the left column.\relax }{table.caption.4}{}}
\@writefile{toc}{\contentsline {section}{\numberline {2}Automatic Relevance Determination}{2}{section.2}}
\citation{mackay}
\@writefile{lof}{\contentsline {figure}{\numberline {1}{\ignorespaces Plot of the real function and the neural net approximation for the \texttt  {demard} example.\relax }}{3}{figure.caption.6}}
\newlabel{fig:demard}{{1}{3}{Plot of the real function and the neural net approximation for the \texttt {demard} example.\relax }{figure.caption.6}{}}
\@writefile{toc}{\contentsline {subsection}{\numberline {2.1}ARD on a demo: \texttt  {demard}}{3}{subsection.2.1}}
\@writefile{lot}{\contentsline {table}{\numberline {4}{\ignorespaces The weights of the edges going from the associated input to each of the hidden neurons for the \texttt  {demard} example in MATLAB.\relax }}{3}{table.caption.5}}
\newlabel{tab:weights}{{4}{3}{The weights of the edges going from the associated input to each of the hidden neurons for the \texttt {demard} example in MATLAB.\relax }{table.caption.5}{}}
\@writefile{lof}{\contentsline {figure}{\numberline {2}{\ignorespaces \relax }}{4}{figure.caption.7}}
\newlabel{fig:demev1}{{2}{4}{\relax }{figure.caption.7}{}}
\@writefile{toc}{\contentsline {subsection}{\numberline {2.2}Hyperparameters in MacKay's framework}{4}{subsection.2.2}}
\@writefile{toc}{\contentsline {subsection}{\numberline {2.3}A realistic problem: Ionosphere data}{4}{subsection.2.3}}
\@writefile{lot}{\contentsline {table}{\numberline {5}{\ignorespaces The number of good classifications for the neural net trained with all 33 inputs and averaged over 50 independent runs.\relax }}{5}{table.caption.8}}
\newlabel{tab:full}{{5}{5}{The number of good classifications for the neural net trained with all 33 inputs and averaged over 50 independent runs.\relax }{table.caption.8}{}}
\@writefile{lot}{\contentsline {table}{\numberline {6}{\ignorespaces The number of good classifications for the neural net trained with all 33 inputs and averaged over 50 independent runs.\relax }}{5}{table.caption.9}}
\newlabel{tab:alpha}{{6}{5}{The number of good classifications for the neural net trained with all 33 inputs and averaged over 50 independent runs.\relax }{table.caption.9}{}}
\newlabel{LastPage}{{}{5}{}{page.5}{}}
\xdef\lastpage@lastpage{5}
\xdef\lastpage@lastpageHy{5}
