%!PS-Adobe-3.0 EPSF-3.0
%%Creator: (MATLAB, The Mathworks, Inc. Version 9.1.0.441655 \(R2016b\). Operating System: Windows 8)
%%Title: (C:/Users/Eigenaar/WIT/Data Mining/data-mining/Session 2/plots/autocorrelation.eps)
%%CreationDate: 2017-11-22T12:06:45
%%Pages: (atend)
%%BoundingBox: 0 0 1050 706
%%LanguageLevel: 3
%%EndComments
%%BeginProlog
%%BeginResource: procset (Apache XML Graphics Std ProcSet) 1.2 0
%%Version: 1.2 0
%%Copyright: (Copyright 2001-2003,2010 The Apache Software Foundation. License terms: http://www.apache.org/licenses/LICENSE-2.0)
/bd{bind def}bind def
/ld{load def}bd
/GR/grestore ld
/M/moveto ld
/LJ/setlinejoin ld
/C/curveto ld
/f/fill ld
/LW/setlinewidth ld
/GC/setgray ld
/t/show ld
/N/newpath ld
/CT/concat ld
/cp/closepath ld
/S/stroke ld
/L/lineto ld
/CC/setcmykcolor ld
/A/ashow ld
/GS/gsave ld
/RC/setrgbcolor ld
/RM/rmoveto ld
/ML/setmiterlimit ld
/re {4 2 roll M
1 index 0 rlineto
0 exch rlineto
neg 0 rlineto
cp } bd
/_ctm matrix def
/_tm matrix def
/BT { _ctm currentmatrix pop matrix _tm copy pop 0 0 moveto } bd
/ET { _ctm setmatrix } bd
/iTm { _ctm setmatrix _tm concat } bd
/Tm { _tm astore pop iTm 0 0 moveto } bd
/ux 0.0 def
/uy 0.0 def
/F {
  /Tp exch def
  /Tf exch def
  Tf findfont Tp scalefont setfont
  /cf Tf def  /cs Tp def
} bd
/ULS {currentpoint /uy exch def /ux exch def} bd
/ULE {
  /Tcx currentpoint pop def
  gsave
  newpath
  cf findfont cs scalefont dup
  /FontMatrix get 0 get /Ts exch def /FontInfo get dup
  /UnderlinePosition get Ts mul /To exch def
  /UnderlineThickness get Ts mul /Tt exch def
  ux uy To add moveto  Tcx uy To add lineto
  Tt setlinewidth stroke
  grestore
} bd
/OLE {
  /Tcx currentpoint pop def
  gsave
  newpath
  cf findfont cs scalefont dup
  /FontMatrix get 0 get /Ts exch def /FontInfo get dup
  /UnderlinePosition get Ts mul /To exch def
  /UnderlineThickness get Ts mul /Tt exch def
  ux uy To add cs add moveto Tcx uy To add cs add lineto
  Tt setlinewidth stroke
  grestore
} bd
/SOE {
  /Tcx currentpoint pop def
  gsave
  newpath
  cf findfont cs scalefont dup
  /FontMatrix get 0 get /Ts exch def /FontInfo get dup
  /UnderlinePosition get Ts mul /To exch def
  /UnderlineThickness get Ts mul /Tt exch def
  ux uy To add cs 10 mul 26 idiv add moveto Tcx uy To add cs 10 mul 26 idiv add lineto
  Tt setlinewidth stroke
  grestore
} bd
/QT {
/Y22 exch store
/X22 exch store
/Y21 exch store
/X21 exch store
currentpoint
/Y21 load 2 mul add 3 div exch
/X21 load 2 mul add 3 div exch
/X21 load 2 mul /X22 load add 3 div
/Y21 load 2 mul /Y22 load add 3 div
/X22 load /Y22 load curveto
} bd
/SSPD {
dup length /d exch dict def
{
/v exch def
/k exch def
currentpagedevice k known {
/cpdv currentpagedevice k get def
v cpdv ne {
/upd false def
/nullv v type /nulltype eq def
/nullcpdv cpdv type /nulltype eq def
nullv nullcpdv or
{
/upd true def
} {
/sametype v type cpdv type eq def
sametype {
v type /arraytype eq {
/vlen v length def
/cpdvlen cpdv length def
vlen cpdvlen eq {
0 1 vlen 1 sub {
/i exch def
/obj v i get def
/cpdobj cpdv i get def
obj cpdobj ne {
/upd true def
exit
} if
} for
} {
/upd true def
} ifelse
} {
v type /dicttype eq {
v {
/dv exch def
/dk exch def
/cpddv cpdv dk get def
dv cpddv ne {
/upd true def
exit
} if
} forall
} {
/upd true def
} ifelse
} ifelse
} if
} ifelse
upd true eq {
d k v put
} if
} if
} if
} forall
d length 0 gt {
d setpagedevice
} if
} bd
/RE { % /NewFontName [NewEncodingArray] /FontName RE -
  findfont dup length dict begin
  {
    1 index /FID ne
    {def} {pop pop} ifelse
  } forall
  /Encoding exch def
  /FontName 1 index def
  currentdict definefont pop
  end
} bind def
%%EndResource
%%BeginResource: procset (Apache XML Graphics EPS ProcSet) 1.0 0
%%Version: 1.0 0
%%Copyright: (Copyright 2002-2003 The Apache Software Foundation. License terms: http://www.apache.org/licenses/LICENSE-2.0)
/BeginEPSF { %def
/b4_Inc_state save def         % Save state for cleanup
/dict_count countdictstack def % Count objects on dict stack
/op_count count 1 sub def      % Count objects on operand stack
userdict begin                 % Push userdict on dict stack
/showpage { } def              % Redefine showpage, { } = null proc
0 setgray 0 setlinecap         % Prepare graphics state
1 setlinewidth 0 setlinejoin
10 setmiterlimit [ ] 0 setdash newpath
/languagelevel where           % If level not equal to 1 then
{pop languagelevel             % set strokeadjust and
1 ne                           % overprint to their defaults.
{false setstrokeadjust false setoverprint
} if
} if
} bd
/EndEPSF { %def
count op_count sub {pop} repeat            % Clean up stacks
countdictstack dict_count sub {end} repeat
b4_Inc_state restore
} bd
%%EndResource
%FOPBeginFontDict
%%IncludeResource: font Courier-Bold
%%IncludeResource: font Helvetica
%%IncludeResource: font Courier-BoldOblique
%%IncludeResource: font Courier-Oblique
%%IncludeResource: font Times-Roman
%%IncludeResource: font Helvetica-BoldOblique
%%IncludeResource: font Helvetica-Bold
%%IncludeResource: font Helvetica-Oblique
%%IncludeResource: font Times-BoldItalic
%%IncludeResource: font Courier
%%IncludeResource: font Times-Italic
%%IncludeResource: font Times-Bold
%%IncludeResource: font Symbol
%%IncludeResource: font ZapfDingbats
%FOPEndFontDict
%%BeginResource: encoding WinAnsiEncoding
/WinAnsiEncoding [
/.notdef /.notdef /.notdef /.notdef /.notdef
/.notdef /.notdef /.notdef /.notdef /.notdef
/.notdef /.notdef /.notdef /.notdef /.notdef
/.notdef /.notdef /.notdef /.notdef /.notdef
/.notdef /.notdef /.notdef /.notdef /.notdef
/.notdef /.notdef /.notdef /.notdef /.notdef
/.notdef /.notdef /space /exclam /quotedbl
/numbersign /dollar /percent /ampersand /quotesingle
/parenleft /parenright /asterisk /plus /comma
/hyphen /period /slash /zero /one
/two /three /four /five /six
/seven /eight /nine /colon /semicolon
/less /equal /greater /question /at
/A /B /C /D /E
/F /G /H /I /J
/K /L /M /N /O
/P /Q /R /S /T
/U /V /W /X /Y
/Z /bracketleft /backslash /bracketright /asciicircum
/underscore /quoteleft /a /b /c
/d /e /f /g /h
/i /j /k /l /m
/n /o /p /q /r
/s /t /u /v /w
/x /y /z /braceleft /bar
/braceright /asciitilde /bullet /Euro /bullet
/quotesinglbase /florin /quotedblbase /ellipsis /dagger
/daggerdbl /circumflex /perthousand /Scaron /guilsinglleft
/OE /bullet /Zcaron /bullet /bullet
/quoteleft /quoteright /quotedblleft /quotedblright /bullet
/endash /emdash /asciitilde /trademark /scaron
/guilsinglright /oe /bullet /zcaron /Ydieresis
/space /exclamdown /cent /sterling /currency
/yen /brokenbar /section /dieresis /copyright
/ordfeminine /guillemotleft /logicalnot /sfthyphen /registered
/macron /degree /plusminus /twosuperior /threesuperior
/acute /mu /paragraph /middot /cedilla
/onesuperior /ordmasculine /guillemotright /onequarter /onehalf
/threequarters /questiondown /Agrave /Aacute /Acircumflex
/Atilde /Adieresis /Aring /AE /Ccedilla
/Egrave /Eacute /Ecircumflex /Edieresis /Igrave
/Iacute /Icircumflex /Idieresis /Eth /Ntilde
/Ograve /Oacute /Ocircumflex /Otilde /Odieresis
/multiply /Oslash /Ugrave /Uacute /Ucircumflex
/Udieresis /Yacute /Thorn /germandbls /agrave
/aacute /acircumflex /atilde /adieresis /aring
/ae /ccedilla /egrave /eacute /ecircumflex
/edieresis /igrave /iacute /icircumflex /idieresis
/eth /ntilde /ograve /oacute /ocircumflex
/otilde /odieresis /divide /oslash /ugrave
/uacute /ucircumflex /udieresis /yacute /thorn
/ydieresis
] def
%%EndResource
%FOPBeginFontReencode
/Courier-Bold findfont
dup length dict begin
  {1 index /FID ne {def} {pop pop} ifelse} forall
  /Encoding WinAnsiEncoding def
  currentdict
end
/Courier-Bold exch definefont pop
/Helvetica findfont
dup length dict begin
  {1 index /FID ne {def} {pop pop} ifelse} forall
  /Encoding WinAnsiEncoding def
  currentdict
end
/Helvetica exch definefont pop
/Courier-BoldOblique findfont
dup length dict begin
  {1 index /FID ne {def} {pop pop} ifelse} forall
  /Encoding WinAnsiEncoding def
  currentdict
end
/Courier-BoldOblique exch definefont pop
/Courier-Oblique findfont
dup length dict begin
  {1 index /FID ne {def} {pop pop} ifelse} forall
  /Encoding WinAnsiEncoding def
  currentdict
end
/Courier-Oblique exch definefont pop
/Times-Roman findfont
dup length dict begin
  {1 index /FID ne {def} {pop pop} ifelse} forall
  /Encoding WinAnsiEncoding def
  currentdict
end
/Times-Roman exch definefont pop
/Helvetica-BoldOblique findfont
dup length dict begin
  {1 index /FID ne {def} {pop pop} ifelse} forall
  /Encoding WinAnsiEncoding def
  currentdict
end
/Helvetica-BoldOblique exch definefont pop
/Helvetica-Bold findfont
dup length dict begin
  {1 index /FID ne {def} {pop pop} ifelse} forall
  /Encoding WinAnsiEncoding def
  currentdict
end
/Helvetica-Bold exch definefont pop
/Helvetica-Oblique findfont
dup length dict begin
  {1 index /FID ne {def} {pop pop} ifelse} forall
  /Encoding WinAnsiEncoding def
  currentdict
end
/Helvetica-Oblique exch definefont pop
/Times-BoldItalic findfont
dup length dict begin
  {1 index /FID ne {def} {pop pop} ifelse} forall
  /Encoding WinAnsiEncoding def
  currentdict
end
/Times-BoldItalic exch definefont pop
/Courier findfont
dup length dict begin
  {1 index /FID ne {def} {pop pop} ifelse} forall
  /Encoding WinAnsiEncoding def
  currentdict
end
/Courier exch definefont pop
/Times-Italic findfont
dup length dict begin
  {1 index /FID ne {def} {pop pop} ifelse} forall
  /Encoding WinAnsiEncoding def
  currentdict
end
/Times-Italic exch definefont pop
/Times-Bold findfont
dup length dict begin
  {1 index /FID ne {def} {pop pop} ifelse} forall
  /Encoding WinAnsiEncoding def
  currentdict
end
/Times-Bold exch definefont pop
%FOPEndFontReencode
%%EndProlog
%%Page: 1 1
%%PageBoundingBox: 0 0 1050 706
%%BeginPageSetup
[1 0 0 -1 0 706] CT
%%EndPageSetup
GS
[0.75 0 0 0.75 0 0.25] CT
N
0 0 M
1400 0 L
1400 941 L
0 941 L
0 0 L
cp
clip
1 GC
N
0 0 1400 941 re
f
GR
GS
[0.75 0 0 0.75 0 0.25] CT
1 GC
N
0 0 1400 941 re
f
GR
GS
[0.75 0 0 0.75 0 0.25] CT
1 GC
N
182 837 M
1267 837 L
1267 71 L
182 71 L
cp
f
GR
GS
[0.75 0 0 0.75 0 0.25] CT
0.149 GC
2 setlinecap
1 LJ
0.667 LW
N
182 837 M
1267 837 L
S
GR
GS
[0.75 0 0 0.75 0 0.25] CT
0.149 GC
2 setlinecap
1 LJ
0.667 LW
N
182 71 M
1267 71 L
S
GR
GS
[0.75 0 0 0.75 0 0.25] CT
0.149 GC
2 setlinecap
1 LJ
0.667 LW
N
182 837 M
182 826.15 L
S
GR
GS
[0.75 0 0 0.75 0 0.25] CT
0.149 GC
2 setlinecap
1 LJ
0.667 LW
N
290.5 837 M
290.5 826.15 L
S
GR
GS
[0.75 0 0 0.75 0 0.25] CT
0.149 GC
2 setlinecap
1 LJ
0.667 LW
N
399 837 M
399 826.15 L
S
GR
GS
[0.75 0 0 0.75 0 0.25] CT
0.149 GC
2 setlinecap
1 LJ
0.667 LW
N
507.5 837 M
507.5 826.15 L
S
GR
GS
[0.75 0 0 0.75 0 0.25] CT
0.149 GC
2 setlinecap
1 LJ
0.667 LW
N
616 837 M
616 826.15 L
S
GR
GS
[0.75 0 0 0.75 0 0.25] CT
0.149 GC
2 setlinecap
1 LJ
0.667 LW
N
724.5 837 M
724.5 826.15 L
S
GR
GS
[0.75 0 0 0.75 0 0.25] CT
0.149 GC
2 setlinecap
1 LJ
0.667 LW
N
833 837 M
833 826.15 L
S
GR
GS
[0.75 0 0 0.75 0 0.25] CT
0.149 GC
2 setlinecap
1 LJ
0.667 LW
N
941.5 837 M
941.5 826.15 L
S
GR
GS
[0.75 0 0 0.75 0 0.25] CT
0.149 GC
2 setlinecap
1 LJ
0.667 LW
N
1050 837 M
1050 826.15 L
S
GR
GS
[0.75 0 0 0.75 0 0.25] CT
0.149 GC
2 setlinecap
1 LJ
0.667 LW
N
1158.5 837 M
1158.5 826.15 L
S
GR
GS
[0.75 0 0 0.75 0 0.25] CT
0.149 GC
2 setlinecap
1 LJ
0.667 LW
N
1267 837 M
1267 826.15 L
S
GR
GS
[0.75 0 0 0.75 0 0.25] CT
0.149 GC
2 setlinecap
1 LJ
0.667 LW
N
182 71 M
182 81.85 L
S
GR
GS
[0.75 0 0 0.75 0 0.25] CT
0.149 GC
2 setlinecap
1 LJ
0.667 LW
N
290.5 71 M
290.5 81.85 L
S
GR
GS
[0.75 0 0 0.75 0 0.25] CT
0.149 GC
2 setlinecap
1 LJ
0.667 LW
N
399 71 M
399 81.85 L
S
GR
GS
[0.75 0 0 0.75 0 0.25] CT
0.149 GC
2 setlinecap
1 LJ
0.667 LW
N
507.5 71 M
507.5 81.85 L
S
GR
GS
[0.75 0 0 0.75 0 0.25] CT
0.149 GC
2 setlinecap
1 LJ
0.667 LW
N
616 71 M
616 81.85 L
S
GR
GS
[0.75 0 0 0.75 0 0.25] CT
0.149 GC
2 setlinecap
1 LJ
0.667 LW
N
724.5 71 M
724.5 81.85 L
S
GR
GS
[0.75 0 0 0.75 0 0.25] CT
0.149 GC
2 setlinecap
1 LJ
0.667 LW
N
833 71 M
833 81.85 L
S
GR
GS
[0.75 0 0 0.75 0 0.25] CT
0.149 GC
2 setlinecap
1 LJ
0.667 LW
N
941.5 71 M
941.5 81.85 L
S
GR
GS
[0.75 0 0 0.75 0 0.25] CT
0.149 GC
2 setlinecap
1 LJ
0.667 LW
N
1050 71 M
1050 81.85 L
S
GR
GS
[0.75 0 0 0.75 0 0.25] CT
0.149 GC
2 setlinecap
1 LJ
0.667 LW
N
1158.5 71 M
1158.5 81.85 L
S
GR
GS
[0.75 0 0 0.75 0 0.25] CT
0.149 GC
2 setlinecap
1 LJ
0.667 LW
N
1267 71 M
1267 81.85 L
S
GR
GS
[0.75 0 0 0.75 136.5 633.60001] CT
0.149 GC
/Helvetica 24 F
GS
[1 0 0 1 0 0] CT
-7 25 moveto 
1 -1 scale
(0) t 
GR
GR
GS
[0.75 0 0 0.75 217.875 633.60001] CT
0.149 GC
/Helvetica 24 F
GS
[1 0 0 1 0 0] CT
-20.5 25 moveto 
1 -1 scale
(200) t 
GR
GR
GS
[0.75 0 0 0.75 299.25 633.60001] CT
0.149 GC
/Helvetica 24 F
GS
[1 0 0 1 0 0] CT
-20.5 25 moveto 
1 -1 scale
(400) t 
GR
GR
GS
[0.75 0 0 0.75 380.625 633.60001] CT
0.149 GC
/Helvetica 24 F
GS
[1 0 0 1 0 0] CT
-20.5 25 moveto 
1 -1 scale
(600) t 
GR
GR
GS
[0.75 0 0 0.75 462 633.60001] CT
0.149 GC
/Helvetica 24 F
GS
[1 0 0 1 0 0] CT
-20.5 25 moveto 
1 -1 scale
(800) t 
GR
GR
GS
[0.75 0 0 0.75 543.375 633.60001] CT
0.149 GC
/Helvetica 24 F
GS
[1 0 0 1 0 0] CT
-27 25 moveto 
1 -1 scale
(1000) t 
GR
GR
GS
[0.75 0 0 0.75 624.75 633.60001] CT
0.149 GC
/Helvetica 24 F
GS
[1 0 0 1 0 0] CT
-27 25 moveto 
1 -1 scale
(1200) t 
GR
GR
GS
[0.75 0 0 0.75 706.125 633.60001] CT
0.149 GC
/Helvetica 24 F
GS
[1 0 0 1 0 0] CT
-27 25 moveto 
1 -1 scale
(1400) t 
GR
GR
GS
[0.75 0 0 0.75 787.5 633.60001] CT
0.149 GC
/Helvetica 24 F
GS
[1 0 0 1 0 0] CT
-27 25 moveto 
1 -1 scale
(1600) t 
GR
GR
GS
[0.75 0 0 0.75 868.875 633.60001] CT
0.149 GC
/Helvetica 24 F
GS
[1 0 0 1 0 0] CT
-27 25 moveto 
1 -1 scale
(1800) t 
GR
GR
GS
[0.75 0 0 0.75 950.25 633.60001] CT
0.149 GC
/Helvetica 24 F
GS
[1 0 0 1 0 0] CT
-27 25 moveto 
1 -1 scale
(2000) t 
GR
GR
GS
[0.75 0 0 0.75 543.37541 657.84999] CT
0.149 GC
/Helvetica 26.4 F
GS
[1 0 0 1 0 0] CT
-44.5 27 moveto 
1 -1 scale
(Delay p) t 
GR
GR
GS
[0.75 0 0 0.75 0 0.25] CT
0.149 GC
2 setlinecap
1 LJ
0.667 LW
N
182 837 M
182 71 L
S
GR
GS
[0.75 0 0 0.75 0 0.25] CT
0.149 GC
2 setlinecap
1 LJ
0.667 LW
N
1267 837 M
1267 71 L
S
GR
GS
[0.75 0 0 0.75 0 0.25] CT
0.149 GC
2 setlinecap
1 LJ
0.667 LW
N
182 837 M
192.85 837 L
S
GR
GS
[0.75 0 0 0.75 0 0.25] CT
0.149 GC
2 setlinecap
1 LJ
0.667 LW
N
182 709.333 M
192.85 709.333 L
S
GR
GS
[0.75 0 0 0.75 0 0.25] CT
0.149 GC
2 setlinecap
1 LJ
0.667 LW
N
182 581.667 M
192.85 581.667 L
S
GR
GS
[0.75 0 0 0.75 0 0.25] CT
0.149 GC
2 setlinecap
1 LJ
0.667 LW
N
182 454 M
192.85 454 L
S
GR
GS
[0.75 0 0 0.75 0 0.25] CT
0.149 GC
2 setlinecap
1 LJ
0.667 LW
N
182 326.333 M
192.85 326.333 L
S
GR
GS
[0.75 0 0 0.75 0 0.25] CT
0.149 GC
2 setlinecap
1 LJ
0.667 LW
N
182 198.667 M
192.85 198.667 L
S
GR
GS
[0.75 0 0 0.75 0 0.25] CT
0.149 GC
2 setlinecap
1 LJ
0.667 LW
N
182 71 M
192.85 71 L
S
GR
GS
[0.75 0 0 0.75 0 0.25] CT
0.149 GC
2 setlinecap
1 LJ
0.667 LW
N
1267 837 M
1256.15 837 L
S
GR
GS
[0.75 0 0 0.75 0 0.25] CT
0.149 GC
2 setlinecap
1 LJ
0.667 LW
N
1267 709.333 M
1256.15 709.333 L
S
GR
GS
[0.75 0 0 0.75 0 0.25] CT
0.149 GC
2 setlinecap
1 LJ
0.667 LW
N
1267 581.667 M
1256.15 581.667 L
S
GR
GS
[0.75 0 0 0.75 0 0.25] CT
0.149 GC
2 setlinecap
1 LJ
0.667 LW
N
1267 454 M
1256.15 454 L
S
GR
GS
[0.75 0 0 0.75 0 0.25] CT
0.149 GC
2 setlinecap
1 LJ
0.667 LW
N
1267 326.333 M
1256.15 326.333 L
S
GR
GS
[0.75 0 0 0.75 0 0.25] CT
0.149 GC
2 setlinecap
1 LJ
0.667 LW
N
1267 198.667 M
1256.15 198.667 L
S
GR
GS
[0.75 0 0 0.75 0 0.25] CT
0.149 GC
2 setlinecap
1 LJ
0.667 LW
N
1267 71 M
1256.15 71 L
S
GR
GS
[0.75 0 0 0.75 130.90001 628] CT
0.149 GC
/Helvetica 24 F
GS
[1 0 0 1 0 0] CT
-14 9.5 moveto 
1 -1 scale
(0) t 
GR
GR
GS
[0.75 0 0 0.75 130.90001 532.24998] CT
0.149 GC
/Helvetica 24 F
GS
[1 0 0 1 0 0] CT
-14 9.5 moveto 
1 -1 scale
(1) t 
GR
GR
GS
[0.75 0 0 0.75 130.90001 436.50002] CT
0.149 GC
/Helvetica 24 F
GS
[1 0 0 1 0 0] CT
-14 9.5 moveto 
1 -1 scale
(2) t 
GR
GR
GS
[0.75 0 0 0.75 130.90001 340.75] CT
0.149 GC
/Helvetica 24 F
GS
[1 0 0 1 0 0] CT
-14 9.5 moveto 
1 -1 scale
(3) t 
GR
GR
GS
[0.75 0 0 0.75 130.90001 245.00001] CT
0.149 GC
/Helvetica 24 F
GS
[1 0 0 1 0 0] CT
-14 9.5 moveto 
1 -1 scale
(4) t 
GR
GR
GS
[0.75 0 0 0.75 130.90001 149.25] CT
0.149 GC
/Helvetica 24 F
GS
[1 0 0 1 0 0] CT
-14 9.5 moveto 
1 -1 scale
(5) t 
GR
GR
GS
[0.75 0 0 0.75 130.90001 53.5] CT
0.149 GC
/Helvetica 24 F
GS
[1 0 0 1 0 0] CT
-14 9.5 moveto 
1 -1 scale
(6) t 
GR
GR
GS
[0 -0.75 0.75 0 117.40001 340.74973] CT
0.149 GC
/Helvetica 26.4 F
GS
[1 0 0 1 0 0] CT
-87.5 -6 moveto 
1 -1 scale
(Autocorrelation) t 
GR
GR
GS
[0.75 0 0 0.75 136.5 49] CT
0.149 GC
N
3.531 -0.688 M
3.531 -0.875 3.641 -1.031 QT
8.641 -6 L
3.641 -11 L
3.531 -11.109 3.531 -11.313 QT
3.531 -11.484 3.672 -11.641 QT
3.813 -11.797 4.016 -11.797 QT
4.172 -11.797 4.375 -11.641 QT
9.344 -6.672 L
14.281 -11.641 L
14.484 -11.797 14.641 -11.797 QT
14.844 -11.797 14.984 -11.656 QT
15.125 -11.516 15.125 -11.313 QT
15.125 -11.109 15 -11 QT
10.016 -6 L
15 -1.031 L
15.125 -0.875 15.125 -0.688 QT
15.125 -0.5 14.984 -0.359 QT
14.844 -0.219 14.641 -0.219 QT
14.469 -0.219 14.281 -0.391 QT
9.344 -5.328 L
4.375 -0.391 L
4.203 -0.219 4.016 -0.219 QT
3.813 -0.219 3.672 -0.367 QT
3.531 -0.516 3.531 -0.688 QT
cp
f
GR
GS
[0.75 0 0 0.75 150.75 49] CT
0.149 GC
/Helvetica 24 F
GS
[1 0 0 1 0 0] CT
0 0 moveto 
1 -1 scale
(10) t 
GR
GR
GS
[0.75 0 0 0.75 171 40] CT
0.149 GC
/Helvetica 19.2 F
GS
[1 0 0 1 0 0] CT
0 0 moveto 
1 -1 scale
(6) t 
GR
GR
GS
[0.75 0 0 0.75 0 0.25] CT
0 0.447 0.741 RC
1 LJ
0.667 LW
N
182.542 836.747 M
183.085 836.443 L
183.628 836.355 L
184.17 836.286 L
184.712 835.692 L
185.255 833.676 L
185.798 831.512 L
186.34 831.372 L
186.883 832.675 L
187.425 833.91 L
187.967 834.369 L
188.51 833.728 L
189.053 831.252 L
189.595 827.128 L
190.137 825.411 L
190.68 827.597 L
191.223 830.643 L
191.765 832.284 L
192.307 832.035 L
192.85 829.506 L
193.393 824.185 L
193.935 819.907 L
194.477 821.426 L
195.02 826.142 L
195.563 829.588 L
196.105 830.332 L
196.648 828.185 L
197.19 822.502 L
197.732 815.609 L
198.275 814.777 L
198.818 820.331 L
199.36 825.954 L
199.902 828.312 L
200.445 827.005 L
200.988 821.547 L
201.53 812.851 L
202.072 808.531 L
202.615 813.388 L
203.158 821.148 L
203.7 825.683 L
204.242 825.765 L
204.785 821.073 L
205.327 811.615 L
205.87 803.545 L
206.413 805.786 L
206.955 814.91 L
207.497 822.101 L
208.04 824.193 L
208.583 820.822 L
209.125 811.507 L
209.667 800.275 L
210.21 798.318 L
210.753 807.375 L
211.295 817.341 L
211.837 821.955 L
212.38 820.459 L
212.923 812.158 L
213.465 798.92 L
214.008 791.839 L
214.55 798.826 L
215.092 811.132 L
215.635 818.826 L
216.178 819.663 L
216.72 813.144 L
217.262 799.346 L
217.805 787.173 L
218.348 789.875 L
218.89 803.37 L
219.432 814.533 L
219.975 818.22 L
220.518 814.069 L
221.06 801.164 L
221.602 784.896 L
222.145 781.395 L
222.688 794.132 L
223.23 808.727 L
223.773 815.843 L
224.315 814.471 L
224.857 803.679 L
225.4 785.208 L
225.943 774.44 L
226.485 783.748 L
227.027 801.158 L
227.57 812.319 L
228.113 814.165 L
228.655 806.276 L
229.197 787.903 L
229.74 770.213 L
230.283 773.008 L
230.825 791.619 L
231.367 807.215 L
231.91 812.826 L
232.452 808.337 L
232.995 792.097 L
233.538 769.485 L
234.08 763.109 L
234.622 780.153 L
235.165 800.176 L
235.708 810.191 L
236.25 809.393 L
236.792 796.645 L
237.335 772.404 L
237.878 755.867 L
238.42 767.258 L
238.962 790.786 L
239.505 805.942 L
240.048 809.206 L
240.59 800.619 L
241.133 778.068 L
241.675 753.068 L
242.217 754.187 L
242.76 778.742 L
243.303 799.626 L
243.845 807.58 L
244.387 803.347 L
244.93 784.771 L
245.473 755.565 L
246.015 743.462 L
246.557 764.149 L
247.1 790.654 L
247.643 804.205 L
248.185 804.497 L
248.727 790.895 L
249.27 762.368 L
249.813 738.085 L
250.355 748.23 L
250.898 778.335 L
251.44 798.542 L
251.982 803.853 L
252.525 795.338 L
253.068 770.853 L
253.61 739.824 L
254.152 734.518 L
254.695 762.326 L
255.238 789.796 L
255.78 801.134 L
256.323 797.744 L
256.865 778.666 L
257.408 747.056 L
257.95 727.423 L
258.492 744.443 L
259.035 776.866 L
259.578 795.735 L
260.12 797.913 L
260.663 784.478 L
261.205 756.371 L
261.747 728.923 L
262.29 729.792 L
262.832 759.372 L
263.375 786.479 L
263.918 795.489 L
264.46 787.784 L
265.003 764.772 L
265.545 736.06 L
266.087 724.053 L
266.63 741.416 L
267.172 771.517 L
267.715 789.531 L
268.258 788.299 L
268.8 770.86 L
269.342 744.542 L
269.885 726.472 L
270.427 730.872 L
270.97 753.547 L
271.513 777.169 L
272.055 785.198 L
272.598 773.99 L
273.14 751.595 L
273.682 732.288 L
274.225 729.195 L
274.767 742.108 L
275.31 760.824 L
275.853 774.643 L
276.395 773.041 L
276.938 756.288 L
277.48 737.727 L
278.022 731.346 L
278.565 738.703 L
279.108 752.08 L
279.65 761.972 L
280.193 763.113 L
280.735 754.528 L
281.277 741.707 L
281.82 734.754 L
282.362 738.458 L
282.905 748.745 L
283.448 757.823 L
283.99 759.54 L
284.533 752.298 L
285.075 740.747 L
285.617 732.988 L
286.16 735.401 L
286.703 744.64 L
287.245 753.121 L
287.788 754.757 L
288.33 748.639 L
288.872 738.745 L
289.415 731.863 L
289.957 732.925 L
290.5 740.892 L
291.043 748.765 L
291.585 750.461 L
292.128 744.756 L
292.67 735.853 L
293.212 730.217 L
293.755 730.741 L
294.297 737.317 L
294.84 744.681 L
295.383 746.531 L
295.925 741.115 L
296.467 732.681 L
297.01 727.743 L
297.552 728.476 L
298.095 734.048 L
298.638 740.806 L
299.18 742.834 L
299.723 737.707 L
300.265 729.48 L
300.807 724.596 L
301.35 725.86 L
301.892 730.937 L
302.435 737.086 L
302.978 739.206 L
303.52 734.532 L
304.063 726.392 L
304.605 721.414 L
305.147 722.878 L
305.69 727.913 L
306.233 733.404 L
306.775 735.539 L
307.318 731.378 L
307.86 723.454 L
308.402 718.332 L
308.945 719.529 L
309.487 724.779 L
310.03 729.884 L
310.573 731.97 L
311.115 728.228 L
311.658 720.643 L
312.2 715.28 L
312.742 715.989 L
313.285 721.377 L
313.828 726.412 L
314.37 728.308 L
314.913 725.057 L
315.455 717.858 L
315.997 712.264 L
316.54 712.519 L
317.082 717.729 L
317.625 722.871 L
318.168 724.646 L
318.71 721.859 L
319.253 715.26 L
319.795 709.513 L
320.337 709.137 L
320.88 713.868 L
321.422 719.128 L
321.965 721.023 L
322.508 718.51 L
323.05 712.502 L
323.592 706.885 L
324.135 705.933 L
324.677 709.936 L
325.22 715.283 L
325.763 717.273 L
326.305 715.111 L
326.848 709.636 L
327.39 704.235 L
327.932 702.765 L
328.475 706.086 L
329.017 711.32 L
329.56 713.625 L
330.103 711.759 L
330.645 706.86 L
331.188 701.66 L
331.73 699.811 L
332.272 702.366 L
332.815 707.28 L
333.358 709.953 L
333.9 708.439 L
334.443 704.018 L
334.985 699.068 L
335.527 696.895 L
336.07 698.735 L
336.612 703.057 L
337.155 706.182 L
337.698 705.288 L
338.24 701.236 L
338.783 696.436 L
339.325 693.872 L
339.867 695.087 L
340.41 698.842 L
340.953 702.256 L
341.495 702.085 L
342.038 698.591 L
342.58 693.876 L
343.122 690.913 L
343.665 691.466 L
344.207 694.658 L
344.75 698.26 L
345.293 698.921 L
345.835 696.128 L
346.378 691.556 L
346.92 688.036 L
347.462 687.794 L
348.005 690.508 L
348.547 694.234 L
349.09 695.752 L
349.633 693.645 L
350.175 689.288 L
350.717 685.317 L
351.26 684.222 L
351.802 686.219 L
352.345 690.012 L
352.888 692.577 L
353.43 691.502 L
353.973 687.203 L
354.515 682.595 L
355.057 680.605 L
355.6 681.923 L
356.142 685.644 L
356.685 689.112 L
357.228 689.252 L
357.77 685.401 L
358.313 680.07 L
358.855 676.98 L
359.397 677.533 L
359.94 681.137 L
360.483 685.59 L
361.025 687.076 L
361.568 683.871 L
362.11 677.872 L
362.652 673.463 L
363.195 673.028 L
363.737 676.527 L
364.28 681.85 L
364.823 684.849 L
365.365 682.523 L
365.908 675.969 L
366.45 670.068 L
366.992 668.463 L
367.535 671.631 L
368.078 677.846 L
368.62 682.471 L
369.163 681.475 L
369.705 674.505 L
370.247 666.848 L
370.79 663.762 L
371.332 666.492 L
371.875 673.409 L
372.418 679.825 L
372.96 680.555 L
373.503 673.582 L
374.045 664.004 L
374.587 658.977 L
375.13 661.072 L
375.672 668.667 L
376.215 676.88 L
376.758 679.674 L
377.3 673.285 L
377.842 661.796 L
378.385 654.264 L
378.927 655.188 L
379.47 663.32 L
380.013 673.381 L
380.555 678.64 L
381.098 673.504 L
381.64 660.413 L
382.182 649.869 L
382.725 649.154 L
383.267 657.581 L
383.81 669.408 L
384.353 677.346 L
384.895 674.277 L
385.438 660.081 L
385.98 646.034 L
386.522 642.767 L
387.065 651.273 L
387.608 664.975 L
388.15 675.559 L
388.693 675.086 L
389.235 660.882 L
389.777 643.57 L
390.32 637.368 L
390.862 645.641 L
391.405 661.382 L
391.948 675.172 L
392.49 678.015 L
393.033 665.185 L
393.575 644.677 L
394.117 633.963 L
394.66 640.518 L
395.203 657.853 L
395.745 674.747 L
396.288 681.305 L
396.83 670.667 L
397.372 646.391 L
397.915 626.432 L
398.457 627.988 L
399 647.946 L
399.543 670.479 L
400.085 682.31 L
400.628 675.576 L
401.17 650.46 L
401.712 624.604 L
402.255 618.963 L
402.797 635.86 L
403.34 661.539 L
403.883 679.729 L
404.425 679.388 L
404.967 656.499 L
405.51 624.736 L
406.052 611.77 L
406.595 626.114 L
407.138 652.058 L
407.68 673.562 L
408.223 679.824 L
408.765 662.773 L
409.307 628.18 L
409.85 605.769 L
410.392 616.006 L
410.935 643.949 L
411.478 667.154 L
412.02 677.133 L
412.563 666.806 L
413.105 633.757 L
413.647 602.397 L
414.19 605.418 L
414.733 634.869 L
415.275 661.615 L
415.818 673.657 L
416.36 668.194 L
416.902 639.932 L
417.445 602.433 L
417.987 595.125 L
418.53 624.01 L
419.073 655.539 L
419.615 670.476 L
420.158 667.847 L
420.7 645.115 L
421.242 606.135 L
421.785 586.894 L
422.328 611.341 L
422.87 647.67 L
423.413 667.337 L
423.955 667.188 L
424.497 648.554 L
425.04 612.163 L
425.582 582.738 L
426.125 597.484 L
426.668 637.29 L
427.21 662.853 L
427.753 666.393 L
428.295 650.832 L
428.837 618.528 L
429.38 584.082 L
429.922 585.125 L
430.465 623.604 L
431.008 656.032 L
431.55 664.535 L
432.092 652.285 L
432.635 623.923 L
433.177 589.8 L
433.72 578.068 L
434.263 607.608 L
434.805 645.927 L
435.348 660.914 L
435.89 652.689 L
436.432 627.735 L
436.975 596.59 L
437.517 578.415 L
438.06 593.693 L
438.603 631.404 L
439.145 654.439 L
439.688 651.615 L
440.23 630.156 L
440.772 602.159 L
441.315 583.423 L
441.858 587.471 L
442.4 615.214 L
442.943 643.116 L
443.485 648.039 L
444.027 631.177 L
444.57 605.791 L
445.112 588.481 L
445.655 588.462 L
446.198 604.794 L
446.74 628.131 L
447.283 639.614 L
447.825 630.559 L
448.367 610.085 L
448.91 593.592 L
449.453 590.474 L
449.995 600.307 L
450.538 615.95 L
451.08 626.044 L
451.622 623.704 L
452.165 610.7 L
452.707 598.813 L
453.25 597.899 L
453.793 604.487 L
454.335 610.788 L
454.878 613.976 L
455.42 609.483 L
455.962 602.118 L
456.505 598.256 L
457.047 601.857 L
457.59 609.667 L
458.133 614.151 L
458.675 611.706 L
459.217 603.116 L
459.76 593.315 L
460.302 589.378 L
460.845 595.001 L
461.388 608.274 L
461.93 617.447 L
462.473 613.906 L
463.015 602.136 L
463.557 588.233 L
464.1 582.946 L
464.642 588.494 L
465.185 600.958 L
465.728 614.261 L
466.27 615.861 L
466.813 604.124 L
467.355 587.654 L
467.897 576.846 L
468.44 581.035 L
468.983 593.876 L
469.525 607.401 L
470.068 614.836 L
470.61 607.303 L
471.152 590.897 L
471.695 574.635 L
472.237 572.696 L
472.78 584.985 L
473.323 599.04 L
473.865 609.573 L
474.408 609.911 L
474.95 596.048 L
475.492 577.71 L
476.035 566.457 L
476.578 574.109 L
477.12 589.385 L
477.663 600.95 L
478.205 607.989 L
478.747 603.106 L
479.29 584.818 L
479.832 565.807 L
480.375 562.86 L
480.918 577.075 L
481.46 590.652 L
482.003 600.691 L
482.545 606.041 L
483.087 597.084 L
483.63 572.959 L
484.172 554.963 L
484.715 561.292 L
485.258 578.104 L
485.8 589.646 L
486.342 601.256 L
486.885 606.418 L
487.427 591.78 L
487.97 559.76 L
488.513 543.601 L
489.055 558.1 L
489.598 575.323 L
490.14 588.512 L
490.682 603.023 L
491.225 606.454 L
491.767 585.689 L
492.31 546.09 L
492.853 530.889 L
493.395 554.242 L
493.938 574.464 L
494.48 591.367 L
495.022 605.779 L
495.565 603.612 L
496.108 579.552 L
496.65 543.706 L
497.193 531.927 L
497.735 549.27 L
498.277 570.032 L
498.82 591.502 L
499.362 603.491 L
499.905 594.839 L
500.448 566.977 L
500.99 537.971 L
501.533 535.385 L
502.075 552.196 L
502.617 571.34 L
503.16 589.55 L
503.703 595.908 L
504.245 582.074 L
504.788 554.126 L
505.33 535.865 L
505.872 541.48 L
506.415 557.368 L
506.957 572.657 L
507.5 583.466 L
508.043 583.913 L
508.585 567.642 L
509.128 545.093 L
509.67 538.773 L
510.212 549.27 L
510.755 562.85 L
511.297 571.967 L
511.84 572.978 L
512.383 567.317 L
512.925 554.202 L
513.468 543.327 L
514.01 546.038 L
514.552 557.309 L
515.095 566.724 L
515.638 569.334 L
516.18 565.499 L
516.722 559.363 L
517.265 550.614 L
517.807 547.382 L
518.35 554.052 L
518.893 561.949 L
519.435 564.696 L
519.977 559.961 L
520.52 555.324 L
521.063 553.463 L
521.605 550.183 L
522.148 551.896 L
522.69 558.256 L
523.232 559.504 L
523.775 554.023 L
524.318 546.279 L
524.86 548.576 L
525.403 553.973 L
525.945 554.073 L
526.487 556.56 L
527.03 557.278 L
527.573 549.886 L
528.115 537.553 L
528.657 536.372 L
529.2 549.98 L
529.742 560.006 L
530.285 559.484 L
530.828 557.855 L
531.37 549.039 L
531.912 532.164 L
532.455 521.459 L
532.997 535.187 L
533.54 558.47 L
534.083 568.607 L
534.625 563.225 L
535.167 552.643 L
535.71 531.799 L
536.253 509.794 L
536.795 513.501 L
537.338 543.309 L
537.88 569.783 L
538.422 576.911 L
538.965 564.103 L
539.508 539.381 L
540.05 505.362 L
540.593 490.94 L
541.135 517.746 L
541.677 556.099 L
542.22 578.487 L
542.763 581.7 L
543.305 563.462 L
543.847 520.093 L
544.39 475.01 L
544.932 483.058 L
545.475 530.365 L
546.018 567.04 L
546.56 580.924 L
547.102 577.678 L
547.645 554.345 L
548.188 504.234 L
548.73 461.985 L
549.273 486.36 L
549.815 540.784 L
550.357 571.173 L
550.9 577.344 L
551.443 565.494 L
551.985 531.339 L
552.528 485.512 L
553.07 471.473 L
553.612 507.787 L
554.155 548.401 L
554.698 567.356 L
555.24 566.907 L
555.782 545.37 L
556.325 506.341 L
556.867 478.314 L
557.41 489.041 L
557.953 525.215 L
558.495 552.737 L
559.037 561.066 L
559.58 550.135 L
560.122 520.389 L
560.665 489.477 L
561.208 484.68 L
561.75 507.188 L
562.292 535.865 L
562.835 552.154 L
563.378 549.346 L
563.92 527.699 L
564.463 499.465 L
565.005 486.352 L
565.547 497.794 L
566.09 520.867 L
566.633 540.189 L
567.175 545.136 L
567.718 530.504 L
568.26 505.99 L
568.802 489.783 L
569.345 493.203 L
569.888 510.36 L
570.43 528.566 L
570.972 537.785 L
571.515 530.293 L
572.057 509.473 L
572.6 492.742 L
573.143 491.392 L
573.685 503.675 L
574.227 519.037 L
574.77 529.562 L
575.313 527.14 L
575.855 511.302 L
576.398 494.677 L
576.94 490.426 L
577.482 498.97 L
578.025 511.995 L
578.568 521.823 L
579.11 522.028 L
579.653 510.638 L
580.195 495.738 L
580.737 489.713 L
581.28 495.517 L
581.823 506.447 L
582.365 515.138 L
582.907 516.55 L
583.45 507.97 L
583.992 495.548 L
584.535 488.831 L
585.078 492.747 L
585.62 501.993 L
586.162 509.844 L
586.705 511.273 L
587.247 504.208 L
587.79 493.905 L
588.333 487.746 L
588.875 490.198 L
589.417 498.33 L
589.96 505.342 L
590.503 506.643 L
591.045 500.343 L
591.588 491.098 L
592.13 485.9 L
592.672 487.69 L
593.215 494.895 L
593.758 501.404 L
594.3 502.748 L
594.843 496.679 L
595.385 487.828 L
595.927 483.316 L
596.47 485 L
597.013 491.445 L
597.555 497.873 L
598.097 499.012 L
598.64 493.452 L
599.182 484.635 L
599.725 480.168 L
600.268 481.941 L
600.81 487.913 L
601.352 494.398 L
601.895 495.771 L
602.438 490.61 L
602.98 481.761 L
603.523 476.693 L
604.065 478.594 L
604.607 484.24 L
605.15 490.617 L
605.693 492.553 L
606.235 487.946 L
606.778 479.286 L
607.32 473.596 L
607.862 474.685 L
608.405 480.168 L
608.948 486.797 L
609.49 489.495 L
610.032 485.461 L
610.575 477.28 L
611.117 470.865 L
611.66 470.675 L
612.203 475.658 L
612.745 482.364 L
613.287 486.232 L
613.83 482.994 L
614.372 475.653 L
614.915 468.667 L
615.458 467.051 L
616 470.913 L
616.542 477.211 L
617.085 482.297 L
617.628 480.874 L
618.17 474.095 L
618.713 467.076 L
619.255 463.885 L
619.797 466.188 L
620.34 471.674 L
620.883 477.461 L
621.425 478.393 L
621.968 473.053 L
622.51 466.518 L
623.052 461.756 L
623.595 461.666 L
624.138 465.263 L
624.68 470.773 L
625.222 474.855 L
625.765 472.985 L
626.307 467.484 L
626.85 461.911 L
627.393 459.581 L
627.935 461.81 L
628.477 467.444 L
629.02 473.338 L
629.563 471.877 L
630.105 463.843 L
630.648 457.638 L
631.19 455.199 L
631.732 457.005 L
632.275 462.226 L
632.818 469.307 L
633.36 472.242 L
633.903 465.736 L
634.445 455.326 L
634.987 449.143 L
635.53 449.699 L
636.073 455.415 L
636.615 464.034 L
637.157 470.538 L
637.7 468.07 L
638.242 457.387 L
638.785 446.919 L
639.328 442.03 L
639.87 445.759 L
640.412 456.024 L
640.955 466.636 L
641.497 469.463 L
642.04 460.868 L
642.583 448.344 L
643.125 438.257 L
643.667 435.887 L
644.21 444.707 L
644.753 459.097 L
645.295 468.125 L
645.838 464.825 L
646.38 451.949 L
646.922 438.939 L
647.465 429.461 L
648.008 431.959 L
648.55 447.369 L
649.093 463.043 L
649.635 466.668 L
650.177 457.826 L
650.72 442.414 L
651.263 428.326 L
651.805 421.314 L
652.347 432.187 L
652.89 452.633 L
653.432 464.779 L
653.975 462.593 L
654.518 449.981 L
655.06 432.064 L
655.602 416.328 L
656.145 416.551 L
656.688 436.686 L
657.23 457.193 L
657.773 463.511 L
658.315 457.541 L
658.857 442.137 L
659.4 419.274 L
659.943 404.542 L
660.485 416.498 L
661.028 442.442 L
661.57 458.558 L
662.112 460.924 L
662.655 453.786 L
663.198 434.131 L
663.74 403.798 L
664.282 394.343 L
664.825 418.779 L
665.367 446.033 L
665.91 457.557 L
666.453 458.589 L
666.995 451.933 L
667.537 426.448 L
668.08 388.198 L
668.622 386.212 L
669.165 421.342 L
669.708 446.847 L
670.25 456.012 L
670.792 457.728 L
671.335 449.348 L
671.878 420.544 L
672.42 382.636 L
672.963 380.968 L
673.505 414.736 L
674.047 443.31 L
674.59 455.573 L
675.133 456.926 L
675.675 442.311 L
676.218 408.294 L
676.76 380.458 L
677.302 387.419 L
677.845 412.421 L
678.388 437.618 L
678.93 454.556 L
679.472 452.649 L
680.015 428.197 L
680.557 393.102 L
681.1 380.098 L
681.643 395.283 L
682.185 417.073 L
682.727 438.213 L
683.27 451.46 L
683.813 439.579 L
684.355 407.018 L
684.898 380.944 L
685.44 384.782 L
685.982 405.988 L
686.525 425.909 L
687.068 440.092 L
687.61 440.209 L
688.153 415.818 L
688.695 385.615 L
689.237 378.567 L
689.78 397.389 L
690.323 420.847 L
690.865 433.561 L
691.407 432.786 L
691.95 415.47 L
692.492 387.648 L
693.035 374.654 L
693.578 390.888 L
694.12 418.405 L
694.662 434.634 L
695.205 429.477 L
695.747 408.116 L
696.29 381.394 L
696.833 368.963 L
697.375 384.048 L
697.917 417.337 L
698.46 440.553 L
699.003 435.126 L
699.545 403.285 L
700.088 367.326 L
700.63 353.842 L
701.172 374.987 L
701.715 415.759 L
702.258 449.196 L
702.8 449.228 L
703.343 409.582 L
703.885 353.664 L
704.427 327.152 L
704.97 354.321 L
705.513 411.252 L
706.055 458.465 L
706.597 469.472 L
707.14 428.908 L
707.682 352.049 L
708.225 295.732 L
708.768 315.491 L
709.31 393.84 L
709.852 466.29 L
710.395 493.229 L
710.938 461.633 L
711.48 370.073 L
712.023 272.615 L
712.565 261.819 L
713.107 351.866 L
713.65 460.444 L
714.193 518.102 L
714.735 504.296 L
715.278 413.975 L
715.82 274.245 L
716.362 204.781 L
716.905 283.778 L
717.448 424.953 L
717.99 524.055 L
718.532 548.868 L
719.075 485.214 L
719.617 326.841 L
720.16 167.754 L
720.703 190.249 L
721.245 355.278 L
721.787 496.826 L
722.33 558.244 L
722.872 543.044 L
723.415 435.389 L
723.958 230.586 L
724.5 98.78 L
725.042 230.586 L
725.585 435.389 L
726.128 543.044 L
726.67 558.244 L
727.213 496.826 L
727.755 355.278 L
728.297 190.249 L
728.84 167.754 L
729.383 326.841 L
729.925 485.214 L
730.468 548.868 L
731.01 524.055 L
731.552 424.953 L
732.095 283.778 L
732.638 204.781 L
733.18 274.245 L
733.722 413.975 L
734.265 504.296 L
734.807 518.102 L
735.35 460.444 L
735.893 351.866 L
736.435 261.819 L
736.977 272.615 L
737.52 370.073 L
738.063 461.633 L
738.605 493.229 L
739.148 466.29 L
739.69 393.84 L
740.232 315.491 L
740.775 295.732 L
741.318 352.049 L
741.86 428.908 L
742.403 469.472 L
742.945 458.465 L
743.487 411.252 L
744.03 354.321 L
744.573 327.152 L
745.115 353.664 L
745.657 409.582 L
746.2 449.228 L
746.742 449.196 L
747.285 415.759 L
747.828 374.987 L
748.37 353.842 L
748.912 367.326 L
749.455 403.285 L
749.997 435.126 L
750.54 440.553 L
751.083 417.337 L
751.625 384.048 L
752.167 368.963 L
752.71 381.394 L
753.253 408.116 L
753.795 429.477 L
754.338 434.634 L
754.88 418.405 L
755.422 390.888 L
755.965 374.654 L
756.508 387.648 L
757.05 415.47 L
757.593 432.786 L
758.135 433.561 L
758.677 420.847 L
759.22 397.389 L
759.763 378.567 L
760.305 385.615 L
760.847 415.818 L
761.39 440.209 L
761.932 440.092 L
762.475 425.909 L
763.018 405.988 L
763.56 384.782 L
764.102 380.944 L
764.645 407.018 L
765.188 439.579 L
765.73 451.46 L
766.273 438.213 L
766.815 417.073 L
767.357 395.283 L
767.9 380.098 L
768.443 393.102 L
768.985 428.197 L
769.528 452.649 L
770.07 454.556 L
770.612 437.618 L
771.155 412.421 L
771.698 387.419 L
772.24 380.458 L
772.782 408.294 L
773.325 442.311 L
773.867 456.926 L
774.41 455.573 L
774.953 443.31 L
775.495 414.736 L
776.037 380.968 L
776.58 382.636 L
777.122 420.544 L
777.665 449.348 L
778.208 457.728 L
778.75 456.012 L
779.292 446.847 L
779.835 421.342 L
780.378 386.212 L
780.92 388.198 L
781.463 426.448 L
782.005 451.933 L
782.547 458.589 L
783.09 457.557 L
783.633 446.033 L
784.175 418.779 L
784.718 394.343 L
785.26 403.798 L
785.802 434.131 L
786.345 453.786 L
786.888 460.924 L
787.43 458.558 L
787.972 442.442 L
788.515 416.498 L
789.057 404.542 L
789.6 419.274 L
790.143 442.137 L
790.685 457.541 L
791.227 463.511 L
791.77 457.193 L
792.313 436.686 L
792.855 416.551 L
793.398 416.328 L
793.94 432.064 L
794.482 449.981 L
795.025 462.593 L
795.568 464.779 L
796.11 452.633 L
796.653 432.187 L
797.195 421.314 L
797.737 428.326 L
798.28 442.414 L
798.823 457.826 L
799.365 466.668 L
799.907 463.043 L
800.45 447.369 L
800.992 431.959 L
801.535 429.461 L
802.078 438.939 L
802.62 451.949 L
803.162 464.825 L
803.705 468.125 L
804.247 459.097 L
804.79 444.707 L
805.333 435.887 L
805.875 438.257 L
806.417 448.344 L
806.96 460.868 L
807.503 469.463 L
808.045 466.636 L
808.588 456.024 L
809.13 445.759 L
809.672 442.03 L
810.215 446.919 L
810.758 457.387 L
811.3 468.07 L
811.843 470.538 L
812.385 464.034 L
812.927 455.415 L
813.47 449.699 L
814.013 449.143 L
814.555 455.326 L
815.097 465.736 L
815.64 472.242 L
816.182 469.307 L
816.725 462.226 L
817.268 457.005 L
817.81 455.199 L
818.352 457.638 L
818.895 463.843 L
819.438 471.877 L
819.98 473.338 L
820.523 467.444 L
821.065 461.81 L
821.607 459.581 L
822.15 461.911 L
822.693 467.484 L
823.235 472.985 L
823.778 474.855 L
824.32 470.773 L
824.862 465.263 L
825.405 461.666 L
825.948 461.756 L
826.49 466.518 L
827.032 473.053 L
827.575 478.393 L
828.117 477.461 L
828.66 471.674 L
829.203 466.188 L
829.745 463.885 L
830.287 467.076 L
830.83 474.095 L
831.372 480.874 L
831.915 482.297 L
832.458 477.211 L
833 470.913 L
833.542 467.051 L
834.085 468.667 L
834.628 475.653 L
835.17 482.994 L
835.713 486.232 L
836.255 482.364 L
836.797 475.658 L
837.34 470.675 L
837.883 470.865 L
838.425 477.28 L
838.968 485.461 L
839.51 489.495 L
840.052 486.797 L
840.595 480.168 L
841.138 474.685 L
841.68 473.596 L
842.222 479.286 L
842.765 487.946 L
843.307 492.553 L
843.85 490.617 L
844.393 484.24 L
844.935 478.594 L
845.477 476.693 L
846.02 481.761 L
846.563 490.61 L
847.105 495.771 L
847.648 494.398 L
848.19 487.913 L
848.732 481.941 L
849.275 480.168 L
849.818 484.635 L
850.36 493.452 L
850.903 499.012 L
851.445 497.873 L
851.987 491.445 L
852.53 485 L
853.073 483.316 L
853.615 487.828 L
854.157 496.679 L
854.7 502.748 L
855.242 501.404 L
855.785 494.895 L
856.328 487.69 L
856.87 485.9 L
857.412 491.098 L
857.955 500.343 L
858.497 506.643 L
859.04 505.342 L
859.583 498.33 L
860.125 490.198 L
860.667 487.746 L
861.21 493.905 L
861.753 504.208 L
862.295 511.273 L
862.838 509.844 L
863.38 501.993 L
863.922 492.747 L
864.465 488.831 L
865.008 495.548 L
865.55 507.97 L
866.093 516.55 L
866.635 515.138 L
867.177 506.447 L
867.72 495.517 L
868.263 489.713 L
868.805 495.738 L
869.347 510.638 L
869.89 522.028 L
870.432 521.823 L
870.975 511.995 L
871.518 498.97 L
872.06 490.426 L
872.602 494.677 L
873.145 511.302 L
873.688 527.14 L
874.23 529.562 L
874.773 519.037 L
875.315 503.675 L
875.857 491.392 L
876.4 492.742 L
876.943 509.473 L
877.485 530.293 L
878.028 537.785 L
878.57 528.566 L
879.112 510.36 L
879.655 493.203 L
880.198 489.783 L
880.74 505.99 L
881.282 530.504 L
881.825 545.136 L
882.367 540.189 L
882.91 520.867 L
883.453 497.794 L
883.995 486.352 L
884.537 499.465 L
885.08 527.699 L
885.622 549.346 L
886.165 552.154 L
886.708 535.865 L
887.25 507.188 L
887.792 484.68 L
888.335 489.477 L
888.878 520.389 L
889.42 550.135 L
889.963 561.066 L
890.505 552.737 L
891.047 525.215 L
891.59 489.041 L
892.133 478.314 L
892.675 506.341 L
893.218 545.37 L
893.76 566.907 L
894.302 567.356 L
894.845 548.401 L
895.388 507.787 L
895.93 471.473 L
896.472 485.512 L
897.015 531.339 L
897.557 565.494 L
898.1 577.344 L
898.643 571.173 L
899.185 540.784 L
899.727 486.36 L
900.27 461.985 L
900.813 504.234 L
901.355 554.345 L
901.898 577.678 L
902.44 580.924 L
902.982 567.04 L
903.525 530.365 L
904.068 483.058 L
904.61 475.01 L
905.153 520.093 L
905.695 563.462 L
906.237 581.7 L
906.78 578.487 L
907.323 556.099 L
907.865 517.746 L
908.407 490.94 L
908.95 505.362 L
909.492 539.381 L
910.035 564.103 L
910.578 576.911 L
911.12 569.783 L
911.662 543.309 L
912.205 513.501 L
912.747 509.794 L
913.29 531.799 L
913.833 552.643 L
914.375 563.225 L
914.917 568.607 L
915.46 558.47 L
916.003 535.187 L
916.545 521.459 L
917.088 532.164 L
917.63 549.039 L
918.172 557.855 L
918.715 559.484 L
919.258 560.006 L
919.8 549.98 L
920.343 536.372 L
920.885 537.553 L
921.427 549.886 L
921.97 557.278 L
922.513 556.56 L
923.055 554.073 L
923.597 553.973 L
924.14 548.576 L
924.682 546.279 L
925.225 554.023 L
925.768 559.504 L
926.31 558.256 L
926.852 551.896 L
927.395 550.183 L
927.938 553.463 L
928.48 555.324 L
929.023 559.961 L
929.565 564.696 L
930.107 561.949 L
930.65 554.052 L
931.193 547.382 L
931.735 550.614 L
932.278 559.363 L
932.82 565.499 L
933.362 569.334 L
933.905 566.724 L
934.448 557.309 L
934.99 546.038 L
935.532 543.327 L
936.075 554.202 L
936.617 567.317 L
937.16 572.978 L
937.703 571.967 L
938.245 562.85 L
938.787 549.27 L
939.33 538.773 L
939.872 545.093 L
940.415 567.642 L
940.958 583.913 L
941.5 583.466 L
942.042 572.657 L
942.585 557.368 L
943.128 541.48 L
943.67 535.865 L
944.213 554.126 L
944.755 582.074 L
945.297 595.908 L
945.84 589.55 L
946.383 571.34 L
946.925 552.196 L
947.468 535.385 L
948.01 537.971 L
948.552 566.977 L
949.095 594.839 L
949.638 603.491 L
950.18 591.502 L
950.722 570.032 L
951.265 549.27 L
951.807 531.927 L
952.35 543.706 L
952.893 579.552 L
953.435 603.612 L
953.977 605.779 L
954.52 591.367 L
955.063 574.464 L
955.605 554.242 L
956.148 530.889 L
956.69 546.09 L
957.232 585.689 L
957.775 606.454 L
958.318 603.023 L
958.86 588.512 L
959.403 575.323 L
959.945 558.1 L
960.487 543.601 L
961.03 559.76 L
961.573 591.78 L
962.115 606.418 L
962.657 601.256 L
963.2 589.646 L
963.742 578.104 L
964.285 561.292 L
964.828 554.963 L
965.37 572.959 L
965.912 597.084 L
966.455 606.041 L
966.997 600.691 L
967.54 590.652 L
968.083 577.075 L
968.625 562.86 L
969.167 565.807 L
969.71 584.818 L
970.253 603.106 L
970.795 607.989 L
971.338 600.95 L
971.88 589.385 L
972.422 574.109 L
972.965 566.457 L
973.508 577.71 L
974.05 596.048 L
974.593 609.911 L
975.135 609.573 L
975.677 599.04 L
976.22 584.985 L
976.763 572.696 L
977.305 574.635 L
977.847 590.897 L
978.39 607.303 L
978.932 614.836 L
979.475 607.401 L
980.018 593.876 L
980.56 581.035 L
981.102 576.846 L
981.645 587.654 L
982.188 604.124 L
982.73 615.861 L
983.273 614.261 L
983.815 600.958 L
984.357 588.494 L
984.9 582.946 L
985.443 588.233 L
985.985 602.136 L
986.528 613.906 L
987.07 617.447 L
987.612 608.274 L
988.155 595.001 L
988.698 589.378 L
989.24 593.315 L
989.782 603.116 L
990.325 611.706 L
990.867 614.151 L
991.41 609.667 L
991.953 601.857 L
992.495 598.256 L
993.037 602.118 L
993.58 609.483 L
994.122 613.976 L
994.665 610.788 L
995.208 604.487 L
995.75 597.899 L
996.292 598.813 L
996.835 610.7 L
997.378 623.704 L
997.92 626.044 L
998.463 615.95 L
999.005 600.307 L
999.547 590.474 L
1000.09 593.592 L
1000.633 610.085 L
1001.175 630.559 L
1001.718 639.614 L
1002.26 628.131 L
1002.802 604.794 L
1003.345 588.462 L
1003.888 588.481 L
1004.43 605.791 L
1004.972 631.177 L
1005.515 648.039 L
1006.057 643.116 L
1006.6 615.214 L
1007.143 587.471 L
1007.685 583.423 L
1008.227 602.159 L
1008.77 630.156 L
1009.313 651.615 L
1009.855 654.439 L
1010.398 631.404 L
1010.94 593.693 L
1011.482 578.415 L
1012.025 596.59 L
1012.568 627.735 L
1013.11 652.689 L
1013.653 660.914 L
1014.195 645.927 L
1014.737 607.608 L
1015.28 578.068 L
1015.823 589.8 L
1016.365 623.923 L
1016.907 652.285 L
1017.45 664.535 L
1017.992 656.032 L
1018.535 623.604 L
1019.078 585.125 L
1019.62 584.082 L
1020.162 618.528 L
1020.705 650.832 L
1021.247 666.393 L
1021.79 662.853 L
1022.333 637.29 L
1022.875 597.484 L
1023.417 582.738 L
1023.96 612.163 L
1024.502 648.554 L
1025.045 667.188 L
1025.588 667.337 L
1026.13 647.67 L
1026.672 611.341 L
1027.215 586.894 L
1027.757 606.135 L
1028.3 645.115 L
1028.843 667.847 L
1029.385 670.476 L
1029.927 655.539 L
1030.47 624.01 L
1031.012 595.125 L
1031.555 602.433 L
1032.098 639.932 L
1032.64 668.194 L
1033.182 673.657 L
1033.725 661.615 L
1034.267 634.869 L
1034.81 605.418 L
1035.353 602.397 L
1035.895 633.757 L
1036.438 666.806 L
1036.98 677.133 L
1037.522 667.154 L
1038.065 643.949 L
1038.608 616.006 L
1039.15 605.769 L
1039.693 628.18 L
1040.235 662.773 L
1040.777 679.824 L
1041.32 673.562 L
1041.863 652.058 L
1042.405 626.114 L
1042.948 611.77 L
1043.49 624.736 L
1044.032 656.499 L
1044.575 679.388 L
1045.118 679.729 L
1045.66 661.539 L
1046.203 635.86 L
1046.745 618.963 L
1047.287 624.604 L
1047.83 650.46 L
1048.373 675.576 L
1048.915 682.31 L
1049.458 670.479 L
1050 647.946 L
1050.542 627.988 L
1051.085 626.432 L
1051.627 646.391 L
1052.17 670.667 L
1052.713 681.305 L
1053.255 674.747 L
1053.797 657.853 L
1054.34 640.518 L
1054.882 633.963 L
1055.425 644.677 L
1055.968 665.185 L
1056.51 678.015 L
1057.052 675.172 L
1057.595 661.382 L
1058.137 645.641 L
1058.68 637.368 L
1059.223 643.57 L
1059.765 660.882 L
1060.307 675.086 L
1060.85 675.559 L
1061.392 664.975 L
1061.935 651.273 L
1062.478 642.767 L
1063.02 646.034 L
1063.563 660.081 L
1064.105 674.277 L
1064.647 677.346 L
1065.19 669.408 L
1065.733 657.581 L
1066.275 649.154 L
1066.818 649.869 L
1067.36 660.413 L
1067.902 673.504 L
1068.445 678.64 L
1068.988 673.381 L
1069.53 663.32 L
1070.073 655.188 L
1070.615 654.264 L
1071.157 661.796 L
1071.7 673.285 L
1072.243 679.674 L
1072.785 676.88 L
1073.328 668.667 L
1073.87 661.072 L
1074.412 658.977 L
1074.955 664.004 L
1075.498 673.582 L
1076.04 680.555 L
1076.583 679.825 L
1077.125 673.409 L
1077.667 666.492 L
1078.21 663.762 L
1078.752 666.848 L
1079.295 674.505 L
1079.838 681.475 L
1080.38 682.471 L
1080.922 677.846 L
1081.465 671.631 L
1082.007 668.463 L
1082.55 670.068 L
1083.093 675.969 L
1083.635 682.523 L
1084.177 684.849 L
1084.72 681.85 L
1085.262 676.527 L
1085.805 673.028 L
1086.348 673.463 L
1086.89 677.872 L
1087.432 683.871 L
1087.975 687.076 L
1088.517 685.59 L
1089.06 681.137 L
1089.603 677.533 L
1090.145 676.98 L
1090.688 680.07 L
1091.23 685.401 L
1091.772 689.252 L
1092.315 689.112 L
1092.858 685.644 L
1093.4 681.923 L
1093.943 680.605 L
1094.485 682.595 L
1095.027 687.203 L
1095.57 691.502 L
1096.113 692.577 L
1096.655 690.012 L
1097.198 686.219 L
1097.74 684.222 L
1098.282 685.317 L
1098.825 689.288 L
1099.368 693.645 L
1099.91 695.752 L
1100.453 694.234 L
1100.995 690.508 L
1101.537 687.794 L
1102.08 688.036 L
1102.623 691.556 L
1103.165 696.128 L
1103.708 698.921 L
1104.25 698.26 L
1104.792 694.658 L
1105.335 691.466 L
1105.877 690.913 L
1106.42 693.876 L
1106.963 698.591 L
1107.505 702.085 L
1108.047 702.256 L
1108.59 698.842 L
1109.132 695.087 L
1109.675 693.872 L
1110.218 696.436 L
1110.76 701.236 L
1111.302 705.288 L
1111.845 706.182 L
1112.387 703.057 L
1112.93 698.735 L
1113.473 696.895 L
1114.015 699.068 L
1114.557 704.018 L
1115.1 708.439 L
1115.642 709.953 L
1116.185 707.28 L
1116.728 702.366 L
1117.27 699.811 L
1117.813 701.66 L
1118.355 706.86 L
1118.897 711.759 L
1119.44 713.625 L
1119.983 711.32 L
1120.525 706.086 L
1121.068 702.765 L
1121.61 704.235 L
1122.152 709.636 L
1122.695 715.111 L
1123.238 717.273 L
1123.78 715.283 L
1124.323 709.936 L
1124.865 705.933 L
1125.407 706.885 L
1125.95 712.502 L
1126.493 718.51 L
1127.035 721.023 L
1127.578 719.128 L
1128.12 713.868 L
1128.662 709.137 L
1129.205 709.513 L
1129.748 715.26 L
1130.29 721.859 L
1130.833 724.646 L
1131.375 722.871 L
1131.917 717.729 L
1132.46 712.519 L
1133.002 712.264 L
1133.545 717.858 L
1134.088 725.057 L
1134.63 728.308 L
1135.172 726.412 L
1135.715 721.377 L
1136.257 715.989 L
1136.8 715.28 L
1137.343 720.643 L
1137.885 728.228 L
1138.427 731.97 L
1138.97 729.884 L
1139.512 724.779 L
1140.055 719.529 L
1140.598 718.332 L
1141.14 723.454 L
1141.682 731.378 L
1142.225 735.539 L
1142.767 733.404 L
1143.31 727.913 L
1143.853 722.878 L
1144.395 721.414 L
1144.938 726.392 L
1145.48 734.532 L
1146.022 739.206 L
1146.565 737.086 L
1147.108 730.937 L
1147.65 725.86 L
1148.193 724.596 L
1148.735 729.48 L
1149.277 737.707 L
1149.82 742.834 L
1150.363 740.806 L
1150.905 734.048 L
1151.448 728.476 L
1151.99 727.743 L
1152.532 732.681 L
1153.075 741.115 L
1153.618 746.531 L
1154.16 744.681 L
1154.703 737.317 L
1155.245 730.741 L
1155.787 730.217 L
1156.33 735.853 L
1156.873 744.756 L
1157.415 750.461 L
1157.958 748.765 L
1158.5 740.892 L
1159.042 732.925 L
1159.585 731.863 L
1160.127 738.745 L
1160.67 748.639 L
1161.213 754.757 L
1161.755 753.121 L
1162.297 744.64 L
1162.84 735.401 L
1163.382 732.988 L
1163.925 740.747 L
1164.468 752.298 L
1165.01 759.54 L
1165.552 757.823 L
1166.095 748.745 L
1166.637 738.458 L
1167.18 734.754 L
1167.723 741.707 L
1168.265 754.528 L
1168.807 763.113 L
1169.35 761.972 L
1169.892 752.08 L
1170.435 738.703 L
1170.978 731.346 L
1171.52 737.727 L
1172.063 756.288 L
1172.605 773.041 L
1173.147 774.643 L
1173.69 760.824 L
1174.233 742.108 L
1174.775 729.195 L
1175.318 732.288 L
1175.86 751.595 L
1176.402 773.99 L
1176.945 785.198 L
1177.488 777.169 L
1178.03 753.547 L
1178.573 730.872 L
1179.115 726.472 L
1179.657 744.542 L
1180.2 770.86 L
1180.743 788.299 L
1181.285 789.531 L
1181.828 771.517 L
1182.37 741.416 L
1182.912 724.053 L
1183.455 736.06 L
1183.998 764.772 L
1184.54 787.784 L
1185.083 795.489 L
1185.625 786.479 L
1186.167 759.372 L
1186.71 729.792 L
1187.252 728.923 L
1187.795 756.371 L
1188.338 784.478 L
1188.88 797.913 L
1189.422 795.735 L
1189.965 776.866 L
1190.507 744.443 L
1191.05 727.423 L
1191.593 747.056 L
1192.135 778.666 L
1192.677 797.744 L
1193.22 801.134 L
1193.762 789.796 L
1194.305 762.326 L
1194.848 734.518 L
1195.39 739.824 L
1195.932 770.853 L
1196.475 795.338 L
1197.017 803.853 L
1197.56 798.542 L
1198.103 778.335 L
1198.645 748.23 L
1199.188 738.085 L
1199.73 762.368 L
1200.272 790.895 L
1200.815 804.497 L
1201.358 804.205 L
1201.9 790.654 L
1202.443 764.149 L
1202.985 743.462 L
1203.527 755.565 L
1204.07 784.771 L
1204.613 803.347 L
1205.155 807.58 L
1205.698 799.626 L
1206.24 778.742 L
1206.782 754.187 L
1207.325 753.068 L
1207.868 778.068 L
1208.41 800.619 L
1208.953 809.206 L
1209.495 805.942 L
1210.037 790.786 L
1210.58 767.258 L
1211.123 755.867 L
1211.665 772.404 L
1212.208 796.645 L
1212.75 809.393 L
1213.292 810.191 L
1213.835 800.176 L
1214.377 780.153 L
1214.92 763.109 L
1215.463 769.485 L
1216.005 792.097 L
1216.547 808.337 L
1217.09 812.826 L
1217.632 807.215 L
1218.175 791.619 L
1218.718 773.008 L
1219.26 770.213 L
1219.802 787.903 L
1220.345 806.276 L
1220.887 814.165 L
1221.43 812.319 L
1221.973 801.158 L
1222.515 783.748 L
1223.057 774.44 L
1223.6 785.208 L
1224.142 803.679 L
1224.685 814.471 L
1225.228 815.843 L
1225.77 808.727 L
1226.313 794.132 L
1226.855 781.395 L
1227.397 784.896 L
1227.94 801.164 L
1228.483 814.069 L
1229.025 818.22 L
1229.568 814.533 L
1230.11 803.37 L
1230.652 789.875 L
1231.195 787.173 L
1231.738 799.346 L
1232.28 813.144 L
1232.823 819.663 L
1233.365 818.826 L
1233.907 811.132 L
1234.45 798.826 L
1234.993 791.839 L
1235.535 798.92 L
1236.078 812.158 L
1236.62 820.459 L
1237.162 821.955 L
1237.705 817.341 L
1238.248 807.375 L
1238.79 798.318 L
1239.333 800.275 L
1239.875 811.507 L
1240.417 820.822 L
1240.96 824.193 L
1241.502 822.101 L
1242.045 814.91 L
1242.588 805.786 L
1243.13 803.545 L
1243.672 811.615 L
1244.215 821.073 L
1244.757 825.765 L
1245.3 825.683 L
1245.843 821.148 L
1246.385 813.388 L
1246.927 808.531 L
1247.47 812.851 L
1248.012 821.547 L
1248.555 827.005 L
1249.098 828.312 L
1249.64 825.954 L
1250.182 820.331 L
1250.725 814.777 L
1251.267 815.609 L
1251.81 822.502 L
1252.353 828.185 L
1252.895 830.332 L
1253.438 829.588 L
1253.98 826.142 L
1254.522 821.426 L
1255.065 819.907 L
1255.608 824.185 L
1256.15 829.506 L
1256.693 832.035 L
1257.235 832.284 L
1257.777 830.643 L
1258.32 827.597 L
1258.863 825.411 L
1259.405 827.128 L
1259.948 831.252 L
1260.49 833.728 L
1261.032 834.369 L
1261.575 833.91 L
1262.118 832.675 L
1262.66 831.372 L
1263.203 831.512 L
1263.745 833.676 L
1264.287 835.692 L
1264.83 836.286 L
1265.373 836.355 L
1265.915 836.443 L
1266.458 836.747 L
S
GR
%%Trailer
%%Pages: 1
%%EOF
