%!PS-Adobe-3.0 EPSF-3.0
%%Creator: (MATLAB, The Mathworks, Inc. Version 9.1.0.441655 \(R2016b\). Operating System: Windows 8)
%%Title: (C:/Users/Eigenaar/WIT/Data Mining/data-mining/Session 2/plots/bayes.eps)
%%CreationDate: 2017-11-22T17:07:55
%%Pages: (atend)
%%BoundingBox: 0 0 924 650
%%LanguageLevel: 3
%%EndComments
%%BeginProlog
%%BeginResource: procset (Apache XML Graphics Std ProcSet) 1.2 0
%%Version: 1.2 0
%%Copyright: (Copyright 2001-2003,2010 The Apache Software Foundation. License terms: http://www.apache.org/licenses/LICENSE-2.0)
/bd{bind def}bind def
/ld{load def}bd
/GR/grestore ld
/M/moveto ld
/LJ/setlinejoin ld
/C/curveto ld
/f/fill ld
/LW/setlinewidth ld
/GC/setgray ld
/t/show ld
/N/newpath ld
/CT/concat ld
/cp/closepath ld
/S/stroke ld
/L/lineto ld
/CC/setcmykcolor ld
/A/ashow ld
/GS/gsave ld
/RC/setrgbcolor ld
/RM/rmoveto ld
/ML/setmiterlimit ld
/re {4 2 roll M
1 index 0 rlineto
0 exch rlineto
neg 0 rlineto
cp } bd
/_ctm matrix def
/_tm matrix def
/BT { _ctm currentmatrix pop matrix _tm copy pop 0 0 moveto } bd
/ET { _ctm setmatrix } bd
/iTm { _ctm setmatrix _tm concat } bd
/Tm { _tm astore pop iTm 0 0 moveto } bd
/ux 0.0 def
/uy 0.0 def
/F {
  /Tp exch def
  /Tf exch def
  Tf findfont Tp scalefont setfont
  /cf Tf def  /cs Tp def
} bd
/ULS {currentpoint /uy exch def /ux exch def} bd
/ULE {
  /Tcx currentpoint pop def
  gsave
  newpath
  cf findfont cs scalefont dup
  /FontMatrix get 0 get /Ts exch def /FontInfo get dup
  /UnderlinePosition get Ts mul /To exch def
  /UnderlineThickness get Ts mul /Tt exch def
  ux uy To add moveto  Tcx uy To add lineto
  Tt setlinewidth stroke
  grestore
} bd
/OLE {
  /Tcx currentpoint pop def
  gsave
  newpath
  cf findfont cs scalefont dup
  /FontMatrix get 0 get /Ts exch def /FontInfo get dup
  /UnderlinePosition get Ts mul /To exch def
  /UnderlineThickness get Ts mul /Tt exch def
  ux uy To add cs add moveto Tcx uy To add cs add lineto
  Tt setlinewidth stroke
  grestore
} bd
/SOE {
  /Tcx currentpoint pop def
  gsave
  newpath
  cf findfont cs scalefont dup
  /FontMatrix get 0 get /Ts exch def /FontInfo get dup
  /UnderlinePosition get Ts mul /To exch def
  /UnderlineThickness get Ts mul /Tt exch def
  ux uy To add cs 10 mul 26 idiv add moveto Tcx uy To add cs 10 mul 26 idiv add lineto
  Tt setlinewidth stroke
  grestore
} bd
/QT {
/Y22 exch store
/X22 exch store
/Y21 exch store
/X21 exch store
currentpoint
/Y21 load 2 mul add 3 div exch
/X21 load 2 mul add 3 div exch
/X21 load 2 mul /X22 load add 3 div
/Y21 load 2 mul /Y22 load add 3 div
/X22 load /Y22 load curveto
} bd
/SSPD {
dup length /d exch dict def
{
/v exch def
/k exch def
currentpagedevice k known {
/cpdv currentpagedevice k get def
v cpdv ne {
/upd false def
/nullv v type /nulltype eq def
/nullcpdv cpdv type /nulltype eq def
nullv nullcpdv or
{
/upd true def
} {
/sametype v type cpdv type eq def
sametype {
v type /arraytype eq {
/vlen v length def
/cpdvlen cpdv length def
vlen cpdvlen eq {
0 1 vlen 1 sub {
/i exch def
/obj v i get def
/cpdobj cpdv i get def
obj cpdobj ne {
/upd true def
exit
} if
} for
} {
/upd true def
} ifelse
} {
v type /dicttype eq {
v {
/dv exch def
/dk exch def
/cpddv cpdv dk get def
dv cpddv ne {
/upd true def
exit
} if
} forall
} {
/upd true def
} ifelse
} ifelse
} if
} ifelse
upd true eq {
d k v put
} if
} if
} if
} forall
d length 0 gt {
d setpagedevice
} if
} bd
/RE { % /NewFontName [NewEncodingArray] /FontName RE -
  findfont dup length dict begin
  {
    1 index /FID ne
    {def} {pop pop} ifelse
  } forall
  /Encoding exch def
  /FontName 1 index def
  currentdict definefont pop
  end
} bind def
%%EndResource
%%BeginResource: procset (Apache XML Graphics EPS ProcSet) 1.0 0
%%Version: 1.0 0
%%Copyright: (Copyright 2002-2003 The Apache Software Foundation. License terms: http://www.apache.org/licenses/LICENSE-2.0)
/BeginEPSF { %def
/b4_Inc_state save def         % Save state for cleanup
/dict_count countdictstack def % Count objects on dict stack
/op_count count 1 sub def      % Count objects on operand stack
userdict begin                 % Push userdict on dict stack
/showpage { } def              % Redefine showpage, { } = null proc
0 setgray 0 setlinecap         % Prepare graphics state
1 setlinewidth 0 setlinejoin
10 setmiterlimit [ ] 0 setdash newpath
/languagelevel where           % If level not equal to 1 then
{pop languagelevel             % set strokeadjust and
1 ne                           % overprint to their defaults.
{false setstrokeadjust false setoverprint
} if
} if
} bd
/EndEPSF { %def
count op_count sub {pop} repeat            % Clean up stacks
countdictstack dict_count sub {end} repeat
b4_Inc_state restore
} bd
%%EndResource
%FOPBeginFontDict
%%IncludeResource: font Courier-Bold
%%IncludeResource: font Helvetica
%%IncludeResource: font Courier-BoldOblique
%%IncludeResource: font Courier-Oblique
%%IncludeResource: font Times-Roman
%%IncludeResource: font Helvetica-BoldOblique
%%IncludeResource: font Helvetica-Bold
%%IncludeResource: font Helvetica-Oblique
%%IncludeResource: font Times-BoldItalic
%%IncludeResource: font Courier
%%IncludeResource: font Times-Italic
%%IncludeResource: font Times-Bold
%%IncludeResource: font Symbol
%%IncludeResource: font ZapfDingbats
%FOPEndFontDict
%%BeginResource: encoding WinAnsiEncoding
/WinAnsiEncoding [
/.notdef /.notdef /.notdef /.notdef /.notdef
/.notdef /.notdef /.notdef /.notdef /.notdef
/.notdef /.notdef /.notdef /.notdef /.notdef
/.notdef /.notdef /.notdef /.notdef /.notdef
/.notdef /.notdef /.notdef /.notdef /.notdef
/.notdef /.notdef /.notdef /.notdef /.notdef
/.notdef /.notdef /space /exclam /quotedbl
/numbersign /dollar /percent /ampersand /quotesingle
/parenleft /parenright /asterisk /plus /comma
/hyphen /period /slash /zero /one
/two /three /four /five /six
/seven /eight /nine /colon /semicolon
/less /equal /greater /question /at
/A /B /C /D /E
/F /G /H /I /J
/K /L /M /N /O
/P /Q /R /S /T
/U /V /W /X /Y
/Z /bracketleft /backslash /bracketright /asciicircum
/underscore /quoteleft /a /b /c
/d /e /f /g /h
/i /j /k /l /m
/n /o /p /q /r
/s /t /u /v /w
/x /y /z /braceleft /bar
/braceright /asciitilde /bullet /Euro /bullet
/quotesinglbase /florin /quotedblbase /ellipsis /dagger
/daggerdbl /circumflex /perthousand /Scaron /guilsinglleft
/OE /bullet /Zcaron /bullet /bullet
/quoteleft /quoteright /quotedblleft /quotedblright /bullet
/endash /emdash /asciitilde /trademark /scaron
/guilsinglright /oe /bullet /zcaron /Ydieresis
/space /exclamdown /cent /sterling /currency
/yen /brokenbar /section /dieresis /copyright
/ordfeminine /guillemotleft /logicalnot /sfthyphen /registered
/macron /degree /plusminus /twosuperior /threesuperior
/acute /mu /paragraph /middot /cedilla
/onesuperior /ordmasculine /guillemotright /onequarter /onehalf
/threequarters /questiondown /Agrave /Aacute /Acircumflex
/Atilde /Adieresis /Aring /AE /Ccedilla
/Egrave /Eacute /Ecircumflex /Edieresis /Igrave
/Iacute /Icircumflex /Idieresis /Eth /Ntilde
/Ograve /Oacute /Ocircumflex /Otilde /Odieresis
/multiply /Oslash /Ugrave /Uacute /Ucircumflex
/Udieresis /Yacute /Thorn /germandbls /agrave
/aacute /acircumflex /atilde /adieresis /aring
/ae /ccedilla /egrave /eacute /ecircumflex
/edieresis /igrave /iacute /icircumflex /idieresis
/eth /ntilde /ograve /oacute /ocircumflex
/otilde /odieresis /divide /oslash /ugrave
/uacute /ucircumflex /udieresis /yacute /thorn
/ydieresis
] def
%%EndResource
%FOPBeginFontReencode
/Courier-Bold findfont
dup length dict begin
  {1 index /FID ne {def} {pop pop} ifelse} forall
  /Encoding WinAnsiEncoding def
  currentdict
end
/Courier-Bold exch definefont pop
/Helvetica findfont
dup length dict begin
  {1 index /FID ne {def} {pop pop} ifelse} forall
  /Encoding WinAnsiEncoding def
  currentdict
end
/Helvetica exch definefont pop
/Courier-BoldOblique findfont
dup length dict begin
  {1 index /FID ne {def} {pop pop} ifelse} forall
  /Encoding WinAnsiEncoding def
  currentdict
end
/Courier-BoldOblique exch definefont pop
/Courier-Oblique findfont
dup length dict begin
  {1 index /FID ne {def} {pop pop} ifelse} forall
  /Encoding WinAnsiEncoding def
  currentdict
end
/Courier-Oblique exch definefont pop
/Times-Roman findfont
dup length dict begin
  {1 index /FID ne {def} {pop pop} ifelse} forall
  /Encoding WinAnsiEncoding def
  currentdict
end
/Times-Roman exch definefont pop
/Helvetica-BoldOblique findfont
dup length dict begin
  {1 index /FID ne {def} {pop pop} ifelse} forall
  /Encoding WinAnsiEncoding def
  currentdict
end
/Helvetica-BoldOblique exch definefont pop
/Helvetica-Bold findfont
dup length dict begin
  {1 index /FID ne {def} {pop pop} ifelse} forall
  /Encoding WinAnsiEncoding def
  currentdict
end
/Helvetica-Bold exch definefont pop
/Helvetica-Oblique findfont
dup length dict begin
  {1 index /FID ne {def} {pop pop} ifelse} forall
  /Encoding WinAnsiEncoding def
  currentdict
end
/Helvetica-Oblique exch definefont pop
/Times-BoldItalic findfont
dup length dict begin
  {1 index /FID ne {def} {pop pop} ifelse} forall
  /Encoding WinAnsiEncoding def
  currentdict
end
/Times-BoldItalic exch definefont pop
/Courier findfont
dup length dict begin
  {1 index /FID ne {def} {pop pop} ifelse} forall
  /Encoding WinAnsiEncoding def
  currentdict
end
/Courier exch definefont pop
/Times-Italic findfont
dup length dict begin
  {1 index /FID ne {def} {pop pop} ifelse} forall
  /Encoding WinAnsiEncoding def
  currentdict
end
/Times-Italic exch definefont pop
/Times-Bold findfont
dup length dict begin
  {1 index /FID ne {def} {pop pop} ifelse} forall
  /Encoding WinAnsiEncoding def
  currentdict
end
/Times-Bold exch definefont pop
%FOPEndFontReencode
%%EndProlog
%%Page: 1 1
%%PageBoundingBox: 0 0 924 650
%%BeginPageSetup
[1 0 0 -1 0 650] CT
%%EndPageSetup
GS
[0.75 0 0 0.75 0 -0.25] CT
1 GC
N
0 0 1232 867 re
f
GR
GS
[0.75 0 0 0.75 0 -0.25] CT
1 GC
N
0 0 1232 867 re
f
GR
GS
[0.75 0 0 0.75 0 -0.25] CT
1 GC
N
160 772 M
1115 772 L
1115 65 L
160 65 L
cp
f
GR
GS
[0.75 0 0 0.75 0 -0.25] CT
0.149 GC
2 setlinecap
1 LJ
0.667 LW
N
160 772 M
1115 772 L
S
GR
GS
[0.75 0 0 0.75 0 -0.25] CT
0.149 GC
2 setlinecap
1 LJ
0.667 LW
N
160 65 M
1115 65 L
S
GR
GS
[0.75 0 0 0.75 0 -0.25] CT
0.149 GC
2 setlinecap
1 LJ
0.667 LW
N
160 772 M
160 762.45 L
S
GR
GS
[0.75 0 0 0.75 0 -0.25] CT
0.149 GC
2 setlinecap
1 LJ
0.667 LW
N
255.5 772 M
255.5 762.45 L
S
GR
GS
[0.75 0 0 0.75 0 -0.25] CT
0.149 GC
2 setlinecap
1 LJ
0.667 LW
N
351 772 M
351 762.45 L
S
GR
GS
[0.75 0 0 0.75 0 -0.25] CT
0.149 GC
2 setlinecap
1 LJ
0.667 LW
N
446.5 772 M
446.5 762.45 L
S
GR
GS
[0.75 0 0 0.75 0 -0.25] CT
0.149 GC
2 setlinecap
1 LJ
0.667 LW
N
542 772 M
542 762.45 L
S
GR
GS
[0.75 0 0 0.75 0 -0.25] CT
0.149 GC
2 setlinecap
1 LJ
0.667 LW
N
637.5 772 M
637.5 762.45 L
S
GR
GS
[0.75 0 0 0.75 0 -0.25] CT
0.149 GC
2 setlinecap
1 LJ
0.667 LW
N
733 772 M
733 762.45 L
S
GR
GS
[0.75 0 0 0.75 0 -0.25] CT
0.149 GC
2 setlinecap
1 LJ
0.667 LW
N
828.5 772 M
828.5 762.45 L
S
GR
GS
[0.75 0 0 0.75 0 -0.25] CT
0.149 GC
2 setlinecap
1 LJ
0.667 LW
N
924 772 M
924 762.45 L
S
GR
GS
[0.75 0 0 0.75 0 -0.25] CT
0.149 GC
2 setlinecap
1 LJ
0.667 LW
N
1019.5 772 M
1019.5 762.45 L
S
GR
GS
[0.75 0 0 0.75 0 -0.25] CT
0.149 GC
2 setlinecap
1 LJ
0.667 LW
N
1115 772 M
1115 762.45 L
S
GR
GS
[0.75 0 0 0.75 0 -0.25] CT
0.149 GC
2 setlinecap
1 LJ
0.667 LW
N
160 65 M
160 74.55 L
S
GR
GS
[0.75 0 0 0.75 0 -0.25] CT
0.149 GC
2 setlinecap
1 LJ
0.667 LW
N
255.5 65 M
255.5 74.55 L
S
GR
GS
[0.75 0 0 0.75 0 -0.25] CT
0.149 GC
2 setlinecap
1 LJ
0.667 LW
N
351 65 M
351 74.55 L
S
GR
GS
[0.75 0 0 0.75 0 -0.25] CT
0.149 GC
2 setlinecap
1 LJ
0.667 LW
N
446.5 65 M
446.5 74.55 L
S
GR
GS
[0.75 0 0 0.75 0 -0.25] CT
0.149 GC
2 setlinecap
1 LJ
0.667 LW
N
542 65 M
542 74.55 L
S
GR
GS
[0.75 0 0 0.75 0 -0.25] CT
0.149 GC
2 setlinecap
1 LJ
0.667 LW
N
637.5 65 M
637.5 74.55 L
S
GR
GS
[0.75 0 0 0.75 0 -0.25] CT
0.149 GC
2 setlinecap
1 LJ
0.667 LW
N
733 65 M
733 74.55 L
S
GR
GS
[0.75 0 0 0.75 0 -0.25] CT
0.149 GC
2 setlinecap
1 LJ
0.667 LW
N
828.5 65 M
828.5 74.55 L
S
GR
GS
[0.75 0 0 0.75 0 -0.25] CT
0.149 GC
2 setlinecap
1 LJ
0.667 LW
N
924 65 M
924 74.55 L
S
GR
GS
[0.75 0 0 0.75 0 -0.25] CT
0.149 GC
2 setlinecap
1 LJ
0.667 LW
N
1019.5 65 M
1019.5 74.55 L
S
GR
GS
[0.75 0 0 0.75 0 -0.25] CT
0.149 GC
2 setlinecap
1 LJ
0.667 LW
N
1115 65 M
1115 74.55 L
S
GR
GS
[0.75 0 0 0.75 120 584.35001] CT
0.149 GC
/Helvetica 24 F
GS
[1 0 0 1 0 0] CT
-7 25 moveto 
1 -1 scale
(0) t 
GR
GR
GS
[0.75 0 0 0.75 191.625 584.35001] CT
0.149 GC
/Helvetica 24 F
GS
[1 0 0 1 0 0] CT
-13.5 25 moveto 
1 -1 scale
(10) t 
GR
GR
GS
[0.75 0 0 0.75 263.25 584.35001] CT
0.149 GC
/Helvetica 24 F
GS
[1 0 0 1 0 0] CT
-13.5 25 moveto 
1 -1 scale
(20) t 
GR
GR
GS
[0.75 0 0 0.75 334.875 584.35001] CT
0.149 GC
/Helvetica 24 F
GS
[1 0 0 1 0 0] CT
-13.5 25 moveto 
1 -1 scale
(30) t 
GR
GR
GS
[0.75 0 0 0.75 406.5 584.35001] CT
0.149 GC
/Helvetica 24 F
GS
[1 0 0 1 0 0] CT
-13.5 25 moveto 
1 -1 scale
(40) t 
GR
GR
GS
[0.75 0 0 0.75 478.125 584.35001] CT
0.149 GC
/Helvetica 24 F
GS
[1 0 0 1 0 0] CT
-13.5 25 moveto 
1 -1 scale
(50) t 
GR
GR
GS
[0.75 0 0 0.75 549.75 584.35001] CT
0.149 GC
/Helvetica 24 F
GS
[1 0 0 1 0 0] CT
-13.5 25 moveto 
1 -1 scale
(60) t 
GR
GR
GS
[0.75 0 0 0.75 621.375 584.35001] CT
0.149 GC
/Helvetica 24 F
GS
[1 0 0 1 0 0] CT
-13.5 25 moveto 
1 -1 scale
(70) t 
GR
GR
GS
[0.75 0 0 0.75 693 584.35001] CT
0.149 GC
/Helvetica 24 F
GS
[1 0 0 1 0 0] CT
-13.5 25 moveto 
1 -1 scale
(80) t 
GR
GR
GS
[0.75 0 0 0.75 764.625 584.35001] CT
0.149 GC
/Helvetica 24 F
GS
[1 0 0 1 0 0] CT
-13.5 25 moveto 
1 -1 scale
(90) t 
GR
GR
GS
[0.75 0 0 0.75 836.25 584.35001] CT
0.149 GC
/Helvetica 24 F
GS
[1 0 0 1 0 0] CT
-20.5 25 moveto 
1 -1 scale
(100) t 
GR
GR
GS
[0.75 0 0 0.75 478.12532 608.59999] CT
0.149 GC
/Helvetica 26.4 F
GS
[1 0 0 1 0 0] CT
-46.5 27 moveto 
1 -1 scale
(Time [s]) t 
GR
GR
GS
[0.75 0 0 0.75 0 -0.25] CT
0.149 GC
2 setlinecap
1 LJ
0.667 LW
N
160 772 M
160 65 L
S
GR
GS
[0.75 0 0 0.75 0 -0.25] CT
0.149 GC
2 setlinecap
1 LJ
0.667 LW
N
1115 772 M
1115 65 L
S
GR
GS
[0.75 0 0 0.75 0 -0.25] CT
0.149 GC
2 setlinecap
1 LJ
0.667 LW
N
160 772 M
169.55 772 L
S
GR
GS
[0.75 0 0 0.75 0 -0.25] CT
0.149 GC
2 setlinecap
1 LJ
0.667 LW
N
160 693.444 M
169.55 693.444 L
S
GR
GS
[0.75 0 0 0.75 0 -0.25] CT
0.149 GC
2 setlinecap
1 LJ
0.667 LW
N
160 614.889 M
169.55 614.889 L
S
GR
GS
[0.75 0 0 0.75 0 -0.25] CT
0.149 GC
2 setlinecap
1 LJ
0.667 LW
N
160 536.333 M
169.55 536.333 L
S
GR
GS
[0.75 0 0 0.75 0 -0.25] CT
0.149 GC
2 setlinecap
1 LJ
0.667 LW
N
160 457.778 M
169.55 457.778 L
S
GR
GS
[0.75 0 0 0.75 0 -0.25] CT
0.149 GC
2 setlinecap
1 LJ
0.667 LW
N
160 379.222 M
169.55 379.222 L
S
GR
GS
[0.75 0 0 0.75 0 -0.25] CT
0.149 GC
2 setlinecap
1 LJ
0.667 LW
N
160 300.667 M
169.55 300.667 L
S
GR
GS
[0.75 0 0 0.75 0 -0.25] CT
0.149 GC
2 setlinecap
1 LJ
0.667 LW
N
160 222.111 M
169.55 222.111 L
S
GR
GS
[0.75 0 0 0.75 0 -0.25] CT
0.149 GC
2 setlinecap
1 LJ
0.667 LW
N
160 143.556 M
169.55 143.556 L
S
GR
GS
[0.75 0 0 0.75 0 -0.25] CT
0.149 GC
2 setlinecap
1 LJ
0.667 LW
N
160 65 M
169.55 65 L
S
GR
GS
[0.75 0 0 0.75 0 -0.25] CT
0.149 GC
2 setlinecap
1 LJ
0.667 LW
N
1115 772 M
1105.45 772 L
S
GR
GS
[0.75 0 0 0.75 0 -0.25] CT
0.149 GC
2 setlinecap
1 LJ
0.667 LW
N
1115 693.444 M
1105.45 693.444 L
S
GR
GS
[0.75 0 0 0.75 0 -0.25] CT
0.149 GC
2 setlinecap
1 LJ
0.667 LW
N
1115 614.889 M
1105.45 614.889 L
S
GR
GS
[0.75 0 0 0.75 0 -0.25] CT
0.149 GC
2 setlinecap
1 LJ
0.667 LW
N
1115 536.333 M
1105.45 536.333 L
S
GR
GS
[0.75 0 0 0.75 0 -0.25] CT
0.149 GC
2 setlinecap
1 LJ
0.667 LW
N
1115 457.778 M
1105.45 457.778 L
S
GR
GS
[0.75 0 0 0.75 0 -0.25] CT
0.149 GC
2 setlinecap
1 LJ
0.667 LW
N
1115 379.222 M
1105.45 379.222 L
S
GR
GS
[0.75 0 0 0.75 0 -0.25] CT
0.149 GC
2 setlinecap
1 LJ
0.667 LW
N
1115 300.667 M
1105.45 300.667 L
S
GR
GS
[0.75 0 0 0.75 0 -0.25] CT
0.149 GC
2 setlinecap
1 LJ
0.667 LW
N
1115 222.111 M
1105.45 222.111 L
S
GR
GS
[0.75 0 0 0.75 0 -0.25] CT
0.149 GC
2 setlinecap
1 LJ
0.667 LW
N
1115 143.556 M
1105.45 143.556 L
S
GR
GS
[0.75 0 0 0.75 0 -0.25] CT
0.149 GC
2 setlinecap
1 LJ
0.667 LW
N
1115 65 M
1105.45 65 L
S
GR
GS
[0.75 0 0 0.75 114.40001 578.75] CT
0.149 GC
/Helvetica 24 F
GS
[1 0 0 1 0 0] CT
-62 9.5 moveto 
1 -1 scale
(-1000) t 
GR
GR
GS
[0.75 0 0 0.75 114.40001 519.83334] CT
0.149 GC
/Helvetica 24 F
GS
[1 0 0 1 0 0] CT
-49 9.5 moveto 
1 -1 scale
(-800) t 
GR
GR
GS
[0.75 0 0 0.75 114.40001 460.91669] CT
0.149 GC
/Helvetica 24 F
GS
[1 0 0 1 0 0] CT
-49 9.5 moveto 
1 -1 scale
(-600) t 
GR
GR
GS
[0.75 0 0 0.75 114.40001 401.99998] CT
0.149 GC
/Helvetica 24 F
GS
[1 0 0 1 0 0] CT
-49 9.5 moveto 
1 -1 scale
(-400) t 
GR
GR
GS
[0.75 0 0 0.75 114.40001 343.08333] CT
0.149 GC
/Helvetica 24 F
GS
[1 0 0 1 0 0] CT
-49 9.5 moveto 
1 -1 scale
(-200) t 
GR
GR
GS
[0.75 0 0 0.75 114.40001 284.16667] CT
0.149 GC
/Helvetica 24 F
GS
[1 0 0 1 0 0] CT
-14 9.5 moveto 
1 -1 scale
(0) t 
GR
GR
GS
[0.75 0 0 0.75 114.40001 225.24999] CT
0.149 GC
/Helvetica 24 F
GS
[1 0 0 1 0 0] CT
-41 9.5 moveto 
1 -1 scale
(200) t 
GR
GR
GS
[0.75 0 0 0.75 114.40001 166.33334] CT
0.149 GC
/Helvetica 24 F
GS
[1 0 0 1 0 0] CT
-41 9.5 moveto 
1 -1 scale
(400) t 
GR
GR
GS
[0.75 0 0 0.75 114.40001 107.41667] CT
0.149 GC
/Helvetica 24 F
GS
[1 0 0 1 0 0] CT
-41 9.5 moveto 
1 -1 scale
(600) t 
GR
GR
GS
[0.75 0 0 0.75 114.40001 48.5] CT
0.149 GC
/Helvetica 24 F
GS
[1 0 0 1 0 0] CT
-41 9.5 moveto 
1 -1 scale
(800) t 
GR
GR
GS
[0.75 0 0 0.75 0 -0.25] CT
0 0.447 0.741 RC
1 LJ
2.667 LW
N
169.55 350.357 M
179.1 308.709 L
188.65 331.098 L
198.2 364.94 L
207.75 373.429 L
217.3 375.434 L
226.85 373.618 L
236.4 366.513 L
245.95 336.285 L
255.5 304.667 L
265.05 346.709 L
274.6 369.718 L
284.15 374.125 L
293.7 374.59 L
303.25 372.717 L
312.8 361.466 L
322.35 319.571 L
331.9 311.56 L
341.45 357.462 L
351 372.243 L
360.55 375.294 L
370.1 374.856 L
379.65 371.999 L
389.2 356.641 L
398.75 308.687 L
408.3 319.834 L
417.85 362.173 L
427.4 373.455 L
436.95 375.497 L
446.5 375.029 L
456.05 372.457 L
465.6 354.118 L
475.15 302.024 L
484.7 323.228 L
494.25 365.333 L
503.8 373.877 L
513.35 375.674 L
522.9 375.486 L
532.45 373.16 L
542 357.355 L
551.55 303.074 L
561.1 316.494 L
570.65 364.596 L
580.2 373.876 L
589.75 375.55 L
599.3 375.615 L
608.85 373.999 L
618.4 364.497 L
627.95 317.56 L
637.5 297.978 L
647.05 358.389 L
656.6 375.268 L
666.15 375.512 L
675.7 375.413 L
685.25 373.718 L
694.8 372.73 L
704.35 349.803 L
713.9 285.447 L
723.45 332.223 L
733 369.343 L
742.55 375.618 L
752.1 373.437 L
761.65 372.749 L
771.2 369.169 L
780.75 346.167 L
790.3 305.322 L
799.85 329.112 L
809.4 365.701 L
818.95 371.492 L
828.5 369.588 L
838.05 368.304 L
847.6 351.551 L
857.15 324.744 L
866.7 325.473 L
876.25 358.15 L
885.8 359.323 L
895.35 369.039 L
904.9 367.856 L
914.45 354.95 L
924 334.821 L
933.55 321.839 L
943.1 353.079 L
952.65 368.022 L
962.2 370.721 L
971.75 370.971 L
981.3 362.674 L
990.85 335.227 L
1000.4 316.972 L
1009.95 344.011 L
1019.5 364.595 L
1029.05 373.479 L
1038.6 373.129 L
1048.15 365.001 L
1057.7 347.512 L
1067.25 319.207 L
1076.8 337.025 L
1086.35 363.654 L
1095.9 368.739 L
1105.45 372.786 L
1115 369.094 L
S
GR
GS
[0.75 0 0 0.75 0 -0.25] CT
0.851 0.325 0.098 RC
1 LJ
2.667 LW
N
169.55 350.496 M
179.1 309.325 L
188.65 330.865 L
198.2 364.864 L
207.75 373.129 L
217.3 375.289 L
226.85 373.4 L
236.4 366.18 L
245.95 335.905 L
255.5 305.438 L
265.05 347.525 L
274.6 369.841 L
284.15 374.346 L
293.7 374.823 L
303.25 372.802 L
312.8 361.21 L
322.35 319.591 L
331.9 313.65 L
341.45 358.584 L
351 372.552 L
360.55 375.586 L
370.1 374.961 L
379.65 371.587 L
389.2 354.311 L
398.75 307.103 L
408.3 324.895 L
417.85 364.57 L
427.4 373.978 L
436.95 375.894 L
446.5 375.416 L
456.05 371.151 L
465.6 348.962 L
475.15 299.468 L
484.7 333.341 L
494.25 367.699 L
503.8 374.917 L
513.35 376.284 L
522.9 376.018 L
532.45 372.03 L
542 348.844 L
551.55 294.64 L
561.1 333.258 L
570.65 368.703 L
580.2 375.006 L
589.75 376.563 L
599.3 376.417 L
608.85 374.218 L
618.4 357.882 L
627.95 300.799 L
637.5 315.283 L
647.05 366.097 L
656.6 374.134 L
666.15 375.784 L
675.7 376.777 L
685.25 377.128 L
694.8 370.289 L
704.35 335.894 L
713.9 276.64 L
723.45 341.817 L
733 374.597 L
742.55 377.798 L
752.1 375.64 L
761.65 374.971 L
771.2 376.382 L
780.75 390.764 L
790.3 427.486 L
799.85 520.144 L
809.4 576.308 L
818.95 536.472 L
828.5 484.611 L
838.05 431.238 L
847.6 272.777 L
857.15 327.405 L
866.7 369.182 L
876.25 360.809 L
885.8 322.427 L
895.35 535.193 L
904.9 439.617 L
914.45 376.607 L
924 223.886 L
933.55 300.905 L
943.1 460.456 L
952.65 390.778 L
962.2 404.352 L
971.75 292.237 L
981.3 197.627 L
990.85 290.369 L
1000.4 319.662 L
1009.95 519.991 L
1019.5 460.814 L
1029.05 360.084 L
1038.6 314.747 L
1048.15 287.593 L
1057.7 313.564 L
1067.25 303.922 L
1076.8 491.586 L
1086.35 336.282 L
1095.9 461.007 L
1105.45 400.527 L
1115 309.318 L
S
GR
GS
[0.75 0 0 0.75 0 -0.25] CT
0.929 0.694 0.125 RC
1 LJ
2.667 LW
N
169.55 350.514 M
179.1 309.026 L
188.65 331.566 L
198.2 364.868 L
207.75 373.255 L
217.3 374.964 L
226.85 373.382 L
236.4 366.108 L
245.95 335.304 L
255.5 305.476 L
265.05 348.094 L
274.6 369.563 L
284.15 374.522 L
293.7 374.702 L
303.25 372.667 L
312.8 360.155 L
322.35 318.791 L
331.9 314.972 L
341.45 358.837 L
351 372.413 L
360.55 375.111 L
370.1 374.881 L
379.65 371.247 L
389.2 352.925 L
398.75 305.745 L
408.3 326.842 L
417.85 364.84 L
427.4 373.429 L
436.95 375.293 L
446.5 374.75 L
456.05 369.656 L
465.6 346.048 L
475.15 298.734 L
484.7 336.703 L
494.25 368.258 L
503.8 374.803 L
513.35 375.879 L
522.9 375.435 L
532.45 369.763 L
542 343.175 L
551.55 295.071 L
561.1 339.456 L
570.65 368.861 L
580.2 375.1 L
589.75 375.947 L
599.3 375.702 L
608.85 371.966 L
618.4 348.417 L
627.95 291.212 L
637.5 331.738 L
647.05 367.886 L
656.6 374.859 L
666.15 375.651 L
675.7 375.953 L
685.25 375.233 L
694.8 364.303 L
704.35 312.067 L
713.9 294.132 L
723.45 360.965 L
733 373.886 L
742.55 375.539 L
752.1 375.416 L
761.65 377.727 L
771.2 376.891 L
780.75 374.912 L
790.3 350.064 L
799.85 287.372 L
809.4 298.61 L
818.95 345.532 L
828.5 351.965 L
838.05 343.019 L
847.6 345.568 L
857.15 343.329 L
866.7 296.299 L
876.25 296.675 L
885.8 320.283 L
895.35 337.935 L
904.9 371.016 L
914.45 372.187 L
924 376.933 L
933.55 388.75 L
943.1 393.103 L
952.65 389.466 L
962.2 436.386 L
971.75 507.404 L
981.3 413.691 L
990.85 400.121 L
1000.4 381.286 L
1009.95 349.448 L
1019.5 342.134 L
1029.05 312.532 L
1038.6 342.004 L
1048.15 204.859 L
1057.7 174.786 L
1067.25 313.333 L
1076.8 132.794 L
1086.35 293.937 L
1095.9 412.829 L
1105.45 240.216 L
1115 222.538 L
S
GR
GS
[0.75 0 0 0.75 0 -0.25] CT
0.494 0.184 0.557 RC
1 LJ
2.667 LW
N
169.55 350.771 M
179.1 309.511 L
188.65 331.032 L
198.2 364.309 L
207.75 373.083 L
217.3 374.773 L
226.85 373.236 L
236.4 366.34 L
245.95 336.423 L
255.5 306.098 L
265.05 347.339 L
274.6 369.435 L
284.15 374.421 L
293.7 374.491 L
303.25 372.512 L
312.8 360.873 L
322.35 320.417 L
331.9 314.345 L
341.45 358.192 L
351 372.24 L
360.55 375.063 L
370.1 374.455 L
379.65 371.276 L
389.2 354.099 L
398.75 308.999 L
408.3 325.76 L
417.85 364.339 L
427.4 373.366 L
436.95 374.991 L
446.5 374.393 L
456.05 370.086 L
465.6 347.489 L
475.15 302.483 L
484.7 336.457 L
494.25 368.237 L
503.8 375.186 L
513.35 375.427 L
522.9 375.113 L
532.45 369.644 L
542 342.02 L
551.55 297.523 L
561.1 343.637 L
570.65 370.14 L
580.2 376.001 L
589.75 375.972 L
599.3 375.85 L
608.85 370.138 L
618.4 341.601 L
627.95 292.162 L
637.5 344.815 L
647.05 371.048 L
656.6 376.059 L
666.15 376.573 L
675.7 377.209 L
685.25 373.495 L
694.8 352.278 L
704.35 287.646 L
713.9 331.499 L
723.45 368.741 L
733 376.446 L
742.55 376.112 L
752.1 377.593 L
761.65 378.836 L
771.2 376.618 L
780.75 341.727 L
790.3 265.494 L
799.85 347.732 L
809.4 369.201 L
818.95 378.202 L
828.5 371.461 L
838.05 378.301 L
847.6 386.658 L
857.15 398.087 L
866.7 446.673 L
876.25 520.92 L
885.8 536.805 L
895.35 579.271 L
904.9 523.695 L
914.45 478.297 L
924 482.873 L
933.55 527.391 L
943.1 494.712 L
952.65 445.174 L
962.2 418.397 L
971.75 499.793 L
981.3 550.091 L
990.85 572.502 L
1000.4 610.12 L
1009.95 692.168 L
1019.5 698.456 L
1029.05 611.385 L
1038.6 389.071 L
1048.15 394.378 L
1057.7 359.879 L
1067.25 398.468 L
1076.8 445.201 L
1086.35 404.506 L
1095.9 385.888 L
1105.45 307.457 L
1115 462.491 L
S
GR
GS
[0.75 0 0 0.75 0 -0.25] CT
0.467 0.675 0.188 RC
1 LJ
2.667 LW
N
169.55 350.516 M
179.1 309.113 L
188.65 330.831 L
198.2 365.061 L
207.75 373.41 L
217.3 374.906 L
226.85 373.348 L
236.4 366.369 L
245.95 336.095 L
255.5 304.985 L
265.05 347.264 L
274.6 369.623 L
284.15 374.293 L
293.7 374.955 L
303.25 372.631 L
312.8 360.993 L
322.35 319.379 L
331.9 313.893 L
341.45 358.379 L
351 371.994 L
360.55 375.232 L
370.1 374.792 L
379.65 371.75 L
389.2 354.222 L
398.75 306.948 L
408.3 324.868 L
417.85 364.043 L
427.4 373.397 L
436.95 375.183 L
446.5 374.384 L
456.05 370.509 L
465.6 347.934 L
475.15 299.492 L
484.7 334.001 L
494.25 367.696 L
503.8 374.714 L
513.35 375.866 L
522.9 375.443 L
532.45 370.545 L
542 345.915 L
551.55 295.129 L
561.1 336.484 L
570.65 368.996 L
580.2 374.484 L
589.75 376.032 L
599.3 376.105 L
608.85 372.114 L
618.4 351.799 L
627.95 293.734 L
637.5 327.91 L
647.05 367.475 L
656.6 374.811 L
666.15 376.431 L
675.7 375.883 L
685.25 375.467 L
694.8 365.782 L
704.35 317.157 L
713.9 290.638 L
723.45 359.079 L
733 372.772 L
742.55 374.753 L
752.1 376.791 L
761.65 376.811 L
771.2 374.772 L
780.75 365.986 L
790.3 321.821 L
799.85 280.199 L
809.4 368.007 L
818.95 384.537 L
828.5 375.885 L
838.05 383.13 L
847.6 375.944 L
857.15 391.348 L
866.7 380.204 L
876.25 388.214 L
885.8 386.97 L
895.35 409.772 L
904.9 412.117 L
914.45 402.238 L
924 400.18 L
933.55 447.724 L
943.1 529.841 L
952.65 392.813 L
962.2 389.911 L
971.75 300.146 L
981.3 335.618 L
990.85 289.784 L
1000.4 236.322 L
1009.95 314.025 L
1019.5 409.385 L
1029.05 317.089 L
1038.6 456.622 L
1048.15 461.527 L
1057.7 555.295 L
1067.25 413.554 L
1076.8 389.876 L
1086.35 390.058 L
1095.9 301.935 L
1105.45 379.97 L
1115 343.213 L
S
GR
GS
[0.75 0 0 0.75 0 -0.25] CT
0.302 0.745 0.933 RC
1 LJ
2.667 LW
N
169.55 350.942 M
179.1 309.308 L
188.65 331.303 L
198.2 365.082 L
207.75 373.723 L
217.3 374.902 L
226.85 373.723 L
236.4 366.653 L
245.95 336.017 L
255.5 305.38 L
265.05 347.8 L
274.6 370.188 L
284.15 374.509 L
293.7 375.294 L
303.25 373.331 L
312.8 361.547 L
322.35 319.913 L
331.9 312.843 L
341.45 358.405 L
351 372.152 L
360.55 374.509 L
370.1 375.687 L
379.65 372.545 L
389.2 355.656 L
398.75 307.737 L
408.3 323.055 L
417.85 364.297 L
427.4 374.116 L
436.95 375.687 L
446.5 375.687 L
456.05 371.759 L
465.6 351.335 L
475.15 300.274 L
484.7 329.732 L
494.25 367.439 L
503.8 374.509 L
513.35 375.687 L
522.9 376.08 L
532.45 372.152 L
542 351.728 L
551.55 296.346 L
561.1 327.768 L
570.65 367.439 L
580.2 374.902 L
589.75 376.08 L
599.3 376.08 L
608.85 374.116 L
618.4 360.762 L
627.95 303.809 L
637.5 308.915 L
647.05 363.511 L
656.6 374.116 L
666.15 375.687 L
675.7 376.473 L
685.25 376.473 L
694.8 373.723 L
704.35 351.335 L
713.9 279.064 L
723.45 327.768 L
733 369.796 L
742.55 375.687 L
752.1 376.473 L
761.65 376.473 L
771.2 377.258 L
780.75 377.651 L
790.3 378.044 L
799.85 376.08 L
809.4 371.367 L
818.95 374.116 L
828.5 375.294 L
838.05 374.116 L
847.6 371.367 L
857.15 367.046 L
866.7 362.726 L
876.25 356.834 L
885.8 352.513 L
895.35 351.728 L
904.9 356.048 L
914.45 360.369 L
924 361.154 L
933.55 359.191 L
943.1 355.263 L
952.65 351.728 L
962.2 352.906 L
971.75 356.834 L
981.3 360.369 L
990.85 360.762 L
1000.4 358.405 L
1009.95 353.692 L
1019.5 350.942 L
1029.05 352.906 L
1038.6 356.834 L
1048.15 360.762 L
1057.7 360.762 L
1067.25 358.012 L
1076.8 352.906 L
1086.35 350.549 L
1095.9 353.299 L
1105.45 358.012 L
1115 360.369 L
S
GR
GS
[0.75 0 0 0.75 0 -0.25] CT
1 GC
N
221 736 M
221 489 L
593 489 L
593 736 L
cp
f
GR
GS
[0.75 0 0 0.75 242.94418 383.48566] CT
/Helvetica 21.6 F
GS
[1 0 0 1 0 0] CT
0 9 moveto 
1 -1 scale
(Approximation1) t 
GR
GR
GS
[0.75 0 0 0.75 0 -0.25] CT
0 0.447 0.741 RC
1 LJ
2.667 LW
N
290.896 511.648 M
320.923 511.648 L
S
GR
GS
[0.75 0 0 0.75 242.94418 413.74139] CT
/Helvetica 21.6 F
GS
[1 0 0 1 0 0] CT
0 9 moveto 
1 -1 scale
(Approximation2) t 
GR
GR
GS
[0.75 0 0 0.75 0 -0.25] CT
0.851 0.325 0.098 RC
1 LJ
2.667 LW
N
290.896 551.989 M
320.923 551.989 L
S
GR
GS
[0.75 0 0 0.75 242.94418 443.99715] CT
/Helvetica 21.6 F
GS
[1 0 0 1 0 0] CT
0 9 moveto 
1 -1 scale
(Approximation3) t 
GR
GR
GS
[0.75 0 0 0.75 0 -0.25] CT
0.929 0.694 0.125 RC
1 LJ
2.667 LW
N
290.896 592.33 M
320.923 592.33 L
S
GR
GS
[0.75 0 0 0.75 242.94418 474.25285] CT
/Helvetica 21.6 F
GS
[1 0 0 1 0 0] CT
0 9 moveto 
1 -1 scale
(Approximation4) t 
GR
GR
GS
[0.75 0 0 0.75 0 -0.25] CT
0.494 0.184 0.557 RC
1 LJ
2.667 LW
N
290.896 632.67 M
320.923 632.67 L
S
GR
GS
[0.75 0 0 0.75 242.94418 504.50861] CT
/Helvetica 21.6 F
GS
[1 0 0 1 0 0] CT
0 9 moveto 
1 -1 scale
(Approximation5) t 
GR
GR
GS
[0.75 0 0 0.75 0 -0.25] CT
0.467 0.675 0.188 RC
1 LJ
2.667 LW
N
290.896 673.011 M
320.923 673.011 L
S
GR
GS
[0.75 0 0 0.75 242.94418 534.76431] CT
/Helvetica 21.6 F
GS
[1 0 0 1 0 0] CT
0 9 moveto 
1 -1 scale
(Laser Prediction Set) t 
GR
GR
GS
[0.75 0 0 0.75 0 -0.25] CT
0.302 0.745 0.933 RC
1 LJ
2.667 LW
N
290.896 713.352 M
320.923 713.352 L
S
GR
GS
[0.75 0 0 0.75 0 -0.25] CT
0.149 GC
10.0 ML
0.667 LW
N
221 736 M
221 489 L
593 489 L
593 736 L
cp
S
GR
%%Trailer
%%Pages: 1
%%EOF
