%!PS-Adobe-3.0 EPSF-3.0
%%Creator: (MATLAB, The Mathworks, Inc. Version 9.1.0.441655 \(R2016b\). Operating System: Windows 8)
%%Title: (C:/Users/Eigenaar/WIT/Data Mining/data-mining/Session 2/plots/bfgs.eps)
%%CreationDate: 2017-11-22T17:24:58
%%Pages: (atend)
%%BoundingBox: 0 0 957 656
%%LanguageLevel: 3
%%EndComments
%%BeginProlog
%%BeginResource: procset (Apache XML Graphics Std ProcSet) 1.2 0
%%Version: 1.2 0
%%Copyright: (Copyright 2001-2003,2010 The Apache Software Foundation. License terms: http://www.apache.org/licenses/LICENSE-2.0)
/bd{bind def}bind def
/ld{load def}bd
/GR/grestore ld
/M/moveto ld
/LJ/setlinejoin ld
/C/curveto ld
/f/fill ld
/LW/setlinewidth ld
/GC/setgray ld
/t/show ld
/N/newpath ld
/CT/concat ld
/cp/closepath ld
/S/stroke ld
/L/lineto ld
/CC/setcmykcolor ld
/A/ashow ld
/GS/gsave ld
/RC/setrgbcolor ld
/RM/rmoveto ld
/ML/setmiterlimit ld
/re {4 2 roll M
1 index 0 rlineto
0 exch rlineto
neg 0 rlineto
cp } bd
/_ctm matrix def
/_tm matrix def
/BT { _ctm currentmatrix pop matrix _tm copy pop 0 0 moveto } bd
/ET { _ctm setmatrix } bd
/iTm { _ctm setmatrix _tm concat } bd
/Tm { _tm astore pop iTm 0 0 moveto } bd
/ux 0.0 def
/uy 0.0 def
/F {
  /Tp exch def
  /Tf exch def
  Tf findfont Tp scalefont setfont
  /cf Tf def  /cs Tp def
} bd
/ULS {currentpoint /uy exch def /ux exch def} bd
/ULE {
  /Tcx currentpoint pop def
  gsave
  newpath
  cf findfont cs scalefont dup
  /FontMatrix get 0 get /Ts exch def /FontInfo get dup
  /UnderlinePosition get Ts mul /To exch def
  /UnderlineThickness get Ts mul /Tt exch def
  ux uy To add moveto  Tcx uy To add lineto
  Tt setlinewidth stroke
  grestore
} bd
/OLE {
  /Tcx currentpoint pop def
  gsave
  newpath
  cf findfont cs scalefont dup
  /FontMatrix get 0 get /Ts exch def /FontInfo get dup
  /UnderlinePosition get Ts mul /To exch def
  /UnderlineThickness get Ts mul /Tt exch def
  ux uy To add cs add moveto Tcx uy To add cs add lineto
  Tt setlinewidth stroke
  grestore
} bd
/SOE {
  /Tcx currentpoint pop def
  gsave
  newpath
  cf findfont cs scalefont dup
  /FontMatrix get 0 get /Ts exch def /FontInfo get dup
  /UnderlinePosition get Ts mul /To exch def
  /UnderlineThickness get Ts mul /Tt exch def
  ux uy To add cs 10 mul 26 idiv add moveto Tcx uy To add cs 10 mul 26 idiv add lineto
  Tt setlinewidth stroke
  grestore
} bd
/QT {
/Y22 exch store
/X22 exch store
/Y21 exch store
/X21 exch store
currentpoint
/Y21 load 2 mul add 3 div exch
/X21 load 2 mul add 3 div exch
/X21 load 2 mul /X22 load add 3 div
/Y21 load 2 mul /Y22 load add 3 div
/X22 load /Y22 load curveto
} bd
/SSPD {
dup length /d exch dict def
{
/v exch def
/k exch def
currentpagedevice k known {
/cpdv currentpagedevice k get def
v cpdv ne {
/upd false def
/nullv v type /nulltype eq def
/nullcpdv cpdv type /nulltype eq def
nullv nullcpdv or
{
/upd true def
} {
/sametype v type cpdv type eq def
sametype {
v type /arraytype eq {
/vlen v length def
/cpdvlen cpdv length def
vlen cpdvlen eq {
0 1 vlen 1 sub {
/i exch def
/obj v i get def
/cpdobj cpdv i get def
obj cpdobj ne {
/upd true def
exit
} if
} for
} {
/upd true def
} ifelse
} {
v type /dicttype eq {
v {
/dv exch def
/dk exch def
/cpddv cpdv dk get def
dv cpddv ne {
/upd true def
exit
} if
} forall
} {
/upd true def
} ifelse
} ifelse
} if
} ifelse
upd true eq {
d k v put
} if
} if
} if
} forall
d length 0 gt {
d setpagedevice
} if
} bd
/RE { % /NewFontName [NewEncodingArray] /FontName RE -
  findfont dup length dict begin
  {
    1 index /FID ne
    {def} {pop pop} ifelse
  } forall
  /Encoding exch def
  /FontName 1 index def
  currentdict definefont pop
  end
} bind def
%%EndResource
%%BeginResource: procset (Apache XML Graphics EPS ProcSet) 1.0 0
%%Version: 1.0 0
%%Copyright: (Copyright 2002-2003 The Apache Software Foundation. License terms: http://www.apache.org/licenses/LICENSE-2.0)
/BeginEPSF { %def
/b4_Inc_state save def         % Save state for cleanup
/dict_count countdictstack def % Count objects on dict stack
/op_count count 1 sub def      % Count objects on operand stack
userdict begin                 % Push userdict on dict stack
/showpage { } def              % Redefine showpage, { } = null proc
0 setgray 0 setlinecap         % Prepare graphics state
1 setlinewidth 0 setlinejoin
10 setmiterlimit [ ] 0 setdash newpath
/languagelevel where           % If level not equal to 1 then
{pop languagelevel             % set strokeadjust and
1 ne                           % overprint to their defaults.
{false setstrokeadjust false setoverprint
} if
} if
} bd
/EndEPSF { %def
count op_count sub {pop} repeat            % Clean up stacks
countdictstack dict_count sub {end} repeat
b4_Inc_state restore
} bd
%%EndResource
%FOPBeginFontDict
%%IncludeResource: font Courier-Bold
%%IncludeResource: font Helvetica
%%IncludeResource: font Courier-BoldOblique
%%IncludeResource: font Courier-Oblique
%%IncludeResource: font Times-Roman
%%IncludeResource: font Helvetica-BoldOblique
%%IncludeResource: font Helvetica-Bold
%%IncludeResource: font Helvetica-Oblique
%%IncludeResource: font Times-BoldItalic
%%IncludeResource: font Courier
%%IncludeResource: font Times-Italic
%%IncludeResource: font Times-Bold
%%IncludeResource: font Symbol
%%IncludeResource: font ZapfDingbats
%FOPEndFontDict
%%BeginResource: encoding WinAnsiEncoding
/WinAnsiEncoding [
/.notdef /.notdef /.notdef /.notdef /.notdef
/.notdef /.notdef /.notdef /.notdef /.notdef
/.notdef /.notdef /.notdef /.notdef /.notdef
/.notdef /.notdef /.notdef /.notdef /.notdef
/.notdef /.notdef /.notdef /.notdef /.notdef
/.notdef /.notdef /.notdef /.notdef /.notdef
/.notdef /.notdef /space /exclam /quotedbl
/numbersign /dollar /percent /ampersand /quotesingle
/parenleft /parenright /asterisk /plus /comma
/hyphen /period /slash /zero /one
/two /three /four /five /six
/seven /eight /nine /colon /semicolon
/less /equal /greater /question /at
/A /B /C /D /E
/F /G /H /I /J
/K /L /M /N /O
/P /Q /R /S /T
/U /V /W /X /Y
/Z /bracketleft /backslash /bracketright /asciicircum
/underscore /quoteleft /a /b /c
/d /e /f /g /h
/i /j /k /l /m
/n /o /p /q /r
/s /t /u /v /w
/x /y /z /braceleft /bar
/braceright /asciitilde /bullet /Euro /bullet
/quotesinglbase /florin /quotedblbase /ellipsis /dagger
/daggerdbl /circumflex /perthousand /Scaron /guilsinglleft
/OE /bullet /Zcaron /bullet /bullet
/quoteleft /quoteright /quotedblleft /quotedblright /bullet
/endash /emdash /asciitilde /trademark /scaron
/guilsinglright /oe /bullet /zcaron /Ydieresis
/space /exclamdown /cent /sterling /currency
/yen /brokenbar /section /dieresis /copyright
/ordfeminine /guillemotleft /logicalnot /sfthyphen /registered
/macron /degree /plusminus /twosuperior /threesuperior
/acute /mu /paragraph /middot /cedilla
/onesuperior /ordmasculine /guillemotright /onequarter /onehalf
/threequarters /questiondown /Agrave /Aacute /Acircumflex
/Atilde /Adieresis /Aring /AE /Ccedilla
/Egrave /Eacute /Ecircumflex /Edieresis /Igrave
/Iacute /Icircumflex /Idieresis /Eth /Ntilde
/Ograve /Oacute /Ocircumflex /Otilde /Odieresis
/multiply /Oslash /Ugrave /Uacute /Ucircumflex
/Udieresis /Yacute /Thorn /germandbls /agrave
/aacute /acircumflex /atilde /adieresis /aring
/ae /ccedilla /egrave /eacute /ecircumflex
/edieresis /igrave /iacute /icircumflex /idieresis
/eth /ntilde /ograve /oacute /ocircumflex
/otilde /odieresis /divide /oslash /ugrave
/uacute /ucircumflex /udieresis /yacute /thorn
/ydieresis
] def
%%EndResource
%FOPBeginFontReencode
/Courier-Bold findfont
dup length dict begin
  {1 index /FID ne {def} {pop pop} ifelse} forall
  /Encoding WinAnsiEncoding def
  currentdict
end
/Courier-Bold exch definefont pop
/Helvetica findfont
dup length dict begin
  {1 index /FID ne {def} {pop pop} ifelse} forall
  /Encoding WinAnsiEncoding def
  currentdict
end
/Helvetica exch definefont pop
/Courier-BoldOblique findfont
dup length dict begin
  {1 index /FID ne {def} {pop pop} ifelse} forall
  /Encoding WinAnsiEncoding def
  currentdict
end
/Courier-BoldOblique exch definefont pop
/Courier-Oblique findfont
dup length dict begin
  {1 index /FID ne {def} {pop pop} ifelse} forall
  /Encoding WinAnsiEncoding def
  currentdict
end
/Courier-Oblique exch definefont pop
/Times-Roman findfont
dup length dict begin
  {1 index /FID ne {def} {pop pop} ifelse} forall
  /Encoding WinAnsiEncoding def
  currentdict
end
/Times-Roman exch definefont pop
/Helvetica-BoldOblique findfont
dup length dict begin
  {1 index /FID ne {def} {pop pop} ifelse} forall
  /Encoding WinAnsiEncoding def
  currentdict
end
/Helvetica-BoldOblique exch definefont pop
/Helvetica-Bold findfont
dup length dict begin
  {1 index /FID ne {def} {pop pop} ifelse} forall
  /Encoding WinAnsiEncoding def
  currentdict
end
/Helvetica-Bold exch definefont pop
/Helvetica-Oblique findfont
dup length dict begin
  {1 index /FID ne {def} {pop pop} ifelse} forall
  /Encoding WinAnsiEncoding def
  currentdict
end
/Helvetica-Oblique exch definefont pop
/Times-BoldItalic findfont
dup length dict begin
  {1 index /FID ne {def} {pop pop} ifelse} forall
  /Encoding WinAnsiEncoding def
  currentdict
end
/Times-BoldItalic exch definefont pop
/Courier findfont
dup length dict begin
  {1 index /FID ne {def} {pop pop} ifelse} forall
  /Encoding WinAnsiEncoding def
  currentdict
end
/Courier exch definefont pop
/Times-Italic findfont
dup length dict begin
  {1 index /FID ne {def} {pop pop} ifelse} forall
  /Encoding WinAnsiEncoding def
  currentdict
end
/Times-Italic exch definefont pop
/Times-Bold findfont
dup length dict begin
  {1 index /FID ne {def} {pop pop} ifelse} forall
  /Encoding WinAnsiEncoding def
  currentdict
end
/Times-Bold exch definefont pop
%FOPEndFontReencode
%%EndProlog
%%Page: 1 1
%%PageBoundingBox: 0 0 957 656
%%BeginPageSetup
[1 0 0 -1 0 656] CT
%%EndPageSetup
GS
[0.75 0 0 0.75 0 -0.25] CT
1 GC
N
0 0 1276 875 re
f
GR
GS
[0.75 0 0 0.75 0 -0.25] CT
1 GC
N
0 0 1276 875 re
f
GR
GS
[0.75 0 0 0.75 0 -0.25] CT
1 GC
N
166 779 M
1155 779 L
1155 66 L
166 66 L
cp
f
GR
GS
[0.75 0 0 0.75 0 -0.25] CT
0.149 GC
2 setlinecap
1 LJ
0.667 LW
N
166 779 M
1155 779 L
S
GR
GS
[0.75 0 0 0.75 0 -0.25] CT
0.149 GC
2 setlinecap
1 LJ
0.667 LW
N
166 66 M
1155 66 L
S
GR
GS
[0.75 0 0 0.75 0 -0.25] CT
0.149 GC
2 setlinecap
1 LJ
0.667 LW
N
166 779 M
166 769.11 L
S
GR
GS
[0.75 0 0 0.75 0 -0.25] CT
0.149 GC
2 setlinecap
1 LJ
0.667 LW
N
264.9 779 M
264.9 769.11 L
S
GR
GS
[0.75 0 0 0.75 0 -0.25] CT
0.149 GC
2 setlinecap
1 LJ
0.667 LW
N
363.8 779 M
363.8 769.11 L
S
GR
GS
[0.75 0 0 0.75 0 -0.25] CT
0.149 GC
2 setlinecap
1 LJ
0.667 LW
N
462.7 779 M
462.7 769.11 L
S
GR
GS
[0.75 0 0 0.75 0 -0.25] CT
0.149 GC
2 setlinecap
1 LJ
0.667 LW
N
561.6 779 M
561.6 769.11 L
S
GR
GS
[0.75 0 0 0.75 0 -0.25] CT
0.149 GC
2 setlinecap
1 LJ
0.667 LW
N
660.5 779 M
660.5 769.11 L
S
GR
GS
[0.75 0 0 0.75 0 -0.25] CT
0.149 GC
2 setlinecap
1 LJ
0.667 LW
N
759.4 779 M
759.4 769.11 L
S
GR
GS
[0.75 0 0 0.75 0 -0.25] CT
0.149 GC
2 setlinecap
1 LJ
0.667 LW
N
858.3 779 M
858.3 769.11 L
S
GR
GS
[0.75 0 0 0.75 0 -0.25] CT
0.149 GC
2 setlinecap
1 LJ
0.667 LW
N
957.2 779 M
957.2 769.11 L
S
GR
GS
[0.75 0 0 0.75 0 -0.25] CT
0.149 GC
2 setlinecap
1 LJ
0.667 LW
N
1056.1 779 M
1056.1 769.11 L
S
GR
GS
[0.75 0 0 0.75 0 -0.25] CT
0.149 GC
2 setlinecap
1 LJ
0.667 LW
N
1155 779 M
1155 769.11 L
S
GR
GS
[0.75 0 0 0.75 0 -0.25] CT
0.149 GC
2 setlinecap
1 LJ
0.667 LW
N
166 66 M
166 75.89 L
S
GR
GS
[0.75 0 0 0.75 0 -0.25] CT
0.149 GC
2 setlinecap
1 LJ
0.667 LW
N
264.9 66 M
264.9 75.89 L
S
GR
GS
[0.75 0 0 0.75 0 -0.25] CT
0.149 GC
2 setlinecap
1 LJ
0.667 LW
N
363.8 66 M
363.8 75.89 L
S
GR
GS
[0.75 0 0 0.75 0 -0.25] CT
0.149 GC
2 setlinecap
1 LJ
0.667 LW
N
462.7 66 M
462.7 75.89 L
S
GR
GS
[0.75 0 0 0.75 0 -0.25] CT
0.149 GC
2 setlinecap
1 LJ
0.667 LW
N
561.6 66 M
561.6 75.89 L
S
GR
GS
[0.75 0 0 0.75 0 -0.25] CT
0.149 GC
2 setlinecap
1 LJ
0.667 LW
N
660.5 66 M
660.5 75.89 L
S
GR
GS
[0.75 0 0 0.75 0 -0.25] CT
0.149 GC
2 setlinecap
1 LJ
0.667 LW
N
759.4 66 M
759.4 75.89 L
S
GR
GS
[0.75 0 0 0.75 0 -0.25] CT
0.149 GC
2 setlinecap
1 LJ
0.667 LW
N
858.3 66 M
858.3 75.89 L
S
GR
GS
[0.75 0 0 0.75 0 -0.25] CT
0.149 GC
2 setlinecap
1 LJ
0.667 LW
N
957.2 66 M
957.2 75.89 L
S
GR
GS
[0.75 0 0 0.75 0 -0.25] CT
0.149 GC
2 setlinecap
1 LJ
0.667 LW
N
1056.1 66 M
1056.1 75.89 L
S
GR
GS
[0.75 0 0 0.75 0 -0.25] CT
0.149 GC
2 setlinecap
1 LJ
0.667 LW
N
1155 66 M
1155 75.89 L
S
GR
GS
[0.75 0 0 0.75 124.5 589.60001] CT
0.149 GC
/Helvetica 24 F
GS
[1 0 0 1 0 0] CT
-7 25 moveto 
1 -1 scale
(0) t 
GR
GR
GS
[0.75 0 0 0.75 198.675 589.60001] CT
0.149 GC
/Helvetica 24 F
GS
[1 0 0 1 0 0] CT
-13.5 25 moveto 
1 -1 scale
(10) t 
GR
GR
GS
[0.75 0 0 0.75 272.84999 589.60001] CT
0.149 GC
/Helvetica 24 F
GS
[1 0 0 1 0 0] CT
-13.5 25 moveto 
1 -1 scale
(20) t 
GR
GR
GS
[0.75 0 0 0.75 347.02501 589.60001] CT
0.149 GC
/Helvetica 24 F
GS
[1 0 0 1 0 0] CT
-13.5 25 moveto 
1 -1 scale
(30) t 
GR
GR
GS
[0.75 0 0 0.75 421.19998 589.60001] CT
0.149 GC
/Helvetica 24 F
GS
[1 0 0 1 0 0] CT
-13.5 25 moveto 
1 -1 scale
(40) t 
GR
GR
GS
[0.75 0 0 0.75 495.375 589.60001] CT
0.149 GC
/Helvetica 24 F
GS
[1 0 0 1 0 0] CT
-13.5 25 moveto 
1 -1 scale
(50) t 
GR
GR
GS
[0.75 0 0 0.75 569.55002 589.60001] CT
0.149 GC
/Helvetica 24 F
GS
[1 0 0 1 0 0] CT
-13.5 25 moveto 
1 -1 scale
(60) t 
GR
GR
GS
[0.75 0 0 0.75 643.72499 589.60001] CT
0.149 GC
/Helvetica 24 F
GS
[1 0 0 1 0 0] CT
-13.5 25 moveto 
1 -1 scale
(70) t 
GR
GR
GS
[0.75 0 0 0.75 717.90001 589.60001] CT
0.149 GC
/Helvetica 24 F
GS
[1 0 0 1 0 0] CT
-13.5 25 moveto 
1 -1 scale
(80) t 
GR
GR
GS
[0.75 0 0 0.75 792.07498 589.60001] CT
0.149 GC
/Helvetica 24 F
GS
[1 0 0 1 0 0] CT
-13.5 25 moveto 
1 -1 scale
(90) t 
GR
GR
GS
[0.75 0 0 0.75 866.25 589.60001] CT
0.149 GC
/Helvetica 24 F
GS
[1 0 0 1 0 0] CT
-20.5 25 moveto 
1 -1 scale
(100) t 
GR
GR
GS
[0.75 0 0 0.75 495.37532 613.84999] CT
0.149 GC
/Helvetica 26.4 F
GS
[1 0 0 1 0 0] CT
-46.5 27 moveto 
1 -1 scale
(Time [s]) t 
GR
GR
GS
[0.75 0 0 0.75 0 -0.25] CT
0.149 GC
2 setlinecap
1 LJ
0.667 LW
N
166 779 M
166 66 L
S
GR
GS
[0.75 0 0 0.75 0 -0.25] CT
0.149 GC
2 setlinecap
1 LJ
0.667 LW
N
1155 779 M
1155 66 L
S
GR
GS
[0.75 0 0 0.75 0 -0.25] CT
0.149 GC
2 setlinecap
1 LJ
0.667 LW
N
166 779 M
175.89 779 L
S
GR
GS
[0.75 0 0 0.75 0 -0.25] CT
0.149 GC
2 setlinecap
1 LJ
0.667 LW
N
166 636.4 M
175.89 636.4 L
S
GR
GS
[0.75 0 0 0.75 0 -0.25] CT
0.149 GC
2 setlinecap
1 LJ
0.667 LW
N
166 493.8 M
175.89 493.8 L
S
GR
GS
[0.75 0 0 0.75 0 -0.25] CT
0.149 GC
2 setlinecap
1 LJ
0.667 LW
N
166 351.2 M
175.89 351.2 L
S
GR
GS
[0.75 0 0 0.75 0 -0.25] CT
0.149 GC
2 setlinecap
1 LJ
0.667 LW
N
166 208.6 M
175.89 208.6 L
S
GR
GS
[0.75 0 0 0.75 0 -0.25] CT
0.149 GC
2 setlinecap
1 LJ
0.667 LW
N
166 66 M
175.89 66 L
S
GR
GS
[0.75 0 0 0.75 0 -0.25] CT
0.149 GC
2 setlinecap
1 LJ
0.667 LW
N
1155 779 M
1145.11 779 L
S
GR
GS
[0.75 0 0 0.75 0 -0.25] CT
0.149 GC
2 setlinecap
1 LJ
0.667 LW
N
1155 636.4 M
1145.11 636.4 L
S
GR
GS
[0.75 0 0 0.75 0 -0.25] CT
0.149 GC
2 setlinecap
1 LJ
0.667 LW
N
1155 493.8 M
1145.11 493.8 L
S
GR
GS
[0.75 0 0 0.75 0 -0.25] CT
0.149 GC
2 setlinecap
1 LJ
0.667 LW
N
1155 351.2 M
1145.11 351.2 L
S
GR
GS
[0.75 0 0 0.75 0 -0.25] CT
0.149 GC
2 setlinecap
1 LJ
0.667 LW
N
1155 208.6 M
1145.11 208.6 L
S
GR
GS
[0.75 0 0 0.75 0 -0.25] CT
0.149 GC
2 setlinecap
1 LJ
0.667 LW
N
1155 66 M
1145.11 66 L
S
GR
GS
[0.75 0 0 0.75 118.90001 584] CT
0.149 GC
/Helvetica 24 F
GS
[1 0 0 1 0 0] CT
-62 9.5 moveto 
1 -1 scale
(-1000) t 
GR
GR
GS
[0.75 0 0 0.75 118.90001 477.05002] CT
0.149 GC
/Helvetica 24 F
GS
[1 0 0 1 0 0] CT
-49 9.5 moveto 
1 -1 scale
(-500) t 
GR
GR
GS
[0.75 0 0 0.75 118.90001 370.09999] CT
0.149 GC
/Helvetica 24 F
GS
[1 0 0 1 0 0] CT
-14 9.5 moveto 
1 -1 scale
(0) t 
GR
GR
GS
[0.75 0 0 0.75 118.90001 263.15001] CT
0.149 GC
/Helvetica 24 F
GS
[1 0 0 1 0 0] CT
-41 9.5 moveto 
1 -1 scale
(500) t 
GR
GR
GS
[0.75 0 0 0.75 118.90001 156.2] CT
0.149 GC
/Helvetica 24 F
GS
[1 0 0 1 0 0] CT
-54 9.5 moveto 
1 -1 scale
(1000) t 
GR
GR
GS
[0.75 0 0 0.75 118.90001 49.25] CT
0.149 GC
/Helvetica 24 F
GS
[1 0 0 1 0 0] CT
-54 9.5 moveto 
1 -1 scale
(1500) t 
GR
GR
GS
[0.75 0 0 0.75 0 -0.25] CT
0 0.447 0.741 RC
1 LJ
2.667 LW
N
175.89 470.485 M
185.78 448.583 L
195.67 458.998 L
205.56 482.966 L
215.45 491.437 L
225.34 493.609 L
235.23 488.822 L
245.12 480.302 L
255.01 459.567 L
264.9 452.554 L
274.79 476.912 L
284.68 488.814 L
294.57 493.02 L
304.46 496.773 L
314.35 490.3 L
324.24 463.522 L
334.13 448.715 L
344.02 465.279 L
353.91 489.482 L
363.8 494.775 L
373.69 498.368 L
383.58 491.209 L
393.47 475.496 L
403.36 435.996 L
413.25 443.817 L
423.14 492.946 L
433.03 489.882 L
442.92 478.461 L
452.81 478.568 L
462.7 468.503 L
472.59 447.798 L
482.48 435.037 L
492.37 457.866 L
502.26 469.162 L
512.15 454.97 L
522.04 449.296 L
531.93 467.798 L
541.82 501.787 L
551.71 463.952 L
561.6 454.551 L
571.49 443.557 L
581.38 439.224 L
591.27 473.592 L
601.16 461.682 L
611.05 513.702 L
620.94 549.792 L
630.83 556.312 L
640.72 483.234 L
650.61 434.06 L
660.5 343.502 L
670.39 392.284 L
680.28 480.732 L
690.17 605.739 L
700.06 651.234 L
709.95 644.132 L
719.84 553.989 L
729.73 488.706 L
739.62 377.733 L
749.51 355.888 L
759.4 479.296 L
769.29 532.189 L
779.18 731.707 L
789.07 570.457 L
798.96 647.872 L
808.85 492.652 L
818.74 457.335 L
828.63 412.105 L
838.52 469.139 L
848.41 539.769 L
858.3 622.14 L
868.19 546.277 L
878.08 491.449 L
887.97 415.435 L
897.86 462.521 L
907.75 359.548 L
917.64 423.962 L
927.53 372.265 L
937.42 458.849 L
947.31 492.9 L
957.2 416.132 L
967.09 438.754 L
976.98 445.964 L
986.87 463.864 L
996.76 497.23 L
1006.65 386.645 L
1016.54 366.658 L
1026.43 452.954 L
1036.32 519.205 L
1046.21 487.35 L
1056.1 515.903 L
1065.99 607.406 L
1075.88 442.105 L
1085.77 535.369 L
1095.66 409.733 L
1105.55 531.757 L
1115.44 569.014 L
1125.33 550.68 L
1135.22 639.011 L
1145.11 562.673 L
1155 519.009 L
S
GR
GS
[0.75 0 0 0.75 0 -0.25] CT
0.851 0.325 0.098 RC
1 LJ
2.667 LW
N
175.89 470.563 M
185.78 449.081 L
195.67 460.445 L
205.56 477.424 L
215.45 489.826 L
225.34 491.763 L
235.23 489.548 L
245.12 480.503 L
255.01 463.493 L
264.9 449.671 L
274.79 462.036 L
284.68 480.568 L
294.57 488.916 L
304.46 494.611 L
314.35 495.286 L
324.24 483.046 L
334.13 461.823 L
344.02 445.674 L
353.91 454.638 L
363.8 495.462 L
373.69 486.084 L
383.58 488.751 L
393.47 496.322 L
403.36 483.823 L
413.25 477.297 L
423.14 435.457 L
433.03 451.167 L
442.92 503.044 L
452.81 480.446 L
462.7 486.602 L
472.59 461.092 L
482.48 481.455 L
492.37 478.239 L
502.26 445.408 L
512.15 480.178 L
522.04 476.929 L
531.93 479.866 L
541.82 506.056 L
551.71 438.004 L
561.6 470.119 L
571.49 452.632 L
581.38 477.307 L
591.27 492.516 L
601.16 408.411 L
611.05 533.461 L
620.94 425.946 L
630.83 482.168 L
640.72 463.885 L
650.61 412.071 L
660.5 522.99 L
670.39 367.509 L
680.28 497.207 L
690.17 447.07 L
700.06 445.045 L
709.95 532.908 L
719.84 297.642 L
729.73 518.164 L
739.62 385.673 L
749.51 472.81 L
759.4 571.823 L
769.29 215.812 L
779.18 552.686 L
789.07 295.998 L
798.96 503.445 L
808.85 571.945 L
818.74 269.404 L
828.63 603.189 L
838.52 334.624 L
848.41 512.983 L
858.3 436.714 L
868.19 256.076 L
878.08 580.569 L
887.97 330.517 L
897.86 539.961 L
907.75 512.852 L
917.64 336.218 L
927.53 619.188 L
937.42 347.228 L
947.31 492.292 L
957.2 372.265 L
967.09 383.745 L
976.98 649.606 L
986.87 348.628 L
996.76 533.355 L
1006.65 428.691 L
1016.54 411.602 L
1026.43 663.881 L
1036.32 434.076 L
1046.21 492.725 L
1056.1 398.454 L
1065.99 475.006 L
1075.88 619.077 L
1085.77 340.446 L
1095.66 606.068 L
1105.55 349.384 L
1115.44 532.62 L
1125.33 500.512 L
1135.22 361.443 L
1145.11 531.306 L
1155 364.805 L
S
GR
GS
[0.75 0 0 0.75 0 -0.25] CT
0.929 0.694 0.125 RC
1 LJ
2.667 LW
N
175.89 469.81 M
185.78 449.579 L
195.67 461.492 L
205.56 479.216 L
215.45 485.216 L
225.34 488.248 L
235.23 488.396 L
245.12 483.394 L
255.01 461.464 L
264.9 448.43 L
274.79 470.158 L
284.68 482.999 L
294.57 486.803 L
304.46 487.624 L
314.35 482.942 L
324.24 470.124 L
334.13 457.595 L
344.02 461.397 L
353.91 475.652 L
363.8 480.967 L
373.69 483.365 L
383.58 481.843 L
393.47 478.46 L
403.36 463.38 L
413.25 457.076 L
423.14 469.667 L
433.03 474.435 L
442.92 476.842 L
452.81 477.545 L
462.7 476.849 L
472.59 475.402 L
482.48 468.909 L
492.37 464.768 L
502.26 465.921 L
512.15 469.509 L
522.04 474.202 L
531.93 477.342 L
541.82 479.197 L
551.71 474.78 L
561.6 470.999 L
571.49 465.878 L
581.38 464.583 L
591.27 471.09 L
601.16 476.708 L
611.05 480.377 L
620.94 481.527 L
630.83 476.448 L
640.72 467.404 L
650.61 460.555 L
660.5 465.222 L
670.39 475.049 L
680.28 481.786 L
690.17 485.12 L
700.06 483.37 L
709.95 475.815 L
719.84 461.706 L
729.73 457.869 L
739.62 471.229 L
749.51 481.814 L
759.4 486.706 L
769.29 488.336 L
779.18 483.245 L
789.07 468.194 L
798.96 450.173 L
808.85 461.759 L
818.74 482.744 L
828.63 489.356 L
838.52 492.744 L
848.41 490.572 L
858.3 478.736 L
868.19 450.968 L
878.08 446.388 L
887.97 481.682 L
897.86 493.874 L
907.75 499.099 L
917.64 501.008 L
927.53 496.003 L
937.42 462.567 L
947.31 420.152 L
957.2 463.278 L
967.09 506.371 L
976.98 513.425 L
986.87 519.625 L
996.76 529.894 L
1006.65 509.215 L
1016.54 401.544 L
1026.43 415.655 L
1036.32 515.533 L
1046.21 541.647 L
1056.1 519.291 L
1065.99 573.572 L
1075.88 549.281 L
1085.77 430.674 L
1095.66 404.387 L
1105.55 471.016 L
1115.44 545.965 L
1125.33 507.806 L
1135.22 565.522 L
1145.11 548.148 L
1155 516.508 L
S
GR
GS
[0.75 0 0 0.75 0 -0.25] CT
0.494 0.184 0.557 RC
1 LJ
2.667 LW
N
175.89 471.675 M
185.78 448.521 L
195.67 457.502 L
205.56 482.752 L
215.45 490.976 L
225.34 491.43 L
235.23 487.002 L
245.12 482.413 L
255.01 460.16 L
264.9 448.635 L
274.79 469.767 L
284.68 485.884 L
294.57 495.492 L
304.46 492.834 L
314.35 486.124 L
324.24 469.429 L
334.13 457.155 L
344.02 454.758 L
353.91 481.463 L
363.8 487.415 L
373.69 503.15 L
383.58 484.267 L
393.47 488.878 L
403.36 457.035 L
413.25 453.215 L
423.14 449.095 L
433.03 489.836 L
442.92 485.554 L
452.81 505.107 L
462.7 477.655 L
472.59 482.582 L
482.48 465.286 L
492.37 437.972 L
502.26 452.179 L
512.15 484.697 L
522.04 504.46 L
531.93 485.196 L
541.82 515.7 L
551.71 474.831 L
561.6 523.932 L
571.49 440.554 L
581.38 470.202 L
591.27 429.302 L
601.16 535.478 L
611.05 405.189 L
620.94 488.439 L
630.83 481.731 L
640.72 571.163 L
650.61 399.237 L
660.5 374.716 L
670.39 470.208 L
680.28 464.155 L
690.17 484.387 L
700.06 403.781 L
709.95 650.036 L
719.84 469.094 L
729.73 534.34 L
739.62 339.565 L
749.51 601.313 L
759.4 307.233 L
769.29 448.593 L
779.18 299.817 L
789.07 558.845 L
798.96 518.892 L
808.85 495.025 L
818.74 372.499 L
828.63 413.113 L
838.52 469.821 L
848.41 342.959 L
858.3 539.222 L
868.19 303.527 L
878.08 597.383 L
887.97 300.023 L
897.86 602.907 L
907.75 328.346 L
917.64 537.918 L
927.53 185.105 L
937.42 442.848 L
947.31 320.546 L
957.2 410.449 L
967.09 346.621 L
976.98 348.315 L
986.87 454.137 L
996.76 334.995 L
1006.65 532.913 L
1016.54 224.205 L
1026.43 597.278 L
1036.32 191.13 L
1046.21 544.907 L
1056.1 194.089 L
1065.99 518.542 L
1075.88 216.954 L
1085.77 388.946 L
1095.66 429.164 L
1105.55 453.605 L
1115.44 310.409 L
1125.33 312.277 L
1135.22 514.248 L
1145.11 290.35 L
1155 600.557 L
S
GR
GS
[0.75 0 0 0.75 0 -0.25] CT
0.467 0.675 0.188 RC
1 LJ
2.667 LW
N
175.89 472.571 M
185.78 451.344 L
195.67 458.556 L
205.56 483.417 L
215.45 488.806 L
225.34 490.684 L
235.23 484.565 L
245.12 479.209 L
255.01 465.596 L
264.9 462.019 L
274.79 475.358 L
284.68 481.999 L
294.57 491.241 L
304.46 483.314 L
314.35 477.966 L
324.24 463.975 L
334.13 459.482 L
344.02 478.51 L
353.91 488.708 L
363.8 487.036 L
373.69 489.792 L
383.58 472.739 L
393.47 471.294 L
403.36 457.65 L
413.25 472.411 L
423.14 483.652 L
433.03 490.225 L
442.92 485.81 L
452.81 475.192 L
462.7 466.516 L
472.59 464.355 L
482.48 476.629 L
492.37 481.724 L
502.26 487.823 L
512.15 489.483 L
522.04 474.547 L
531.93 463.259 L
541.82 458.753 L
551.71 471.155 L
561.6 489.23 L
571.49 477.515 L
581.38 499.611 L
591.27 474.917 L
601.16 458.597 L
611.05 457.754 L
620.94 467.881 L
630.83 492.038 L
640.72 473.352 L
650.61 500.441 L
660.5 489.699 L
670.39 455.744 L
680.28 447.581 L
690.17 449.349 L
700.06 514.178 L
709.95 459.738 L
719.84 495.899 L
729.73 490.314 L
739.62 468.818 L
749.51 463.177 L
759.4 437.505 L
769.29 496.708 L
779.18 456.222 L
789.07 467.729 L
798.96 496.741 L
808.85 479.065 L
818.74 477.63 L
828.63 444.247 L
838.52 473.505 L
848.41 467.335 L
858.3 428.653 L
868.19 554.163 L
878.08 479.531 L
887.97 516.627 L
897.86 478.173 L
907.75 427.95 L
917.64 434.882 L
927.53 376.155 L
937.42 566.666 L
947.31 513.706 L
957.2 579.319 L
967.09 490.01 L
976.98 309.72 L
986.87 424.552 L
996.76 488.041 L
1006.65 590.794 L
1016.54 560.463 L
1026.43 604.713 L
1036.32 528.272 L
1046.21 333.649 L
1056.1 416.1 L
1065.99 485.541 L
1075.88 668.444 L
1085.77 484.211 L
1095.66 463.715 L
1105.55 436.063 L
1115.44 438.76 L
1125.33 599.967 L
1135.22 499.034 L
1145.11 597.711 L
1155 402.183 L
S
GR
GS
[0.75 0 0 0.75 0 -0.25] CT
0.302 0.745 0.933 RC
1 LJ
2.667 LW
N
175.89 473.266 M
185.78 443.034 L
195.67 459.006 L
205.56 483.533 L
215.45 489.807 L
225.34 490.663 L
235.23 489.807 L
245.12 484.674 L
255.01 462.428 L
264.9 440.182 L
274.79 470.984 L
284.68 487.24 L
294.57 490.378 L
304.46 490.948 L
314.35 489.522 L
324.24 480.966 L
334.13 450.735 L
344.02 445.601 L
353.91 478.684 L
363.8 488.666 L
373.69 490.378 L
383.58 491.233 L
393.47 488.952 L
403.36 476.688 L
413.25 441.894 L
423.14 453.016 L
433.03 482.962 L
442.92 490.092 L
452.81 491.233 L
462.7 491.233 L
472.59 488.381 L
482.48 473.551 L
492.37 436.475 L
502.26 457.865 L
512.15 485.244 L
522.04 490.378 L
531.93 491.233 L
541.82 491.518 L
551.71 488.666 L
561.6 473.836 L
571.49 433.623 L
581.38 456.439 L
591.27 485.244 L
601.16 490.663 L
611.05 491.518 L
620.94 491.518 L
630.83 490.092 L
640.72 480.396 L
650.61 439.042 L
660.5 442.749 L
670.39 482.392 L
680.28 490.092 L
690.17 491.233 L
700.06 491.804 L
709.95 491.804 L
719.84 489.807 L
729.73 473.551 L
739.62 421.074 L
749.51 456.439 L
759.4 486.955 L
769.29 491.233 L
779.18 491.804 L
789.07 491.804 L
798.96 492.374 L
808.85 492.659 L
818.74 492.944 L
828.63 491.518 L
838.52 488.096 L
848.41 490.092 L
858.3 490.948 L
868.19 490.092 L
878.08 488.096 L
887.97 484.959 L
897.86 481.822 L
907.75 477.544 L
917.64 474.406 L
927.53 473.836 L
937.42 476.973 L
947.31 480.11 L
957.2 480.681 L
967.09 479.255 L
976.98 476.403 L
986.87 473.836 L
996.76 474.692 L
1006.65 477.544 L
1016.54 480.11 L
1026.43 480.396 L
1036.32 478.684 L
1046.21 475.262 L
1056.1 473.266 L
1065.99 474.692 L
1075.88 477.544 L
1085.77 480.396 L
1095.66 480.396 L
1105.55 478.399 L
1115.44 474.692 L
1125.33 472.98 L
1135.22 474.977 L
1145.11 478.399 L
1155 480.11 L
S
GR
GS
[0.75 0 0 0.75 0 -0.25] CT
1 GC
N
200 333 M
200 89 L
522 89 L
522 333 L
cp
f
GR
GS
[0.75 0 0 0.75 208.56438 83.27937] CT
/Helvetica 21.6 F
GS
[1 0 0 1 0 0] CT
0 9 moveto 
1 -1 scale
(Approximation1) t 
GR
GR
GS
[0.75 0 0 0.75 0 -0.25] CT
0 0.447 0.741 RC
1 LJ
2.667 LW
N
245.12 111.372 M
275.089 111.372 L
S
GR
GS
[0.75 0 0 0.75 208.56438 113.16762] CT
/Helvetica 21.6 F
GS
[1 0 0 1 0 0] CT
0 9 moveto 
1 -1 scale
(Approximation2) t 
GR
GR
GS
[0.75 0 0 0.75 0 -0.25] CT
0.851 0.325 0.098 RC
1 LJ
2.667 LW
N
245.12 151.223 M
275.089 151.223 L
S
GR
GS
[0.75 0 0 0.75 208.56438 143.05588] CT
/Helvetica 21.6 F
GS
[1 0 0 1 0 0] CT
0 9 moveto 
1 -1 scale
(Approximation3) t 
GR
GR
GS
[0.75 0 0 0.75 0 -0.25] CT
0.929 0.694 0.125 RC
1 LJ
2.667 LW
N
245.12 191.074 M
275.089 191.074 L
S
GR
GS
[0.75 0 0 0.75 208.56438 172.94412] CT
/Helvetica 21.6 F
GS
[1 0 0 1 0 0] CT
0 9 moveto 
1 -1 scale
(Approximation4) t 
GR
GR
GS
[0.75 0 0 0.75 0 -0.25] CT
0.494 0.184 0.557 RC
1 LJ
2.667 LW
N
245.12 230.926 M
275.089 230.926 L
S
GR
GS
[0.75 0 0 0.75 208.56438 202.83237] CT
/Helvetica 21.6 F
GS
[1 0 0 1 0 0] CT
0 9 moveto 
1 -1 scale
(Approximation5) t 
GR
GR
GS
[0.75 0 0 0.75 0 -0.25] CT
0.467 0.675 0.188 RC
1 LJ
2.667 LW
N
245.12 270.776 M
275.089 270.776 L
S
GR
GS
[0.75 0 0 0.75 208.56438 232.72063] CT
/Helvetica 21.6 F
GS
[1 0 0 1 0 0] CT
0 9 moveto 
1 -1 scale
(Laser Prediction Set) t 
GR
GR
GS
[0.75 0 0 0.75 0 -0.25] CT
0.302 0.745 0.933 RC
1 LJ
2.667 LW
N
245.12 310.628 M
275.089 310.628 L
S
GR
GS
[0.75 0 0 0.75 0 -0.25] CT
0.149 GC
10.0 ML
0.667 LW
N
200 333 M
200 89 L
522 89 L
522 333 L
cp
S
GR
%%Trailer
%%Pages: 1
%%EOF
