%!PS-Adobe-3.0 EPSF-3.0
%%Creator: (MATLAB, The Mathworks, Inc. Version 9.1.0.441655 \(R2016b\). Operating System: Windows 8)
%%Title: (C:/Users/Eigenaar/WIT/Data Mining/data-mining/Session 2/plots/delay15.eps)
%%CreationDate: 2017-11-22T21:10:25
%%Pages: (atend)
%%BoundingBox: 0 0 1017 642
%%LanguageLevel: 3
%%EndComments
%%BeginProlog
%%BeginResource: procset (Apache XML Graphics Std ProcSet) 1.2 0
%%Version: 1.2 0
%%Copyright: (Copyright 2001-2003,2010 The Apache Software Foundation. License terms: http://www.apache.org/licenses/LICENSE-2.0)
/bd{bind def}bind def
/ld{load def}bd
/GR/grestore ld
/M/moveto ld
/LJ/setlinejoin ld
/C/curveto ld
/f/fill ld
/LW/setlinewidth ld
/GC/setgray ld
/t/show ld
/N/newpath ld
/CT/concat ld
/cp/closepath ld
/S/stroke ld
/L/lineto ld
/CC/setcmykcolor ld
/A/ashow ld
/GS/gsave ld
/RC/setrgbcolor ld
/RM/rmoveto ld
/ML/setmiterlimit ld
/re {4 2 roll M
1 index 0 rlineto
0 exch rlineto
neg 0 rlineto
cp } bd
/_ctm matrix def
/_tm matrix def
/BT { _ctm currentmatrix pop matrix _tm copy pop 0 0 moveto } bd
/ET { _ctm setmatrix } bd
/iTm { _ctm setmatrix _tm concat } bd
/Tm { _tm astore pop iTm 0 0 moveto } bd
/ux 0.0 def
/uy 0.0 def
/F {
  /Tp exch def
  /Tf exch def
  Tf findfont Tp scalefont setfont
  /cf Tf def  /cs Tp def
} bd
/ULS {currentpoint /uy exch def /ux exch def} bd
/ULE {
  /Tcx currentpoint pop def
  gsave
  newpath
  cf findfont cs scalefont dup
  /FontMatrix get 0 get /Ts exch def /FontInfo get dup
  /UnderlinePosition get Ts mul /To exch def
  /UnderlineThickness get Ts mul /Tt exch def
  ux uy To add moveto  Tcx uy To add lineto
  Tt setlinewidth stroke
  grestore
} bd
/OLE {
  /Tcx currentpoint pop def
  gsave
  newpath
  cf findfont cs scalefont dup
  /FontMatrix get 0 get /Ts exch def /FontInfo get dup
  /UnderlinePosition get Ts mul /To exch def
  /UnderlineThickness get Ts mul /Tt exch def
  ux uy To add cs add moveto Tcx uy To add cs add lineto
  Tt setlinewidth stroke
  grestore
} bd
/SOE {
  /Tcx currentpoint pop def
  gsave
  newpath
  cf findfont cs scalefont dup
  /FontMatrix get 0 get /Ts exch def /FontInfo get dup
  /UnderlinePosition get Ts mul /To exch def
  /UnderlineThickness get Ts mul /Tt exch def
  ux uy To add cs 10 mul 26 idiv add moveto Tcx uy To add cs 10 mul 26 idiv add lineto
  Tt setlinewidth stroke
  grestore
} bd
/QT {
/Y22 exch store
/X22 exch store
/Y21 exch store
/X21 exch store
currentpoint
/Y21 load 2 mul add 3 div exch
/X21 load 2 mul add 3 div exch
/X21 load 2 mul /X22 load add 3 div
/Y21 load 2 mul /Y22 load add 3 div
/X22 load /Y22 load curveto
} bd
/SSPD {
dup length /d exch dict def
{
/v exch def
/k exch def
currentpagedevice k known {
/cpdv currentpagedevice k get def
v cpdv ne {
/upd false def
/nullv v type /nulltype eq def
/nullcpdv cpdv type /nulltype eq def
nullv nullcpdv or
{
/upd true def
} {
/sametype v type cpdv type eq def
sametype {
v type /arraytype eq {
/vlen v length def
/cpdvlen cpdv length def
vlen cpdvlen eq {
0 1 vlen 1 sub {
/i exch def
/obj v i get def
/cpdobj cpdv i get def
obj cpdobj ne {
/upd true def
exit
} if
} for
} {
/upd true def
} ifelse
} {
v type /dicttype eq {
v {
/dv exch def
/dk exch def
/cpddv cpdv dk get def
dv cpddv ne {
/upd true def
exit
} if
} forall
} {
/upd true def
} ifelse
} ifelse
} if
} ifelse
upd true eq {
d k v put
} if
} if
} if
} forall
d length 0 gt {
d setpagedevice
} if
} bd
/RE { % /NewFontName [NewEncodingArray] /FontName RE -
  findfont dup length dict begin
  {
    1 index /FID ne
    {def} {pop pop} ifelse
  } forall
  /Encoding exch def
  /FontName 1 index def
  currentdict definefont pop
  end
} bind def
%%EndResource
%%BeginResource: procset (Apache XML Graphics EPS ProcSet) 1.0 0
%%Version: 1.0 0
%%Copyright: (Copyright 2002-2003 The Apache Software Foundation. License terms: http://www.apache.org/licenses/LICENSE-2.0)
/BeginEPSF { %def
/b4_Inc_state save def         % Save state for cleanup
/dict_count countdictstack def % Count objects on dict stack
/op_count count 1 sub def      % Count objects on operand stack
userdict begin                 % Push userdict on dict stack
/showpage { } def              % Redefine showpage, { } = null proc
0 setgray 0 setlinecap         % Prepare graphics state
1 setlinewidth 0 setlinejoin
10 setmiterlimit [ ] 0 setdash newpath
/languagelevel where           % If level not equal to 1 then
{pop languagelevel             % set strokeadjust and
1 ne                           % overprint to their defaults.
{false setstrokeadjust false setoverprint
} if
} if
} bd
/EndEPSF { %def
count op_count sub {pop} repeat            % Clean up stacks
countdictstack dict_count sub {end} repeat
b4_Inc_state restore
} bd
%%EndResource
%FOPBeginFontDict
%%IncludeResource: font Courier-Bold
%%IncludeResource: font Helvetica
%%IncludeResource: font Courier-BoldOblique
%%IncludeResource: font Courier-Oblique
%%IncludeResource: font Times-Roman
%%IncludeResource: font Helvetica-BoldOblique
%%IncludeResource: font Helvetica-Bold
%%IncludeResource: font Helvetica-Oblique
%%IncludeResource: font Times-BoldItalic
%%IncludeResource: font Courier
%%IncludeResource: font Times-Italic
%%IncludeResource: font Times-Bold
%%IncludeResource: font Symbol
%%IncludeResource: font ZapfDingbats
%FOPEndFontDict
%%BeginResource: encoding WinAnsiEncoding
/WinAnsiEncoding [
/.notdef /.notdef /.notdef /.notdef /.notdef
/.notdef /.notdef /.notdef /.notdef /.notdef
/.notdef /.notdef /.notdef /.notdef /.notdef
/.notdef /.notdef /.notdef /.notdef /.notdef
/.notdef /.notdef /.notdef /.notdef /.notdef
/.notdef /.notdef /.notdef /.notdef /.notdef
/.notdef /.notdef /space /exclam /quotedbl
/numbersign /dollar /percent /ampersand /quotesingle
/parenleft /parenright /asterisk /plus /comma
/hyphen /period /slash /zero /one
/two /three /four /five /six
/seven /eight /nine /colon /semicolon
/less /equal /greater /question /at
/A /B /C /D /E
/F /G /H /I /J
/K /L /M /N /O
/P /Q /R /S /T
/U /V /W /X /Y
/Z /bracketleft /backslash /bracketright /asciicircum
/underscore /quoteleft /a /b /c
/d /e /f /g /h
/i /j /k /l /m
/n /o /p /q /r
/s /t /u /v /w
/x /y /z /braceleft /bar
/braceright /asciitilde /bullet /Euro /bullet
/quotesinglbase /florin /quotedblbase /ellipsis /dagger
/daggerdbl /circumflex /perthousand /Scaron /guilsinglleft
/OE /bullet /Zcaron /bullet /bullet
/quoteleft /quoteright /quotedblleft /quotedblright /bullet
/endash /emdash /asciitilde /trademark /scaron
/guilsinglright /oe /bullet /zcaron /Ydieresis
/space /exclamdown /cent /sterling /currency
/yen /brokenbar /section /dieresis /copyright
/ordfeminine /guillemotleft /logicalnot /sfthyphen /registered
/macron /degree /plusminus /twosuperior /threesuperior
/acute /mu /paragraph /middot /cedilla
/onesuperior /ordmasculine /guillemotright /onequarter /onehalf
/threequarters /questiondown /Agrave /Aacute /Acircumflex
/Atilde /Adieresis /Aring /AE /Ccedilla
/Egrave /Eacute /Ecircumflex /Edieresis /Igrave
/Iacute /Icircumflex /Idieresis /Eth /Ntilde
/Ograve /Oacute /Ocircumflex /Otilde /Odieresis
/multiply /Oslash /Ugrave /Uacute /Ucircumflex
/Udieresis /Yacute /Thorn /germandbls /agrave
/aacute /acircumflex /atilde /adieresis /aring
/ae /ccedilla /egrave /eacute /ecircumflex
/edieresis /igrave /iacute /icircumflex /idieresis
/eth /ntilde /ograve /oacute /ocircumflex
/otilde /odieresis /divide /oslash /ugrave
/uacute /ucircumflex /udieresis /yacute /thorn
/ydieresis
] def
%%EndResource
%FOPBeginFontReencode
/Courier-Bold findfont
dup length dict begin
  {1 index /FID ne {def} {pop pop} ifelse} forall
  /Encoding WinAnsiEncoding def
  currentdict
end
/Courier-Bold exch definefont pop
/Helvetica findfont
dup length dict begin
  {1 index /FID ne {def} {pop pop} ifelse} forall
  /Encoding WinAnsiEncoding def
  currentdict
end
/Helvetica exch definefont pop
/Courier-BoldOblique findfont
dup length dict begin
  {1 index /FID ne {def} {pop pop} ifelse} forall
  /Encoding WinAnsiEncoding def
  currentdict
end
/Courier-BoldOblique exch definefont pop
/Courier-Oblique findfont
dup length dict begin
  {1 index /FID ne {def} {pop pop} ifelse} forall
  /Encoding WinAnsiEncoding def
  currentdict
end
/Courier-Oblique exch definefont pop
/Times-Roman findfont
dup length dict begin
  {1 index /FID ne {def} {pop pop} ifelse} forall
  /Encoding WinAnsiEncoding def
  currentdict
end
/Times-Roman exch definefont pop
/Helvetica-BoldOblique findfont
dup length dict begin
  {1 index /FID ne {def} {pop pop} ifelse} forall
  /Encoding WinAnsiEncoding def
  currentdict
end
/Helvetica-BoldOblique exch definefont pop
/Helvetica-Bold findfont
dup length dict begin
  {1 index /FID ne {def} {pop pop} ifelse} forall
  /Encoding WinAnsiEncoding def
  currentdict
end
/Helvetica-Bold exch definefont pop
/Helvetica-Oblique findfont
dup length dict begin
  {1 index /FID ne {def} {pop pop} ifelse} forall
  /Encoding WinAnsiEncoding def
  currentdict
end
/Helvetica-Oblique exch definefont pop
/Times-BoldItalic findfont
dup length dict begin
  {1 index /FID ne {def} {pop pop} ifelse} forall
  /Encoding WinAnsiEncoding def
  currentdict
end
/Times-BoldItalic exch definefont pop
/Courier findfont
dup length dict begin
  {1 index /FID ne {def} {pop pop} ifelse} forall
  /Encoding WinAnsiEncoding def
  currentdict
end
/Courier exch definefont pop
/Times-Italic findfont
dup length dict begin
  {1 index /FID ne {def} {pop pop} ifelse} forall
  /Encoding WinAnsiEncoding def
  currentdict
end
/Times-Italic exch definefont pop
/Times-Bold findfont
dup length dict begin
  {1 index /FID ne {def} {pop pop} ifelse} forall
  /Encoding WinAnsiEncoding def
  currentdict
end
/Times-Bold exch definefont pop
%FOPEndFontReencode
%%EndProlog
%%Page: 1 1
%%PageBoundingBox: 0 0 1017 642
%%BeginPageSetup
[1 0 0 -1 0 642] CT
%%EndPageSetup
GS
[0.75 0 0 0.75 0 0] CT
1 GC
N
0 0 1356 856 re
f
GR
GS
[0.75 0 0 0.75 0 0] CT
1 GC
N
0 0 1356 856 re
f
GR
GS
[0.75 0 0 0.75 0 0] CT
1 GC
N
176 762 M
1227 762 L
1227 64 L
176 64 L
cp
f
GR
GS
[0.75 0 0 0.75 0 0] CT
0.149 GC
2 setlinecap
1 LJ
0.667 LW
N
176 762 M
1227 762 L
S
GR
GS
[0.75 0 0 0.75 0 0] CT
0.149 GC
2 setlinecap
1 LJ
0.667 LW
N
176 64 M
1227 64 L
S
GR
GS
[0.75 0 0 0.75 0 0] CT
0.149 GC
2 setlinecap
1 LJ
0.667 LW
N
176 762 M
176 751.49 L
S
GR
GS
[0.75 0 0 0.75 0 0] CT
0.149 GC
2 setlinecap
1 LJ
0.667 LW
N
281.1 762 M
281.1 751.49 L
S
GR
GS
[0.75 0 0 0.75 0 0] CT
0.149 GC
2 setlinecap
1 LJ
0.667 LW
N
386.2 762 M
386.2 751.49 L
S
GR
GS
[0.75 0 0 0.75 0 0] CT
0.149 GC
2 setlinecap
1 LJ
0.667 LW
N
491.3 762 M
491.3 751.49 L
S
GR
GS
[0.75 0 0 0.75 0 0] CT
0.149 GC
2 setlinecap
1 LJ
0.667 LW
N
596.4 762 M
596.4 751.49 L
S
GR
GS
[0.75 0 0 0.75 0 0] CT
0.149 GC
2 setlinecap
1 LJ
0.667 LW
N
701.5 762 M
701.5 751.49 L
S
GR
GS
[0.75 0 0 0.75 0 0] CT
0.149 GC
2 setlinecap
1 LJ
0.667 LW
N
806.6 762 M
806.6 751.49 L
S
GR
GS
[0.75 0 0 0.75 0 0] CT
0.149 GC
2 setlinecap
1 LJ
0.667 LW
N
911.7 762 M
911.7 751.49 L
S
GR
GS
[0.75 0 0 0.75 0 0] CT
0.149 GC
2 setlinecap
1 LJ
0.667 LW
N
1016.8 762 M
1016.8 751.49 L
S
GR
GS
[0.75 0 0 0.75 0 0] CT
0.149 GC
2 setlinecap
1 LJ
0.667 LW
N
1121.9 762 M
1121.9 751.49 L
S
GR
GS
[0.75 0 0 0.75 0 0] CT
0.149 GC
2 setlinecap
1 LJ
0.667 LW
N
1227 762 M
1227 751.49 L
S
GR
GS
[0.75 0 0 0.75 0 0] CT
0.149 GC
2 setlinecap
1 LJ
0.667 LW
N
176 64 M
176 74.51 L
S
GR
GS
[0.75 0 0 0.75 0 0] CT
0.149 GC
2 setlinecap
1 LJ
0.667 LW
N
281.1 64 M
281.1 74.51 L
S
GR
GS
[0.75 0 0 0.75 0 0] CT
0.149 GC
2 setlinecap
1 LJ
0.667 LW
N
386.2 64 M
386.2 74.51 L
S
GR
GS
[0.75 0 0 0.75 0 0] CT
0.149 GC
2 setlinecap
1 LJ
0.667 LW
N
491.3 64 M
491.3 74.51 L
S
GR
GS
[0.75 0 0 0.75 0 0] CT
0.149 GC
2 setlinecap
1 LJ
0.667 LW
N
596.4 64 M
596.4 74.51 L
S
GR
GS
[0.75 0 0 0.75 0 0] CT
0.149 GC
2 setlinecap
1 LJ
0.667 LW
N
701.5 64 M
701.5 74.51 L
S
GR
GS
[0.75 0 0 0.75 0 0] CT
0.149 GC
2 setlinecap
1 LJ
0.667 LW
N
806.6 64 M
806.6 74.51 L
S
GR
GS
[0.75 0 0 0.75 0 0] CT
0.149 GC
2 setlinecap
1 LJ
0.667 LW
N
911.7 64 M
911.7 74.51 L
S
GR
GS
[0.75 0 0 0.75 0 0] CT
0.149 GC
2 setlinecap
1 LJ
0.667 LW
N
1016.8 64 M
1016.8 74.51 L
S
GR
GS
[0.75 0 0 0.75 0 0] CT
0.149 GC
2 setlinecap
1 LJ
0.667 LW
N
1121.9 64 M
1121.9 74.51 L
S
GR
GS
[0.75 0 0 0.75 0 0] CT
0.149 GC
2 setlinecap
1 LJ
0.667 LW
N
1227 64 M
1227 74.51 L
S
GR
GS
[0.75 0 0 0.75 132 577.10001] CT
0.149 GC
/Helvetica 24 F
GS
[1 0 0 1 0 0] CT
-7 25 moveto 
1 -1 scale
(0) t 
GR
GR
GS
[0.75 0 0 0.75 210.825 577.10001] CT
0.149 GC
/Helvetica 24 F
GS
[1 0 0 1 0 0] CT
-13.5 25 moveto 
1 -1 scale
(10) t 
GR
GR
GS
[0.75 0 0 0.75 289.65001 577.10001] CT
0.149 GC
/Helvetica 24 F
GS
[1 0 0 1 0 0] CT
-13.5 25 moveto 
1 -1 scale
(20) t 
GR
GR
GS
[0.75 0 0 0.75 368.47499 577.10001] CT
0.149 GC
/Helvetica 24 F
GS
[1 0 0 1 0 0] CT
-13.5 25 moveto 
1 -1 scale
(30) t 
GR
GR
GS
[0.75 0 0 0.75 447.30002 577.10001] CT
0.149 GC
/Helvetica 24 F
GS
[1 0 0 1 0 0] CT
-13.5 25 moveto 
1 -1 scale
(40) t 
GR
GR
GS
[0.75 0 0 0.75 526.125 577.10001] CT
0.149 GC
/Helvetica 24 F
GS
[1 0 0 1 0 0] CT
-13.5 25 moveto 
1 -1 scale
(50) t 
GR
GR
GS
[0.75 0 0 0.75 604.94998 577.10001] CT
0.149 GC
/Helvetica 24 F
GS
[1 0 0 1 0 0] CT
-13.5 25 moveto 
1 -1 scale
(60) t 
GR
GR
GS
[0.75 0 0 0.75 683.77501 577.10001] CT
0.149 GC
/Helvetica 24 F
GS
[1 0 0 1 0 0] CT
-13.5 25 moveto 
1 -1 scale
(70) t 
GR
GR
GS
[0.75 0 0 0.75 762.59999 577.10001] CT
0.149 GC
/Helvetica 24 F
GS
[1 0 0 1 0 0] CT
-13.5 25 moveto 
1 -1 scale
(80) t 
GR
GR
GS
[0.75 0 0 0.75 841.42502 577.10001] CT
0.149 GC
/Helvetica 24 F
GS
[1 0 0 1 0 0] CT
-13.5 25 moveto 
1 -1 scale
(90) t 
GR
GR
GS
[0.75 0 0 0.75 920.25 577.10001] CT
0.149 GC
/Helvetica 24 F
GS
[1 0 0 1 0 0] CT
-20.5 25 moveto 
1 -1 scale
(100) t 
GR
GR
GS
[0.75 0 0 0.75 526.12541 601.34999] CT
0.149 GC
/Helvetica 26.4 F
GS
[1 0 0 1 0 0] CT
-46.5 27 moveto 
1 -1 scale
(Time [s]) t 
GR
GR
GS
[0.75 0 0 0.75 0 0] CT
0.149 GC
2 setlinecap
1 LJ
0.667 LW
N
176 762 M
176 64 L
S
GR
GS
[0.75 0 0 0.75 0 0] CT
0.149 GC
2 setlinecap
1 LJ
0.667 LW
N
1227 762 M
1227 64 L
S
GR
GS
[0.75 0 0 0.75 0 0] CT
0.149 GC
2 setlinecap
1 LJ
0.667 LW
N
176 762 M
186.51 762 L
S
GR
GS
[0.75 0 0 0.75 0 0] CT
0.149 GC
2 setlinecap
1 LJ
0.667 LW
N
176 674.75 M
186.51 674.75 L
S
GR
GS
[0.75 0 0 0.75 0 0] CT
0.149 GC
2 setlinecap
1 LJ
0.667 LW
N
176 587.5 M
186.51 587.5 L
S
GR
GS
[0.75 0 0 0.75 0 0] CT
0.149 GC
2 setlinecap
1 LJ
0.667 LW
N
176 500.25 M
186.51 500.25 L
S
GR
GS
[0.75 0 0 0.75 0 0] CT
0.149 GC
2 setlinecap
1 LJ
0.667 LW
N
176 413 M
186.51 413 L
S
GR
GS
[0.75 0 0 0.75 0 0] CT
0.149 GC
2 setlinecap
1 LJ
0.667 LW
N
176 325.75 M
186.51 325.75 L
S
GR
GS
[0.75 0 0 0.75 0 0] CT
0.149 GC
2 setlinecap
1 LJ
0.667 LW
N
176 238.5 M
186.51 238.5 L
S
GR
GS
[0.75 0 0 0.75 0 0] CT
0.149 GC
2 setlinecap
1 LJ
0.667 LW
N
176 151.25 M
186.51 151.25 L
S
GR
GS
[0.75 0 0 0.75 0 0] CT
0.149 GC
2 setlinecap
1 LJ
0.667 LW
N
176 64 M
186.51 64 L
S
GR
GS
[0.75 0 0 0.75 0 0] CT
0.149 GC
2 setlinecap
1 LJ
0.667 LW
N
1227 762 M
1216.49 762 L
S
GR
GS
[0.75 0 0 0.75 0 0] CT
0.149 GC
2 setlinecap
1 LJ
0.667 LW
N
1227 674.75 M
1216.49 674.75 L
S
GR
GS
[0.75 0 0 0.75 0 0] CT
0.149 GC
2 setlinecap
1 LJ
0.667 LW
N
1227 587.5 M
1216.49 587.5 L
S
GR
GS
[0.75 0 0 0.75 0 0] CT
0.149 GC
2 setlinecap
1 LJ
0.667 LW
N
1227 500.25 M
1216.49 500.25 L
S
GR
GS
[0.75 0 0 0.75 0 0] CT
0.149 GC
2 setlinecap
1 LJ
0.667 LW
N
1227 413 M
1216.49 413 L
S
GR
GS
[0.75 0 0 0.75 0 0] CT
0.149 GC
2 setlinecap
1 LJ
0.667 LW
N
1227 325.75 M
1216.49 325.75 L
S
GR
GS
[0.75 0 0 0.75 0 0] CT
0.149 GC
2 setlinecap
1 LJ
0.667 LW
N
1227 238.5 M
1216.49 238.5 L
S
GR
GS
[0.75 0 0 0.75 0 0] CT
0.149 GC
2 setlinecap
1 LJ
0.667 LW
N
1227 151.25 M
1216.49 151.25 L
S
GR
GS
[0.75 0 0 0.75 0 0] CT
0.149 GC
2 setlinecap
1 LJ
0.667 LW
N
1227 64 M
1216.49 64 L
S
GR
GS
[0.75 0 0 0.75 126.40001 571.5] CT
0.149 GC
/Helvetica 24 F
GS
[1 0 0 1 0 0] CT
-49 9.5 moveto 
1 -1 scale
(-400) t 
GR
GR
GS
[0.75 0 0 0.75 126.40001 506.0625] CT
0.149 GC
/Helvetica 24 F
GS
[1 0 0 1 0 0] CT
-49 9.5 moveto 
1 -1 scale
(-300) t 
GR
GR
GS
[0.75 0 0 0.75 126.40001 440.625] CT
0.149 GC
/Helvetica 24 F
GS
[1 0 0 1 0 0] CT
-49 9.5 moveto 
1 -1 scale
(-200) t 
GR
GR
GS
[0.75 0 0 0.75 126.40001 375.1875] CT
0.149 GC
/Helvetica 24 F
GS
[1 0 0 1 0 0] CT
-49 9.5 moveto 
1 -1 scale
(-100) t 
GR
GR
GS
[0.75 0 0 0.75 126.40001 309.75] CT
0.149 GC
/Helvetica 24 F
GS
[1 0 0 1 0 0] CT
-14 9.5 moveto 
1 -1 scale
(0) t 
GR
GR
GS
[0.75 0 0 0.75 126.40001 244.3125] CT
0.149 GC
/Helvetica 24 F
GS
[1 0 0 1 0 0] CT
-41 9.5 moveto 
1 -1 scale
(100) t 
GR
GR
GS
[0.75 0 0 0.75 126.40001 178.875] CT
0.149 GC
/Helvetica 24 F
GS
[1 0 0 1 0 0] CT
-41 9.5 moveto 
1 -1 scale
(200) t 
GR
GR
GS
[0.75 0 0 0.75 126.40001 113.4375] CT
0.149 GC
/Helvetica 24 F
GS
[1 0 0 1 0 0] CT
-41 9.5 moveto 
1 -1 scale
(300) t 
GR
GR
GS
[0.75 0 0 0.75 126.40001 48] CT
0.149 GC
/Helvetica 24 F
GS
[1 0 0 1 0 0] CT
-41 9.5 moveto 
1 -1 scale
(400) t 
GR
GR
GS
[0.75 0 0 0.75 0 0] CT
0 0.447 0.741 RC
1 LJ
2.667 LW
N
186.51 394.084 M
197.02 360.776 L
207.53 285.857 L
218.04 286.944 L
228.55 355.917 L
239.06 394.28 L
249.57 397.615 L
260.08 410.248 L
270.59 377.684 L
281.1 290.224 L
291.61 265.215 L
302.12 354.363 L
312.63 375.758 L
323.14 400.542 L
333.65 400 L
344.16 410.517 L
354.67 354.343 L
365.18 273.177 L
375.69 361.764 L
386.2 363.633 L
396.71 394.871 L
407.22 401.094 L
417.73 481.949 L
428.24 417.217 L
438.75 310.838 L
449.26 267.589 L
459.77 379.053 L
470.28 409.063 L
480.79 397.802 L
491.3 398.516 L
501.81 379.713 L
512.32 360.527 L
522.83 363.525 L
533.34 315.495 L
543.85 227.229 L
554.36 366.618 L
564.87 407.774 L
575.38 398.735 L
585.89 346.761 L
596.4 446.05 L
606.91 384.83 L
617.42 318.598 L
627.93 325.601 L
638.44 321.04 L
648.95 450.142 L
659.46 407.33 L
669.97 384.772 L
680.48 355.283 L
690.99 345.453 L
701.5 337.923 L
712.01 328.666 L
722.52 384.5 L
733.03 304.564 L
743.54 430.822 L
754.05 439.646 L
764.56 303.077 L
775.07 363.554 L
785.58 380.858 L
796.09 395.614 L
806.6 391.494 L
817.11 450.669 L
827.62 518.916 L
838.13 383.579 L
848.64 305.797 L
859.15 313.913 L
869.66 315.15 L
880.17 426.375 L
890.68 413.266 L
901.19 409.674 L
911.7 325.512 L
922.21 403.307 L
932.72 390.237 L
943.23 306.345 L
953.74 359.371 L
964.25 372.987 L
974.76 401.238 L
985.27 377.893 L
995.78 369.613 L
1006.29 457.064 L
1016.8 317.689 L
1027.31 409.769 L
1037.82 287.524 L
1048.33 480.835 L
1058.84 360.127 L
1069.35 403.729 L
1079.86 396.186 L
1090.37 329.499 L
1100.88 407.848 L
1111.39 333.774 L
1121.9 497.024 L
1132.41 259.125 L
1142.92 429.154 L
1153.43 416.695 L
1163.94 345.88 L
1174.45 279.693 L
1184.96 303.905 L
1195.47 340.402 L
1205.98 361.742 L
1216.49 363.843 L
1227 484.523 L
S
GR
GS
[0.75 0 0 0.75 0 0] CT
0.851 0.325 0.098 RC
1 LJ
2.667 LW
N
186.51 397.772 M
197.02 395.738 L
207.53 292.252 L
218.04 261.757 L
228.55 362.7 L
239.06 391.234 L
249.57 403.346 L
260.08 395.067 L
270.59 402.541 L
281.1 394.053 L
291.61 299.978 L
302.12 347.543 L
312.63 385.02 L
323.14 394.46 L
333.65 413.626 L
344.16 422.185 L
354.67 383.993 L
365.18 310.148 L
375.69 361.207 L
386.2 386.707 L
396.71 386.872 L
407.22 412.511 L
417.73 388.761 L
428.24 367.333 L
438.75 340.186 L
449.26 224.814 L
459.77 435.775 L
470.28 406.724 L
480.79 409.915 L
491.3 389.576 L
501.81 415.987 L
512.32 249.06 L
522.83 262.106 L
533.34 281.67 L
543.85 295.065 L
554.36 369.42 L
564.87 382.064 L
575.38 394.298 L
585.89 366.427 L
596.4 477.763 L
606.91 400.156 L
617.42 286.246 L
627.93 341.384 L
638.44 361.871 L
648.95 404.07 L
659.46 332.34 L
669.97 393.398 L
680.48 368.872 L
690.99 457.68 L
701.5 326.436 L
712.01 354.865 L
722.52 385.265 L
733.03 404.746 L
743.54 294.279 L
754.05 450.747 L
764.56 388.197 L
775.07 342.984 L
785.58 387.481 L
796.09 395.753 L
806.6 411.595 L
817.11 375.91 L
827.62 384.186 L
838.13 185.944 L
848.64 123.708 L
859.15 404.97 L
869.66 404.056 L
880.17 391.792 L
890.68 346.886 L
901.19 445.31 L
911.7 284.657 L
922.21 161.533 L
932.72 347.045 L
943.23 284.942 L
953.74 353.516 L
964.25 345.034 L
974.76 404.085 L
985.27 288.151 L
995.78 369.105 L
1006.29 438.346 L
1016.8 469.42 L
1027.31 316.324 L
1037.82 304.156 L
1048.33 413.375 L
1058.84 316.158 L
1069.35 450.172 L
1079.86 452.815 L
1090.37 403.941 L
1100.88 316.592 L
1111.39 307.595 L
1121.9 423.352 L
1132.41 321.702 L
1142.92 406.517 L
1153.43 671.968 L
1163.94 383.512 L
1174.45 100.234 L
1184.96 399.689 L
1195.47 466.806 L
1205.98 393.229 L
1216.49 394.826 L
1227 726.038 L
S
GR
GS
[0.75 0 0 0.75 0 0] CT
0.929 0.694 0.125 RC
1 LJ
2.667 LW
N
186.51 393.713 M
197.02 372.404 L
207.53 292.353 L
218.04 280.066 L
228.55 367 L
239.06 399.959 L
249.57 406.01 L
260.08 400.626 L
270.59 404.119 L
281.1 352.485 L
291.61 268.317 L
302.12 341.296 L
312.63 384.713 L
323.14 403.041 L
333.65 393.012 L
344.16 378.317 L
354.67 377.773 L
365.18 277.795 L
375.69 271.838 L
386.2 379.82 L
396.71 409.162 L
407.22 400.551 L
417.73 396.006 L
428.24 386.968 L
438.75 293.546 L
449.26 237.195 L
459.77 366.465 L
470.28 414.643 L
480.79 407.229 L
491.3 408.264 L
501.81 370.135 L
512.32 391.769 L
522.83 211.706 L
533.34 221.877 L
543.85 286.701 L
554.36 370.636 L
564.87 400.304 L
575.38 399.345 L
585.89 398.256 L
596.4 405.008 L
606.91 351.306 L
617.42 319.262 L
627.93 304.168 L
638.44 351.393 L
648.95 403.146 L
659.46 402.533 L
669.97 393.688 L
680.48 421.001 L
690.99 322.92 L
701.5 235.338 L
712.01 328 L
722.52 425.754 L
733.03 392.124 L
743.54 353.474 L
754.05 392.943 L
764.56 365.908 L
775.07 249.149 L
785.58 353.128 L
796.09 449.692 L
806.6 397.225 L
817.11 416.57 L
827.62 398.501 L
838.13 396.793 L
848.64 228.591 L
859.15 171.737 L
869.66 332.858 L
880.17 396.022 L
890.68 389.192 L
901.19 355.311 L
911.7 379.101 L
922.21 413.766 L
932.72 350.339 L
943.23 228.48 L
953.74 361.104 L
964.25 338.628 L
974.76 377.231 L
985.27 411.584 L
995.78 385.102 L
1006.29 419.843 L
1016.8 420.769 L
1027.31 251.559 L
1037.82 254.004 L
1048.33 410.656 L
1058.84 415.006 L
1069.35 354.382 L
1079.86 332.653 L
1090.37 413.417 L
1100.88 375.349 L
1111.39 287.781 L
1121.9 451.685 L
1132.41 402.465 L
1142.92 383.827 L
1153.43 400.076 L
1163.94 258.875 L
1174.45 309.04 L
1184.96 232.425 L
1195.47 362.08 L
1205.98 393.513 L
1216.49 368.651 L
1227 351.995 L
S
GR
GS
[0.75 0 0 0.75 0 0] CT
0.494 0.184 0.557 RC
1 LJ
2.667 LW
N
186.51 392.822 M
197.02 369.226 L
207.53 299.364 L
218.04 278.649 L
228.55 360.814 L
239.06 386.578 L
249.57 395.264 L
260.08 393.224 L
270.59 387.877 L
281.1 318.665 L
291.61 272.762 L
302.12 331.573 L
312.63 382.944 L
323.14 396.236 L
333.65 403.098 L
344.16 401.848 L
354.67 382.794 L
365.18 298.044 L
375.69 297.927 L
386.2 372.912 L
396.71 395.033 L
407.22 399.913 L
417.73 400.355 L
428.24 386.194 L
438.75 335.619 L
449.26 221.718 L
459.77 349.853 L
470.28 386.648 L
480.79 397.091 L
491.3 392.982 L
501.81 395.037 L
512.32 386.579 L
522.83 334.106 L
533.34 255.626 L
543.85 306.771 L
554.36 377.025 L
564.87 391.138 L
575.38 378.674 L
585.89 394.123 L
596.4 387.853 L
606.91 379.255 L
617.42 291.074 L
627.93 289.063 L
638.44 354.627 L
648.95 377.693 L
659.46 381.98 L
669.97 409.055 L
680.48 386.671 L
690.99 340.614 L
701.5 271.849 L
712.01 345.025 L
722.52 376.422 L
733.03 406.317 L
743.54 416.686 L
754.05 390.941 L
764.56 373.518 L
775.07 251.414 L
785.58 341.573 L
796.09 384.333 L
806.6 386.778 L
817.11 391.991 L
827.62 394.226 L
838.13 395.851 L
848.64 312.918 L
859.15 217.413 L
869.66 302.698 L
880.17 380.79 L
890.68 376.651 L
901.19 375.173 L
911.7 398.276 L
922.21 400.59 L
932.72 369.825 L
943.23 268.978 L
953.74 281.205 L
964.25 372.343 L
974.76 346.006 L
985.27 362.534 L
995.78 392.404 L
1006.29 394.313 L
1016.8 362.829 L
1027.31 278.65 L
1037.82 309.86 L
1048.33 342.37 L
1058.84 351.367 L
1069.35 422.561 L
1079.86 391.035 L
1090.37 402.526 L
1100.88 303.315 L
1111.39 339.32 L
1121.9 337.414 L
1132.41 415.323 L
1142.92 438.593 L
1153.43 400.062 L
1163.94 391.946 L
1174.45 286.759 L
1184.96 218.845 L
1195.47 336.43 L
1205.98 357.324 L
1216.49 365.303 L
1227 363.924 L
S
GR
GS
[0.75 0 0 0.75 0 0] CT
0.467 0.675 0.188 RC
1 LJ
2.667 LW
N
186.51 381.855 M
197.02 366.241 L
207.53 295.133 L
218.04 287.924 L
228.55 365.85 L
239.06 386.418 L
249.57 408.011 L
260.08 391.267 L
270.59 375.349 L
281.1 301.04 L
291.61 271.951 L
302.12 319.127 L
312.63 389.123 L
323.14 379.188 L
333.65 402.101 L
344.16 358.601 L
354.67 324.724 L
365.18 290.842 L
375.69 339.079 L
386.2 378.754 L
396.71 427.324 L
407.22 379.393 L
417.73 374.384 L
428.24 342.053 L
438.75 316.511 L
449.26 284.923 L
459.77 336.561 L
470.28 360.238 L
480.79 373.578 L
491.3 369.938 L
501.81 366.012 L
512.32 388.084 L
522.83 362.551 L
533.34 337.062 L
543.85 302.223 L
554.36 375.144 L
564.87 410.932 L
575.38 396.212 L
585.89 396.767 L
596.4 389.449 L
606.91 299.236 L
617.42 274.834 L
627.93 321.984 L
638.44 331.021 L
648.95 359.122 L
659.46 385.185 L
669.97 383.704 L
680.48 338.581 L
690.99 310.259 L
701.5 315.726 L
712.01 372.265 L
722.52 407.508 L
733.03 393.201 L
743.54 395.475 L
754.05 332.326 L
764.56 307.455 L
775.07 284.795 L
785.58 342.502 L
796.09 360.616 L
806.6 331.344 L
817.11 322.561 L
827.62 318.484 L
838.13 381.305 L
848.64 367.573 L
859.15 391.749 L
869.66 354.844 L
880.17 338.098 L
890.68 406.118 L
901.19 371.962 L
911.7 380.916 L
922.21 404.267 L
932.72 326.867 L
943.23 273.86 L
953.74 279.511 L
964.25 348.522 L
974.76 311.557 L
985.27 330.154 L
995.78 403.715 L
1006.29 378.092 L
1016.8 354.836 L
1027.31 308.196 L
1037.82 359.887 L
1048.33 326.03 L
1058.84 389.369 L
1069.35 410.317 L
1079.86 345.69 L
1090.37 335.614 L
1100.88 295.312 L
1111.39 298.113 L
1121.9 327.071 L
1132.41 363.275 L
1142.92 310.037 L
1153.43 330.913 L
1163.94 345.045 L
1174.45 349.433 L
1184.96 363.668 L
1195.47 377.349 L
1205.98 386.19 L
1216.49 365.353 L
1227 388.481 L
S
GR
GS
[0.75 0 0 0.75 0 0] CT
0.302 0.745 0.933 RC
1 LJ
2.667 LW
N
186.51 350.18 M
197.02 257.695 L
207.53 306.555 L
218.04 381.59 L
228.55 400.785 L
239.06 403.402 L
249.57 400.785 L
260.08 385.08 L
270.59 317.025 L
281.1 248.97 L
291.61 343.2 L
302.12 392.932 L
312.63 402.53 L
323.14 404.275 L
333.65 399.913 L
344.16 373.737 L
354.67 281.253 L
365.18 265.547 L
375.69 366.758 L
386.2 397.295 L
396.71 402.53 L
407.22 405.147 L
417.73 398.168 L
428.24 360.65 L
438.75 254.205 L
449.26 288.233 L
459.77 379.845 L
470.28 401.658 L
480.79 405.147 L
491.3 405.147 L
501.81 396.422 L
512.32 351.052 L
522.83 237.628 L
533.34 303.065 L
543.85 386.825 L
554.36 402.53 L
564.87 405.147 L
575.38 406.02 L
585.89 397.295 L
596.4 351.925 L
606.91 228.902 L
617.42 298.703 L
627.93 386.825 L
638.44 403.402 L
648.95 406.02 L
659.46 406.02 L
669.97 401.658 L
680.48 371.992 L
690.99 245.48 L
701.5 256.823 L
712.01 378.1 L
722.52 401.658 L
733.03 405.147 L
743.54 406.892 L
754.05 406.892 L
764.56 400.785 L
775.07 351.052 L
785.58 190.512 L
796.09 298.703 L
806.6 392.06 L
817.11 405.147 L
827.62 406.892 L
838.13 406.892 L
848.64 408.638 L
859.15 409.51 L
869.66 410.383 L
880.17 406.02 L
890.68 395.55 L
901.19 401.658 L
911.7 404.275 L
922.21 401.658 L
932.72 395.55 L
943.23 385.953 L
953.74 376.355 L
964.25 363.267 L
974.76 353.67 L
985.27 351.925 L
995.78 361.522 L
1006.29 371.12 L
1016.8 372.865 L
1027.31 368.503 L
1037.82 359.777 L
1048.33 351.925 L
1058.84 354.543 L
1069.35 363.267 L
1079.86 371.12 L
1090.37 371.992 L
1100.88 366.758 L
1111.39 356.288 L
1121.9 350.18 L
1132.41 354.543 L
1142.92 363.267 L
1153.43 371.992 L
1163.94 371.992 L
1174.45 365.885 L
1184.96 354.543 L
1195.47 349.307 L
1205.98 355.415 L
1216.49 365.885 L
1227 371.12 L
S
GR
GS
[0.75 0 0 0.75 0 0] CT
1 GC
N
222 734 M
222 497 L
562 497 L
562 734 L
cp
f
GR
GS
[0.75 0 0 0.75 231.81097 389.04799] CT
/Helvetica 21.6 F
GS
[1 0 0 1 0 0] CT
0 9 moveto 
1 -1 scale
(Approximation1) t 
GR
GR
GS
[0.75 0 0 0.75 0 0] CT
0 0.447 0.741 RC
1 LJ
2.667 LW
N
276.114 518.731 M
306.084 518.731 L
S
GR
GS
[0.75 0 0 0.75 231.81097 418.07881] CT
/Helvetica 21.6 F
GS
[1 0 0 1 0 0] CT
0 9 moveto 
1 -1 scale
(Approximation2) t 
GR
GR
GS
[0.75 0 0 0.75 0 0] CT
0.851 0.325 0.098 RC
1 LJ
2.667 LW
N
276.114 557.438 M
306.084 557.438 L
S
GR
GS
[0.75 0 0 0.75 231.81097 447.10959] CT
/Helvetica 21.6 F
GS
[1 0 0 1 0 0] CT
0 9 moveto 
1 -1 scale
(Approximation3) t 
GR
GR
GS
[0.75 0 0 0.75 0 0] CT
0.929 0.694 0.125 RC
1 LJ
2.667 LW
N
276.114 596.146 M
306.084 596.146 L
S
GR
GS
[0.75 0 0 0.75 231.81097 476.14041] CT
/Helvetica 21.6 F
GS
[1 0 0 1 0 0] CT
0 9 moveto 
1 -1 scale
(Approximation4) t 
GR
GR
GS
[0.75 0 0 0.75 0 0] CT
0.494 0.184 0.557 RC
1 LJ
2.667 LW
N
276.114 634.854 M
306.084 634.854 L
S
GR
GS
[0.75 0 0 0.75 231.81097 505.17119] CT
/Helvetica 21.6 F
GS
[1 0 0 1 0 0] CT
0 9 moveto 
1 -1 scale
(Approximation5) t 
GR
GR
GS
[0.75 0 0 0.75 0 0] CT
0.467 0.675 0.188 RC
1 LJ
2.667 LW
N
276.114 673.562 M
306.084 673.562 L
S
GR
GS
[0.75 0 0 0.75 231.81097 534.20201] CT
/Helvetica 21.6 F
GS
[1 0 0 1 0 0] CT
0 9 moveto 
1 -1 scale
(Laser Prediction Set) t 
GR
GR
GS
[0.75 0 0 0.75 0 0] CT
0.302 0.745 0.933 RC
1 LJ
2.667 LW
N
276.114 712.269 M
306.084 712.269 L
S
GR
GS
[0.75 0 0 0.75 0 0] CT
0.149 GC
10.0 ML
0.667 LW
N
222 734 M
222 497 L
562 497 L
562 734 L
cp
S
GR
%%Trailer
%%Pages: 1
%%EOF
