%!PS-Adobe-3.0 EPSF-3.0
%%Creator: (MATLAB, The Mathworks, Inc. Version 9.1.0.441655 \(R2016b\). Operating System: Windows 8)
%%Title: (C:/Users/Eigenaar/WIT/Data Mining/data-mining/Session 2/plots/delay20.eps)
%%CreationDate: 2017-11-22T21:13:37
%%Pages: (atend)
%%BoundingBox: 0 0 835 601
%%LanguageLevel: 3
%%EndComments
%%BeginProlog
%%BeginResource: procset (Apache XML Graphics Std ProcSet) 1.2 0
%%Version: 1.2 0
%%Copyright: (Copyright 2001-2003,2010 The Apache Software Foundation. License terms: http://www.apache.org/licenses/LICENSE-2.0)
/bd{bind def}bind def
/ld{load def}bd
/GR/grestore ld
/M/moveto ld
/LJ/setlinejoin ld
/C/curveto ld
/f/fill ld
/LW/setlinewidth ld
/GC/setgray ld
/t/show ld
/N/newpath ld
/CT/concat ld
/cp/closepath ld
/S/stroke ld
/L/lineto ld
/CC/setcmykcolor ld
/A/ashow ld
/GS/gsave ld
/RC/setrgbcolor ld
/RM/rmoveto ld
/ML/setmiterlimit ld
/re {4 2 roll M
1 index 0 rlineto
0 exch rlineto
neg 0 rlineto
cp } bd
/_ctm matrix def
/_tm matrix def
/BT { _ctm currentmatrix pop matrix _tm copy pop 0 0 moveto } bd
/ET { _ctm setmatrix } bd
/iTm { _ctm setmatrix _tm concat } bd
/Tm { _tm astore pop iTm 0 0 moveto } bd
/ux 0.0 def
/uy 0.0 def
/F {
  /Tp exch def
  /Tf exch def
  Tf findfont Tp scalefont setfont
  /cf Tf def  /cs Tp def
} bd
/ULS {currentpoint /uy exch def /ux exch def} bd
/ULE {
  /Tcx currentpoint pop def
  gsave
  newpath
  cf findfont cs scalefont dup
  /FontMatrix get 0 get /Ts exch def /FontInfo get dup
  /UnderlinePosition get Ts mul /To exch def
  /UnderlineThickness get Ts mul /Tt exch def
  ux uy To add moveto  Tcx uy To add lineto
  Tt setlinewidth stroke
  grestore
} bd
/OLE {
  /Tcx currentpoint pop def
  gsave
  newpath
  cf findfont cs scalefont dup
  /FontMatrix get 0 get /Ts exch def /FontInfo get dup
  /UnderlinePosition get Ts mul /To exch def
  /UnderlineThickness get Ts mul /Tt exch def
  ux uy To add cs add moveto Tcx uy To add cs add lineto
  Tt setlinewidth stroke
  grestore
} bd
/SOE {
  /Tcx currentpoint pop def
  gsave
  newpath
  cf findfont cs scalefont dup
  /FontMatrix get 0 get /Ts exch def /FontInfo get dup
  /UnderlinePosition get Ts mul /To exch def
  /UnderlineThickness get Ts mul /Tt exch def
  ux uy To add cs 10 mul 26 idiv add moveto Tcx uy To add cs 10 mul 26 idiv add lineto
  Tt setlinewidth stroke
  grestore
} bd
/QT {
/Y22 exch store
/X22 exch store
/Y21 exch store
/X21 exch store
currentpoint
/Y21 load 2 mul add 3 div exch
/X21 load 2 mul add 3 div exch
/X21 load 2 mul /X22 load add 3 div
/Y21 load 2 mul /Y22 load add 3 div
/X22 load /Y22 load curveto
} bd
/SSPD {
dup length /d exch dict def
{
/v exch def
/k exch def
currentpagedevice k known {
/cpdv currentpagedevice k get def
v cpdv ne {
/upd false def
/nullv v type /nulltype eq def
/nullcpdv cpdv type /nulltype eq def
nullv nullcpdv or
{
/upd true def
} {
/sametype v type cpdv type eq def
sametype {
v type /arraytype eq {
/vlen v length def
/cpdvlen cpdv length def
vlen cpdvlen eq {
0 1 vlen 1 sub {
/i exch def
/obj v i get def
/cpdobj cpdv i get def
obj cpdobj ne {
/upd true def
exit
} if
} for
} {
/upd true def
} ifelse
} {
v type /dicttype eq {
v {
/dv exch def
/dk exch def
/cpddv cpdv dk get def
dv cpddv ne {
/upd true def
exit
} if
} forall
} {
/upd true def
} ifelse
} ifelse
} if
} ifelse
upd true eq {
d k v put
} if
} if
} if
} forall
d length 0 gt {
d setpagedevice
} if
} bd
/RE { % /NewFontName [NewEncodingArray] /FontName RE -
  findfont dup length dict begin
  {
    1 index /FID ne
    {def} {pop pop} ifelse
  } forall
  /Encoding exch def
  /FontName 1 index def
  currentdict definefont pop
  end
} bind def
%%EndResource
%%BeginResource: procset (Apache XML Graphics EPS ProcSet) 1.0 0
%%Version: 1.0 0
%%Copyright: (Copyright 2002-2003 The Apache Software Foundation. License terms: http://www.apache.org/licenses/LICENSE-2.0)
/BeginEPSF { %def
/b4_Inc_state save def         % Save state for cleanup
/dict_count countdictstack def % Count objects on dict stack
/op_count count 1 sub def      % Count objects on operand stack
userdict begin                 % Push userdict on dict stack
/showpage { } def              % Redefine showpage, { } = null proc
0 setgray 0 setlinecap         % Prepare graphics state
1 setlinewidth 0 setlinejoin
10 setmiterlimit [ ] 0 setdash newpath
/languagelevel where           % If level not equal to 1 then
{pop languagelevel             % set strokeadjust and
1 ne                           % overprint to their defaults.
{false setstrokeadjust false setoverprint
} if
} if
} bd
/EndEPSF { %def
count op_count sub {pop} repeat            % Clean up stacks
countdictstack dict_count sub {end} repeat
b4_Inc_state restore
} bd
%%EndResource
%FOPBeginFontDict
%%IncludeResource: font Courier-Bold
%%IncludeResource: font Helvetica
%%IncludeResource: font Courier-BoldOblique
%%IncludeResource: font Courier-Oblique
%%IncludeResource: font Times-Roman
%%IncludeResource: font Helvetica-BoldOblique
%%IncludeResource: font Helvetica-Bold
%%IncludeResource: font Helvetica-Oblique
%%IncludeResource: font Times-BoldItalic
%%IncludeResource: font Courier
%%IncludeResource: font Times-Italic
%%IncludeResource: font Times-Bold
%%IncludeResource: font Symbol
%%IncludeResource: font ZapfDingbats
%FOPEndFontDict
%%BeginResource: encoding WinAnsiEncoding
/WinAnsiEncoding [
/.notdef /.notdef /.notdef /.notdef /.notdef
/.notdef /.notdef /.notdef /.notdef /.notdef
/.notdef /.notdef /.notdef /.notdef /.notdef
/.notdef /.notdef /.notdef /.notdef /.notdef
/.notdef /.notdef /.notdef /.notdef /.notdef
/.notdef /.notdef /.notdef /.notdef /.notdef
/.notdef /.notdef /space /exclam /quotedbl
/numbersign /dollar /percent /ampersand /quotesingle
/parenleft /parenright /asterisk /plus /comma
/hyphen /period /slash /zero /one
/two /three /four /five /six
/seven /eight /nine /colon /semicolon
/less /equal /greater /question /at
/A /B /C /D /E
/F /G /H /I /J
/K /L /M /N /O
/P /Q /R /S /T
/U /V /W /X /Y
/Z /bracketleft /backslash /bracketright /asciicircum
/underscore /quoteleft /a /b /c
/d /e /f /g /h
/i /j /k /l /m
/n /o /p /q /r
/s /t /u /v /w
/x /y /z /braceleft /bar
/braceright /asciitilde /bullet /Euro /bullet
/quotesinglbase /florin /quotedblbase /ellipsis /dagger
/daggerdbl /circumflex /perthousand /Scaron /guilsinglleft
/OE /bullet /Zcaron /bullet /bullet
/quoteleft /quoteright /quotedblleft /quotedblright /bullet
/endash /emdash /asciitilde /trademark /scaron
/guilsinglright /oe /bullet /zcaron /Ydieresis
/space /exclamdown /cent /sterling /currency
/yen /brokenbar /section /dieresis /copyright
/ordfeminine /guillemotleft /logicalnot /sfthyphen /registered
/macron /degree /plusminus /twosuperior /threesuperior
/acute /mu /paragraph /middot /cedilla
/onesuperior /ordmasculine /guillemotright /onequarter /onehalf
/threequarters /questiondown /Agrave /Aacute /Acircumflex
/Atilde /Adieresis /Aring /AE /Ccedilla
/Egrave /Eacute /Ecircumflex /Edieresis /Igrave
/Iacute /Icircumflex /Idieresis /Eth /Ntilde
/Ograve /Oacute /Ocircumflex /Otilde /Odieresis
/multiply /Oslash /Ugrave /Uacute /Ucircumflex
/Udieresis /Yacute /Thorn /germandbls /agrave
/aacute /acircumflex /atilde /adieresis /aring
/ae /ccedilla /egrave /eacute /ecircumflex
/edieresis /igrave /iacute /icircumflex /idieresis
/eth /ntilde /ograve /oacute /ocircumflex
/otilde /odieresis /divide /oslash /ugrave
/uacute /ucircumflex /udieresis /yacute /thorn
/ydieresis
] def
%%EndResource
%FOPBeginFontReencode
/Courier-Bold findfont
dup length dict begin
  {1 index /FID ne {def} {pop pop} ifelse} forall
  /Encoding WinAnsiEncoding def
  currentdict
end
/Courier-Bold exch definefont pop
/Helvetica findfont
dup length dict begin
  {1 index /FID ne {def} {pop pop} ifelse} forall
  /Encoding WinAnsiEncoding def
  currentdict
end
/Helvetica exch definefont pop
/Courier-BoldOblique findfont
dup length dict begin
  {1 index /FID ne {def} {pop pop} ifelse} forall
  /Encoding WinAnsiEncoding def
  currentdict
end
/Courier-BoldOblique exch definefont pop
/Courier-Oblique findfont
dup length dict begin
  {1 index /FID ne {def} {pop pop} ifelse} forall
  /Encoding WinAnsiEncoding def
  currentdict
end
/Courier-Oblique exch definefont pop
/Times-Roman findfont
dup length dict begin
  {1 index /FID ne {def} {pop pop} ifelse} forall
  /Encoding WinAnsiEncoding def
  currentdict
end
/Times-Roman exch definefont pop
/Helvetica-BoldOblique findfont
dup length dict begin
  {1 index /FID ne {def} {pop pop} ifelse} forall
  /Encoding WinAnsiEncoding def
  currentdict
end
/Helvetica-BoldOblique exch definefont pop
/Helvetica-Bold findfont
dup length dict begin
  {1 index /FID ne {def} {pop pop} ifelse} forall
  /Encoding WinAnsiEncoding def
  currentdict
end
/Helvetica-Bold exch definefont pop
/Helvetica-Oblique findfont
dup length dict begin
  {1 index /FID ne {def} {pop pop} ifelse} forall
  /Encoding WinAnsiEncoding def
  currentdict
end
/Helvetica-Oblique exch definefont pop
/Times-BoldItalic findfont
dup length dict begin
  {1 index /FID ne {def} {pop pop} ifelse} forall
  /Encoding WinAnsiEncoding def
  currentdict
end
/Times-BoldItalic exch definefont pop
/Courier findfont
dup length dict begin
  {1 index /FID ne {def} {pop pop} ifelse} forall
  /Encoding WinAnsiEncoding def
  currentdict
end
/Courier exch definefont pop
/Times-Italic findfont
dup length dict begin
  {1 index /FID ne {def} {pop pop} ifelse} forall
  /Encoding WinAnsiEncoding def
  currentdict
end
/Times-Italic exch definefont pop
/Times-Bold findfont
dup length dict begin
  {1 index /FID ne {def} {pop pop} ifelse} forall
  /Encoding WinAnsiEncoding def
  currentdict
end
/Times-Bold exch definefont pop
%FOPEndFontReencode
%%EndProlog
%%Page: 1 1
%%PageBoundingBox: 0 0 835 601
%%BeginPageSetup
[1 0 0 -1 0 601] CT
%%EndPageSetup
GS
[0.75 0 0 0.75 0 0.25] CT
N
0 0 M
1113 0 L
1113 801 L
0 801 L
0 0 L
cp
clip
1 GC
N
0 0 1113 801 re
f
GR
GS
[0.75 0 0 0.75 0 0.25] CT
1 GC
N
0 0 1113 801 re
f
GR
GS
[0.75 0 0 0.75 0 0.25] CT
1 GC
N
145 713 M
1007 713 L
1007 60 L
145 60 L
cp
f
GR
GS
[0.75 0 0 0.75 0 0.25] CT
0.149 GC
2 setlinecap
1 LJ
0.667 LW
N
145 713 M
1007 713 L
S
GR
GS
[0.75 0 0 0.75 0 0.25] CT
0.149 GC
2 setlinecap
1 LJ
0.667 LW
N
145 60 M
1007 60 L
S
GR
GS
[0.75 0 0 0.75 0 0.25] CT
0.149 GC
2 setlinecap
1 LJ
0.667 LW
N
145 713 M
145 704.38 L
S
GR
GS
[0.75 0 0 0.75 0 0.25] CT
0.149 GC
2 setlinecap
1 LJ
0.667 LW
N
231.2 713 M
231.2 704.38 L
S
GR
GS
[0.75 0 0 0.75 0 0.25] CT
0.149 GC
2 setlinecap
1 LJ
0.667 LW
N
317.4 713 M
317.4 704.38 L
S
GR
GS
[0.75 0 0 0.75 0 0.25] CT
0.149 GC
2 setlinecap
1 LJ
0.667 LW
N
403.6 713 M
403.6 704.38 L
S
GR
GS
[0.75 0 0 0.75 0 0.25] CT
0.149 GC
2 setlinecap
1 LJ
0.667 LW
N
489.8 713 M
489.8 704.38 L
S
GR
GS
[0.75 0 0 0.75 0 0.25] CT
0.149 GC
2 setlinecap
1 LJ
0.667 LW
N
576 713 M
576 704.38 L
S
GR
GS
[0.75 0 0 0.75 0 0.25] CT
0.149 GC
2 setlinecap
1 LJ
0.667 LW
N
662.2 713 M
662.2 704.38 L
S
GR
GS
[0.75 0 0 0.75 0 0.25] CT
0.149 GC
2 setlinecap
1 LJ
0.667 LW
N
748.4 713 M
748.4 704.38 L
S
GR
GS
[0.75 0 0 0.75 0 0.25] CT
0.149 GC
2 setlinecap
1 LJ
0.667 LW
N
834.6 713 M
834.6 704.38 L
S
GR
GS
[0.75 0 0 0.75 0 0.25] CT
0.149 GC
2 setlinecap
1 LJ
0.667 LW
N
920.8 713 M
920.8 704.38 L
S
GR
GS
[0.75 0 0 0.75 0 0.25] CT
0.149 GC
2 setlinecap
1 LJ
0.667 LW
N
1007 713 M
1007 704.38 L
S
GR
GS
[0.75 0 0 0.75 0 0.25] CT
0.149 GC
2 setlinecap
1 LJ
0.667 LW
N
145 60 M
145 68.62 L
S
GR
GS
[0.75 0 0 0.75 0 0.25] CT
0.149 GC
2 setlinecap
1 LJ
0.667 LW
N
231.2 60 M
231.2 68.62 L
S
GR
GS
[0.75 0 0 0.75 0 0.25] CT
0.149 GC
2 setlinecap
1 LJ
0.667 LW
N
317.4 60 M
317.4 68.62 L
S
GR
GS
[0.75 0 0 0.75 0 0.25] CT
0.149 GC
2 setlinecap
1 LJ
0.667 LW
N
403.6 60 M
403.6 68.62 L
S
GR
GS
[0.75 0 0 0.75 0 0.25] CT
0.149 GC
2 setlinecap
1 LJ
0.667 LW
N
489.8 60 M
489.8 68.62 L
S
GR
GS
[0.75 0 0 0.75 0 0.25] CT
0.149 GC
2 setlinecap
1 LJ
0.667 LW
N
576 60 M
576 68.62 L
S
GR
GS
[0.75 0 0 0.75 0 0.25] CT
0.149 GC
2 setlinecap
1 LJ
0.667 LW
N
662.2 60 M
662.2 68.62 L
S
GR
GS
[0.75 0 0 0.75 0 0.25] CT
0.149 GC
2 setlinecap
1 LJ
0.667 LW
N
748.4 60 M
748.4 68.62 L
S
GR
GS
[0.75 0 0 0.75 0 0.25] CT
0.149 GC
2 setlinecap
1 LJ
0.667 LW
N
834.6 60 M
834.6 68.62 L
S
GR
GS
[0.75 0 0 0.75 0 0.25] CT
0.149 GC
2 setlinecap
1 LJ
0.667 LW
N
920.8 60 M
920.8 68.62 L
S
GR
GS
[0.75 0 0 0.75 0 0.25] CT
0.149 GC
2 setlinecap
1 LJ
0.667 LW
N
1007 60 M
1007 68.62 L
S
GR
GS
[0.75 0 0 0.75 108.75 540.60001] CT
0.149 GC
/Helvetica 24 F
GS
[1 0 0 1 0 0] CT
-7 25 moveto 
1 -1 scale
(0) t 
GR
GR
GS
[0.75 0 0 0.75 173.4 540.60001] CT
0.149 GC
/Helvetica 24 F
GS
[1 0 0 1 0 0] CT
-13.5 25 moveto 
1 -1 scale
(10) t 
GR
GR
GS
[0.75 0 0 0.75 238.05 540.60001] CT
0.149 GC
/Helvetica 24 F
GS
[1 0 0 1 0 0] CT
-13.5 25 moveto 
1 -1 scale
(20) t 
GR
GR
GS
[0.75 0 0 0.75 302.7 540.60001] CT
0.149 GC
/Helvetica 24 F
GS
[1 0 0 1 0 0] CT
-13.5 25 moveto 
1 -1 scale
(30) t 
GR
GR
GS
[0.75 0 0 0.75 367.34999 540.60001] CT
0.149 GC
/Helvetica 24 F
GS
[1 0 0 1 0 0] CT
-13.5 25 moveto 
1 -1 scale
(40) t 
GR
GR
GS
[0.75 0 0 0.75 432 540.60001] CT
0.149 GC
/Helvetica 24 F
GS
[1 0 0 1 0 0] CT
-13.5 25 moveto 
1 -1 scale
(50) t 
GR
GR
GS
[0.75 0 0 0.75 496.65001 540.60001] CT
0.149 GC
/Helvetica 24 F
GS
[1 0 0 1 0 0] CT
-13.5 25 moveto 
1 -1 scale
(60) t 
GR
GR
GS
[0.75 0 0 0.75 561.30002 540.60001] CT
0.149 GC
/Helvetica 24 F
GS
[1 0 0 1 0 0] CT
-13.5 25 moveto 
1 -1 scale
(70) t 
GR
GR
GS
[0.75 0 0 0.75 625.94998 540.60001] CT
0.149 GC
/Helvetica 24 F
GS
[1 0 0 1 0 0] CT
-13.5 25 moveto 
1 -1 scale
(80) t 
GR
GR
GS
[0.75 0 0 0.75 690.59999 540.60001] CT
0.149 GC
/Helvetica 24 F
GS
[1 0 0 1 0 0] CT
-13.5 25 moveto 
1 -1 scale
(90) t 
GR
GR
GS
[0.75 0 0 0.75 755.25 540.60001] CT
0.149 GC
/Helvetica 24 F
GS
[1 0 0 1 0 0] CT
-20.5 25 moveto 
1 -1 scale
(100) t 
GR
GR
GS
[0.75 0 0 0.75 432.00027 564.84999] CT
0.149 GC
/Helvetica 26.4 F
GS
[1 0 0 1 0 0] CT
-46.5 27 moveto 
1 -1 scale
(Time [s]) t 
GR
GR
GS
[0.75 0 0 0.75 0 0.25] CT
0.149 GC
2 setlinecap
1 LJ
0.667 LW
N
145 713 M
145 60 L
S
GR
GS
[0.75 0 0 0.75 0 0.25] CT
0.149 GC
2 setlinecap
1 LJ
0.667 LW
N
1007 713 M
1007 60 L
S
GR
GS
[0.75 0 0 0.75 0 0.25] CT
0.149 GC
2 setlinecap
1 LJ
0.667 LW
N
145 713 M
153.62 713 L
S
GR
GS
[0.75 0 0 0.75 0 0.25] CT
0.149 GC
2 setlinecap
1 LJ
0.667 LW
N
145 647.7 M
153.62 647.7 L
S
GR
GS
[0.75 0 0 0.75 0 0.25] CT
0.149 GC
2 setlinecap
1 LJ
0.667 LW
N
145 582.4 M
153.62 582.4 L
S
GR
GS
[0.75 0 0 0.75 0 0.25] CT
0.149 GC
2 setlinecap
1 LJ
0.667 LW
N
145 517.1 M
153.62 517.1 L
S
GR
GS
[0.75 0 0 0.75 0 0.25] CT
0.149 GC
2 setlinecap
1 LJ
0.667 LW
N
145 451.8 M
153.62 451.8 L
S
GR
GS
[0.75 0 0 0.75 0 0.25] CT
0.149 GC
2 setlinecap
1 LJ
0.667 LW
N
145 386.5 M
153.62 386.5 L
S
GR
GS
[0.75 0 0 0.75 0 0.25] CT
0.149 GC
2 setlinecap
1 LJ
0.667 LW
N
145 321.2 M
153.62 321.2 L
S
GR
GS
[0.75 0 0 0.75 0 0.25] CT
0.149 GC
2 setlinecap
1 LJ
0.667 LW
N
145 255.9 M
153.62 255.9 L
S
GR
GS
[0.75 0 0 0.75 0 0.25] CT
0.149 GC
2 setlinecap
1 LJ
0.667 LW
N
145 190.6 M
153.62 190.6 L
S
GR
GS
[0.75 0 0 0.75 0 0.25] CT
0.149 GC
2 setlinecap
1 LJ
0.667 LW
N
145 125.3 M
153.62 125.3 L
S
GR
GS
[0.75 0 0 0.75 0 0.25] CT
0.149 GC
2 setlinecap
1 LJ
0.667 LW
N
145 60 M
153.62 60 L
S
GR
GS
[0.75 0 0 0.75 0 0.25] CT
0.149 GC
2 setlinecap
1 LJ
0.667 LW
N
1007 713 M
998.38 713 L
S
GR
GS
[0.75 0 0 0.75 0 0.25] CT
0.149 GC
2 setlinecap
1 LJ
0.667 LW
N
1007 647.7 M
998.38 647.7 L
S
GR
GS
[0.75 0 0 0.75 0 0.25] CT
0.149 GC
2 setlinecap
1 LJ
0.667 LW
N
1007 582.4 M
998.38 582.4 L
S
GR
GS
[0.75 0 0 0.75 0 0.25] CT
0.149 GC
2 setlinecap
1 LJ
0.667 LW
N
1007 517.1 M
998.38 517.1 L
S
GR
GS
[0.75 0 0 0.75 0 0.25] CT
0.149 GC
2 setlinecap
1 LJ
0.667 LW
N
1007 451.8 M
998.38 451.8 L
S
GR
GS
[0.75 0 0 0.75 0 0.25] CT
0.149 GC
2 setlinecap
1 LJ
0.667 LW
N
1007 386.5 M
998.38 386.5 L
S
GR
GS
[0.75 0 0 0.75 0 0.25] CT
0.149 GC
2 setlinecap
1 LJ
0.667 LW
N
1007 321.2 M
998.38 321.2 L
S
GR
GS
[0.75 0 0 0.75 0 0.25] CT
0.149 GC
2 setlinecap
1 LJ
0.667 LW
N
1007 255.9 M
998.38 255.9 L
S
GR
GS
[0.75 0 0 0.75 0 0.25] CT
0.149 GC
2 setlinecap
1 LJ
0.667 LW
N
1007 190.6 M
998.38 190.6 L
S
GR
GS
[0.75 0 0 0.75 0 0.25] CT
0.149 GC
2 setlinecap
1 LJ
0.667 LW
N
1007 125.3 M
998.38 125.3 L
S
GR
GS
[0.75 0 0 0.75 0 0.25] CT
0.149 GC
2 setlinecap
1 LJ
0.667 LW
N
1007 60 M
998.38 60 L
S
GR
GS
[0.75 0 0 0.75 103.15001 535] CT
0.149 GC
/Helvetica 24 F
GS
[1 0 0 1 0 0] CT
-49 9.5 moveto 
1 -1 scale
(-300) t 
GR
GR
GS
[0.75 0 0 0.75 103.15001 486.02501] CT
0.149 GC
/Helvetica 24 F
GS
[1 0 0 1 0 0] CT
-49 9.5 moveto 
1 -1 scale
(-200) t 
GR
GR
GS
[0.75 0 0 0.75 103.15001 437.05002] CT
0.149 GC
/Helvetica 24 F
GS
[1 0 0 1 0 0] CT
-49 9.5 moveto 
1 -1 scale
(-100) t 
GR
GR
GS
[0.75 0 0 0.75 103.15001 388.07498] CT
0.149 GC
/Helvetica 24 F
GS
[1 0 0 1 0 0] CT
-14 9.5 moveto 
1 -1 scale
(0) t 
GR
GR
GS
[0.75 0 0 0.75 103.15001 339.09999] CT
0.149 GC
/Helvetica 24 F
GS
[1 0 0 1 0 0] CT
-41 9.5 moveto 
1 -1 scale
(100) t 
GR
GR
GS
[0.75 0 0 0.75 103.15001 290.125] CT
0.149 GC
/Helvetica 24 F
GS
[1 0 0 1 0 0] CT
-41 9.5 moveto 
1 -1 scale
(200) t 
GR
GR
GS
[0.75 0 0 0.75 103.15001 241.15001] CT
0.149 GC
/Helvetica 24 F
GS
[1 0 0 1 0 0] CT
-41 9.5 moveto 
1 -1 scale
(300) t 
GR
GR
GS
[0.75 0 0 0.75 103.15001 192.175] CT
0.149 GC
/Helvetica 24 F
GS
[1 0 0 1 0 0] CT
-41 9.5 moveto 
1 -1 scale
(400) t 
GR
GR
GS
[0.75 0 0 0.75 103.15001 143.2] CT
0.149 GC
/Helvetica 24 F
GS
[1 0 0 1 0 0] CT
-41 9.5 moveto 
1 -1 scale
(500) t 
GR
GR
GS
[0.75 0 0 0.75 103.15001 94.225] CT
0.149 GC
/Helvetica 24 F
GS
[1 0 0 1 0 0] CT
-41 9.5 moveto 
1 -1 scale
(600) t 
GR
GR
GS
[0.75 0 0 0.75 103.15001 45.25] CT
0.149 GC
/Helvetica 24 F
GS
[1 0 0 1 0 0] CT
-41 9.5 moveto 
1 -1 scale
(700) t 
GR
GR
GS
[0.75 0 0 0.75 0 0.25] CT
0 0.447 0.741 RC
1 LJ
2.667 LW
N
153.62 446.847 M
162.24 422.683 L
170.86 471.822 L
179.48 493.983 L
188.1 503.428 L
196.72 506.95 L
205.34 500.206 L
213.96 461.461 L
222.58 418.657 L
231.2 448.614 L
239.82 481.33 L
248.44 504.416 L
257.06 505.267 L
265.68 504.793 L
274.3 476.489 L
282.92 438.627 L
291.54 444.389 L
300.16 465.945 L
308.78 501.138 L
317.4 504.702 L
326.02 506.195 L
334.64 489.346 L
343.26 450.988 L
351.88 386.462 L
360.5 453.851 L
369.12 490.574 L
377.74 504.53 L
386.36 507.842 L
394.98 501.516 L
403.6 487.213 L
412.22 421.879 L
420.84 415.967 L
429.46 483.068 L
438.08 507.401 L
446.7 508.898 L
455.32 503.17 L
463.94 500.771 L
472.56 452.686 L
481.18 405.395 L
489.8 444.484 L
498.42 493.911 L
507.04 506.995 L
515.66 511.81 L
524.28 510.527 L
532.9 486.988 L
541.52 441.365 L
550.14 442.958 L
558.76 485.325 L
567.38 492.36 L
576 502.631 L
584.62 500.432 L
593.24 478.009 L
601.86 463.563 L
610.48 456.146 L
619.1 443.855 L
627.72 490.87 L
636.34 505.511 L
644.96 501.573 L
653.58 485.099 L
662.2 467.482 L
670.82 456.716 L
679.44 452.901 L
688.06 455.336 L
696.68 496.511 L
705.3 501.876 L
713.92 498.892 L
722.54 467.036 L
731.16 388.948 L
739.78 425.904 L
748.4 464.292 L
757.02 500.37 L
765.64 498.587 L
774.26 496.441 L
782.88 489.777 L
791.5 446.949 L
800.12 414.926 L
808.74 473.029 L
817.36 483.934 L
825.98 518.56 L
834.6 506.978 L
843.22 494.685 L
851.84 482.53 L
860.46 417.421 L
869.08 450.06 L
877.7 493.172 L
886.32 487.82 L
894.94 507.622 L
903.56 511.59 L
912.18 497.917 L
920.8 482.919 L
929.42 469.282 L
938.04 454.385 L
946.66 500.468 L
955.28 497.355 L
963.9 486.635 L
972.52 481.264 L
981.14 490.98 L
989.76 485.443 L
998.38 432.652 L
1007 457.04 L
S
GR
GS
[0.75 0 0 0.75 0 0.25] CT
0.851 0.325 0.098 RC
1 LJ
2.667 LW
N
153.62 436.909 M
162.24 410.098 L
170.86 475.661 L
179.48 499.692 L
188.1 505.629 L
196.72 507.441 L
205.34 497.285 L
213.96 459.831 L
222.58 398.928 L
231.2 446.467 L
239.82 495.777 L
248.44 507.778 L
257.06 508.332 L
265.68 504.272 L
274.3 476.852 L
282.92 427.344 L
291.54 416.119 L
300.16 475.792 L
308.78 500.786 L
317.4 507.738 L
326.02 507.281 L
334.64 493.07 L
343.26 455.803 L
351.88 409.039 L
360.5 462.474 L
369.12 497.259 L
377.74 508.71 L
386.36 511.268 L
394.98 506.162 L
403.6 469.628 L
412.22 408.192 L
420.84 418.697 L
429.46 484.414 L
438.08 500.729 L
446.7 509.292 L
455.32 512.478 L
463.94 500.822 L
472.56 461.735 L
481.18 396.735 L
489.8 440.885 L
498.42 501.984 L
507.04 511.109 L
515.66 516.056 L
524.28 520.05 L
532.9 473.289 L
541.52 394.379 L
550.14 451.947 L
558.76 490.268 L
567.38 499.772 L
576 508.082 L
584.62 512.554 L
593.24 471.684 L
601.86 391.398 L
610.48 392.581 L
619.1 478.43 L
627.72 507.409 L
636.34 508.843 L
644.96 509.6 L
653.58 477.664 L
662.2 467.613 L
670.82 429.815 L
679.44 426.561 L
688.06 488.723 L
696.68 498.678 L
705.3 501.59 L
713.92 493.509 L
722.54 482.498 L
731.16 398.052 L
739.78 426.842 L
748.4 503.487 L
757.02 513.819 L
765.64 508.817 L
774.26 505.912 L
782.88 473.719 L
791.5 408.908 L
800.12 379.121 L
808.74 456.936 L
817.36 484.045 L
825.98 496.026 L
834.6 510.046 L
843.22 523.825 L
851.84 482.144 L
860.46 404.984 L
869.08 391.551 L
877.7 482.764 L
886.32 515.552 L
894.94 523.553 L
903.56 539.013 L
912.18 495.993 L
920.8 409.001 L
929.42 420.557 L
938.04 503.865 L
946.66 495.319 L
955.28 506.731 L
963.9 527.194 L
972.52 473.691 L
981.14 381.259 L
989.76 357.584 L
998.38 443.667 L
1007 526.144 L
S
GR
GS
[0.75 0 0 0.75 0 0.25] CT
0.929 0.694 0.125 RC
1 LJ
2.667 LW
N
153.62 435.565 M
162.24 425.273 L
170.86 474.064 L
179.48 502.861 L
188.1 498.882 L
196.72 494.579 L
205.34 478.706 L
213.96 471.699 L
222.58 399.517 L
231.2 472.271 L
239.82 487.975 L
248.44 497.525 L
257.06 495.581 L
265.68 485.439 L
274.3 475.8 L
282.92 429.947 L
291.54 381.949 L
300.16 462.086 L
308.78 484.844 L
317.4 501.556 L
326.02 522.833 L
334.64 483.155 L
343.26 499.155 L
351.88 389.387 L
360.5 438.567 L
369.12 495.692 L
377.74 507.877 L
386.36 500.852 L
394.98 508.785 L
403.6 430.885 L
412.22 479.159 L
420.84 443.806 L
429.46 482.367 L
438.08 498.986 L
446.7 503.782 L
455.32 489.084 L
463.94 504.249 L
472.56 436.962 L
481.18 452.246 L
489.8 403.107 L
498.42 477.284 L
507.04 497.046 L
515.66 489.16 L
524.28 515.763 L
532.9 442.556 L
541.52 473.302 L
550.14 500.603 L
558.76 511.551 L
567.38 530.344 L
576 503.832 L
584.62 440.447 L
593.24 540.777 L
601.86 390.21 L
610.48 567.678 L
619.1 432.917 L
627.72 455.032 L
636.34 491.419 L
644.96 492.057 L
653.58 469.506 L
662.2 460.566 L
670.82 409.052 L
679.44 508.576 L
688.06 413.332 L
696.68 489.119 L
705.3 519.527 L
713.92 533.417 L
722.54 547.126 L
731.16 438.505 L
739.78 477.626 L
748.4 498.668 L
757.02 490.358 L
765.64 539.766 L
774.26 534.504 L
782.88 416.915 L
791.5 490.306 L
800.12 474.294 L
808.74 510.58 L
817.36 460.158 L
825.98 455.119 L
834.6 461.638 L
843.22 490.033 L
851.84 465.13 L
860.46 489.969 L
869.08 406.265 L
877.7 466.662 L
886.32 475.99 L
894.94 490.343 L
903.56 531.517 L
912.18 472.52 L
920.8 481.886 L
929.42 503.619 L
938.04 494.404 L
946.66 527.355 L
955.28 527.241 L
963.9 450.673 L
972.52 510.807 L
981.14 387.329 L
989.76 541.689 L
998.38 425.187 L
1007 500.281 L
S
GR
GS
[0.75 0 0 0.75 0 0.25] CT
0.494 0.184 0.557 RC
1 LJ
2.667 LW
N
153.62 433.734 M
162.24 416.876 L
170.86 476.029 L
179.48 490.089 L
188.1 500.168 L
196.72 503.527 L
205.34 500.511 L
213.96 459.884 L
222.58 409.488 L
231.2 433.488 L
239.82 496.104 L
248.44 506.615 L
257.06 505.836 L
265.68 506.243 L
274.3 485.428 L
282.92 415.507 L
291.54 425.917 L
300.16 466.318 L
308.78 491.114 L
317.4 506.67 L
326.02 510.601 L
334.64 500.738 L
343.26 451.7 L
351.88 420.979 L
360.5 441.029 L
369.12 503.395 L
377.74 503.491 L
386.36 508.293 L
394.98 519.391 L
403.6 512.079 L
412.22 361.935 L
420.84 455.082 L
429.46 461.127 L
438.08 487.246 L
446.7 512.119 L
455.32 512.009 L
463.94 518.61 L
472.56 469.641 L
481.18 366.776 L
489.8 457.475 L
498.42 512.357 L
507.04 500.33 L
515.66 506.506 L
524.28 518.175 L
532.9 493.335 L
541.52 368.159 L
550.14 510.85 L
558.76 462.734 L
567.38 485.376 L
576 506.906 L
584.62 493.912 L
593.24 482.53 L
601.86 446.592 L
610.48 359.01 L
619.1 496.423 L
627.72 526.359 L
636.34 493.913 L
644.96 493.585 L
653.58 478.908 L
662.2 521.372 L
670.82 245.418 L
679.44 416.44 L
688.06 427.608 L
696.68 507.453 L
705.3 534.416 L
713.92 473.542 L
722.54 453.916 L
731.16 451.714 L
739.78 192.342 L
748.4 703.071 L
757.02 493.976 L
765.64 465.361 L
774.26 533.439 L
782.88 545.35 L
791.5 502.562 L
800.12 310.15 L
808.74 429.126 L
817.36 563.317 L
825.98 621.376 L
834.6 493.843 L
843.22 473.641 L
851.84 475.703 L
860.46 244.796 L
869.08 164.383 L
877.7 649.139 L
886.32 465.476 L
894.94 480.392 L
903.56 577.897 L
912.18 481.513 L
920.8 291.217 L
929.42 101.012 L
938.04 427.265 L
946.66 584.522 L
955.28 554.962 L
963.9 490.437 L
972.52 531.563 L
981.14 531.255 L
989.76 335.613 L
998.38 404.661 L
1007 607.018 L
S
GR
GS
[0.75 0 0 0.75 0 0.25] CT
0.467 0.675 0.188 RC
1 LJ
2.667 LW
N
153.62 444.344 M
162.24 403.302 L
170.86 493.585 L
179.48 515.398 L
188.1 507.475 L
196.72 502.921 L
205.34 481.097 L
213.96 461.93 L
222.58 413.88 L
231.2 434.833 L
239.82 477.879 L
248.44 505.527 L
257.06 511.083 L
265.68 482.214 L
274.3 458.647 L
282.92 415.1 L
291.54 414.137 L
300.16 479.276 L
308.78 498.956 L
317.4 484.085 L
326.02 497.117 L
334.64 496.673 L
343.26 458.992 L
351.88 402.297 L
360.5 411.4 L
369.12 478.782 L
377.74 504.84 L
386.36 502.392 L
394.98 478.031 L
403.6 533.656 L
412.22 431.094 L
420.84 405.824 L
429.46 513.734 L
438.08 480.51 L
446.7 464.277 L
455.32 510.279 L
463.94 495.878 L
472.56 477.679 L
481.18 351.572 L
489.8 463.388 L
498.42 462.935 L
507.04 518.704 L
515.66 496.904 L
524.28 527.907 L
532.9 508.293 L
541.52 477.733 L
550.14 524.66 L
558.76 506.555 L
567.38 490.98 L
576 484.862 L
584.62 528.781 L
593.24 441.67 L
601.86 450.638 L
610.48 368.014 L
619.1 493.657 L
627.72 496.299 L
636.34 486.908 L
644.96 486.357 L
653.58 406.947 L
662.2 458.581 L
670.82 429.008 L
679.44 552.488 L
688.06 489.755 L
696.68 468.909 L
705.3 506.205 L
713.92 501.081 L
722.54 464.337 L
731.16 427.172 L
739.78 318.818 L
748.4 422.979 L
757.02 538.425 L
765.64 520.837 L
774.26 439.664 L
782.88 493.897 L
791.5 533.323 L
800.12 453.999 L
808.74 526.61 L
817.36 476.561 L
825.98 372.84 L
834.6 490.197 L
843.22 545.061 L
851.84 451.263 L
860.46 423.538 L
869.08 441.335 L
877.7 470.892 L
886.32 469.514 L
894.94 558.827 L
903.56 530.379 L
912.18 518.024 L
920.8 558.142 L
929.42 470.726 L
938.04 468.021 L
946.66 462.404 L
955.28 474.43 L
963.9 427.146 L
972.52 577.868 L
981.14 384.034 L
989.76 451.089 L
998.38 404.412 L
1007 528.384 L
S
GR
GS
[0.75 0 0 0.75 0 0.25] CT
0.302 0.745 0.933 RC
1 LJ
2.667 LW
N
153.62 470.084 M
162.24 400.866 L
170.86 437.434 L
179.48 493.592 L
188.1 507.958 L
196.72 509.917 L
205.34 507.958 L
213.96 496.204 L
222.58 445.27 L
231.2 394.336 L
239.82 464.86 L
248.44 502.081 L
257.06 509.264 L
265.68 510.57 L
274.3 507.305 L
282.92 487.715 L
291.54 418.497 L
300.16 406.743 L
308.78 482.491 L
317.4 505.346 L
326.02 509.264 L
334.64 511.223 L
343.26 505.999 L
351.88 477.92 L
360.5 398.254 L
369.12 423.721 L
377.74 492.286 L
386.36 508.611 L
394.98 511.223 L
403.6 511.223 L
412.22 504.693 L
420.84 470.737 L
429.46 385.847 L
438.08 434.822 L
446.7 497.51 L
455.32 509.264 L
463.94 511.223 L
472.56 511.876 L
481.18 505.346 L
489.8 471.39 L
498.42 379.317 L
507.04 431.557 L
515.66 497.51 L
524.28 509.917 L
532.9 511.876 L
541.52 511.876 L
550.14 508.611 L
558.76 486.409 L
567.38 391.724 L
576 400.213 L
584.62 490.98 L
593.24 508.611 L
601.86 511.223 L
610.48 512.529 L
619.1 512.529 L
627.72 507.958 L
636.34 470.737 L
644.96 350.585 L
653.58 431.557 L
662.2 501.428 L
670.82 511.223 L
679.44 512.529 L
688.06 512.529 L
696.68 513.835 L
705.3 514.488 L
713.92 515.141 L
722.54 511.876 L
731.16 504.04 L
739.78 508.611 L
748.4 510.57 L
757.02 508.611 L
765.64 504.04 L
774.26 496.857 L
782.88 489.674 L
791.5 479.879 L
800.12 472.696 L
808.74 471.39 L
817.36 478.573 L
825.98 485.756 L
834.6 487.062 L
843.22 483.797 L
851.84 477.267 L
860.46 471.39 L
869.08 473.349 L
877.7 479.879 L
886.32 485.756 L
894.94 486.409 L
903.56 482.491 L
912.18 474.655 L
920.8 470.084 L
929.42 473.349 L
938.04 479.879 L
946.66 486.409 L
955.28 486.409 L
963.9 481.838 L
972.52 473.349 L
981.14 469.431 L
989.76 474.002 L
998.38 481.838 L
1007 485.756 L
S
GR
GS
[0.75 0 0 0.75 0 0.25] CT
1 GC
N
171 277 M
171 81 L
451 81 L
451 277 L
cp
f
GR
GS
[0.75 0 0 0.75 171.07402 74.47851] CT
/Helvetica 21.6 F
GS
[1 0 0 1 0 0] CT
0 9 moveto 
1 -1 scale
(Approximation1) t 
GR
GR
GS
[0.75 0 0 0.75 0 0.25] CT
0 0.447 0.741 RC
1 LJ
2.667 LW
N
195.138 98.971 M
225.102 98.971 L
S
GR
GS
[0.75 0 0 0.75 171.07402 98.4871] CT
/Helvetica 21.6 F
GS
[1 0 0 1 0 0] CT
0 9 moveto 
1 -1 scale
(Approximation2) t 
GR
GR
GS
[0.75 0 0 0.75 0 0.25] CT
0.851 0.325 0.098 RC
1 LJ
2.667 LW
N
195.138 130.983 M
225.102 130.983 L
S
GR
GS
[0.75 0 0 0.75 171.07402 122.49571] CT
/Helvetica 21.6 F
GS
[1 0 0 1 0 0] CT
0 9 moveto 
1 -1 scale
(Approximation3) t 
GR
GR
GS
[0.75 0 0 0.75 0 0.25] CT
0.929 0.694 0.125 RC
1 LJ
2.667 LW
N
195.138 162.994 M
225.102 162.994 L
S
GR
GS
[0.75 0 0 0.75 171.07402 146.50429] CT
/Helvetica 21.6 F
GS
[1 0 0 1 0 0] CT
0 9 moveto 
1 -1 scale
(Approximation4) t 
GR
GR
GS
[0.75 0 0 0.75 0 0.25] CT
0.494 0.184 0.557 RC
1 LJ
2.667 LW
N
195.138 195.006 M
225.102 195.006 L
S
GR
GS
[0.75 0 0 0.75 171.07402 170.5129] CT
/Helvetica 21.6 F
GS
[1 0 0 1 0 0] CT
0 9 moveto 
1 -1 scale
(Approximation5) t 
GR
GR
GS
[0.75 0 0 0.75 0 0.25] CT
0.467 0.675 0.188 RC
1 LJ
2.667 LW
N
195.138 227.017 M
225.102 227.017 L
S
GR
GS
[0.75 0 0 0.75 171.07402 194.52149] CT
/Helvetica 21.6 F
GS
[1 0 0 1 0 0] CT
0 9 moveto 
1 -1 scale
(Laser Prediction Set) t 
GR
GR
GS
[0.75 0 0 0.75 0 0.25] CT
0.302 0.745 0.933 RC
1 LJ
2.667 LW
N
195.138 259.029 M
225.102 259.029 L
S
GR
GS
[0.75 0 0 0.75 0 0.25] CT
0.149 GC
10.0 ML
0.667 LW
N
171 277 M
171 81 L
451 81 L
451 277 L
cp
S
GR
%%Trailer
%%Pages: 1
%%EOF
