%!PS-Adobe-3.0 EPSF-3.0
%%Creator: (MATLAB, The Mathworks, Inc. Version 9.1.0.441655 \(R2016b\). Operating System: Windows 8)
%%Title: (C:/Users/Eigenaar/WIT/Data Mining/data-mining/Session 2/plots/delay2.eps)
%%CreationDate: 2017-11-22T20:51:05
%%Pages: (atend)
%%BoundingBox: 0 0 770 667
%%LanguageLevel: 3
%%EndComments
%%BeginProlog
%%BeginResource: procset (Apache XML Graphics Std ProcSet) 1.2 0
%%Version: 1.2 0
%%Copyright: (Copyright 2001-2003,2010 The Apache Software Foundation. License terms: http://www.apache.org/licenses/LICENSE-2.0)
/bd{bind def}bind def
/ld{load def}bd
/GR/grestore ld
/M/moveto ld
/LJ/setlinejoin ld
/C/curveto ld
/f/fill ld
/LW/setlinewidth ld
/GC/setgray ld
/t/show ld
/N/newpath ld
/CT/concat ld
/cp/closepath ld
/S/stroke ld
/L/lineto ld
/CC/setcmykcolor ld
/A/ashow ld
/GS/gsave ld
/RC/setrgbcolor ld
/RM/rmoveto ld
/ML/setmiterlimit ld
/re {4 2 roll M
1 index 0 rlineto
0 exch rlineto
neg 0 rlineto
cp } bd
/_ctm matrix def
/_tm matrix def
/BT { _ctm currentmatrix pop matrix _tm copy pop 0 0 moveto } bd
/ET { _ctm setmatrix } bd
/iTm { _ctm setmatrix _tm concat } bd
/Tm { _tm astore pop iTm 0 0 moveto } bd
/ux 0.0 def
/uy 0.0 def
/F {
  /Tp exch def
  /Tf exch def
  Tf findfont Tp scalefont setfont
  /cf Tf def  /cs Tp def
} bd
/ULS {currentpoint /uy exch def /ux exch def} bd
/ULE {
  /Tcx currentpoint pop def
  gsave
  newpath
  cf findfont cs scalefont dup
  /FontMatrix get 0 get /Ts exch def /FontInfo get dup
  /UnderlinePosition get Ts mul /To exch def
  /UnderlineThickness get Ts mul /Tt exch def
  ux uy To add moveto  Tcx uy To add lineto
  Tt setlinewidth stroke
  grestore
} bd
/OLE {
  /Tcx currentpoint pop def
  gsave
  newpath
  cf findfont cs scalefont dup
  /FontMatrix get 0 get /Ts exch def /FontInfo get dup
  /UnderlinePosition get Ts mul /To exch def
  /UnderlineThickness get Ts mul /Tt exch def
  ux uy To add cs add moveto Tcx uy To add cs add lineto
  Tt setlinewidth stroke
  grestore
} bd
/SOE {
  /Tcx currentpoint pop def
  gsave
  newpath
  cf findfont cs scalefont dup
  /FontMatrix get 0 get /Ts exch def /FontInfo get dup
  /UnderlinePosition get Ts mul /To exch def
  /UnderlineThickness get Ts mul /Tt exch def
  ux uy To add cs 10 mul 26 idiv add moveto Tcx uy To add cs 10 mul 26 idiv add lineto
  Tt setlinewidth stroke
  grestore
} bd
/QT {
/Y22 exch store
/X22 exch store
/Y21 exch store
/X21 exch store
currentpoint
/Y21 load 2 mul add 3 div exch
/X21 load 2 mul add 3 div exch
/X21 load 2 mul /X22 load add 3 div
/Y21 load 2 mul /Y22 load add 3 div
/X22 load /Y22 load curveto
} bd
/SSPD {
dup length /d exch dict def
{
/v exch def
/k exch def
currentpagedevice k known {
/cpdv currentpagedevice k get def
v cpdv ne {
/upd false def
/nullv v type /nulltype eq def
/nullcpdv cpdv type /nulltype eq def
nullv nullcpdv or
{
/upd true def
} {
/sametype v type cpdv type eq def
sametype {
v type /arraytype eq {
/vlen v length def
/cpdvlen cpdv length def
vlen cpdvlen eq {
0 1 vlen 1 sub {
/i exch def
/obj v i get def
/cpdobj cpdv i get def
obj cpdobj ne {
/upd true def
exit
} if
} for
} {
/upd true def
} ifelse
} {
v type /dicttype eq {
v {
/dv exch def
/dk exch def
/cpddv cpdv dk get def
dv cpddv ne {
/upd true def
exit
} if
} forall
} {
/upd true def
} ifelse
} ifelse
} if
} ifelse
upd true eq {
d k v put
} if
} if
} if
} forall
d length 0 gt {
d setpagedevice
} if
} bd
/RE { % /NewFontName [NewEncodingArray] /FontName RE -
  findfont dup length dict begin
  {
    1 index /FID ne
    {def} {pop pop} ifelse
  } forall
  /Encoding exch def
  /FontName 1 index def
  currentdict definefont pop
  end
} bind def
%%EndResource
%%BeginResource: procset (Apache XML Graphics EPS ProcSet) 1.0 0
%%Version: 1.0 0
%%Copyright: (Copyright 2002-2003 The Apache Software Foundation. License terms: http://www.apache.org/licenses/LICENSE-2.0)
/BeginEPSF { %def
/b4_Inc_state save def         % Save state for cleanup
/dict_count countdictstack def % Count objects on dict stack
/op_count count 1 sub def      % Count objects on operand stack
userdict begin                 % Push userdict on dict stack
/showpage { } def              % Redefine showpage, { } = null proc
0 setgray 0 setlinecap         % Prepare graphics state
1 setlinewidth 0 setlinejoin
10 setmiterlimit [ ] 0 setdash newpath
/languagelevel where           % If level not equal to 1 then
{pop languagelevel             % set strokeadjust and
1 ne                           % overprint to their defaults.
{false setstrokeadjust false setoverprint
} if
} if
} bd
/EndEPSF { %def
count op_count sub {pop} repeat            % Clean up stacks
countdictstack dict_count sub {end} repeat
b4_Inc_state restore
} bd
%%EndResource
%FOPBeginFontDict
%%IncludeResource: font Courier-Bold
%%IncludeResource: font Helvetica
%%IncludeResource: font Courier-BoldOblique
%%IncludeResource: font Courier-Oblique
%%IncludeResource: font Times-Roman
%%IncludeResource: font Helvetica-BoldOblique
%%IncludeResource: font Helvetica-Bold
%%IncludeResource: font Helvetica-Oblique
%%IncludeResource: font Times-BoldItalic
%%IncludeResource: font Courier
%%IncludeResource: font Times-Italic
%%IncludeResource: font Times-Bold
%%IncludeResource: font Symbol
%%IncludeResource: font ZapfDingbats
%FOPEndFontDict
%%BeginResource: encoding WinAnsiEncoding
/WinAnsiEncoding [
/.notdef /.notdef /.notdef /.notdef /.notdef
/.notdef /.notdef /.notdef /.notdef /.notdef
/.notdef /.notdef /.notdef /.notdef /.notdef
/.notdef /.notdef /.notdef /.notdef /.notdef
/.notdef /.notdef /.notdef /.notdef /.notdef
/.notdef /.notdef /.notdef /.notdef /.notdef
/.notdef /.notdef /space /exclam /quotedbl
/numbersign /dollar /percent /ampersand /quotesingle
/parenleft /parenright /asterisk /plus /comma
/hyphen /period /slash /zero /one
/two /three /four /five /six
/seven /eight /nine /colon /semicolon
/less /equal /greater /question /at
/A /B /C /D /E
/F /G /H /I /J
/K /L /M /N /O
/P /Q /R /S /T
/U /V /W /X /Y
/Z /bracketleft /backslash /bracketright /asciicircum
/underscore /quoteleft /a /b /c
/d /e /f /g /h
/i /j /k /l /m
/n /o /p /q /r
/s /t /u /v /w
/x /y /z /braceleft /bar
/braceright /asciitilde /bullet /Euro /bullet
/quotesinglbase /florin /quotedblbase /ellipsis /dagger
/daggerdbl /circumflex /perthousand /Scaron /guilsinglleft
/OE /bullet /Zcaron /bullet /bullet
/quoteleft /quoteright /quotedblleft /quotedblright /bullet
/endash /emdash /asciitilde /trademark /scaron
/guilsinglright /oe /bullet /zcaron /Ydieresis
/space /exclamdown /cent /sterling /currency
/yen /brokenbar /section /dieresis /copyright
/ordfeminine /guillemotleft /logicalnot /sfthyphen /registered
/macron /degree /plusminus /twosuperior /threesuperior
/acute /mu /paragraph /middot /cedilla
/onesuperior /ordmasculine /guillemotright /onequarter /onehalf
/threequarters /questiondown /Agrave /Aacute /Acircumflex
/Atilde /Adieresis /Aring /AE /Ccedilla
/Egrave /Eacute /Ecircumflex /Edieresis /Igrave
/Iacute /Icircumflex /Idieresis /Eth /Ntilde
/Ograve /Oacute /Ocircumflex /Otilde /Odieresis
/multiply /Oslash /Ugrave /Uacute /Ucircumflex
/Udieresis /Yacute /Thorn /germandbls /agrave
/aacute /acircumflex /atilde /adieresis /aring
/ae /ccedilla /egrave /eacute /ecircumflex
/edieresis /igrave /iacute /icircumflex /idieresis
/eth /ntilde /ograve /oacute /ocircumflex
/otilde /odieresis /divide /oslash /ugrave
/uacute /ucircumflex /udieresis /yacute /thorn
/ydieresis
] def
%%EndResource
%FOPBeginFontReencode
/Courier-Bold findfont
dup length dict begin
  {1 index /FID ne {def} {pop pop} ifelse} forall
  /Encoding WinAnsiEncoding def
  currentdict
end
/Courier-Bold exch definefont pop
/Helvetica findfont
dup length dict begin
  {1 index /FID ne {def} {pop pop} ifelse} forall
  /Encoding WinAnsiEncoding def
  currentdict
end
/Helvetica exch definefont pop
/Courier-BoldOblique findfont
dup length dict begin
  {1 index /FID ne {def} {pop pop} ifelse} forall
  /Encoding WinAnsiEncoding def
  currentdict
end
/Courier-BoldOblique exch definefont pop
/Courier-Oblique findfont
dup length dict begin
  {1 index /FID ne {def} {pop pop} ifelse} forall
  /Encoding WinAnsiEncoding def
  currentdict
end
/Courier-Oblique exch definefont pop
/Times-Roman findfont
dup length dict begin
  {1 index /FID ne {def} {pop pop} ifelse} forall
  /Encoding WinAnsiEncoding def
  currentdict
end
/Times-Roman exch definefont pop
/Helvetica-BoldOblique findfont
dup length dict begin
  {1 index /FID ne {def} {pop pop} ifelse} forall
  /Encoding WinAnsiEncoding def
  currentdict
end
/Helvetica-BoldOblique exch definefont pop
/Helvetica-Bold findfont
dup length dict begin
  {1 index /FID ne {def} {pop pop} ifelse} forall
  /Encoding WinAnsiEncoding def
  currentdict
end
/Helvetica-Bold exch definefont pop
/Helvetica-Oblique findfont
dup length dict begin
  {1 index /FID ne {def} {pop pop} ifelse} forall
  /Encoding WinAnsiEncoding def
  currentdict
end
/Helvetica-Oblique exch definefont pop
/Times-BoldItalic findfont
dup length dict begin
  {1 index /FID ne {def} {pop pop} ifelse} forall
  /Encoding WinAnsiEncoding def
  currentdict
end
/Times-BoldItalic exch definefont pop
/Courier findfont
dup length dict begin
  {1 index /FID ne {def} {pop pop} ifelse} forall
  /Encoding WinAnsiEncoding def
  currentdict
end
/Courier exch definefont pop
/Times-Italic findfont
dup length dict begin
  {1 index /FID ne {def} {pop pop} ifelse} forall
  /Encoding WinAnsiEncoding def
  currentdict
end
/Times-Italic exch definefont pop
/Times-Bold findfont
dup length dict begin
  {1 index /FID ne {def} {pop pop} ifelse} forall
  /Encoding WinAnsiEncoding def
  currentdict
end
/Times-Bold exch definefont pop
%FOPEndFontReencode
%%EndProlog
%%Page: 1 1
%%PageBoundingBox: 0 0 770 667
%%BeginPageSetup
[1 0 0 -1 0 667] CT
%%EndPageSetup
GS
[0.75 0 0 0.75 0 0.25] CT
N
0 0 M
1026 0 L
1026 889 L
0 889 L
0 0 L
cp
clip
1 GC
N
0 0 1026 889 re
f
GR
GS
[0.75 0 0 0.75 0 0.25] CT
1 GC
N
0 0 1026 889 re
f
GR
GS
[0.75 0 0 0.75 0 0.25] CT
1 GC
N
133 791 M
929 791 L
929 67 L
133 67 L
cp
f
GR
GS
[0.75 0 0 0.75 0 0.25] CT
0.149 GC
2 setlinecap
1 LJ
0.667 LW
N
133 791 M
929 791 L
S
GR
GS
[0.75 0 0 0.75 0 0.25] CT
0.149 GC
2 setlinecap
1 LJ
0.667 LW
N
133 67 M
929 67 L
S
GR
GS
[0.75 0 0 0.75 0 0.25] CT
0.149 GC
2 setlinecap
1 LJ
0.667 LW
N
133 791 M
133 783.04 L
S
GR
GS
[0.75 0 0 0.75 0 0.25] CT
0.149 GC
2 setlinecap
1 LJ
0.667 LW
N
212.6 791 M
212.6 783.04 L
S
GR
GS
[0.75 0 0 0.75 0 0.25] CT
0.149 GC
2 setlinecap
1 LJ
0.667 LW
N
292.2 791 M
292.2 783.04 L
S
GR
GS
[0.75 0 0 0.75 0 0.25] CT
0.149 GC
2 setlinecap
1 LJ
0.667 LW
N
371.8 791 M
371.8 783.04 L
S
GR
GS
[0.75 0 0 0.75 0 0.25] CT
0.149 GC
2 setlinecap
1 LJ
0.667 LW
N
451.4 791 M
451.4 783.04 L
S
GR
GS
[0.75 0 0 0.75 0 0.25] CT
0.149 GC
2 setlinecap
1 LJ
0.667 LW
N
531 791 M
531 783.04 L
S
GR
GS
[0.75 0 0 0.75 0 0.25] CT
0.149 GC
2 setlinecap
1 LJ
0.667 LW
N
610.6 791 M
610.6 783.04 L
S
GR
GS
[0.75 0 0 0.75 0 0.25] CT
0.149 GC
2 setlinecap
1 LJ
0.667 LW
N
690.2 791 M
690.2 783.04 L
S
GR
GS
[0.75 0 0 0.75 0 0.25] CT
0.149 GC
2 setlinecap
1 LJ
0.667 LW
N
769.8 791 M
769.8 783.04 L
S
GR
GS
[0.75 0 0 0.75 0 0.25] CT
0.149 GC
2 setlinecap
1 LJ
0.667 LW
N
849.4 791 M
849.4 783.04 L
S
GR
GS
[0.75 0 0 0.75 0 0.25] CT
0.149 GC
2 setlinecap
1 LJ
0.667 LW
N
929 791 M
929 783.04 L
S
GR
GS
[0.75 0 0 0.75 0 0.25] CT
0.149 GC
2 setlinecap
1 LJ
0.667 LW
N
133 67 M
133 74.96 L
S
GR
GS
[0.75 0 0 0.75 0 0.25] CT
0.149 GC
2 setlinecap
1 LJ
0.667 LW
N
212.6 67 M
212.6 74.96 L
S
GR
GS
[0.75 0 0 0.75 0 0.25] CT
0.149 GC
2 setlinecap
1 LJ
0.667 LW
N
292.2 67 M
292.2 74.96 L
S
GR
GS
[0.75 0 0 0.75 0 0.25] CT
0.149 GC
2 setlinecap
1 LJ
0.667 LW
N
371.8 67 M
371.8 74.96 L
S
GR
GS
[0.75 0 0 0.75 0 0.25] CT
0.149 GC
2 setlinecap
1 LJ
0.667 LW
N
451.4 67 M
451.4 74.96 L
S
GR
GS
[0.75 0 0 0.75 0 0.25] CT
0.149 GC
2 setlinecap
1 LJ
0.667 LW
N
531 67 M
531 74.96 L
S
GR
GS
[0.75 0 0 0.75 0 0.25] CT
0.149 GC
2 setlinecap
1 LJ
0.667 LW
N
610.6 67 M
610.6 74.96 L
S
GR
GS
[0.75 0 0 0.75 0 0.25] CT
0.149 GC
2 setlinecap
1 LJ
0.667 LW
N
690.2 67 M
690.2 74.96 L
S
GR
GS
[0.75 0 0 0.75 0 0.25] CT
0.149 GC
2 setlinecap
1 LJ
0.667 LW
N
769.8 67 M
769.8 74.96 L
S
GR
GS
[0.75 0 0 0.75 0 0.25] CT
0.149 GC
2 setlinecap
1 LJ
0.667 LW
N
849.4 67 M
849.4 74.96 L
S
GR
GS
[0.75 0 0 0.75 0 0.25] CT
0.149 GC
2 setlinecap
1 LJ
0.667 LW
N
929 67 M
929 74.96 L
S
GR
GS
[0.75 0 0 0.75 99.75 599.10001] CT
0.149 GC
/Helvetica 24 F
GS
[1 0 0 1 0 0] CT
-7 25 moveto 
1 -1 scale
(0) t 
GR
GR
GS
[0.75 0 0 0.75 159.45 599.10001] CT
0.149 GC
/Helvetica 24 F
GS
[1 0 0 1 0 0] CT
-13.5 25 moveto 
1 -1 scale
(10) t 
GR
GR
GS
[0.75 0 0 0.75 219.15001 599.10001] CT
0.149 GC
/Helvetica 24 F
GS
[1 0 0 1 0 0] CT
-13.5 25 moveto 
1 -1 scale
(20) t 
GR
GR
GS
[0.75 0 0 0.75 278.84999 599.10001] CT
0.149 GC
/Helvetica 24 F
GS
[1 0 0 1 0 0] CT
-13.5 25 moveto 
1 -1 scale
(30) t 
GR
GR
GS
[0.75 0 0 0.75 338.55 599.10001] CT
0.149 GC
/Helvetica 24 F
GS
[1 0 0 1 0 0] CT
-13.5 25 moveto 
1 -1 scale
(40) t 
GR
GR
GS
[0.75 0 0 0.75 398.25 599.10001] CT
0.149 GC
/Helvetica 24 F
GS
[1 0 0 1 0 0] CT
-13.5 25 moveto 
1 -1 scale
(50) t 
GR
GR
GS
[0.75 0 0 0.75 457.94998 599.10001] CT
0.149 GC
/Helvetica 24 F
GS
[1 0 0 1 0 0] CT
-13.5 25 moveto 
1 -1 scale
(60) t 
GR
GR
GS
[0.75 0 0 0.75 517.65001 599.10001] CT
0.149 GC
/Helvetica 24 F
GS
[1 0 0 1 0 0] CT
-13.5 25 moveto 
1 -1 scale
(70) t 
GR
GR
GS
[0.75 0 0 0.75 577.34999 599.10001] CT
0.149 GC
/Helvetica 24 F
GS
[1 0 0 1 0 0] CT
-13.5 25 moveto 
1 -1 scale
(80) t 
GR
GR
GS
[0.75 0 0 0.75 637.05002 599.10001] CT
0.149 GC
/Helvetica 24 F
GS
[1 0 0 1 0 0] CT
-13.5 25 moveto 
1 -1 scale
(90) t 
GR
GR
GS
[0.75 0 0 0.75 696.75 599.10001] CT
0.149 GC
/Helvetica 24 F
GS
[1 0 0 1 0 0] CT
-20.5 25 moveto 
1 -1 scale
(100) t 
GR
GR
GS
[0.75 0 0 0.75 398.25027 623.34999] CT
0.149 GC
/Helvetica 26.4 F
GS
[1 0 0 1 0 0] CT
-46.5 27 moveto 
1 -1 scale
(Time [s]) t 
GR
GR
GS
[0.75 0 0 0.75 0 0.25] CT
0.149 GC
2 setlinecap
1 LJ
0.667 LW
N
133 791 M
133 67 L
S
GR
GS
[0.75 0 0 0.75 0 0.25] CT
0.149 GC
2 setlinecap
1 LJ
0.667 LW
N
929 791 M
929 67 L
S
GR
GS
[0.75 0 0 0.75 0 0.25] CT
0.149 GC
2 setlinecap
1 LJ
0.667 LW
N
133 791 M
140.96 791 L
S
GR
GS
[0.75 0 0 0.75 0 0.25] CT
0.149 GC
2 setlinecap
1 LJ
0.667 LW
N
133 700.5 M
140.96 700.5 L
S
GR
GS
[0.75 0 0 0.75 0 0.25] CT
0.149 GC
2 setlinecap
1 LJ
0.667 LW
N
133 610 M
140.96 610 L
S
GR
GS
[0.75 0 0 0.75 0 0.25] CT
0.149 GC
2 setlinecap
1 LJ
0.667 LW
N
133 519.5 M
140.96 519.5 L
S
GR
GS
[0.75 0 0 0.75 0 0.25] CT
0.149 GC
2 setlinecap
1 LJ
0.667 LW
N
133 429 M
140.96 429 L
S
GR
GS
[0.75 0 0 0.75 0 0.25] CT
0.149 GC
2 setlinecap
1 LJ
0.667 LW
N
133 338.5 M
140.96 338.5 L
S
GR
GS
[0.75 0 0 0.75 0 0.25] CT
0.149 GC
2 setlinecap
1 LJ
0.667 LW
N
133 248 M
140.96 248 L
S
GR
GS
[0.75 0 0 0.75 0 0.25] CT
0.149 GC
2 setlinecap
1 LJ
0.667 LW
N
133 157.5 M
140.96 157.5 L
S
GR
GS
[0.75 0 0 0.75 0 0.25] CT
0.149 GC
2 setlinecap
1 LJ
0.667 LW
N
133 67 M
140.96 67 L
S
GR
GS
[0.75 0 0 0.75 0 0.25] CT
0.149 GC
2 setlinecap
1 LJ
0.667 LW
N
929 791 M
921.04 791 L
S
GR
GS
[0.75 0 0 0.75 0 0.25] CT
0.149 GC
2 setlinecap
1 LJ
0.667 LW
N
929 700.5 M
921.04 700.5 L
S
GR
GS
[0.75 0 0 0.75 0 0.25] CT
0.149 GC
2 setlinecap
1 LJ
0.667 LW
N
929 610 M
921.04 610 L
S
GR
GS
[0.75 0 0 0.75 0 0.25] CT
0.149 GC
2 setlinecap
1 LJ
0.667 LW
N
929 519.5 M
921.04 519.5 L
S
GR
GS
[0.75 0 0 0.75 0 0.25] CT
0.149 GC
2 setlinecap
1 LJ
0.667 LW
N
929 429 M
921.04 429 L
S
GR
GS
[0.75 0 0 0.75 0 0.25] CT
0.149 GC
2 setlinecap
1 LJ
0.667 LW
N
929 338.5 M
921.04 338.5 L
S
GR
GS
[0.75 0 0 0.75 0 0.25] CT
0.149 GC
2 setlinecap
1 LJ
0.667 LW
N
929 248 M
921.04 248 L
S
GR
GS
[0.75 0 0 0.75 0 0.25] CT
0.149 GC
2 setlinecap
1 LJ
0.667 LW
N
929 157.5 M
921.04 157.5 L
S
GR
GS
[0.75 0 0 0.75 0 0.25] CT
0.149 GC
2 setlinecap
1 LJ
0.667 LW
N
929 67 M
921.04 67 L
S
GR
GS
[0.75 0 0 0.75 94.15 593.5] CT
0.149 GC
/Helvetica 24 F
GS
[1 0 0 1 0 0] CT
-62 9.5 moveto 
1 -1 scale
(-4000) t 
GR
GR
GS
[0.75 0 0 0.75 94.15 525.625] CT
0.149 GC
/Helvetica 24 F
GS
[1 0 0 1 0 0] CT
-62 9.5 moveto 
1 -1 scale
(-3000) t 
GR
GR
GS
[0.75 0 0 0.75 94.15 457.75] CT
0.149 GC
/Helvetica 24 F
GS
[1 0 0 1 0 0] CT
-62 9.5 moveto 
1 -1 scale
(-2000) t 
GR
GR
GS
[0.75 0 0 0.75 94.15 389.875] CT
0.149 GC
/Helvetica 24 F
GS
[1 0 0 1 0 0] CT
-62 9.5 moveto 
1 -1 scale
(-1000) t 
GR
GR
GS
[0.75 0 0 0.75 94.15 322] CT
0.149 GC
/Helvetica 24 F
GS
[1 0 0 1 0 0] CT
-14 9.5 moveto 
1 -1 scale
(0) t 
GR
GR
GS
[0.75 0 0 0.75 94.15 254.125] CT
0.149 GC
/Helvetica 24 F
GS
[1 0 0 1 0 0] CT
-54 9.5 moveto 
1 -1 scale
(1000) t 
GR
GR
GS
[0.75 0 0 0.75 94.15 186.25] CT
0.149 GC
/Helvetica 24 F
GS
[1 0 0 1 0 0] CT
-54 9.5 moveto 
1 -1 scale
(2000) t 
GR
GR
GS
[0.75 0 0 0.75 94.15 118.375] CT
0.149 GC
/Helvetica 24 F
GS
[1 0 0 1 0 0] CT
-54 9.5 moveto 
1 -1 scale
(3000) t 
GR
GR
GS
[0.75 0 0 0.75 94.15 50.5] CT
0.149 GC
/Helvetica 24 F
GS
[1 0 0 1 0 0] CT
-54 9.5 moveto 
1 -1 scale
(4000) t 
GR
GR
GS
[0.75 0 0 0.75 0 0.25] CT
0 0.447 0.741 RC
1 LJ
2.667 LW
N
140.96 427.156 M
148.92 424.873 L
156.88 416.746 L
164.84 414.673 L
172.8 423.693 L
180.76 426.848 L
188.72 428.213 L
196.68 424.62 L
204.64 428.16 L
212.6 427.125 L
220.56 424.652 L
228.52 416.585 L
236.48 416.517 L
244.44 421.42 L
252.4 430.666 L
260.36 413.597 L
268.32 429.143 L
276.28 428.186 L
284.24 427.063 L
292.2 423.934 L
300.16 421.182 L
308.12 389.746 L
316.08 429.13 L
324.04 383.988 L
332 431.494 L
339.96 429.329 L
347.92 428.264 L
355.88 425.479 L
363.84 421.877 L
371.8 363.961 L
379.76 416.148 L
387.72 357.54 L
395.68 440.731 L
403.64 432.215 L
411.6 430.778 L
419.56 426.566 L
427.52 415.571 L
435.48 416.884 L
443.44 415.567 L
451.4 355.471 L
459.36 457.17 L
467.32 439.155 L
475.28 439.971 L
483.24 427.921 L
491.2 423.45 L
499.16 424.387 L
507.12 415.566 L
515.08 355.47 L
523.04 435.379 L
531 426.073 L
538.96 477.098 L
546.92 429.824 L
554.88 422.321 L
562.84 427.154 L
570.8 415.566 L
578.76 355.517 L
586.72 459.701 L
594.68 422.222 L
602.64 491.931 L
610.6 432.668 L
618.56 412.255 L
626.52 428.131 L
634.48 415.566 L
642.44 355.474 L
650.4 494.155 L
658.36 422.221 L
666.32 486.629 L
674.28 429.401 L
682.24 389.954 L
690.2 428.489 L
698.16 415.566 L
706.12 396.364 L
714.08 482.838 L
722.04 422.221 L
730 488.588 L
737.96 418.146 L
745.92 366.648 L
753.88 428.624 L
761.84 427.664 L
769.8 422.153 L
777.76 485.228 L
785.72 422.221 L
793.68 482.748 L
801.64 415.591 L
809.6 358.113 L
817.56 430.149 L
825.52 429.1 L
833.48 422.221 L
841.44 484.41 L
849.4 422.221 L
857.36 482.86 L
865.32 415.568 L
873.28 356.215 L
881.24 434.379 L
889.2 431.302 L
897.16 422.221 L
905.12 484.667 L
913.08 422.221 L
921.04 482.847 L
929 415.567 L
S
GR
GS
[0.75 0 0 0.75 0 0.25] CT
0.851 0.325 0.098 RC
1 LJ
2.667 LW
N
140.96 426.911 M
148.92 425.634 L
156.88 416.386 L
164.84 413.781 L
172.8 423.777 L
180.76 426.71 L
188.72 427.955 L
196.68 425.892 L
204.64 427.091 L
212.6 427.173 L
220.56 425.715 L
228.52 415.784 L
236.48 416.892 L
244.44 421.63 L
252.4 428.55 L
260.36 422.277 L
268.32 425.824 L
276.28 427.465 L
284.24 427.324 L
292.2 424.055 L
300.16 420.683 L
308.12 406.918 L
316.08 427.884 L
324.04 416.735 L
332 420.434 L
339.96 426.552 L
347.92 428.022 L
355.88 425.933 L
363.84 428.15 L
371.8 411.801 L
379.76 427.587 L
387.72 420.972 L
395.68 411.591 L
403.64 420.618 L
411.6 428.633 L
419.56 417.244 L
427.52 428.163 L
435.48 412.177 L
443.44 427.319 L
451.4 427.405 L
459.36 420.228 L
467.32 407.455 L
475.28 427.646 L
483.24 410.699 L
491.2 428.139 L
499.16 412.287 L
507.12 425.939 L
515.08 427.187 L
523.04 428.08 L
531 411.868 L
538.96 428.205 L
546.92 411.981 L
554.88 428.129 L
562.84 413.009 L
570.8 422.071 L
578.76 423.026 L
586.72 428.155 L
594.68 411.996 L
602.64 428.155 L
610.6 412.017 L
618.56 428.072 L
626.52 418.501 L
634.48 421.945 L
642.44 408.618 L
650.4 428.151 L
658.36 412.01 L
666.32 428.149 L
674.28 412.033 L
682.24 427.392 L
690.2 420.374 L
698.16 428.052 L
706.12 411.867 L
714.08 428.15 L
722.04 412.011 L
730 428.148 L
737.96 412.254 L
745.92 427.194 L
753.88 408.392 L
761.84 428.154 L
769.8 412.01 L
777.76 428.15 L
785.72 412.012 L
793.68 428.132 L
801.64 412.34 L
809.6 428.288 L
817.56 411.853 L
825.52 428.15 L
833.48 412.011 L
841.44 428.149 L
849.4 412.016 L
857.36 428.125 L
865.32 411.971 L
873.28 428.168 L
881.24 412.01 L
889.2 428.15 L
897.16 412.011 L
905.12 428.149 L
913.08 412.018 L
921.04 428.151 L
929 412.006 L
S
GR
GS
[0.75 0 0 0.75 0 0.25] CT
0.929 0.694 0.125 RC
1 LJ
2.667 LW
N
140.96 427.134 M
148.92 425.323 L
156.88 417.148 L
164.84 414.244 L
172.8 423.489 L
180.76 427.034 L
188.72 428.227 L
196.68 424.821 L
204.64 427.612 L
212.6 427.233 L
220.56 425.363 L
228.52 417.221 L
236.48 415.149 L
244.44 421.423 L
252.4 430.277 L
260.36 415.866 L
268.32 427.052 L
276.28 427.816 L
284.24 427.242 L
292.2 425.02 L
300.16 420.276 L
308.12 388.177 L
316.08 428.799 L
324.04 404.328 L
332 423.293 L
339.96 427.793 L
347.92 428.021 L
355.88 426.619 L
363.84 427.695 L
371.8 398.54 L
379.76 427.718 L
387.72 414.182 L
395.68 410.591 L
403.64 425.839 L
411.6 429.172 L
419.56 422.012 L
427.52 427.696 L
435.48 400.782 L
443.44 427.895 L
451.4 425.824 L
459.36 408.148 L
467.32 412.411 L
475.28 430.834 L
483.24 408.221 L
491.2 427.696 L
499.16 398.959 L
507.12 429.256 L
515.08 427.633 L
523.04 423.157 L
531 365.974 L
538.96 427.859 L
546.92 398.658 L
554.88 427.696 L
562.84 389.14 L
570.8 433.444 L
578.76 429.029 L
586.72 427.7 L
594.68 410.359 L
602.64 427.697 L
610.6 400.868 L
618.56 427.699 L
626.52 335.471 L
634.48 463.188 L
642.44 432.338 L
650.4 427.751 L
658.36 398.663 L
666.32 427.696 L
674.28 400.149 L
682.24 427.7 L
690.2 82.308 L
698.16 705.576 L
706.12 450.505 L
714.08 427.697 L
722.04 400.866 L
730 427.696 L
737.96 400.366 L
745.92 427.7 L
753.88 600.917 L
761.84 610.708 L
769.8 651.968 L
777.76 427.696 L
785.72 400.165 L
793.68 427.696 L
801.64 400.298 L
809.6 600.917 L
817.56 600.917 L
825.52 600.917 L
833.48 613.487 L
841.44 427.696 L
849.4 400.382 L
857.36 427.696 L
865.32 600.917 L
873.28 600.918 L
881.24 600.918 L
889.2 600.917 L
897.16 619.641 L
905.12 427.696 L
913.08 400.314 L
921.04 600.917 L
929 600.918 L
S
GR
GS
[0.75 0 0 0.75 0 0.25] CT
0.494 0.184 0.557 RC
1 LJ
2.667 LW
N
140.96 427.251 M
148.92 425.568 L
156.88 417.082 L
164.84 414.588 L
172.8 423.517 L
180.76 426.834 L
188.72 428.324 L
196.68 424.429 L
204.64 428.049 L
212.6 427.474 L
220.56 425.391 L
228.52 417.227 L
236.48 416.197 L
244.44 420.467 L
252.4 430.963 L
260.36 412.877 L
268.32 428.206 L
276.28 428.74 L
284.24 427.39 L
292.2 424.56 L
300.16 421.619 L
308.12 369.05 L
316.08 428.182 L
324.04 389.306 L
332 425.311 L
339.96 431.259 L
347.92 428.84 L
355.88 425.662 L
363.84 437.754 L
371.8 377.003 L
379.76 427.042 L
387.72 415.143 L
395.68 389.946 L
403.64 443.451 L
411.6 432.578 L
419.56 363.73 L
427.52 427.033 L
435.48 396.477 L
443.44 427.854 L
451.4 437.753 L
459.36 190.321 L
467.32 539.003 L
475.28 437.751 L
483.24 391.903 L
491.2 427.044 L
499.16 391.718 L
507.12 383.974 L
515.08 437.754 L
523.04 186.63 L
531 543.31 L
538.96 427.048 L
546.92 401.384 L
554.88 427.04 L
562.84 437.752 L
570.8 209.384 L
578.76 437.754 L
586.72 187.508 L
594.68 697.571 L
602.64 427.072 L
610.6 394.25 L
618.56 376.584 L
626.52 437.754 L
634.48 189.26 L
642.44 437.754 L
650.4 462.988 L
658.36 703.119 L
666.32 427.039 L
674.28 437.754 L
682.24 206.973 L
690.2 437.754 L
698.16 188.546 L
706.12 452.197 L
714.08 452.266 L
722.04 703.213 L
730 376.584 L
737.96 437.754 L
745.92 189.167 L
753.88 437.754 L
761.84 185.564 L
769.8 452.302 L
777.76 452.266 L
785.72 704.467 L
793.68 206.973 L
801.64 437.754 L
809.6 188.543 L
817.56 437.754 L
825.52 185.563 L
833.48 452.305 L
841.44 452.266 L
849.4 427.032 L
857.36 189.167 L
865.32 437.754 L
873.28 188.523 L
881.24 437.754 L
889.2 185.563 L
897.16 452.305 L
905.12 616.449 L
913.08 437.754 L
921.04 188.543 L
929 437.754 L
S
GR
GS
[0.75 0 0 0.75 0 0.25] CT
0.467 0.675 0.188 RC
1 LJ
2.667 LW
N
140.96 426.734 M
148.92 425.883 L
156.88 416.241 L
164.84 414.181 L
172.8 423.835 L
180.76 426.757 L
188.72 428.085 L
196.68 426.159 L
204.64 426.711 L
212.6 427.109 L
220.56 425.845 L
228.52 415.715 L
236.48 417.011 L
244.44 421.375 L
252.4 428.953 L
260.36 424.16 L
268.32 424.777 L
276.28 427.41 L
284.24 427.193 L
292.2 423.468 L
300.16 421.267 L
308.12 405.91 L
316.08 429.759 L
324.04 423.176 L
332 417.047 L
339.96 426.646 L
347.92 428.192 L
355.88 425.122 L
363.84 428.981 L
371.8 412.834 L
379.76 429.592 L
387.72 426.13 L
395.68 411.441 L
403.64 420.41 L
411.6 429.192 L
419.56 410.322 L
427.52 428.679 L
435.48 411.96 L
443.44 431.005 L
451.4 428.391 L
459.36 420.293 L
467.32 406.128 L
475.28 429.128 L
483.24 412.684 L
491.2 428.787 L
499.16 412.104 L
507.12 433.913 L
515.08 427.977 L
523.04 428.846 L
531 412.879 L
538.96 428.735 L
546.92 412.152 L
554.88 428.78 L
562.84 412.087 L
570.8 435.204 L
578.76 423.131 L
586.72 428.644 L
594.68 412.1 L
602.64 428.762 L
610.6 412.308 L
618.56 428.782 L
626.52 412.153 L
634.48 429.667 L
642.44 407.479 L
650.4 428.755 L
658.36 412.325 L
666.32 428.737 L
674.28 412.265 L
682.24 428.77 L
690.2 412.161 L
698.16 429.475 L
706.12 412.888 L
714.08 428.733 L
722.04 412.269 L
730 428.741 L
737.96 412.279 L
745.92 428.766 L
753.88 412.185 L
761.84 428.762 L
769.8 412.098 L
777.76 428.739 L
785.72 412.284 L
793.68 428.739 L
801.64 412.276 L
809.6 428.761 L
817.56 412.303 L
825.52 428.777 L
833.48 412.331 L
841.44 428.738 L
849.4 412.281 L
857.36 428.739 L
865.32 412.278 L
873.28 428.738 L
881.24 412.267 L
889.2 428.736 L
897.16 412.268 L
905.12 428.738 L
913.08 412.282 L
921.04 428.739 L
929 412.282 L
S
GR
GS
[0.75 0 0 0.75 0 0.25] CT
0.302 0.745 0.933 RC
1 LJ
2.667 LW
N
140.96 422.484 M
148.92 412.891 L
156.88 417.959 L
164.84 425.742 L
172.8 427.733 L
180.76 428.004 L
188.72 427.733 L
196.68 426.104 L
204.64 419.045 L
212.6 411.986 L
220.56 421.76 L
228.52 426.918 L
236.48 427.914 L
244.44 428.095 L
252.4 427.642 L
260.36 424.927 L
268.32 415.335 L
276.28 413.706 L
284.24 424.203 L
292.2 427.371 L
300.16 427.914 L
308.12 428.185 L
316.08 427.461 L
324.04 423.57 L
332 412.529 L
339.96 416.059 L
347.92 425.561 L
355.88 427.823 L
363.84 428.185 L
371.8 428.185 L
379.76 427.28 L
387.72 422.574 L
395.68 410.81 L
403.64 417.597 L
411.6 426.285 L
419.56 427.914 L
427.52 428.185 L
435.48 428.276 L
443.44 427.371 L
451.4 422.665 L
459.36 409.905 L
467.32 417.145 L
475.28 426.285 L
483.24 428.004 L
491.2 428.276 L
499.16 428.276 L
507.12 427.823 L
515.08 424.746 L
523.04 411.624 L
531 412.801 L
538.96 425.38 L
546.92 427.823 L
554.88 428.185 L
562.84 428.366 L
570.8 428.366 L
578.76 427.733 L
586.72 422.574 L
594.68 405.922 L
602.64 417.145 L
610.6 426.828 L
618.56 428.185 L
626.52 428.366 L
634.48 428.366 L
642.44 428.547 L
650.4 428.638 L
658.36 428.728 L
666.32 428.276 L
674.28 427.19 L
682.24 427.823 L
690.2 428.095 L
698.16 427.823 L
706.12 427.19 L
714.08 426.194 L
722.04 425.199 L
730 423.841 L
737.96 422.846 L
745.92 422.665 L
753.88 423.66 L
761.84 424.656 L
769.8 424.837 L
777.76 424.384 L
785.72 423.479 L
793.68 422.665 L
801.64 422.936 L
809.6 423.841 L
817.56 424.656 L
825.52 424.746 L
833.48 424.203 L
841.44 423.117 L
849.4 422.484 L
857.36 422.936 L
865.32 423.841 L
873.28 424.746 L
881.24 424.746 L
889.2 424.113 L
897.16 422.936 L
905.12 422.393 L
913.08 423.027 L
921.04 424.113 L
929 424.656 L
S
GR
GS
[0.75 0 0 0.75 0 0.25] CT
1 GC
N
156 315 M
156 94 L
419 94 L
419 315 L
cp
f
GR
GS
[0.75 0 0 0.75 153.4538 85.94771] CT
/Helvetica 21.6 F
GS
[1 0 0 1 0 0] CT
0 9 moveto 
1 -1 scale
(Approximation1) t 
GR
GR
GS
[0.75 0 0 0.75 0 0.25] CT
0 0.447 0.741 RC
1 LJ
2.667 LW
N
171.647 114.264 M
201.609 114.264 L
S
GR
GS
[0.75 0 0 0.75 153.4538 113.01862] CT
/Helvetica 21.6 F
GS
[1 0 0 1 0 0] CT
0 9 moveto 
1 -1 scale
(Approximation2) t 
GR
GR
GS
[0.75 0 0 0.75 0 0.25] CT
0.851 0.325 0.098 RC
1 LJ
2.667 LW
N
171.647 150.358 M
201.609 150.358 L
S
GR
GS
[0.75 0 0 0.75 153.4538 140.08955] CT
/Helvetica 21.6 F
GS
[1 0 0 1 0 0] CT
0 9 moveto 
1 -1 scale
(Approximation3) t 
GR
GR
GS
[0.75 0 0 0.75 0 0.25] CT
0.929 0.694 0.125 RC
1 LJ
2.667 LW
N
171.647 186.453 M
201.609 186.453 L
S
GR
GS
[0.75 0 0 0.75 153.4538 167.16045] CT
/Helvetica 21.6 F
GS
[1 0 0 1 0 0] CT
0 9 moveto 
1 -1 scale
(Approximation4) t 
GR
GR
GS
[0.75 0 0 0.75 0 0.25] CT
0.494 0.184 0.557 RC
1 LJ
2.667 LW
N
171.647 222.547 M
201.609 222.547 L
S
GR
GS
[0.75 0 0 0.75 153.4538 194.23138] CT
/Helvetica 21.6 F
GS
[1 0 0 1 0 0] CT
0 9 moveto 
1 -1 scale
(Approximation5) t 
GR
GR
GS
[0.75 0 0 0.75 0 0.25] CT
0.467 0.675 0.188 RC
1 LJ
2.667 LW
N
171.647 258.642 M
201.609 258.642 L
S
GR
GS
[0.75 0 0 0.75 153.4538 221.30229] CT
/Helvetica 21.6 F
GS
[1 0 0 1 0 0] CT
0 9 moveto 
1 -1 scale
(Laser Prediction Set) t 
GR
GR
GS
[0.75 0 0 0.75 0 0.25] CT
0.302 0.745 0.933 RC
1 LJ
2.667 LW
N
171.647 294.736 M
201.609 294.736 L
S
GR
GS
[0.75 0 0 0.75 0 0.25] CT
0.149 GC
10.0 ML
0.667 LW
N
156 315 M
156 94 L
419 94 L
419 315 L
cp
S
GR
%%Trailer
%%Pages: 1
%%EOF
