%!PS-Adobe-3.0 EPSF-3.0
%%Creator: (MATLAB, The Mathworks, Inc. Version 9.1.0.441655 \(R2016b\). Operating System: Windows 8)
%%Title: (C:/Users/Eigenaar/WIT/Data Mining/data-mining/Session 2/plots/delay10.eps)
%%CreationDate: 2017-11-22T20:57:31
%%Pages: (atend)
%%BoundingBox: 0 0 801 608
%%LanguageLevel: 3
%%EndComments
%%BeginProlog
%%BeginResource: procset (Apache XML Graphics Std ProcSet) 1.2 0
%%Version: 1.2 0
%%Copyright: (Copyright 2001-2003,2010 The Apache Software Foundation. License terms: http://www.apache.org/licenses/LICENSE-2.0)
/bd{bind def}bind def
/ld{load def}bd
/GR/grestore ld
/M/moveto ld
/LJ/setlinejoin ld
/C/curveto ld
/f/fill ld
/LW/setlinewidth ld
/GC/setgray ld
/t/show ld
/N/newpath ld
/CT/concat ld
/cp/closepath ld
/S/stroke ld
/L/lineto ld
/CC/setcmykcolor ld
/A/ashow ld
/GS/gsave ld
/RC/setrgbcolor ld
/RM/rmoveto ld
/ML/setmiterlimit ld
/re {4 2 roll M
1 index 0 rlineto
0 exch rlineto
neg 0 rlineto
cp } bd
/_ctm matrix def
/_tm matrix def
/BT { _ctm currentmatrix pop matrix _tm copy pop 0 0 moveto } bd
/ET { _ctm setmatrix } bd
/iTm { _ctm setmatrix _tm concat } bd
/Tm { _tm astore pop iTm 0 0 moveto } bd
/ux 0.0 def
/uy 0.0 def
/F {
  /Tp exch def
  /Tf exch def
  Tf findfont Tp scalefont setfont
  /cf Tf def  /cs Tp def
} bd
/ULS {currentpoint /uy exch def /ux exch def} bd
/ULE {
  /Tcx currentpoint pop def
  gsave
  newpath
  cf findfont cs scalefont dup
  /FontMatrix get 0 get /Ts exch def /FontInfo get dup
  /UnderlinePosition get Ts mul /To exch def
  /UnderlineThickness get Ts mul /Tt exch def
  ux uy To add moveto  Tcx uy To add lineto
  Tt setlinewidth stroke
  grestore
} bd
/OLE {
  /Tcx currentpoint pop def
  gsave
  newpath
  cf findfont cs scalefont dup
  /FontMatrix get 0 get /Ts exch def /FontInfo get dup
  /UnderlinePosition get Ts mul /To exch def
  /UnderlineThickness get Ts mul /Tt exch def
  ux uy To add cs add moveto Tcx uy To add cs add lineto
  Tt setlinewidth stroke
  grestore
} bd
/SOE {
  /Tcx currentpoint pop def
  gsave
  newpath
  cf findfont cs scalefont dup
  /FontMatrix get 0 get /Ts exch def /FontInfo get dup
  /UnderlinePosition get Ts mul /To exch def
  /UnderlineThickness get Ts mul /Tt exch def
  ux uy To add cs 10 mul 26 idiv add moveto Tcx uy To add cs 10 mul 26 idiv add lineto
  Tt setlinewidth stroke
  grestore
} bd
/QT {
/Y22 exch store
/X22 exch store
/Y21 exch store
/X21 exch store
currentpoint
/Y21 load 2 mul add 3 div exch
/X21 load 2 mul add 3 div exch
/X21 load 2 mul /X22 load add 3 div
/Y21 load 2 mul /Y22 load add 3 div
/X22 load /Y22 load curveto
} bd
/SSPD {
dup length /d exch dict def
{
/v exch def
/k exch def
currentpagedevice k known {
/cpdv currentpagedevice k get def
v cpdv ne {
/upd false def
/nullv v type /nulltype eq def
/nullcpdv cpdv type /nulltype eq def
nullv nullcpdv or
{
/upd true def
} {
/sametype v type cpdv type eq def
sametype {
v type /arraytype eq {
/vlen v length def
/cpdvlen cpdv length def
vlen cpdvlen eq {
0 1 vlen 1 sub {
/i exch def
/obj v i get def
/cpdobj cpdv i get def
obj cpdobj ne {
/upd true def
exit
} if
} for
} {
/upd true def
} ifelse
} {
v type /dicttype eq {
v {
/dv exch def
/dk exch def
/cpddv cpdv dk get def
dv cpddv ne {
/upd true def
exit
} if
} forall
} {
/upd true def
} ifelse
} ifelse
} if
} ifelse
upd true eq {
d k v put
} if
} if
} if
} forall
d length 0 gt {
d setpagedevice
} if
} bd
/RE { % /NewFontName [NewEncodingArray] /FontName RE -
  findfont dup length dict begin
  {
    1 index /FID ne
    {def} {pop pop} ifelse
  } forall
  /Encoding exch def
  /FontName 1 index def
  currentdict definefont pop
  end
} bind def
%%EndResource
%%BeginResource: procset (Apache XML Graphics EPS ProcSet) 1.0 0
%%Version: 1.0 0
%%Copyright: (Copyright 2002-2003 The Apache Software Foundation. License terms: http://www.apache.org/licenses/LICENSE-2.0)
/BeginEPSF { %def
/b4_Inc_state save def         % Save state for cleanup
/dict_count countdictstack def % Count objects on dict stack
/op_count count 1 sub def      % Count objects on operand stack
userdict begin                 % Push userdict on dict stack
/showpage { } def              % Redefine showpage, { } = null proc
0 setgray 0 setlinecap         % Prepare graphics state
1 setlinewidth 0 setlinejoin
10 setmiterlimit [ ] 0 setdash newpath
/languagelevel where           % If level not equal to 1 then
{pop languagelevel             % set strokeadjust and
1 ne                           % overprint to their defaults.
{false setstrokeadjust false setoverprint
} if
} if
} bd
/EndEPSF { %def
count op_count sub {pop} repeat            % Clean up stacks
countdictstack dict_count sub {end} repeat
b4_Inc_state restore
} bd
%%EndResource
%FOPBeginFontDict
%%IncludeResource: font Courier-Bold
%%IncludeResource: font Helvetica
%%IncludeResource: font Courier-BoldOblique
%%IncludeResource: font Courier-Oblique
%%IncludeResource: font Times-Roman
%%IncludeResource: font Helvetica-BoldOblique
%%IncludeResource: font Helvetica-Bold
%%IncludeResource: font Helvetica-Oblique
%%IncludeResource: font Times-BoldItalic
%%IncludeResource: font Courier
%%IncludeResource: font Times-Italic
%%IncludeResource: font Times-Bold
%%IncludeResource: font Symbol
%%IncludeResource: font ZapfDingbats
%FOPEndFontDict
%%BeginResource: encoding WinAnsiEncoding
/WinAnsiEncoding [
/.notdef /.notdef /.notdef /.notdef /.notdef
/.notdef /.notdef /.notdef /.notdef /.notdef
/.notdef /.notdef /.notdef /.notdef /.notdef
/.notdef /.notdef /.notdef /.notdef /.notdef
/.notdef /.notdef /.notdef /.notdef /.notdef
/.notdef /.notdef /.notdef /.notdef /.notdef
/.notdef /.notdef /space /exclam /quotedbl
/numbersign /dollar /percent /ampersand /quotesingle
/parenleft /parenright /asterisk /plus /comma
/hyphen /period /slash /zero /one
/two /three /four /five /six
/seven /eight /nine /colon /semicolon
/less /equal /greater /question /at
/A /B /C /D /E
/F /G /H /I /J
/K /L /M /N /O
/P /Q /R /S /T
/U /V /W /X /Y
/Z /bracketleft /backslash /bracketright /asciicircum
/underscore /quoteleft /a /b /c
/d /e /f /g /h
/i /j /k /l /m
/n /o /p /q /r
/s /t /u /v /w
/x /y /z /braceleft /bar
/braceright /asciitilde /bullet /Euro /bullet
/quotesinglbase /florin /quotedblbase /ellipsis /dagger
/daggerdbl /circumflex /perthousand /Scaron /guilsinglleft
/OE /bullet /Zcaron /bullet /bullet
/quoteleft /quoteright /quotedblleft /quotedblright /bullet
/endash /emdash /asciitilde /trademark /scaron
/guilsinglright /oe /bullet /zcaron /Ydieresis
/space /exclamdown /cent /sterling /currency
/yen /brokenbar /section /dieresis /copyright
/ordfeminine /guillemotleft /logicalnot /sfthyphen /registered
/macron /degree /plusminus /twosuperior /threesuperior
/acute /mu /paragraph /middot /cedilla
/onesuperior /ordmasculine /guillemotright /onequarter /onehalf
/threequarters /questiondown /Agrave /Aacute /Acircumflex
/Atilde /Adieresis /Aring /AE /Ccedilla
/Egrave /Eacute /Ecircumflex /Edieresis /Igrave
/Iacute /Icircumflex /Idieresis /Eth /Ntilde
/Ograve /Oacute /Ocircumflex /Otilde /Odieresis
/multiply /Oslash /Ugrave /Uacute /Ucircumflex
/Udieresis /Yacute /Thorn /germandbls /agrave
/aacute /acircumflex /atilde /adieresis /aring
/ae /ccedilla /egrave /eacute /ecircumflex
/edieresis /igrave /iacute /icircumflex /idieresis
/eth /ntilde /ograve /oacute /ocircumflex
/otilde /odieresis /divide /oslash /ugrave
/uacute /ucircumflex /udieresis /yacute /thorn
/ydieresis
] def
%%EndResource
%FOPBeginFontReencode
/Courier-Bold findfont
dup length dict begin
  {1 index /FID ne {def} {pop pop} ifelse} forall
  /Encoding WinAnsiEncoding def
  currentdict
end
/Courier-Bold exch definefont pop
/Helvetica findfont
dup length dict begin
  {1 index /FID ne {def} {pop pop} ifelse} forall
  /Encoding WinAnsiEncoding def
  currentdict
end
/Helvetica exch definefont pop
/Courier-BoldOblique findfont
dup length dict begin
  {1 index /FID ne {def} {pop pop} ifelse} forall
  /Encoding WinAnsiEncoding def
  currentdict
end
/Courier-BoldOblique exch definefont pop
/Courier-Oblique findfont
dup length dict begin
  {1 index /FID ne {def} {pop pop} ifelse} forall
  /Encoding WinAnsiEncoding def
  currentdict
end
/Courier-Oblique exch definefont pop
/Times-Roman findfont
dup length dict begin
  {1 index /FID ne {def} {pop pop} ifelse} forall
  /Encoding WinAnsiEncoding def
  currentdict
end
/Times-Roman exch definefont pop
/Helvetica-BoldOblique findfont
dup length dict begin
  {1 index /FID ne {def} {pop pop} ifelse} forall
  /Encoding WinAnsiEncoding def
  currentdict
end
/Helvetica-BoldOblique exch definefont pop
/Helvetica-Bold findfont
dup length dict begin
  {1 index /FID ne {def} {pop pop} ifelse} forall
  /Encoding WinAnsiEncoding def
  currentdict
end
/Helvetica-Bold exch definefont pop
/Helvetica-Oblique findfont
dup length dict begin
  {1 index /FID ne {def} {pop pop} ifelse} forall
  /Encoding WinAnsiEncoding def
  currentdict
end
/Helvetica-Oblique exch definefont pop
/Times-BoldItalic findfont
dup length dict begin
  {1 index /FID ne {def} {pop pop} ifelse} forall
  /Encoding WinAnsiEncoding def
  currentdict
end
/Times-BoldItalic exch definefont pop
/Courier findfont
dup length dict begin
  {1 index /FID ne {def} {pop pop} ifelse} forall
  /Encoding WinAnsiEncoding def
  currentdict
end
/Courier exch definefont pop
/Times-Italic findfont
dup length dict begin
  {1 index /FID ne {def} {pop pop} ifelse} forall
  /Encoding WinAnsiEncoding def
  currentdict
end
/Times-Italic exch definefont pop
/Times-Bold findfont
dup length dict begin
  {1 index /FID ne {def} {pop pop} ifelse} forall
  /Encoding WinAnsiEncoding def
  currentdict
end
/Times-Bold exch definefont pop
%FOPEndFontReencode
%%EndProlog
%%Page: 1 1
%%PageBoundingBox: 0 0 801 608
%%BeginPageSetup
[1 0 0 -1 0 608] CT
%%EndPageSetup
GS
[0.75 0 0 0.75 0 0.5] CT
1 GC
N
0 0 1068 810 re
f
GR
GS
[0.75 0 0 0.75 0 0.5] CT
1 GC
N
0 0 1068 810 re
f
GR
GS
[0.75 0 0 0.75 0 0.5] CT
1 GC
N
139 721 M
967 721 L
967 61 L
139 61 L
cp
f
GR
GS
[0.75 0 0 0.75 0 0.5] CT
0.149 GC
2 setlinecap
1 LJ
0.667 LW
N
139 721 M
967 721 L
S
GR
GS
[0.75 0 0 0.75 0 0.5] CT
0.149 GC
2 setlinecap
1 LJ
0.667 LW
N
139 61 M
967 61 L
S
GR
GS
[0.75 0 0 0.75 0 0.5] CT
0.149 GC
2 setlinecap
1 LJ
0.667 LW
N
139 721 M
139 712.72 L
S
GR
GS
[0.75 0 0 0.75 0 0.5] CT
0.149 GC
2 setlinecap
1 LJ
0.667 LW
N
221.8 721 M
221.8 712.72 L
S
GR
GS
[0.75 0 0 0.75 0 0.5] CT
0.149 GC
2 setlinecap
1 LJ
0.667 LW
N
304.6 721 M
304.6 712.72 L
S
GR
GS
[0.75 0 0 0.75 0 0.5] CT
0.149 GC
2 setlinecap
1 LJ
0.667 LW
N
387.4 721 M
387.4 712.72 L
S
GR
GS
[0.75 0 0 0.75 0 0.5] CT
0.149 GC
2 setlinecap
1 LJ
0.667 LW
N
470.2 721 M
470.2 712.72 L
S
GR
GS
[0.75 0 0 0.75 0 0.5] CT
0.149 GC
2 setlinecap
1 LJ
0.667 LW
N
553 721 M
553 712.72 L
S
GR
GS
[0.75 0 0 0.75 0 0.5] CT
0.149 GC
2 setlinecap
1 LJ
0.667 LW
N
635.8 721 M
635.8 712.72 L
S
GR
GS
[0.75 0 0 0.75 0 0.5] CT
0.149 GC
2 setlinecap
1 LJ
0.667 LW
N
718.6 721 M
718.6 712.72 L
S
GR
GS
[0.75 0 0 0.75 0 0.5] CT
0.149 GC
2 setlinecap
1 LJ
0.667 LW
N
801.4 721 M
801.4 712.72 L
S
GR
GS
[0.75 0 0 0.75 0 0.5] CT
0.149 GC
2 setlinecap
1 LJ
0.667 LW
N
884.2 721 M
884.2 712.72 L
S
GR
GS
[0.75 0 0 0.75 0 0.5] CT
0.149 GC
2 setlinecap
1 LJ
0.667 LW
N
967 721 M
967 712.72 L
S
GR
GS
[0.75 0 0 0.75 0 0.5] CT
0.149 GC
2 setlinecap
1 LJ
0.667 LW
N
139 61 M
139 69.28 L
S
GR
GS
[0.75 0 0 0.75 0 0.5] CT
0.149 GC
2 setlinecap
1 LJ
0.667 LW
N
221.8 61 M
221.8 69.28 L
S
GR
GS
[0.75 0 0 0.75 0 0.5] CT
0.149 GC
2 setlinecap
1 LJ
0.667 LW
N
304.6 61 M
304.6 69.28 L
S
GR
GS
[0.75 0 0 0.75 0 0.5] CT
0.149 GC
2 setlinecap
1 LJ
0.667 LW
N
387.4 61 M
387.4 69.28 L
S
GR
GS
[0.75 0 0 0.75 0 0.5] CT
0.149 GC
2 setlinecap
1 LJ
0.667 LW
N
470.2 61 M
470.2 69.28 L
S
GR
GS
[0.75 0 0 0.75 0 0.5] CT
0.149 GC
2 setlinecap
1 LJ
0.667 LW
N
553 61 M
553 69.28 L
S
GR
GS
[0.75 0 0 0.75 0 0.5] CT
0.149 GC
2 setlinecap
1 LJ
0.667 LW
N
635.8 61 M
635.8 69.28 L
S
GR
GS
[0.75 0 0 0.75 0 0.5] CT
0.149 GC
2 setlinecap
1 LJ
0.667 LW
N
718.6 61 M
718.6 69.28 L
S
GR
GS
[0.75 0 0 0.75 0 0.5] CT
0.149 GC
2 setlinecap
1 LJ
0.667 LW
N
801.4 61 M
801.4 69.28 L
S
GR
GS
[0.75 0 0 0.75 0 0.5] CT
0.149 GC
2 setlinecap
1 LJ
0.667 LW
N
884.2 61 M
884.2 69.28 L
S
GR
GS
[0.75 0 0 0.75 0 0.5] CT
0.149 GC
2 setlinecap
1 LJ
0.667 LW
N
967 61 M
967 69.28 L
S
GR
GS
[0.75 0 0 0.75 104.25 546.85001] CT
0.149 GC
/Helvetica 24 F
GS
[1 0 0 1 0 0] CT
-7 25 moveto 
1 -1 scale
(0) t 
GR
GR
GS
[0.75 0 0 0.75 166.35 546.85001] CT
0.149 GC
/Helvetica 24 F
GS
[1 0 0 1 0 0] CT
-13.5 25 moveto 
1 -1 scale
(10) t 
GR
GR
GS
[0.75 0 0 0.75 228.45 546.85001] CT
0.149 GC
/Helvetica 24 F
GS
[1 0 0 1 0 0] CT
-13.5 25 moveto 
1 -1 scale
(20) t 
GR
GR
GS
[0.75 0 0 0.75 290.55 546.85001] CT
0.149 GC
/Helvetica 24 F
GS
[1 0 0 1 0 0] CT
-13.5 25 moveto 
1 -1 scale
(30) t 
GR
GR
GS
[0.75 0 0 0.75 352.65001 546.85001] CT
0.149 GC
/Helvetica 24 F
GS
[1 0 0 1 0 0] CT
-13.5 25 moveto 
1 -1 scale
(40) t 
GR
GR
GS
[0.75 0 0 0.75 414.75 546.85001] CT
0.149 GC
/Helvetica 24 F
GS
[1 0 0 1 0 0] CT
-13.5 25 moveto 
1 -1 scale
(50) t 
GR
GR
GS
[0.75 0 0 0.75 476.84999 546.85001] CT
0.149 GC
/Helvetica 24 F
GS
[1 0 0 1 0 0] CT
-13.5 25 moveto 
1 -1 scale
(60) t 
GR
GR
GS
[0.75 0 0 0.75 538.94998 546.85001] CT
0.149 GC
/Helvetica 24 F
GS
[1 0 0 1 0 0] CT
-13.5 25 moveto 
1 -1 scale
(70) t 
GR
GR
GS
[0.75 0 0 0.75 601.05002 546.85001] CT
0.149 GC
/Helvetica 24 F
GS
[1 0 0 1 0 0] CT
-13.5 25 moveto 
1 -1 scale
(80) t 
GR
GR
GS
[0.75 0 0 0.75 663.15001 546.85001] CT
0.149 GC
/Helvetica 24 F
GS
[1 0 0 1 0 0] CT
-13.5 25 moveto 
1 -1 scale
(90) t 
GR
GR
GS
[0.75 0 0 0.75 725.25 546.85001] CT
0.149 GC
/Helvetica 24 F
GS
[1 0 0 1 0 0] CT
-20.5 25 moveto 
1 -1 scale
(100) t 
GR
GR
GS
[0.75 0 0 0.75 414.75032 571.09999] CT
0.149 GC
/Helvetica 26.4 F
GS
[1 0 0 1 0 0] CT
-46.5 27 moveto 
1 -1 scale
(Time [s]) t 
GR
GR
GS
[0.75 0 0 0.75 0 0.5] CT
0.149 GC
2 setlinecap
1 LJ
0.667 LW
N
139 721 M
139 61 L
S
GR
GS
[0.75 0 0 0.75 0 0.5] CT
0.149 GC
2 setlinecap
1 LJ
0.667 LW
N
967 721 M
967 61 L
S
GR
GS
[0.75 0 0 0.75 0 0.5] CT
0.149 GC
2 setlinecap
1 LJ
0.667 LW
N
139 721 M
147.28 721 L
S
GR
GS
[0.75 0 0 0.75 0 0.5] CT
0.149 GC
2 setlinecap
1 LJ
0.667 LW
N
139 611 M
147.28 611 L
S
GR
GS
[0.75 0 0 0.75 0 0.5] CT
0.149 GC
2 setlinecap
1 LJ
0.667 LW
N
139 501 M
147.28 501 L
S
GR
GS
[0.75 0 0 0.75 0 0.5] CT
0.149 GC
2 setlinecap
1 LJ
0.667 LW
N
139 391 M
147.28 391 L
S
GR
GS
[0.75 0 0 0.75 0 0.5] CT
0.149 GC
2 setlinecap
1 LJ
0.667 LW
N
139 281 M
147.28 281 L
S
GR
GS
[0.75 0 0 0.75 0 0.5] CT
0.149 GC
2 setlinecap
1 LJ
0.667 LW
N
139 171 M
147.28 171 L
S
GR
GS
[0.75 0 0 0.75 0 0.5] CT
0.149 GC
2 setlinecap
1 LJ
0.667 LW
N
139 61 M
147.28 61 L
S
GR
GS
[0.75 0 0 0.75 0 0.5] CT
0.149 GC
2 setlinecap
1 LJ
0.667 LW
N
967 721 M
958.72 721 L
S
GR
GS
[0.75 0 0 0.75 0 0.5] CT
0.149 GC
2 setlinecap
1 LJ
0.667 LW
N
967 611 M
958.72 611 L
S
GR
GS
[0.75 0 0 0.75 0 0.5] CT
0.149 GC
2 setlinecap
1 LJ
0.667 LW
N
967 501 M
958.72 501 L
S
GR
GS
[0.75 0 0 0.75 0 0.5] CT
0.149 GC
2 setlinecap
1 LJ
0.667 LW
N
967 391 M
958.72 391 L
S
GR
GS
[0.75 0 0 0.75 0 0.5] CT
0.149 GC
2 setlinecap
1 LJ
0.667 LW
N
967 281 M
958.72 281 L
S
GR
GS
[0.75 0 0 0.75 0 0.5] CT
0.149 GC
2 setlinecap
1 LJ
0.667 LW
N
967 171 M
958.72 171 L
S
GR
GS
[0.75 0 0 0.75 0 0.5] CT
0.149 GC
2 setlinecap
1 LJ
0.667 LW
N
967 61 M
958.72 61 L
S
GR
GS
[0.75 0 0 0.75 98.65001 541.25] CT
0.149 GC
/Helvetica 24 F
GS
[1 0 0 1 0 0] CT
-49 9.5 moveto 
1 -1 scale
(-600) t 
GR
GR
GS
[0.75 0 0 0.75 98.65001 458.75] CT
0.149 GC
/Helvetica 24 F
GS
[1 0 0 1 0 0] CT
-49 9.5 moveto 
1 -1 scale
(-400) t 
GR
GR
GS
[0.75 0 0 0.75 98.65001 376.25] CT
0.149 GC
/Helvetica 24 F
GS
[1 0 0 1 0 0] CT
-49 9.5 moveto 
1 -1 scale
(-200) t 
GR
GR
GS
[0.75 0 0 0.75 98.65001 293.75] CT
0.149 GC
/Helvetica 24 F
GS
[1 0 0 1 0 0] CT
-14 9.5 moveto 
1 -1 scale
(0) t 
GR
GR
GS
[0.75 0 0 0.75 98.65001 211.25] CT
0.149 GC
/Helvetica 24 F
GS
[1 0 0 1 0 0] CT
-41 9.5 moveto 
1 -1 scale
(200) t 
GR
GR
GS
[0.75 0 0 0.75 98.65001 128.75] CT
0.149 GC
/Helvetica 24 F
GS
[1 0 0 1 0 0] CT
-41 9.5 moveto 
1 -1 scale
(400) t 
GR
GR
GS
[0.75 0 0 0.75 98.65001 46.25] CT
0.149 GC
/Helvetica 24 F
GS
[1 0 0 1 0 0] CT
-41 9.5 moveto 
1 -1 scale
(600) t 
GR
GR
GS
[0.75 0 0 0.75 0 0.5] CT
0 0.447 0.741 RC
1 LJ
2.667 LW
N
147.28 375.392 M
155.56 344.527 L
163.84 292.384 L
172.12 338.754 L
180.4 371.63 L
188.68 382.018 L
196.96 383.877 L
205.24 380.048 L
213.52 360.488 L
221.8 316.096 L
230.08 322.973 L
238.36 357.369 L
246.64 378.578 L
254.92 384.152 L
263.2 386.132 L
271.48 374.738 L
279.76 358.987 L
288.04 311.411 L
296.32 344.925 L
304.6 379.653 L
312.88 384.028 L
321.16 382.762 L
329.44 380.87 L
337.72 370.822 L
346 323.282 L
354.28 267.916 L
362.56 329.907 L
370.84 369.77 L
379.12 380.471 L
387.4 372.724 L
395.68 386.375 L
403.96 380.662 L
412.24 358.835 L
420.52 326.518 L
428.8 332.29 L
437.08 369.716 L
445.36 383.222 L
453.64 386.142 L
461.92 374.78 L
470.2 344.106 L
478.48 274.236 L
486.76 308.761 L
495.04 369.157 L
503.32 382.357 L
511.6 399.224 L
519.88 371.541 L
528.16 384.916 L
536.44 356.647 L
544.72 311.022 L
553 338.716 L
561.28 373.184 L
569.56 378.68 L
577.84 369.619 L
586.12 379.419 L
594.4 339.174 L
602.68 309.109 L
610.96 266.126 L
619.24 316.969 L
627.52 368.649 L
635.8 341.547 L
644.08 399.514 L
652.36 376.961 L
660.64 376.419 L
668.92 361.697 L
677.2 319.134 L
685.48 337.688 L
693.76 382.441 L
702.04 420.061 L
710.32 369.241 L
718.6 370.019 L
726.88 310.816 L
735.16 233.179 L
743.44 329.153 L
751.72 350.253 L
760 473.773 L
768.28 326.059 L
776.56 395.929 L
784.84 379.063 L
793.12 338.786 L
801.4 319.923 L
809.68 312.881 L
817.96 390.013 L
826.24 338.321 L
834.52 387.478 L
842.8 352.55 L
851.08 283.604 L
859.36 264.079 L
867.64 227.846 L
875.92 376.065 L
884.2 341.288 L
892.48 451.793 L
900.76 331.722 L
909.04 375.094 L
917.32 366.34 L
925.6 311.652 L
933.88 302.99 L
942.16 343.434 L
950.44 627.984 L
958.72 280.942 L
967 375.042 L
S
GR
GS
[0.75 0 0 0.75 0 0.5] CT
0.851 0.325 0.098 RC
1 LJ
2.667 LW
N
147.28 379.271 M
155.56 335.238 L
163.84 297.097 L
172.12 342.353 L
180.4 379.79 L
188.68 381.917 L
196.96 381.925 L
205.24 382.273 L
213.52 333.787 L
221.8 326.962 L
230.08 328.697 L
238.36 359.813 L
246.64 384.782 L
254.92 385.464 L
263.2 388.261 L
271.48 394.29 L
279.76 335.945 L
288.04 281.143 L
296.32 355.363 L
304.6 364.426 L
312.88 383.666 L
321.16 384.129 L
329.44 376.799 L
337.72 390.189 L
346 344.475 L
354.28 289.716 L
362.56 342.928 L
370.84 382.704 L
379.12 385.99 L
387.4 387.406 L
395.68 416.311 L
403.96 362.447 L
412.24 318.055 L
420.52 320.889 L
428.8 367.271 L
437.08 371.698 L
445.36 368.708 L
453.64 379.667 L
461.92 369.516 L
470.2 349.466 L
478.48 296.56 L
486.76 309.712 L
495.04 369.575 L
503.32 389.244 L
511.6 388.265 L
519.88 394.352 L
528.16 365.208 L
536.44 352.421 L
544.72 329.607 L
553 311.727 L
561.28 363.829 L
569.56 372.152 L
577.84 339.254 L
586.12 404.946 L
594.4 405.364 L
602.68 296.61 L
610.96 314.652 L
619.24 376.808 L
627.52 369.053 L
635.8 355.605 L
644.08 379.748 L
652.36 373.411 L
660.64 335.168 L
668.92 294.677 L
677.2 361.413 L
685.48 359.956 L
693.76 323.739 L
702.04 397.708 L
710.32 412.235 L
718.6 386.315 L
726.88 350.939 L
735.16 310.479 L
743.44 318.401 L
751.72 381.307 L
760 369.606 L
768.28 363.732 L
776.56 356.006 L
784.84 395.162 L
793.12 362.194 L
801.4 327.579 L
809.68 345.08 L
817.96 416.657 L
826.24 322.287 L
834.52 384.179 L
842.8 375.365 L
851.08 327.491 L
859.36 284.23 L
867.64 393.413 L
875.92 357.386 L
884.2 296.077 L
892.48 356.113 L
900.76 430.172 L
909.04 394.84 L
917.32 359.089 L
925.6 341.842 L
933.88 382.736 L
942.16 332.995 L
950.44 359.798 L
958.72 366.727 L
967 368.427 L
S
GR
GS
[0.75 0 0 0.75 0 0.5] CT
0.929 0.694 0.125 RC
1 LJ
2.667 LW
N
147.28 375.259 M
155.56 345.981 L
163.84 306.738 L
172.12 335.246 L
180.4 378.987 L
188.68 385.228 L
196.96 383.854 L
205.24 370.566 L
213.52 361.703 L
221.8 303.318 L
230.08 297.635 L
238.36 356.121 L
246.64 383.104 L
254.92 385.351 L
263.2 386.64 L
271.48 377.33 L
279.76 343.36 L
288.04 317.421 L
296.32 363.28 L
304.6 366.669 L
312.88 385.773 L
321.16 388.278 L
329.44 377.984 L
337.72 371.807 L
346 364.856 L
354.28 366.023 L
362.56 340.801 L
370.84 384.015 L
379.12 386.693 L
387.4 370.602 L
395.68 380.331 L
403.96 369.686 L
412.24 351.285 L
420.52 257.262 L
428.8 343.209 L
437.08 380.705 L
445.36 383.867 L
453.64 367.796 L
461.92 385.916 L
470.2 357.374 L
478.48 258.37 L
486.76 334.423 L
495.04 353.096 L
503.32 375.246 L
511.6 369.629 L
519.88 388.544 L
528.16 361.646 L
536.44 350.711 L
544.72 384.001 L
553 345.222 L
561.28 378.022 L
569.56 377.7 L
577.84 357.193 L
586.12 387.806 L
594.4 344.706 L
602.68 372.858 L
610.96 271.081 L
619.24 335.11 L
627.52 370.667 L
635.8 363.124 L
644.08 365.704 L
652.36 374.697 L
660.64 385.894 L
668.92 252.957 L
677.2 288.14 L
685.48 345.439 L
693.76 385.017 L
702.04 342.978 L
710.32 378.52 L
718.6 383.482 L
726.88 346.099 L
735.16 364.353 L
743.44 362.152 L
751.72 371.657 L
760 347.057 L
768.28 363.118 L
776.56 378.9 L
784.84 338.826 L
793.12 372.834 L
801.4 326.152 L
809.68 361.98 L
817.96 369.139 L
826.24 311.635 L
834.52 387.029 L
842.8 339.592 L
851.08 379.504 L
859.36 267.511 L
867.64 283.757 L
875.92 365.287 L
884.2 373.964 L
892.48 369.655 L
900.76 348.842 L
909.04 386.486 L
917.32 350.756 L
925.6 358.376 L
933.88 322.139 L
942.16 376.057 L
950.44 338.254 L
958.72 358.149 L
967 372.65 L
S
GR
GS
[0.75 0 0 0.75 0 0.5] CT
0.494 0.184 0.557 RC
1 LJ
2.667 LW
N
147.28 374.911 M
155.56 337.573 L
163.84 255.892 L
172.12 347.904 L
180.4 373.025 L
188.68 383.33 L
196.96 382.597 L
205.24 356.985 L
213.52 365.905 L
221.8 301.878 L
230.08 327.117 L
238.36 373.183 L
246.64 385.392 L
254.92 385.855 L
263.2 374.406 L
271.48 380.456 L
279.76 302.566 L
288.04 312.506 L
296.32 229.675 L
304.6 382.726 L
312.88 380.306 L
321.16 387.123 L
329.44 363.622 L
337.72 383.278 L
346 334.375 L
354.28 255.255 L
362.56 376.103 L
370.84 369.51 L
379.12 385.83 L
387.4 403.128 L
395.68 429.717 L
403.96 387.291 L
412.24 276.628 L
420.52 154.789 L
428.8 147.57 L
437.08 334.645 L
445.36 365.04 L
453.64 344.019 L
461.92 409.726 L
470.2 323.149 L
478.48 354.696 L
486.76 287.033 L
495.04 436.397 L
503.32 422.51 L
511.6 352.207 L
519.88 349.675 L
528.16 383.311 L
536.44 306.704 L
544.72 148.397 L
553 181.941 L
561.28 146.883 L
569.56 232.399 L
577.84 349.219 L
586.12 470.44 L
594.4 359.69 L
602.68 287.687 L
610.96 326.613 L
619.24 229.7 L
627.52 417.146 L
635.8 380.014 L
644.08 416.637 L
652.36 324.022 L
660.64 292.968 L
668.92 162.312 L
677.2 111.225 L
685.48 244.592 L
693.76 185.19 L
702.04 166.69 L
710.32 206.771 L
718.6 389.53 L
726.88 332.949 L
735.16 290.284 L
743.44 331.633 L
751.72 292.253 L
760 348.564 L
768.28 315.529 L
776.56 443.482 L
784.84 266.993 L
793.12 157.283 L
801.4 165.686 L
809.68 100.637 L
817.96 195.386 L
826.24 190.748 L
834.52 232.507 L
842.8 220.74 L
851.08 389.892 L
859.36 310.673 L
867.64 292.508 L
875.92 337.13 L
884.2 267.436 L
892.48 235.352 L
900.76 293.04 L
909.04 263.116 L
917.32 194.661 L
925.6 80.039 L
933.88 202.396 L
942.16 205.922 L
950.44 155.608 L
958.72 113.246 L
967 261.889 L
S
GR
GS
[0.75 0 0 0.75 0 0.5] CT
0.467 0.675 0.188 RC
1 LJ
2.667 LW
N
147.28 375.377 M
155.56 338.513 L
163.84 297.644 L
172.12 338.348 L
180.4 372.555 L
188.68 382.125 L
196.96 383.505 L
205.24 379.867 L
213.52 369.18 L
221.8 306.122 L
230.08 319.439 L
238.36 365.976 L
246.64 380.387 L
254.92 384.328 L
263.2 388.064 L
271.48 375.174 L
279.76 360.026 L
288.04 318.727 L
296.32 347.033 L
304.6 371.75 L
312.88 382.157 L
321.16 382.6 L
329.44 379.341 L
337.72 365.987 L
346 345.995 L
354.28 266.852 L
362.56 326.376 L
370.84 370.354 L
379.12 379.216 L
387.4 374.554 L
395.68 386.034 L
403.96 372.68 L
412.24 346.591 L
420.52 319.401 L
428.8 354.343 L
437.08 374.212 L
445.36 379.805 L
453.64 388.512 L
461.92 381.512 L
470.2 362.337 L
478.48 354.566 L
486.76 314.91 L
495.04 362.322 L
503.32 383.125 L
511.6 391.872 L
519.88 376.92 L
528.16 372.882 L
536.44 346.546 L
544.72 279.778 L
553 317.69 L
561.28 368.622 L
569.56 377.786 L
577.84 362.524 L
586.12 381.484 L
594.4 389.971 L
602.68 330.441 L
610.96 330.077 L
619.24 343.083 L
627.52 364.945 L
635.8 349.653 L
644.08 399.224 L
652.36 380.281 L
660.64 388.247 L
668.92 360.871 L
677.2 300.377 L
685.48 348.338 L
693.76 368.747 L
702.04 403.611 L
710.32 381.039 L
718.6 359.392 L
726.88 371.527 L
735.16 284.785 L
743.44 307.058 L
751.72 377.569 L
760 390.235 L
768.28 339.586 L
776.56 379.82 L
784.84 384.932 L
793.12 369.482 L
801.4 339.445 L
809.68 331.678 L
817.96 368.011 L
826.24 310.015 L
834.52 402.424 L
842.8 393.883 L
851.08 344.613 L
859.36 392.521 L
867.64 297.071 L
875.92 339.898 L
884.2 302.035 L
892.48 418.074 L
900.76 361.937 L
909.04 365.309 L
917.32 356.448 L
925.6 339.661 L
933.88 327.116 L
942.16 339.23 L
950.44 388.269 L
958.72 354.944 L
967 345.554 L
S
GR
GS
[0.75 0 0 0.75 0 0.5] CT
0.302 0.745 0.933 RC
1 LJ
2.667 LW
N
147.28 351.4 M
155.56 293.1 L
163.84 323.9 L
172.12 371.2 L
180.4 383.3 L
188.68 384.95 L
196.96 383.3 L
205.24 373.4 L
213.52 330.5 L
221.8 287.6 L
230.08 347 L
238.36 378.35 L
246.64 384.4 L
254.92 385.5 L
263.2 382.75 L
271.48 366.25 L
279.76 307.95 L
288.04 298.05 L
296.32 361.85 L
304.6 381.1 L
312.88 384.4 L
321.16 386.05 L
329.44 381.65 L
337.72 358 L
346 290.9 L
354.28 312.35 L
362.56 370.1 L
370.84 383.85 L
379.12 386.05 L
387.4 386.05 L
395.68 380.55 L
403.96 351.95 L
412.24 280.45 L
420.52 321.7 L
428.8 374.5 L
437.08 384.4 L
445.36 386.05 L
453.64 386.6 L
461.92 381.1 L
470.2 352.5 L
478.48 274.95 L
486.76 318.95 L
495.04 374.5 L
503.32 384.95 L
511.6 386.6 L
519.88 386.6 L
528.16 383.85 L
536.44 365.15 L
544.72 285.4 L
553 292.55 L
561.28 369 L
569.56 383.85 L
577.84 386.05 L
586.12 387.15 L
594.4 387.15 L
602.68 383.3 L
610.96 351.95 L
619.24 250.75 L
627.52 318.95 L
635.8 377.8 L
644.08 386.05 L
652.36 387.15 L
660.64 387.15 L
668.92 388.25 L
677.2 388.8 L
685.48 389.35 L
693.76 386.6 L
702.04 380 L
710.32 383.85 L
718.6 385.5 L
726.88 383.85 L
735.16 380 L
743.44 373.95 L
751.72 367.9 L
760 359.65 L
768.28 353.6 L
776.56 352.5 L
784.84 358.55 L
793.12 364.6 L
801.4 365.7 L
809.68 362.95 L
817.96 357.45 L
826.24 352.5 L
834.52 354.15 L
842.8 359.65 L
851.08 364.6 L
859.36 365.15 L
867.64 361.85 L
875.92 355.25 L
884.2 351.4 L
892.48 354.15 L
900.76 359.65 L
909.04 365.15 L
917.32 365.15 L
925.6 361.3 L
933.88 354.15 L
942.16 350.85 L
950.44 354.7 L
958.72 361.3 L
967 364.6 L
S
GR
GS
[0.75 0 0 0.75 0 0.5] CT
1 GC
N
214 665 M
214 490 L
454 490 L
454 665 L
cp
f
GR
GS
[0.75 0 0 0.75 188.25 380.03438] CT
/Helvetica 21.6 F
GS
[1 0 0 1 0 0] CT
0 9 moveto 
1 -1 scale
(Approximation1) t 
GR
GR
GS
[0.75 0 0 0.75 0 0.5] CT
0 0.447 0.741 RC
1 LJ
2.667 LW
N
218 506.046 M
248 506.046 L
S
GR
GS
[0.75 0 0 0.75 188.25 401.47063] CT
/Helvetica 21.6 F
GS
[1 0 0 1 0 0] CT
0 9 moveto 
1 -1 scale
(Approximation2) t 
GR
GR
GS
[0.75 0 0 0.75 0 0.5] CT
0.851 0.325 0.098 RC
1 LJ
2.667 LW
N
218 534.628 M
248 534.628 L
S
GR
GS
[0.75 0 0 0.75 188.25 422.90688] CT
/Helvetica 21.6 F
GS
[1 0 0 1 0 0] CT
0 9 moveto 
1 -1 scale
(Approximation3) t 
GR
GR
GS
[0.75 0 0 0.75 0 0.5] CT
0.929 0.694 0.125 RC
1 LJ
2.667 LW
N
218 563.209 M
248 563.209 L
S
GR
GS
[0.75 0 0 0.75 188.25 444.34312] CT
/Helvetica 21.6 F
GS
[1 0 0 1 0 0] CT
0 9 moveto 
1 -1 scale
(Approximation4) t 
GR
GR
GS
[0.75 0 0 0.75 0 0.5] CT
0.494 0.184 0.557 RC
1 LJ
2.667 LW
N
218 591.791 M
248 591.791 L
S
GR
GS
[0.75 0 0 0.75 188.25 465.77937] CT
/Helvetica 21.6 F
GS
[1 0 0 1 0 0] CT
0 9 moveto 
1 -1 scale
(Approximation5) t 
GR
GR
GS
[0.75 0 0 0.75 0 0.5] CT
0.467 0.675 0.188 RC
1 LJ
2.667 LW
N
218 620.372 M
248 620.372 L
S
GR
GS
[0.75 0 0 0.75 188.25 487.21562] CT
/Helvetica 21.6 F
GS
[1 0 0 1 0 0] CT
0 9 moveto 
1 -1 scale
(Laser Prediction Set) t 
GR
GR
GS
[0.75 0 0 0.75 0 0.5] CT
0.302 0.745 0.933 RC
1 LJ
2.667 LW
N
218 648.954 M
248 648.954 L
S
GR
GS
[0.75 0 0 0.75 0 0.5] CT
0.149 GC
10.0 ML
0.667 LW
N
214 665 M
214 490 L
454 490 L
454 665 L
cp
S
GR
%%Trailer
%%Pages: 1
%%EOF
