%!PS-Adobe-3.0 EPSF-3.0
%%Creator: (MATLAB, The Mathworks, Inc. Version 9.1.0.441655 \(R2016b\). Operating System: Windows 8)
%%Title: (C:/Users/Eigenaar/WIT/Data Mining/data-mining/Session 2/plots/delay5.eps)
%%CreationDate: 2017-11-22T20:54:10
%%Pages: (atend)
%%BoundingBox: 0 0 977 648
%%LanguageLevel: 3
%%EndComments
%%BeginProlog
%%BeginResource: procset (Apache XML Graphics Std ProcSet) 1.2 0
%%Version: 1.2 0
%%Copyright: (Copyright 2001-2003,2010 The Apache Software Foundation. License terms: http://www.apache.org/licenses/LICENSE-2.0)
/bd{bind def}bind def
/ld{load def}bd
/GR/grestore ld
/M/moveto ld
/LJ/setlinejoin ld
/C/curveto ld
/f/fill ld
/LW/setlinewidth ld
/GC/setgray ld
/t/show ld
/N/newpath ld
/CT/concat ld
/cp/closepath ld
/S/stroke ld
/L/lineto ld
/CC/setcmykcolor ld
/A/ashow ld
/GS/gsave ld
/RC/setrgbcolor ld
/RM/rmoveto ld
/ML/setmiterlimit ld
/re {4 2 roll M
1 index 0 rlineto
0 exch rlineto
neg 0 rlineto
cp } bd
/_ctm matrix def
/_tm matrix def
/BT { _ctm currentmatrix pop matrix _tm copy pop 0 0 moveto } bd
/ET { _ctm setmatrix } bd
/iTm { _ctm setmatrix _tm concat } bd
/Tm { _tm astore pop iTm 0 0 moveto } bd
/ux 0.0 def
/uy 0.0 def
/F {
  /Tp exch def
  /Tf exch def
  Tf findfont Tp scalefont setfont
  /cf Tf def  /cs Tp def
} bd
/ULS {currentpoint /uy exch def /ux exch def} bd
/ULE {
  /Tcx currentpoint pop def
  gsave
  newpath
  cf findfont cs scalefont dup
  /FontMatrix get 0 get /Ts exch def /FontInfo get dup
  /UnderlinePosition get Ts mul /To exch def
  /UnderlineThickness get Ts mul /Tt exch def
  ux uy To add moveto  Tcx uy To add lineto
  Tt setlinewidth stroke
  grestore
} bd
/OLE {
  /Tcx currentpoint pop def
  gsave
  newpath
  cf findfont cs scalefont dup
  /FontMatrix get 0 get /Ts exch def /FontInfo get dup
  /UnderlinePosition get Ts mul /To exch def
  /UnderlineThickness get Ts mul /Tt exch def
  ux uy To add cs add moveto Tcx uy To add cs add lineto
  Tt setlinewidth stroke
  grestore
} bd
/SOE {
  /Tcx currentpoint pop def
  gsave
  newpath
  cf findfont cs scalefont dup
  /FontMatrix get 0 get /Ts exch def /FontInfo get dup
  /UnderlinePosition get Ts mul /To exch def
  /UnderlineThickness get Ts mul /Tt exch def
  ux uy To add cs 10 mul 26 idiv add moveto Tcx uy To add cs 10 mul 26 idiv add lineto
  Tt setlinewidth stroke
  grestore
} bd
/QT {
/Y22 exch store
/X22 exch store
/Y21 exch store
/X21 exch store
currentpoint
/Y21 load 2 mul add 3 div exch
/X21 load 2 mul add 3 div exch
/X21 load 2 mul /X22 load add 3 div
/Y21 load 2 mul /Y22 load add 3 div
/X22 load /Y22 load curveto
} bd
/SSPD {
dup length /d exch dict def
{
/v exch def
/k exch def
currentpagedevice k known {
/cpdv currentpagedevice k get def
v cpdv ne {
/upd false def
/nullv v type /nulltype eq def
/nullcpdv cpdv type /nulltype eq def
nullv nullcpdv or
{
/upd true def
} {
/sametype v type cpdv type eq def
sametype {
v type /arraytype eq {
/vlen v length def
/cpdvlen cpdv length def
vlen cpdvlen eq {
0 1 vlen 1 sub {
/i exch def
/obj v i get def
/cpdobj cpdv i get def
obj cpdobj ne {
/upd true def
exit
} if
} for
} {
/upd true def
} ifelse
} {
v type /dicttype eq {
v {
/dv exch def
/dk exch def
/cpddv cpdv dk get def
dv cpddv ne {
/upd true def
exit
} if
} forall
} {
/upd true def
} ifelse
} ifelse
} if
} ifelse
upd true eq {
d k v put
} if
} if
} if
} forall
d length 0 gt {
d setpagedevice
} if
} bd
/RE { % /NewFontName [NewEncodingArray] /FontName RE -
  findfont dup length dict begin
  {
    1 index /FID ne
    {def} {pop pop} ifelse
  } forall
  /Encoding exch def
  /FontName 1 index def
  currentdict definefont pop
  end
} bind def
%%EndResource
%%BeginResource: procset (Apache XML Graphics EPS ProcSet) 1.0 0
%%Version: 1.0 0
%%Copyright: (Copyright 2002-2003 The Apache Software Foundation. License terms: http://www.apache.org/licenses/LICENSE-2.0)
/BeginEPSF { %def
/b4_Inc_state save def         % Save state for cleanup
/dict_count countdictstack def % Count objects on dict stack
/op_count count 1 sub def      % Count objects on operand stack
userdict begin                 % Push userdict on dict stack
/showpage { } def              % Redefine showpage, { } = null proc
0 setgray 0 setlinecap         % Prepare graphics state
1 setlinewidth 0 setlinejoin
10 setmiterlimit [ ] 0 setdash newpath
/languagelevel where           % If level not equal to 1 then
{pop languagelevel             % set strokeadjust and
1 ne                           % overprint to their defaults.
{false setstrokeadjust false setoverprint
} if
} if
} bd
/EndEPSF { %def
count op_count sub {pop} repeat            % Clean up stacks
countdictstack dict_count sub {end} repeat
b4_Inc_state restore
} bd
%%EndResource
%FOPBeginFontDict
%%IncludeResource: font Courier-Bold
%%IncludeResource: font Helvetica
%%IncludeResource: font Courier-BoldOblique
%%IncludeResource: font Courier-Oblique
%%IncludeResource: font Times-Roman
%%IncludeResource: font Helvetica-BoldOblique
%%IncludeResource: font Helvetica-Bold
%%IncludeResource: font Helvetica-Oblique
%%IncludeResource: font Times-BoldItalic
%%IncludeResource: font Courier
%%IncludeResource: font Times-Italic
%%IncludeResource: font Times-Bold
%%IncludeResource: font Symbol
%%IncludeResource: font ZapfDingbats
%FOPEndFontDict
%%BeginResource: encoding WinAnsiEncoding
/WinAnsiEncoding [
/.notdef /.notdef /.notdef /.notdef /.notdef
/.notdef /.notdef /.notdef /.notdef /.notdef
/.notdef /.notdef /.notdef /.notdef /.notdef
/.notdef /.notdef /.notdef /.notdef /.notdef
/.notdef /.notdef /.notdef /.notdef /.notdef
/.notdef /.notdef /.notdef /.notdef /.notdef
/.notdef /.notdef /space /exclam /quotedbl
/numbersign /dollar /percent /ampersand /quotesingle
/parenleft /parenright /asterisk /plus /comma
/hyphen /period /slash /zero /one
/two /three /four /five /six
/seven /eight /nine /colon /semicolon
/less /equal /greater /question /at
/A /B /C /D /E
/F /G /H /I /J
/K /L /M /N /O
/P /Q /R /S /T
/U /V /W /X /Y
/Z /bracketleft /backslash /bracketright /asciicircum
/underscore /quoteleft /a /b /c
/d /e /f /g /h
/i /j /k /l /m
/n /o /p /q /r
/s /t /u /v /w
/x /y /z /braceleft /bar
/braceright /asciitilde /bullet /Euro /bullet
/quotesinglbase /florin /quotedblbase /ellipsis /dagger
/daggerdbl /circumflex /perthousand /Scaron /guilsinglleft
/OE /bullet /Zcaron /bullet /bullet
/quoteleft /quoteright /quotedblleft /quotedblright /bullet
/endash /emdash /asciitilde /trademark /scaron
/guilsinglright /oe /bullet /zcaron /Ydieresis
/space /exclamdown /cent /sterling /currency
/yen /brokenbar /section /dieresis /copyright
/ordfeminine /guillemotleft /logicalnot /sfthyphen /registered
/macron /degree /plusminus /twosuperior /threesuperior
/acute /mu /paragraph /middot /cedilla
/onesuperior /ordmasculine /guillemotright /onequarter /onehalf
/threequarters /questiondown /Agrave /Aacute /Acircumflex
/Atilde /Adieresis /Aring /AE /Ccedilla
/Egrave /Eacute /Ecircumflex /Edieresis /Igrave
/Iacute /Icircumflex /Idieresis /Eth /Ntilde
/Ograve /Oacute /Ocircumflex /Otilde /Odieresis
/multiply /Oslash /Ugrave /Uacute /Ucircumflex
/Udieresis /Yacute /Thorn /germandbls /agrave
/aacute /acircumflex /atilde /adieresis /aring
/ae /ccedilla /egrave /eacute /ecircumflex
/edieresis /igrave /iacute /icircumflex /idieresis
/eth /ntilde /ograve /oacute /ocircumflex
/otilde /odieresis /divide /oslash /ugrave
/uacute /ucircumflex /udieresis /yacute /thorn
/ydieresis
] def
%%EndResource
%FOPBeginFontReencode
/Courier-Bold findfont
dup length dict begin
  {1 index /FID ne {def} {pop pop} ifelse} forall
  /Encoding WinAnsiEncoding def
  currentdict
end
/Courier-Bold exch definefont pop
/Helvetica findfont
dup length dict begin
  {1 index /FID ne {def} {pop pop} ifelse} forall
  /Encoding WinAnsiEncoding def
  currentdict
end
/Helvetica exch definefont pop
/Courier-BoldOblique findfont
dup length dict begin
  {1 index /FID ne {def} {pop pop} ifelse} forall
  /Encoding WinAnsiEncoding def
  currentdict
end
/Courier-BoldOblique exch definefont pop
/Courier-Oblique findfont
dup length dict begin
  {1 index /FID ne {def} {pop pop} ifelse} forall
  /Encoding WinAnsiEncoding def
  currentdict
end
/Courier-Oblique exch definefont pop
/Times-Roman findfont
dup length dict begin
  {1 index /FID ne {def} {pop pop} ifelse} forall
  /Encoding WinAnsiEncoding def
  currentdict
end
/Times-Roman exch definefont pop
/Helvetica-BoldOblique findfont
dup length dict begin
  {1 index /FID ne {def} {pop pop} ifelse} forall
  /Encoding WinAnsiEncoding def
  currentdict
end
/Helvetica-BoldOblique exch definefont pop
/Helvetica-Bold findfont
dup length dict begin
  {1 index /FID ne {def} {pop pop} ifelse} forall
  /Encoding WinAnsiEncoding def
  currentdict
end
/Helvetica-Bold exch definefont pop
/Helvetica-Oblique findfont
dup length dict begin
  {1 index /FID ne {def} {pop pop} ifelse} forall
  /Encoding WinAnsiEncoding def
  currentdict
end
/Helvetica-Oblique exch definefont pop
/Times-BoldItalic findfont
dup length dict begin
  {1 index /FID ne {def} {pop pop} ifelse} forall
  /Encoding WinAnsiEncoding def
  currentdict
end
/Times-BoldItalic exch definefont pop
/Courier findfont
dup length dict begin
  {1 index /FID ne {def} {pop pop} ifelse} forall
  /Encoding WinAnsiEncoding def
  currentdict
end
/Courier exch definefont pop
/Times-Italic findfont
dup length dict begin
  {1 index /FID ne {def} {pop pop} ifelse} forall
  /Encoding WinAnsiEncoding def
  currentdict
end
/Times-Italic exch definefont pop
/Times-Bold findfont
dup length dict begin
  {1 index /FID ne {def} {pop pop} ifelse} forall
  /Encoding WinAnsiEncoding def
  currentdict
end
/Times-Bold exch definefont pop
%FOPEndFontReencode
%%EndProlog
%%Page: 1 1
%%PageBoundingBox: 0 0 977 648
%%BeginPageSetup
[1 0 0 -1 0 648] CT
%%EndPageSetup
GS
[0.75 0 0 0.75 0 0] CT
1 GC
N
0 0 1302 864 re
f
GR
GS
[0.75 0 0 0.75 0 0] CT
1 GC
N
0 0 1302 864 re
f
GR
GS
[0.75 0 0 0.75 0 0] CT
1 GC
N
169 769 M
1178 769 L
1178 65 L
169 65 L
cp
f
GR
GS
[0.75 0 0 0.75 0 0] CT
0.149 GC
2 setlinecap
1 LJ
0.667 LW
N
169 769 M
1178 769 L
S
GR
GS
[0.75 0 0 0.75 0 0] CT
0.149 GC
2 setlinecap
1 LJ
0.667 LW
N
169 65 M
1178 65 L
S
GR
GS
[0.75 0 0 0.75 0 0] CT
0.149 GC
2 setlinecap
1 LJ
0.667 LW
N
169 769 M
169 758.91 L
S
GR
GS
[0.75 0 0 0.75 0 0] CT
0.149 GC
2 setlinecap
1 LJ
0.667 LW
N
269.9 769 M
269.9 758.91 L
S
GR
GS
[0.75 0 0 0.75 0 0] CT
0.149 GC
2 setlinecap
1 LJ
0.667 LW
N
370.8 769 M
370.8 758.91 L
S
GR
GS
[0.75 0 0 0.75 0 0] CT
0.149 GC
2 setlinecap
1 LJ
0.667 LW
N
471.7 769 M
471.7 758.91 L
S
GR
GS
[0.75 0 0 0.75 0 0] CT
0.149 GC
2 setlinecap
1 LJ
0.667 LW
N
572.6 769 M
572.6 758.91 L
S
GR
GS
[0.75 0 0 0.75 0 0] CT
0.149 GC
2 setlinecap
1 LJ
0.667 LW
N
673.5 769 M
673.5 758.91 L
S
GR
GS
[0.75 0 0 0.75 0 0] CT
0.149 GC
2 setlinecap
1 LJ
0.667 LW
N
774.4 769 M
774.4 758.91 L
S
GR
GS
[0.75 0 0 0.75 0 0] CT
0.149 GC
2 setlinecap
1 LJ
0.667 LW
N
875.3 769 M
875.3 758.91 L
S
GR
GS
[0.75 0 0 0.75 0 0] CT
0.149 GC
2 setlinecap
1 LJ
0.667 LW
N
976.2 769 M
976.2 758.91 L
S
GR
GS
[0.75 0 0 0.75 0 0] CT
0.149 GC
2 setlinecap
1 LJ
0.667 LW
N
1077.1 769 M
1077.1 758.91 L
S
GR
GS
[0.75 0 0 0.75 0 0] CT
0.149 GC
2 setlinecap
1 LJ
0.667 LW
N
1178 769 M
1178 758.91 L
S
GR
GS
[0.75 0 0 0.75 0 0] CT
0.149 GC
2 setlinecap
1 LJ
0.667 LW
N
169 65 M
169 75.09 L
S
GR
GS
[0.75 0 0 0.75 0 0] CT
0.149 GC
2 setlinecap
1 LJ
0.667 LW
N
269.9 65 M
269.9 75.09 L
S
GR
GS
[0.75 0 0 0.75 0 0] CT
0.149 GC
2 setlinecap
1 LJ
0.667 LW
N
370.8 65 M
370.8 75.09 L
S
GR
GS
[0.75 0 0 0.75 0 0] CT
0.149 GC
2 setlinecap
1 LJ
0.667 LW
N
471.7 65 M
471.7 75.09 L
S
GR
GS
[0.75 0 0 0.75 0 0] CT
0.149 GC
2 setlinecap
1 LJ
0.667 LW
N
572.6 65 M
572.6 75.09 L
S
GR
GS
[0.75 0 0 0.75 0 0] CT
0.149 GC
2 setlinecap
1 LJ
0.667 LW
N
673.5 65 M
673.5 75.09 L
S
GR
GS
[0.75 0 0 0.75 0 0] CT
0.149 GC
2 setlinecap
1 LJ
0.667 LW
N
774.4 65 M
774.4 75.09 L
S
GR
GS
[0.75 0 0 0.75 0 0] CT
0.149 GC
2 setlinecap
1 LJ
0.667 LW
N
875.3 65 M
875.3 75.09 L
S
GR
GS
[0.75 0 0 0.75 0 0] CT
0.149 GC
2 setlinecap
1 LJ
0.667 LW
N
976.2 65 M
976.2 75.09 L
S
GR
GS
[0.75 0 0 0.75 0 0] CT
0.149 GC
2 setlinecap
1 LJ
0.667 LW
N
1077.1 65 M
1077.1 75.09 L
S
GR
GS
[0.75 0 0 0.75 0 0] CT
0.149 GC
2 setlinecap
1 LJ
0.667 LW
N
1178 65 M
1178 75.09 L
S
GR
GS
[0.75 0 0 0.75 126.75 582.35001] CT
0.149 GC
/Helvetica 24 F
GS
[1 0 0 1 0 0] CT
-7 25 moveto 
1 -1 scale
(0) t 
GR
GR
GS
[0.75 0 0 0.75 202.425 582.35001] CT
0.149 GC
/Helvetica 24 F
GS
[1 0 0 1 0 0] CT
-13.5 25 moveto 
1 -1 scale
(10) t 
GR
GR
GS
[0.75 0 0 0.75 278.09999 582.35001] CT
0.149 GC
/Helvetica 24 F
GS
[1 0 0 1 0 0] CT
-13.5 25 moveto 
1 -1 scale
(20) t 
GR
GR
GS
[0.75 0 0 0.75 353.77501 582.35001] CT
0.149 GC
/Helvetica 24 F
GS
[1 0 0 1 0 0] CT
-13.5 25 moveto 
1 -1 scale
(30) t 
GR
GR
GS
[0.75 0 0 0.75 429.44998 582.35001] CT
0.149 GC
/Helvetica 24 F
GS
[1 0 0 1 0 0] CT
-13.5 25 moveto 
1 -1 scale
(40) t 
GR
GR
GS
[0.75 0 0 0.75 505.125 582.35001] CT
0.149 GC
/Helvetica 24 F
GS
[1 0 0 1 0 0] CT
-13.5 25 moveto 
1 -1 scale
(50) t 
GR
GR
GS
[0.75 0 0 0.75 580.80002 582.35001] CT
0.149 GC
/Helvetica 24 F
GS
[1 0 0 1 0 0] CT
-13.5 25 moveto 
1 -1 scale
(60) t 
GR
GR
GS
[0.75 0 0 0.75 656.47499 582.35001] CT
0.149 GC
/Helvetica 24 F
GS
[1 0 0 1 0 0] CT
-13.5 25 moveto 
1 -1 scale
(70) t 
GR
GR
GS
[0.75 0 0 0.75 732.15001 582.35001] CT
0.149 GC
/Helvetica 24 F
GS
[1 0 0 1 0 0] CT
-13.5 25 moveto 
1 -1 scale
(80) t 
GR
GR
GS
[0.75 0 0 0.75 807.82498 582.35001] CT
0.149 GC
/Helvetica 24 F
GS
[1 0 0 1 0 0] CT
-13.5 25 moveto 
1 -1 scale
(90) t 
GR
GR
GS
[0.75 0 0 0.75 883.5 582.35001] CT
0.149 GC
/Helvetica 24 F
GS
[1 0 0 1 0 0] CT
-20.5 25 moveto 
1 -1 scale
(100) t 
GR
GR
GS
[0.75 0 0 0.75 505.12537 606.59999] CT
0.149 GC
/Helvetica 26.4 F
GS
[1 0 0 1 0 0] CT
-46.5 27 moveto 
1 -1 scale
(Time [s]) t 
GR
GR
GS
[0.75 0 0 0.75 0 0] CT
0.149 GC
2 setlinecap
1 LJ
0.667 LW
N
169 769 M
169 65 L
S
GR
GS
[0.75 0 0 0.75 0 0] CT
0.149 GC
2 setlinecap
1 LJ
0.667 LW
N
1178 769 M
1178 65 L
S
GR
GS
[0.75 0 0 0.75 0 0] CT
0.149 GC
2 setlinecap
1 LJ
0.667 LW
N
169 769 M
179.09 769 L
S
GR
GS
[0.75 0 0 0.75 0 0] CT
0.149 GC
2 setlinecap
1 LJ
0.667 LW
N
169 668.429 M
179.09 668.429 L
S
GR
GS
[0.75 0 0 0.75 0 0] CT
0.149 GC
2 setlinecap
1 LJ
0.667 LW
N
169 567.857 M
179.09 567.857 L
S
GR
GS
[0.75 0 0 0.75 0 0] CT
0.149 GC
2 setlinecap
1 LJ
0.667 LW
N
169 467.286 M
179.09 467.286 L
S
GR
GS
[0.75 0 0 0.75 0 0] CT
0.149 GC
2 setlinecap
1 LJ
0.667 LW
N
169 366.714 M
179.09 366.714 L
S
GR
GS
[0.75 0 0 0.75 0 0] CT
0.149 GC
2 setlinecap
1 LJ
0.667 LW
N
169 266.143 M
179.09 266.143 L
S
GR
GS
[0.75 0 0 0.75 0 0] CT
0.149 GC
2 setlinecap
1 LJ
0.667 LW
N
169 165.571 M
179.09 165.571 L
S
GR
GS
[0.75 0 0 0.75 0 0] CT
0.149 GC
2 setlinecap
1 LJ
0.667 LW
N
169 65 M
179.09 65 L
S
GR
GS
[0.75 0 0 0.75 0 0] CT
0.149 GC
2 setlinecap
1 LJ
0.667 LW
N
1178 769 M
1167.91 769 L
S
GR
GS
[0.75 0 0 0.75 0 0] CT
0.149 GC
2 setlinecap
1 LJ
0.667 LW
N
1178 668.429 M
1167.91 668.429 L
S
GR
GS
[0.75 0 0 0.75 0 0] CT
0.149 GC
2 setlinecap
1 LJ
0.667 LW
N
1178 567.857 M
1167.91 567.857 L
S
GR
GS
[0.75 0 0 0.75 0 0] CT
0.149 GC
2 setlinecap
1 LJ
0.667 LW
N
1178 467.286 M
1167.91 467.286 L
S
GR
GS
[0.75 0 0 0.75 0 0] CT
0.149 GC
2 setlinecap
1 LJ
0.667 LW
N
1178 366.714 M
1167.91 366.714 L
S
GR
GS
[0.75 0 0 0.75 0 0] CT
0.149 GC
2 setlinecap
1 LJ
0.667 LW
N
1178 266.143 M
1167.91 266.143 L
S
GR
GS
[0.75 0 0 0.75 0 0] CT
0.149 GC
2 setlinecap
1 LJ
0.667 LW
N
1178 165.571 M
1167.91 165.571 L
S
GR
GS
[0.75 0 0 0.75 0 0] CT
0.149 GC
2 setlinecap
1 LJ
0.667 LW
N
1178 65 M
1167.91 65 L
S
GR
GS
[0.75 0 0 0.75 121.15001 576.75] CT
0.149 GC
/Helvetica 24 F
GS
[1 0 0 1 0 0] CT
-49 9.5 moveto 
1 -1 scale
(-600) t 
GR
GR
GS
[0.75 0 0 0.75 121.15001 501.32144] CT
0.149 GC
/Helvetica 24 F
GS
[1 0 0 1 0 0] CT
-49 9.5 moveto 
1 -1 scale
(-400) t 
GR
GR
GS
[0.75 0 0 0.75 121.15001 425.89284] CT
0.149 GC
/Helvetica 24 F
GS
[1 0 0 1 0 0] CT
-49 9.5 moveto 
1 -1 scale
(-200) t 
GR
GR
GS
[0.75 0 0 0.75 121.15001 350.46428] CT
0.149 GC
/Helvetica 24 F
GS
[1 0 0 1 0 0] CT
-14 9.5 moveto 
1 -1 scale
(0) t 
GR
GR
GS
[0.75 0 0 0.75 121.15001 275.03572] CT
0.149 GC
/Helvetica 24 F
GS
[1 0 0 1 0 0] CT
-41 9.5 moveto 
1 -1 scale
(200) t 
GR
GR
GS
[0.75 0 0 0.75 121.15001 199.60714] CT
0.149 GC
/Helvetica 24 F
GS
[1 0 0 1 0 0] CT
-41 9.5 moveto 
1 -1 scale
(400) t 
GR
GR
GS
[0.75 0 0 0.75 121.15001 124.17857] CT
0.149 GC
/Helvetica 24 F
GS
[1 0 0 1 0 0] CT
-41 9.5 moveto 
1 -1 scale
(600) t 
GR
GR
GS
[0.75 0 0 0.75 121.15001 48.75] CT
0.149 GC
/Helvetica 24 F
GS
[1 0 0 1 0 0] CT
-41 9.5 moveto 
1 -1 scale
(800) t 
GR
GR
GS
[0.75 0 0 0.75 0 0] CT
0 0.447 0.741 RC
1 LJ
2.667 LW
N
179.09 435.968 M
189.18 391.373 L
199.27 392.651 L
209.36 441.03 L
219.45 456.113 L
229.54 457.859 L
239.63 456.399 L
249.72 454.907 L
259.81 406.725 L
269.9 394.618 L
279.99 425.256 L
290.08 450.503 L
300.17 459.26 L
310.26 458.443 L
320.35 450.128 L
330.44 446.673 L
340.53 405.647 L
350.62 389.79 L
360.71 430.105 L
370.8 451.91 L
380.89 456.289 L
390.98 459.188 L
401.07 464.955 L
411.16 406.418 L
421.25 421.748 L
431.34 432.139 L
441.43 436.184 L
451.52 457.145 L
461.61 451.041 L
471.7 438.244 L
481.79 459.302 L
491.88 434.792 L
501.97 393.198 L
512.06 432.785 L
522.15 437.828 L
532.24 462.325 L
542.33 466.039 L
552.42 459.434 L
562.51 404.967 L
572.6 429.131 L
582.69 438.76 L
592.78 433.52 L
602.87 437.63 L
612.96 443.531 L
623.05 434.984 L
633.14 460.423 L
643.23 423.395 L
653.32 402.489 L
663.41 436.552 L
673.5 439.416 L
683.59 467.284 L
693.68 468.042 L
703.77 441.43 L
713.86 401.342 L
723.95 444.727 L
734.04 437.407 L
744.13 425.604 L
754.22 410.854 L
764.31 429.375 L
774.4 457.168 L
784.49 452.723 L
794.58 427.21 L
804.67 402.228 L
814.76 446.967 L
824.85 455.327 L
834.94 471.932 L
845.03 452.516 L
855.12 441.91 L
865.21 391.419 L
875.3 445.612 L
885.39 440.178 L
895.48 402.238 L
905.57 420.004 L
915.66 431.635 L
925.75 462.494 L
935.84 438.704 L
945.93 420.679 L
956.02 404.659 L
966.11 459.776 L
976.2 447.342 L
986.29 470.105 L
996.38 431.816 L
1006.47 458.638 L
1016.56 388.623 L
1026.65 451.177 L
1036.74 431.415 L
1046.83 408.244 L
1056.92 417.924 L
1067.01 456.398 L
1077.1 452.503 L
1087.19 440.911 L
1097.28 403.8 L
1107.37 407.493 L
1117.46 449.263 L
1127.55 445.722 L
1137.64 449.757 L
1147.73 427.72 L
1157.82 464.717 L
1167.91 390.847 L
1178 459.5 L
S
GR
GS
[0.75 0 0 0.75 0 0] CT
0.851 0.325 0.098 RC
1 LJ
2.667 LW
N
179.09 436.386 M
189.18 393.066 L
199.27 385.536 L
209.36 439.464 L
219.45 459.732 L
229.54 460.72 L
239.63 457.423 L
249.72 453.852 L
259.81 409.327 L
269.9 386.138 L
279.99 418.645 L
290.08 440.991 L
300.17 464.81 L
310.26 459.097 L
320.35 450.051 L
330.44 453.629 L
340.53 428.159 L
350.62 363.446 L
360.71 447.011 L
370.8 431.536 L
380.89 475.567 L
390.98 456.44 L
401.07 440.755 L
411.16 412.368 L
421.25 400.168 L
431.34 397.561 L
441.43 458.596 L
451.52 409.178 L
461.61 489.155 L
471.7 449.816 L
481.79 472.042 L
491.88 445.207 L
501.97 359.124 L
512.06 422.211 L
522.15 491.805 L
532.24 377.863 L
542.33 489.009 L
552.42 411.322 L
562.51 402.931 L
572.6 411.776 L
582.69 371.367 L
592.78 375.879 L
602.87 562.897 L
612.96 321.707 L
623.05 498.617 L
633.14 441.378 L
643.23 478.011 L
653.32 358.546 L
663.41 555.73 L
673.5 305.212 L
683.59 567.678 L
693.68 154.429 L
703.77 540.221 L
713.86 407.168 L
723.95 387.743 L
734.04 358.98 L
744.13 567.524 L
754.22 143.229 L
764.31 705.885 L
774.4 175.185 L
784.49 515.067 L
794.58 412.565 L
804.67 372.792 L
814.76 362.37 L
824.85 637.352 L
834.94 119.042 L
845.03 555.858 L
855.12 392.754 L
865.21 500.743 L
875.3 391.299 L
885.39 677.201 L
895.48 131.943 L
905.57 702.663 L
915.66 154.499 L
925.75 511.158 L
935.84 370.864 L
945.93 375.935 L
956.02 335.171 L
966.11 566.887 L
976.2 103.454 L
986.29 684.425 L
996.38 111.378 L
1006.47 636.164 L
1016.56 228.796 L
1026.65 578.031 L
1036.74 207.247 L
1046.83 687.25 L
1056.92 103.139 L
1067.01 683.079 L
1077.1 122.225 L
1087.19 596.565 L
1097.28 129.564 L
1107.37 713.783 L
1117.46 103.096 L
1127.55 713.209 L
1137.64 103.123 L
1147.73 595.305 L
1157.82 298.947 L
1167.91 518.303 L
1178 143.87 L
S
GR
GS
[0.75 0 0 0.75 0 0] CT
0.929 0.694 0.125 RC
1 LJ
2.667 LW
N
179.09 436.661 M
189.18 385.326 L
199.27 386.015 L
209.36 444.931 L
219.45 455.236 L
229.54 459.065 L
239.63 455.153 L
249.72 447.564 L
259.81 406.458 L
269.9 380.933 L
279.99 423.604 L
290.08 451.669 L
300.17 459.013 L
310.26 461.37 L
320.35 453.658 L
330.44 448.361 L
340.53 392.297 L
350.62 362.138 L
360.71 441.028 L
370.8 449.174 L
380.89 454.819 L
390.98 453.137 L
401.07 439.729 L
411.16 412.94 L
421.25 423.017 L
431.34 400.603 L
441.43 442.576 L
451.52 454.269 L
461.61 459.51 L
471.7 456.405 L
481.79 454.274 L
491.88 404.577 L
501.97 372.807 L
512.06 428.924 L
522.15 438.281 L
532.24 448.907 L
542.33 444.897 L
552.42 429.06 L
562.51 426.559 L
572.6 489.065 L
582.69 375.467 L
592.78 425.093 L
602.87 443.88 L
612.96 458.269 L
623.05 459.707 L
633.14 450.08 L
643.23 365.605 L
653.32 405.851 L
663.41 402.147 L
673.5 419.605 L
683.59 438.361 L
693.68 431.209 L
703.77 426.018 L
713.86 451.781 L
723.95 469.021 L
734.04 361.313 L
744.13 396.971 L
754.22 424.437 L
764.31 455.683 L
774.4 458.731 L
784.49 427.34 L
794.58 525.007 L
804.67 383.231 L
814.76 394.629 L
824.85 403.91 L
834.94 423.889 L
845.03 419.314 L
855.12 435.932 L
865.21 444.639 L
875.3 444.579 L
885.39 368.254 L
895.48 401.163 L
905.57 410.246 L
915.66 448.283 L
925.75 445.761 L
935.84 426.436 L
945.93 462.755 L
956.02 408.793 L
966.11 409.463 L
976.2 412.511 L
986.29 407.286 L
996.38 416.445 L
1006.47 438.708 L
1016.56 600.107 L
1026.65 414.385 L
1036.74 375.298 L
1046.83 410.047 L
1056.92 425.479 L
1067.01 435.738 L
1077.1 425.559 L
1087.19 451.83 L
1097.28 414.028 L
1107.37 480.803 L
1117.46 420.935 L
1127.55 420.572 L
1137.64 402.801 L
1147.73 421.17 L
1157.82 407.682 L
1167.91 437.78 L
1178 379.557 L
S
GR
GS
[0.75 0 0 0.75 0 0] CT
0.494 0.184 0.557 RC
1 LJ
2.667 LW
N
179.09 440.792 M
189.18 399.62 L
199.27 394.919 L
209.36 435.295 L
219.45 453.432 L
229.54 459.558 L
239.63 457.932 L
249.72 450.915 L
259.81 388.717 L
269.9 395.694 L
279.99 420.978 L
290.08 452.974 L
300.17 460.831 L
310.26 460.166 L
320.35 455.199 L
330.44 457.895 L
340.53 411.589 L
350.62 379.114 L
360.71 415.834 L
370.8 439.93 L
380.89 455.255 L
390.98 458.33 L
401.07 436.57 L
411.16 342.658 L
421.25 412.023 L
431.34 395.313 L
441.43 435.531 L
451.52 454.906 L
461.61 456.097 L
471.7 464.579 L
481.79 432.353 L
491.88 353.763 L
501.97 373.658 L
512.06 400.456 L
522.15 424.005 L
532.24 451.009 L
542.33 441.63 L
552.42 451.294 L
562.51 339.772 L
572.6 420.031 L
582.69 384.757 L
592.78 408.466 L
602.87 440.797 L
612.96 461.986 L
623.05 425.602 L
633.14 446.672 L
643.23 386.836 L
653.32 368.589 L
663.41 387.766 L
673.5 407.474 L
683.59 427.453 L
693.68 465.525 L
703.77 409.203 L
713.86 316.874 L
723.95 443.251 L
734.04 389.275 L
744.13 405.987 L
754.22 427.317 L
764.31 409.099 L
774.4 431.347 L
784.49 444.694 L
794.58 367.211 L
804.67 351.367 L
814.76 409 L
824.85 385.909 L
834.94 421.091 L
845.03 408.431 L
855.12 395.762 L
865.21 315.129 L
875.3 413.337 L
885.39 378.825 L
895.48 424.631 L
905.57 387.138 L
915.66 407.027 L
925.75 440.364 L
935.84 450.524 L
945.93 399.8 L
956.02 339.31 L
966.11 430.789 L
976.2 378.533 L
986.29 428.41 L
996.38 405.012 L
1006.47 382.115 L
1016.56 301.515 L
1026.65 439.899 L
1036.74 370.309 L
1046.83 440.66 L
1056.92 388.808 L
1067.01 416.003 L
1077.1 432.677 L
1087.19 439.847 L
1097.28 355.78 L
1107.37 343.246 L
1117.46 394.03 L
1127.55 359.238 L
1137.64 426.224 L
1147.73 391.73 L
1157.82 372.202 L
1167.91 325.435 L
1178 430.229 L
S
GR
GS
[0.75 0 0 0.75 0 0] CT
0.467 0.675 0.188 RC
1 LJ
2.667 LW
N
179.09 433.442 M
189.18 392.77 L
199.27 385.548 L
209.36 438.628 L
219.45 456.562 L
229.54 459.197 L
239.63 454.855 L
249.72 459.713 L
259.81 402.5 L
269.9 387.804 L
279.99 432.398 L
290.08 449.951 L
300.17 461.586 L
310.26 462.776 L
320.35 448.411 L
330.44 441.194 L
340.53 414.317 L
350.62 370.596 L
360.71 430.418 L
370.8 447.014 L
380.89 453.895 L
390.98 459.572 L
401.07 474.278 L
411.16 392.207 L
421.25 424.468 L
431.34 426.666 L
441.43 446.325 L
451.52 463.544 L
461.61 458.386 L
471.7 424.841 L
481.79 443.632 L
491.88 425.694 L
501.97 393.474 L
512.06 411.426 L
522.15 428.596 L
532.24 456.145 L
542.33 459.134 L
552.42 477.376 L
562.51 410.777 L
572.6 455.648 L
582.69 450.229 L
592.78 443.779 L
602.87 451.023 L
612.96 454.587 L
623.05 431.449 L
633.14 449.831 L
643.23 407.702 L
653.32 412.1 L
663.41 420.31 L
673.5 426.8 L
683.59 457.333 L
693.68 472.062 L
703.77 479.468 L
713.86 389.923 L
723.95 476.269 L
734.04 472.801 L
744.13 465.951 L
754.22 427.979 L
764.31 431.04 L
774.4 441.518 L
784.49 431.515 L
794.58 398.162 L
804.67 435.352 L
814.76 425.558 L
824.85 441.485 L
834.94 462.329 L
845.03 485.989 L
855.12 470.368 L
865.21 386.586 L
875.3 475.394 L
885.39 484.425 L
895.48 484.424 L
905.57 409.104 L
915.66 428.912 L
925.75 462.585 L
935.84 432.279 L
945.93 421.112 L
956.02 439.231 L
966.11 446.651 L
976.2 434.357 L
986.29 482.603 L
996.38 483.976 L
1006.47 471.066 L
1016.56 403.217 L
1026.65 473.031 L
1036.74 491.438 L
1046.83 484.866 L
1056.92 401.354 L
1067.01 445.655 L
1077.1 466.235 L
1087.19 425.071 L
1097.28 419.577 L
1107.37 438.137 L
1117.46 459.528 L
1127.55 429.893 L
1137.64 480.462 L
1147.73 471.184 L
1157.82 466.5 L
1167.91 410.693 L
1178 466 L
S
GR
GS
[0.75 0 0 0.75 0 0] CT
0.302 0.745 0.933 RC
1 LJ
2.667 LW
N
179.09 431.08 M
189.18 377.777 L
199.27 405.937 L
209.36 449.183 L
219.45 460.246 L
229.54 461.754 L
239.63 460.246 L
249.72 451.194 L
259.81 411.971 L
269.9 372.749 L
279.99 427.057 L
290.08 455.72 L
300.17 461.251 L
310.26 462.257 L
320.35 459.743 L
330.44 444.657 L
340.53 391.354 L
350.62 382.303 L
360.71 440.634 L
370.8 458.234 L
380.89 461.251 L
390.98 462.76 L
401.07 458.737 L
411.16 437.114 L
421.25 375.766 L
431.34 395.377 L
441.43 448.177 L
451.52 460.749 L
461.61 462.76 L
471.7 462.76 L
481.79 457.731 L
491.88 431.583 L
501.97 366.211 L
512.06 403.926 L
522.15 452.2 L
532.24 461.251 L
542.33 462.76 L
552.42 463.263 L
562.51 458.234 L
572.6 432.086 L
582.69 361.183 L
592.78 401.411 L
602.87 452.2 L
612.96 461.754 L
623.05 463.263 L
633.14 463.263 L
643.23 460.749 L
653.32 443.651 L
663.41 370.737 L
673.5 377.274 L
683.59 447.171 L
693.68 460.749 L
703.77 462.76 L
713.86 463.766 L
723.95 463.766 L
734.04 460.246 L
744.13 431.583 L
754.22 339.057 L
764.31 401.411 L
774.4 455.217 L
784.49 462.76 L
794.58 463.766 L
804.67 463.766 L
814.76 464.771 L
824.85 465.274 L
834.94 465.777 L
845.03 463.263 L
855.12 457.229 L
865.21 460.749 L
875.3 462.257 L
885.39 460.749 L
895.48 457.229 L
905.57 451.697 L
915.66 446.166 L
925.75 438.623 L
935.84 433.091 L
945.93 432.086 L
956.02 437.617 L
966.11 443.149 L
976.2 444.154 L
986.29 441.64 L
996.38 436.611 L
1006.47 432.086 L
1016.56 433.594 L
1026.65 438.623 L
1036.74 443.149 L
1046.83 443.651 L
1056.92 440.634 L
1067.01 434.6 L
1077.1 431.08 L
1087.19 433.594 L
1097.28 438.623 L
1107.37 443.651 L
1117.46 443.651 L
1127.55 440.131 L
1137.64 433.594 L
1147.73 430.577 L
1157.82 434.097 L
1167.91 440.131 L
1178 443.149 L
S
GR
GS
[0.75 0 0 0.75 0 0] CT
1 GC
N
196 315 M
196 81 L
522 81 L
522 315 L
cp
f
GR
GS
[0.75 0 0 0.75 207.06358 76.84169] CT
/Helvetica 21.6 F
GS
[1 0 0 1 0 0] CT
0 9 moveto 
1 -1 scale
(Approximation1) t 
GR
GR
GS
[0.75 0 0 0.75 0 0] CT
0 0.447 0.741 RC
1 LJ
2.667 LW
N
243.118 102.456 M
273.088 102.456 L
S
GR
GS
[0.75 0 0 0.75 207.06358 105.505] CT
/Helvetica 21.6 F
GS
[1 0 0 1 0 0] CT
0 9 moveto 
1 -1 scale
(Approximation2) t 
GR
GR
GS
[0.75 0 0 0.75 0 0] CT
0.851 0.325 0.098 RC
1 LJ
2.667 LW
N
243.118 140.673 M
273.088 140.673 L
S
GR
GS
[0.75 0 0 0.75 207.06358 134.16833] CT
/Helvetica 21.6 F
GS
[1 0 0 1 0 0] CT
0 9 moveto 
1 -1 scale
(Approximation3) t 
GR
GR
GS
[0.75 0 0 0.75 0 0] CT
0.929 0.694 0.125 RC
1 LJ
2.667 LW
N
243.118 178.891 M
273.088 178.891 L
S
GR
GS
[0.75 0 0 0.75 207.06358 162.83167] CT
/Helvetica 21.6 F
GS
[1 0 0 1 0 0] CT
0 9 moveto 
1 -1 scale
(Approximation4) t 
GR
GR
GS
[0.75 0 0 0.75 0 0] CT
0.494 0.184 0.557 RC
1 LJ
2.667 LW
N
243.118 217.109 M
273.088 217.109 L
S
GR
GS
[0.75 0 0 0.75 207.06358 191.49498] CT
/Helvetica 21.6 F
GS
[1 0 0 1 0 0] CT
0 9 moveto 
1 -1 scale
(Approximation5) t 
GR
GR
GS
[0.75 0 0 0.75 0 0] CT
0.467 0.675 0.188 RC
1 LJ
2.667 LW
N
243.118 255.327 M
273.088 255.327 L
S
GR
GS
[0.75 0 0 0.75 207.06358 220.1583] CT
/Helvetica 21.6 F
GS
[1 0 0 1 0 0] CT
0 9 moveto 
1 -1 scale
(Laser Prediction Set) t 
GR
GR
GS
[0.75 0 0 0.75 0 0] CT
0.302 0.745 0.933 RC
1 LJ
2.667 LW
N
243.118 293.544 M
273.088 293.544 L
S
GR
GS
[0.75 0 0 0.75 0 0] CT
0.149 GC
10.0 ML
0.667 LW
N
196 315 M
196 81 L
522 81 L
522 315 L
cp
S
GR
%%Trailer
%%Pages: 1
%%EOF
