%!PS-Adobe-3.0 EPSF-3.0
%%Creator: (MATLAB, The Mathworks, Inc. Version 9.3.0.713579 \(R2017b\). Operating System: Mac OS X)
%%Title: (/Users/hannesvdc/WIT/data-mining/Session 2/plots/hidden1.eps)
%%CreationDate: 2017-11-25T15:02:36
%%Pages: (atend)
%%BoundingBox: 0 0 842 625
%%LanguageLevel: 3
%%EndComments
%%BeginProlog
%%BeginResource: procset (Apache XML Graphics Std ProcSet) 1.2 0
%%Version: 1.2 0
%%Copyright: (Copyright 2001-2003,2010 The Apache Software Foundation. License terms: http://www.apache.org/licenses/LICENSE-2.0)
/bd{bind def}bind def
/ld{load def}bd
/GR/grestore ld
/GS/gsave ld
/RM/rmoveto ld
/C/curveto ld
/t/show ld
/L/lineto ld
/ML/setmiterlimit ld
/CT/concat ld
/f/fill ld
/N/newpath ld
/S/stroke ld
/CC/setcmykcolor ld
/A/ashow ld
/cp/closepath ld
/RC/setrgbcolor ld
/LJ/setlinejoin ld
/GC/setgray ld
/LW/setlinewidth ld
/M/moveto ld
/re {4 2 roll M
1 index 0 rlineto
0 exch rlineto
neg 0 rlineto
cp } bd
/_ctm matrix def
/_tm matrix def
/BT { _ctm currentmatrix pop matrix _tm copy pop 0 0 moveto } bd
/ET { _ctm setmatrix } bd
/iTm { _ctm setmatrix _tm concat } bd
/Tm { _tm astore pop iTm 0 0 moveto } bd
/ux 0.0 def
/uy 0.0 def
/F {
  /Tp exch def
  /Tf exch def
  Tf findfont Tp scalefont setfont
  /cf Tf def  /cs Tp def
} bd
/ULS {currentpoint /uy exch def /ux exch def} bd
/ULE {
  /Tcx currentpoint pop def
  gsave
  newpath
  cf findfont cs scalefont dup
  /FontMatrix get 0 get /Ts exch def /FontInfo get dup
  /UnderlinePosition get Ts mul /To exch def
  /UnderlineThickness get Ts mul /Tt exch def
  ux uy To add moveto  Tcx uy To add lineto
  Tt setlinewidth stroke
  grestore
} bd
/OLE {
  /Tcx currentpoint pop def
  gsave
  newpath
  cf findfont cs scalefont dup
  /FontMatrix get 0 get /Ts exch def /FontInfo get dup
  /UnderlinePosition get Ts mul /To exch def
  /UnderlineThickness get Ts mul /Tt exch def
  ux uy To add cs add moveto Tcx uy To add cs add lineto
  Tt setlinewidth stroke
  grestore
} bd
/SOE {
  /Tcx currentpoint pop def
  gsave
  newpath
  cf findfont cs scalefont dup
  /FontMatrix get 0 get /Ts exch def /FontInfo get dup
  /UnderlinePosition get Ts mul /To exch def
  /UnderlineThickness get Ts mul /Tt exch def
  ux uy To add cs 10 mul 26 idiv add moveto Tcx uy To add cs 10 mul 26 idiv add lineto
  Tt setlinewidth stroke
  grestore
} bd
/QT {
/Y22 exch store
/X22 exch store
/Y21 exch store
/X21 exch store
currentpoint
/Y21 load 2 mul add 3 div exch
/X21 load 2 mul add 3 div exch
/X21 load 2 mul /X22 load add 3 div
/Y21 load 2 mul /Y22 load add 3 div
/X22 load /Y22 load curveto
} bd
/SSPD {
dup length /d exch dict def
{
/v exch def
/k exch def
currentpagedevice k known {
/cpdv currentpagedevice k get def
v cpdv ne {
/upd false def
/nullv v type /nulltype eq def
/nullcpdv cpdv type /nulltype eq def
nullv nullcpdv or
{
/upd true def
} {
/sametype v type cpdv type eq def
sametype {
v type /arraytype eq {
/vlen v length def
/cpdvlen cpdv length def
vlen cpdvlen eq {
0 1 vlen 1 sub {
/i exch def
/obj v i get def
/cpdobj cpdv i get def
obj cpdobj ne {
/upd true def
exit
} if
} for
} {
/upd true def
} ifelse
} {
v type /dicttype eq {
v {
/dv exch def
/dk exch def
/cpddv cpdv dk get def
dv cpddv ne {
/upd true def
exit
} if
} forall
} {
/upd true def
} ifelse
} ifelse
} if
} ifelse
upd true eq {
d k v put
} if
} if
} if
} forall
d length 0 gt {
d setpagedevice
} if
} bd
/RE { % /NewFontName [NewEncodingArray] /FontName RE -
  findfont dup length dict begin
  {
    1 index /FID ne
    {def} {pop pop} ifelse
  } forall
  /Encoding exch def
  /FontName 1 index def
  currentdict definefont pop
  end
} bind def
%%EndResource
%%BeginResource: procset (Apache XML Graphics EPS ProcSet) 1.0 0
%%Version: 1.0 0
%%Copyright: (Copyright 2002-2003 The Apache Software Foundation. License terms: http://www.apache.org/licenses/LICENSE-2.0)
/BeginEPSF { %def
/b4_Inc_state save def         % Save state for cleanup
/dict_count countdictstack def % Count objects on dict stack
/op_count count 1 sub def      % Count objects on operand stack
userdict begin                 % Push userdict on dict stack
/showpage { } def              % Redefine showpage, { } = null proc
0 setgray 0 setlinecap         % Prepare graphics state
1 setlinewidth 0 setlinejoin
10 setmiterlimit [ ] 0 setdash newpath
/languagelevel where           % If level not equal to 1 then
{pop languagelevel             % set strokeadjust and
1 ne                           % overprint to their defaults.
{false setstrokeadjust false setoverprint
} if
} if
} bd
/EndEPSF { %def
count op_count sub {pop} repeat            % Clean up stacks
countdictstack dict_count sub {end} repeat
b4_Inc_state restore
} bd
%%EndResource
%FOPBeginFontDict
%%IncludeResource: font Courier-Oblique
%%IncludeResource: font Courier-BoldOblique
%%IncludeResource: font Courier-Bold
%%IncludeResource: font ZapfDingbats
%%IncludeResource: font Symbol
%%IncludeResource: font Helvetica
%%IncludeResource: font Helvetica-Oblique
%%IncludeResource: font Helvetica-Bold
%%IncludeResource: font Helvetica-BoldOblique
%%IncludeResource: font Times-Roman
%%IncludeResource: font Times-Italic
%%IncludeResource: font Times-Bold
%%IncludeResource: font Times-BoldItalic
%%IncludeResource: font Courier
%FOPEndFontDict
%%BeginResource: encoding WinAnsiEncoding
/WinAnsiEncoding [
/.notdef /.notdef /.notdef /.notdef /.notdef
/.notdef /.notdef /.notdef /.notdef /.notdef
/.notdef /.notdef /.notdef /.notdef /.notdef
/.notdef /.notdef /.notdef /.notdef /.notdef
/.notdef /.notdef /.notdef /.notdef /.notdef
/.notdef /.notdef /.notdef /.notdef /.notdef
/.notdef /.notdef /space /exclam /quotedbl
/numbersign /dollar /percent /ampersand /quotesingle
/parenleft /parenright /asterisk /plus /comma
/hyphen /period /slash /zero /one
/two /three /four /five /six
/seven /eight /nine /colon /semicolon
/less /equal /greater /question /at
/A /B /C /D /E
/F /G /H /I /J
/K /L /M /N /O
/P /Q /R /S /T
/U /V /W /X /Y
/Z /bracketleft /backslash /bracketright /asciicircum
/underscore /quoteleft /a /b /c
/d /e /f /g /h
/i /j /k /l /m
/n /o /p /q /r
/s /t /u /v /w
/x /y /z /braceleft /bar
/braceright /asciitilde /bullet /Euro /bullet
/quotesinglbase /florin /quotedblbase /ellipsis /dagger
/daggerdbl /circumflex /perthousand /Scaron /guilsinglleft
/OE /bullet /Zcaron /bullet /bullet
/quoteleft /quoteright /quotedblleft /quotedblright /bullet
/endash /emdash /asciitilde /trademark /scaron
/guilsinglright /oe /bullet /zcaron /Ydieresis
/space /exclamdown /cent /sterling /currency
/yen /brokenbar /section /dieresis /copyright
/ordfeminine /guillemotleft /logicalnot /sfthyphen /registered
/macron /degree /plusminus /twosuperior /threesuperior
/acute /mu /paragraph /middot /cedilla
/onesuperior /ordmasculine /guillemotright /onequarter /onehalf
/threequarters /questiondown /Agrave /Aacute /Acircumflex
/Atilde /Adieresis /Aring /AE /Ccedilla
/Egrave /Eacute /Ecircumflex /Edieresis /Igrave
/Iacute /Icircumflex /Idieresis /Eth /Ntilde
/Ograve /Oacute /Ocircumflex /Otilde /Odieresis
/multiply /Oslash /Ugrave /Uacute /Ucircumflex
/Udieresis /Yacute /Thorn /germandbls /agrave
/aacute /acircumflex /atilde /adieresis /aring
/ae /ccedilla /egrave /eacute /ecircumflex
/edieresis /igrave /iacute /icircumflex /idieresis
/eth /ntilde /ograve /oacute /ocircumflex
/otilde /odieresis /divide /oslash /ugrave
/uacute /ucircumflex /udieresis /yacute /thorn
/ydieresis
] def
%%EndResource
%FOPBeginFontReencode
/Courier-Oblique findfont
dup length dict begin
  {1 index /FID ne {def} {pop pop} ifelse} forall
  /Encoding WinAnsiEncoding def
  currentdict
end
/Courier-Oblique exch definefont pop
/Courier-BoldOblique findfont
dup length dict begin
  {1 index /FID ne {def} {pop pop} ifelse} forall
  /Encoding WinAnsiEncoding def
  currentdict
end
/Courier-BoldOblique exch definefont pop
/Courier-Bold findfont
dup length dict begin
  {1 index /FID ne {def} {pop pop} ifelse} forall
  /Encoding WinAnsiEncoding def
  currentdict
end
/Courier-Bold exch definefont pop
/Helvetica findfont
dup length dict begin
  {1 index /FID ne {def} {pop pop} ifelse} forall
  /Encoding WinAnsiEncoding def
  currentdict
end
/Helvetica exch definefont pop
/Helvetica-Oblique findfont
dup length dict begin
  {1 index /FID ne {def} {pop pop} ifelse} forall
  /Encoding WinAnsiEncoding def
  currentdict
end
/Helvetica-Oblique exch definefont pop
/Helvetica-Bold findfont
dup length dict begin
  {1 index /FID ne {def} {pop pop} ifelse} forall
  /Encoding WinAnsiEncoding def
  currentdict
end
/Helvetica-Bold exch definefont pop
/Helvetica-BoldOblique findfont
dup length dict begin
  {1 index /FID ne {def} {pop pop} ifelse} forall
  /Encoding WinAnsiEncoding def
  currentdict
end
/Helvetica-BoldOblique exch definefont pop
/Times-Roman findfont
dup length dict begin
  {1 index /FID ne {def} {pop pop} ifelse} forall
  /Encoding WinAnsiEncoding def
  currentdict
end
/Times-Roman exch definefont pop
/Times-Italic findfont
dup length dict begin
  {1 index /FID ne {def} {pop pop} ifelse} forall
  /Encoding WinAnsiEncoding def
  currentdict
end
/Times-Italic exch definefont pop
/Times-Bold findfont
dup length dict begin
  {1 index /FID ne {def} {pop pop} ifelse} forall
  /Encoding WinAnsiEncoding def
  currentdict
end
/Times-Bold exch definefont pop
/Times-BoldItalic findfont
dup length dict begin
  {1 index /FID ne {def} {pop pop} ifelse} forall
  /Encoding WinAnsiEncoding def
  currentdict
end
/Times-BoldItalic exch definefont pop
/Courier findfont
dup length dict begin
  {1 index /FID ne {def} {pop pop} ifelse} forall
  /Encoding WinAnsiEncoding def
  currentdict
end
/Courier exch definefont pop
%FOPEndFontReencode
%%EndProlog
%%Page: 1 1
%%PageBoundingBox: 0 0 842 625
%%BeginPageSetup
[1 0 0 -1 0 625] CT
%%EndPageSetup
GS
1 GC
N
0 0 842 625 re
f
GR
GS
1 GC
N
0 0 842 625 re
f
GR
GS
1 GC
N
109.5 556 M
762 556 L
762 47 L
109.5 47 L
cp
f
GR
GS
0.149 GC
2 setlinecap
1 LJ
0.5 LW
N
109.5 556 M
762 556 L
S
GR
GS
0.149 GC
2 setlinecap
1 LJ
0.5 LW
N
109.5 47 M
762 47 L
S
GR
GS
0.149 GC
2 setlinecap
1 LJ
0.5 LW
N
109.5 556 M
109.5 549.475 L
S
GR
GS
0.149 GC
2 setlinecap
1 LJ
0.5 LW
N
240 556 M
240 549.475 L
S
GR
GS
0.149 GC
2 setlinecap
1 LJ
0.5 LW
N
370.5 556 M
370.5 549.475 L
S
GR
GS
0.149 GC
2 setlinecap
1 LJ
0.5 LW
N
501 556 M
501 549.475 L
S
GR
GS
0.149 GC
2 setlinecap
1 LJ
0.5 LW
N
631.5 556 M
631.5 549.475 L
S
GR
GS
0.149 GC
2 setlinecap
1 LJ
0.5 LW
N
762 556 M
762 549.475 L
S
GR
GS
0.149 GC
2 setlinecap
1 LJ
0.5 LW
N
109.5 47 M
109.5 53.525 L
S
GR
GS
0.149 GC
2 setlinecap
1 LJ
0.5 LW
N
240 47 M
240 53.525 L
S
GR
GS
0.149 GC
2 setlinecap
1 LJ
0.5 LW
N
370.5 47 M
370.5 53.525 L
S
GR
GS
0.149 GC
2 setlinecap
1 LJ
0.5 LW
N
501 47 M
501 53.525 L
S
GR
GS
0.149 GC
2 setlinecap
1 LJ
0.5 LW
N
631.5 47 M
631.5 53.525 L
S
GR
GS
0.149 GC
2 setlinecap
1 LJ
0.5 LW
N
762 47 M
762 53.525 L
S
GR
GS
[1 0 0 1 109.5 562.79999] CT
0.149 GC
/Helvetica 24 F
GS
[1 0 0 1 0 0] CT
-7 23 moveto 
1 -1 scale
(0) t 
GR
GR
GS
[1 0 0 1 240 562.79999] CT
0.149 GC
/Helvetica 24 F
GS
[1 0 0 1 0 0] CT
-17 23 moveto 
1 -1 scale
(0.2) t 
GR
GR
GS
[1 0 0 1 370.5 562.79999] CT
0.149 GC
/Helvetica 24 F
GS
[1 0 0 1 0 0] CT
-17 23 moveto 
1 -1 scale
(0.4) t 
GR
GR
GS
[1 0 0 1 501.00003 562.79999] CT
0.149 GC
/Helvetica 24 F
GS
[1 0 0 1 0 0] CT
-17 23 moveto 
1 -1 scale
(0.6) t 
GR
GR
GS
[1 0 0 1 631.5 562.79999] CT
0.149 GC
/Helvetica 24 F
GS
[1 0 0 1 0 0] CT
-17 23 moveto 
1 -1 scale
(0.8) t 
GR
GR
GS
[1 0 0 1 762 562.79999] CT
0.149 GC
/Helvetica 24 F
GS
[1 0 0 1 0 0] CT
-7 23 moveto 
1 -1 scale
(1) t 
GR
GR
GS
[1 0 0 1 435.75031 592.29999] CT
0.149 GC
/Helvetica 26.4 F
GS
[1 0 0 1 0 0] CT
-68.5 26 moveto 
1 -1 scale
(Noise Level) t 
GR
GR
GS
0.149 GC
2 setlinecap
1 LJ
0.5 LW
N
109.5 556 M
109.5 47 L
S
GR
GS
0.149 GC
2 setlinecap
1 LJ
0.5 LW
N
762 556 M
762 47 L
S
GR
GS
0.149 GC
2 setlinecap
1 LJ
0.5 LW
N
109.5 556 M
116.025 556 L
S
GR
GS
0.149 GC
2 setlinecap
1 LJ
0.5 LW
N
109.5 454.2 M
116.025 454.2 L
S
GR
GS
0.149 GC
2 setlinecap
1 LJ
0.5 LW
N
109.5 352.4 M
116.025 352.4 L
S
GR
GS
0.149 GC
2 setlinecap
1 LJ
0.5 LW
N
109.5 250.6 M
116.025 250.6 L
S
GR
GS
0.149 GC
2 setlinecap
1 LJ
0.5 LW
N
109.5 148.8 M
116.025 148.8 L
S
GR
GS
0.149 GC
2 setlinecap
1 LJ
0.5 LW
N
109.5 47 M
116.025 47 L
S
GR
GS
0.149 GC
2 setlinecap
1 LJ
0.5 LW
N
762 556 M
755.475 556 L
S
GR
GS
0.149 GC
2 setlinecap
1 LJ
0.5 LW
N
762 454.2 M
755.475 454.2 L
S
GR
GS
0.149 GC
2 setlinecap
1 LJ
0.5 LW
N
762 352.4 M
755.475 352.4 L
S
GR
GS
0.149 GC
2 setlinecap
1 LJ
0.5 LW
N
762 250.6 M
755.475 250.6 L
S
GR
GS
0.149 GC
2 setlinecap
1 LJ
0.5 LW
N
762 148.8 M
755.475 148.8 L
S
GR
GS
0.149 GC
2 setlinecap
1 LJ
0.5 LW
N
762 47 M
755.475 47 L
S
GR
GS
[1 0 0 1 102.7 556] CT
0.149 GC
/Helvetica 24 F
GS
[1 0 0 1 0 0] CT
-14 8.5 moveto 
1 -1 scale
(0) t 
GR
GR
GS
[1 0 0 1 102.7 454.20001] CT
0.149 GC
/Helvetica 24 F
GS
[1 0 0 1 0 0] CT
-34 8.5 moveto 
1 -1 scale
(0.2) t 
GR
GR
GS
[1 0 0 1 102.7 352.39999] CT
0.149 GC
/Helvetica 24 F
GS
[1 0 0 1 0 0] CT
-34 8.5 moveto 
1 -1 scale
(0.4) t 
GR
GR
GS
[1 0 0 1 102.7 250.59999] CT
0.149 GC
/Helvetica 24 F
GS
[1 0 0 1 0 0] CT
-34 8.5 moveto 
1 -1 scale
(0.6) t 
GR
GR
GS
[1 0 0 1 102.7 148.79999] CT
0.149 GC
/Helvetica 24 F
GS
[1 0 0 1 0 0] CT
-34 8.5 moveto 
1 -1 scale
(0.8) t 
GR
GR
GS
[1 0 0 1 102.7 47] CT
0.149 GC
/Helvetica 24 F
GS
[1 0 0 1 0 0] CT
-14 8.5 moveto 
1 -1 scale
(1) t 
GR
GR
GS
[0 -1 1 0 66.2 301.49976] CT
0.149 GC
/Helvetica 26.4 F
GS
[1 0 0 1 0 0] CT
-35.5 -6 moveto 
1 -1 scale
(Errors) t 
GR
GR
GS
0 0.447 0.741 RC
1 LJ
2 LW
N
109.5 536.423 M
142.125 465.294 L
174.75 337.391 L
207.375 217.972 L
240 189.259 L
272.625 140.317 L
305.25 133.138 L
337.875 127.918 L
370.5 109.646 L
403.125 108.994 L
435.75 91.374 L
468.375 84.196 L
501 96.595 L
533.625 90.069 L
566.25 75.713 L
598.875 87.459 L
631.5 77.018 L
664.125 77.671 L
696.75 80.933 L
729.375 77.018 L
762 84.196 L
S
GR
GS
0.851 0.325 0.098 RC
1 LJ
2 LW
N
109.5 556 M
142.125 551.432 L
174.75 474.429 L
207.375 385.028 L
240 293.669 L
272.625 235.591 L
305.25 203.615 L
337.875 150.758 L
370.5 152.715 L
403.125 132.486 L
435.75 122.045 L
468.375 105.078 L
501 105.731 L
533.625 98.553 L
566.25 90.722 L
598.875 94.637 L
631.5 86.806 L
664.125 80.281 L
696.75 82.238 L
729.375 84.849 L
762 82.891 L
S
GR
GS
0.929 0.694 0.125 RC
1 LJ
2 LW
N
109.5 556 M
142.125 554.042 L
174.75 521.414 L
207.375 445.064 L
240 341.959 L
272.625 277.355 L
305.25 231.676 L
337.875 176.208 L
370.5 169.682 L
403.125 144.232 L
435.75 129.223 L
468.375 131.833 L
501 133.791 L
533.625 100.51 L
566.25 100.51 L
598.875 96.595 L
631.5 105.078 L
664.125 106.383 L
696.75 91.374 L
729.375 90.069 L
762 90.069 L
S
GR
GS
0.494 0.184 0.557 RC
1 LJ
2 LW
N
109.5 556 M
142.125 556 L
174.75 555.347 L
207.375 522.719 L
240 475.735 L
272.625 393.512 L
305.25 331.518 L
337.875 281.923 L
370.5 238.854 L
403.125 206.878 L
435.75 163.156 L
468.375 149.453 L
501 146.19 L
533.625 133.138 L
566.25 116.824 L
598.875 110.951 L
631.5 116.172 L
664.125 102.468 L
696.75 104.426 L
729.375 97.247 L
762 100.51 L
S
GR
GS
0.467 0.675 0.188 RC
1 LJ
2 LW
N
109.5 556 M
142.125 556 L
174.75 555.347 L
207.375 531.855 L
240 475.082 L
272.625 379.808 L
305.25 312.594 L
337.875 264.956 L
370.5 227.76 L
403.125 180.776 L
435.75 165.114 L
468.375 156.631 L
501 140.317 L
533.625 126.613 L
566.25 129.223 L
598.875 116.824 L
631.5 103.773 L
664.125 108.341 L
696.75 97.9 L
729.375 101.815 L
762 96.595 L
S
GR
GS
1 GC
N
720 505 M
720 369 L
498.5 369 L
498.5 505 L
cp
f
GR
GS
[1 0 0 1 535.5 384] CT
/Helvetica 21.6 F
GS
[1 0 0 1 0 0] CT
0 8 moveto 
1 -1 scale
(10 hidden neurons) t 
GR
GR
GS
0 0.447 0.741 RC
1 LJ
2 LW
N
502.5 384 M
532.5 384 L
S
GR
GS
[1 0 0 1 535.5 410.5] CT
/Helvetica 21.6 F
GS
[1 0 0 1 0 0] CT
0 8 moveto 
1 -1 scale
(15 hidden neurons) t 
GR
GR
GS
0.851 0.325 0.098 RC
1 LJ
2 LW
N
502.5 410.5 M
532.5 410.5 L
S
GR
GS
[1 0 0 1 535.5 437] CT
/Helvetica 21.6 F
GS
[1 0 0 1 0 0] CT
0 8 moveto 
1 -1 scale
(20 hidden neurons) t 
GR
GR
GS
0.929 0.694 0.125 RC
1 LJ
2 LW
N
502.5 437 M
532.5 437 L
S
GR
GS
[1 0 0 1 535.5 463.5] CT
/Helvetica 21.6 F
GS
[1 0 0 1 0 0] CT
0 8 moveto 
1 -1 scale
(25 hidden neurons) t 
GR
GR
GS
0.494 0.184 0.557 RC
1 LJ
2 LW
N
502.5 463.5 M
532.5 463.5 L
S
GR
GS
[1 0 0 1 535.5 490] CT
/Helvetica 21.6 F
GS
[1 0 0 1 0 0] CT
0 8 moveto 
1 -1 scale
(30 hidden neurons) t 
GR
GR
GS
0.467 0.675 0.188 RC
1 LJ
2 LW
N
502.5 490 M
532.5 490 L
S
GR
GS
0.149 GC
10.0 ML
0.5 LW
N
498.5 505 M
498.5 369 L
720 369 L
720 505 L
cp
S
GR
%%Trailer
%%Pages: 1
%%EOF
