%!PS-Adobe-3.0 EPSF-3.0
%%Creator: (MATLAB, The Mathworks, Inc. Version 9.3.0.713579 \(R2017b\). Operating System: Mac OS X)
%%Title: (/Users/hannesvdc/WIT/data-mining/Session 2/plots/hidden2.eps)
%%CreationDate: 2017-11-25T15:04:18
%%Pages: (atend)
%%BoundingBox: 0 0 840 665
%%LanguageLevel: 3
%%EndComments
%%BeginProlog
%%BeginResource: procset (Apache XML Graphics Std ProcSet) 1.2 0
%%Version: 1.2 0
%%Copyright: (Copyright 2001-2003,2010 The Apache Software Foundation. License terms: http://www.apache.org/licenses/LICENSE-2.0)
/bd{bind def}bind def
/ld{load def}bd
/GR/grestore ld
/GS/gsave ld
/RM/rmoveto ld
/C/curveto ld
/t/show ld
/L/lineto ld
/ML/setmiterlimit ld
/CT/concat ld
/f/fill ld
/N/newpath ld
/S/stroke ld
/CC/setcmykcolor ld
/A/ashow ld
/cp/closepath ld
/RC/setrgbcolor ld
/LJ/setlinejoin ld
/GC/setgray ld
/LW/setlinewidth ld
/M/moveto ld
/re {4 2 roll M
1 index 0 rlineto
0 exch rlineto
neg 0 rlineto
cp } bd
/_ctm matrix def
/_tm matrix def
/BT { _ctm currentmatrix pop matrix _tm copy pop 0 0 moveto } bd
/ET { _ctm setmatrix } bd
/iTm { _ctm setmatrix _tm concat } bd
/Tm { _tm astore pop iTm 0 0 moveto } bd
/ux 0.0 def
/uy 0.0 def
/F {
  /Tp exch def
  /Tf exch def
  Tf findfont Tp scalefont setfont
  /cf Tf def  /cs Tp def
} bd
/ULS {currentpoint /uy exch def /ux exch def} bd
/ULE {
  /Tcx currentpoint pop def
  gsave
  newpath
  cf findfont cs scalefont dup
  /FontMatrix get 0 get /Ts exch def /FontInfo get dup
  /UnderlinePosition get Ts mul /To exch def
  /UnderlineThickness get Ts mul /Tt exch def
  ux uy To add moveto  Tcx uy To add lineto
  Tt setlinewidth stroke
  grestore
} bd
/OLE {
  /Tcx currentpoint pop def
  gsave
  newpath
  cf findfont cs scalefont dup
  /FontMatrix get 0 get /Ts exch def /FontInfo get dup
  /UnderlinePosition get Ts mul /To exch def
  /UnderlineThickness get Ts mul /Tt exch def
  ux uy To add cs add moveto Tcx uy To add cs add lineto
  Tt setlinewidth stroke
  grestore
} bd
/SOE {
  /Tcx currentpoint pop def
  gsave
  newpath
  cf findfont cs scalefont dup
  /FontMatrix get 0 get /Ts exch def /FontInfo get dup
  /UnderlinePosition get Ts mul /To exch def
  /UnderlineThickness get Ts mul /Tt exch def
  ux uy To add cs 10 mul 26 idiv add moveto Tcx uy To add cs 10 mul 26 idiv add lineto
  Tt setlinewidth stroke
  grestore
} bd
/QT {
/Y22 exch store
/X22 exch store
/Y21 exch store
/X21 exch store
currentpoint
/Y21 load 2 mul add 3 div exch
/X21 load 2 mul add 3 div exch
/X21 load 2 mul /X22 load add 3 div
/Y21 load 2 mul /Y22 load add 3 div
/X22 load /Y22 load curveto
} bd
/SSPD {
dup length /d exch dict def
{
/v exch def
/k exch def
currentpagedevice k known {
/cpdv currentpagedevice k get def
v cpdv ne {
/upd false def
/nullv v type /nulltype eq def
/nullcpdv cpdv type /nulltype eq def
nullv nullcpdv or
{
/upd true def
} {
/sametype v type cpdv type eq def
sametype {
v type /arraytype eq {
/vlen v length def
/cpdvlen cpdv length def
vlen cpdvlen eq {
0 1 vlen 1 sub {
/i exch def
/obj v i get def
/cpdobj cpdv i get def
obj cpdobj ne {
/upd true def
exit
} if
} for
} {
/upd true def
} ifelse
} {
v type /dicttype eq {
v {
/dv exch def
/dk exch def
/cpddv cpdv dk get def
dv cpddv ne {
/upd true def
exit
} if
} forall
} {
/upd true def
} ifelse
} ifelse
} if
} ifelse
upd true eq {
d k v put
} if
} if
} if
} forall
d length 0 gt {
d setpagedevice
} if
} bd
/RE { % /NewFontName [NewEncodingArray] /FontName RE -
  findfont dup length dict begin
  {
    1 index /FID ne
    {def} {pop pop} ifelse
  } forall
  /Encoding exch def
  /FontName 1 index def
  currentdict definefont pop
  end
} bind def
%%EndResource
%%BeginResource: procset (Apache XML Graphics EPS ProcSet) 1.0 0
%%Version: 1.0 0
%%Copyright: (Copyright 2002-2003 The Apache Software Foundation. License terms: http://www.apache.org/licenses/LICENSE-2.0)
/BeginEPSF { %def
/b4_Inc_state save def         % Save state for cleanup
/dict_count countdictstack def % Count objects on dict stack
/op_count count 1 sub def      % Count objects on operand stack
userdict begin                 % Push userdict on dict stack
/showpage { } def              % Redefine showpage, { } = null proc
0 setgray 0 setlinecap         % Prepare graphics state
1 setlinewidth 0 setlinejoin
10 setmiterlimit [ ] 0 setdash newpath
/languagelevel where           % If level not equal to 1 then
{pop languagelevel             % set strokeadjust and
1 ne                           % overprint to their defaults.
{false setstrokeadjust false setoverprint
} if
} if
} bd
/EndEPSF { %def
count op_count sub {pop} repeat            % Clean up stacks
countdictstack dict_count sub {end} repeat
b4_Inc_state restore
} bd
%%EndResource
%FOPBeginFontDict
%%IncludeResource: font Courier-Oblique
%%IncludeResource: font Courier-BoldOblique
%%IncludeResource: font Courier-Bold
%%IncludeResource: font ZapfDingbats
%%IncludeResource: font Symbol
%%IncludeResource: font Helvetica
%%IncludeResource: font Helvetica-Oblique
%%IncludeResource: font Helvetica-Bold
%%IncludeResource: font Helvetica-BoldOblique
%%IncludeResource: font Times-Roman
%%IncludeResource: font Times-Italic
%%IncludeResource: font Times-Bold
%%IncludeResource: font Times-BoldItalic
%%IncludeResource: font Courier
%FOPEndFontDict
%%BeginResource: encoding WinAnsiEncoding
/WinAnsiEncoding [
/.notdef /.notdef /.notdef /.notdef /.notdef
/.notdef /.notdef /.notdef /.notdef /.notdef
/.notdef /.notdef /.notdef /.notdef /.notdef
/.notdef /.notdef /.notdef /.notdef /.notdef
/.notdef /.notdef /.notdef /.notdef /.notdef
/.notdef /.notdef /.notdef /.notdef /.notdef
/.notdef /.notdef /space /exclam /quotedbl
/numbersign /dollar /percent /ampersand /quotesingle
/parenleft /parenright /asterisk /plus /comma
/hyphen /period /slash /zero /one
/two /three /four /five /six
/seven /eight /nine /colon /semicolon
/less /equal /greater /question /at
/A /B /C /D /E
/F /G /H /I /J
/K /L /M /N /O
/P /Q /R /S /T
/U /V /W /X /Y
/Z /bracketleft /backslash /bracketright /asciicircum
/underscore /quoteleft /a /b /c
/d /e /f /g /h
/i /j /k /l /m
/n /o /p /q /r
/s /t /u /v /w
/x /y /z /braceleft /bar
/braceright /asciitilde /bullet /Euro /bullet
/quotesinglbase /florin /quotedblbase /ellipsis /dagger
/daggerdbl /circumflex /perthousand /Scaron /guilsinglleft
/OE /bullet /Zcaron /bullet /bullet
/quoteleft /quoteright /quotedblleft /quotedblright /bullet
/endash /emdash /asciitilde /trademark /scaron
/guilsinglright /oe /bullet /zcaron /Ydieresis
/space /exclamdown /cent /sterling /currency
/yen /brokenbar /section /dieresis /copyright
/ordfeminine /guillemotleft /logicalnot /sfthyphen /registered
/macron /degree /plusminus /twosuperior /threesuperior
/acute /mu /paragraph /middot /cedilla
/onesuperior /ordmasculine /guillemotright /onequarter /onehalf
/threequarters /questiondown /Agrave /Aacute /Acircumflex
/Atilde /Adieresis /Aring /AE /Ccedilla
/Egrave /Eacute /Ecircumflex /Edieresis /Igrave
/Iacute /Icircumflex /Idieresis /Eth /Ntilde
/Ograve /Oacute /Ocircumflex /Otilde /Odieresis
/multiply /Oslash /Ugrave /Uacute /Ucircumflex
/Udieresis /Yacute /Thorn /germandbls /agrave
/aacute /acircumflex /atilde /adieresis /aring
/ae /ccedilla /egrave /eacute /ecircumflex
/edieresis /igrave /iacute /icircumflex /idieresis
/eth /ntilde /ograve /oacute /ocircumflex
/otilde /odieresis /divide /oslash /ugrave
/uacute /ucircumflex /udieresis /yacute /thorn
/ydieresis
] def
%%EndResource
%FOPBeginFontReencode
/Courier-Oblique findfont
dup length dict begin
  {1 index /FID ne {def} {pop pop} ifelse} forall
  /Encoding WinAnsiEncoding def
  currentdict
end
/Courier-Oblique exch definefont pop
/Courier-BoldOblique findfont
dup length dict begin
  {1 index /FID ne {def} {pop pop} ifelse} forall
  /Encoding WinAnsiEncoding def
  currentdict
end
/Courier-BoldOblique exch definefont pop
/Courier-Bold findfont
dup length dict begin
  {1 index /FID ne {def} {pop pop} ifelse} forall
  /Encoding WinAnsiEncoding def
  currentdict
end
/Courier-Bold exch definefont pop
/Helvetica findfont
dup length dict begin
  {1 index /FID ne {def} {pop pop} ifelse} forall
  /Encoding WinAnsiEncoding def
  currentdict
end
/Helvetica exch definefont pop
/Helvetica-Oblique findfont
dup length dict begin
  {1 index /FID ne {def} {pop pop} ifelse} forall
  /Encoding WinAnsiEncoding def
  currentdict
end
/Helvetica-Oblique exch definefont pop
/Helvetica-Bold findfont
dup length dict begin
  {1 index /FID ne {def} {pop pop} ifelse} forall
  /Encoding WinAnsiEncoding def
  currentdict
end
/Helvetica-Bold exch definefont pop
/Helvetica-BoldOblique findfont
dup length dict begin
  {1 index /FID ne {def} {pop pop} ifelse} forall
  /Encoding WinAnsiEncoding def
  currentdict
end
/Helvetica-BoldOblique exch definefont pop
/Times-Roman findfont
dup length dict begin
  {1 index /FID ne {def} {pop pop} ifelse} forall
  /Encoding WinAnsiEncoding def
  currentdict
end
/Times-Roman exch definefont pop
/Times-Italic findfont
dup length dict begin
  {1 index /FID ne {def} {pop pop} ifelse} forall
  /Encoding WinAnsiEncoding def
  currentdict
end
/Times-Italic exch definefont pop
/Times-Bold findfont
dup length dict begin
  {1 index /FID ne {def} {pop pop} ifelse} forall
  /Encoding WinAnsiEncoding def
  currentdict
end
/Times-Bold exch definefont pop
/Times-BoldItalic findfont
dup length dict begin
  {1 index /FID ne {def} {pop pop} ifelse} forall
  /Encoding WinAnsiEncoding def
  currentdict
end
/Times-BoldItalic exch definefont pop
/Courier findfont
dup length dict begin
  {1 index /FID ne {def} {pop pop} ifelse} forall
  /Encoding WinAnsiEncoding def
  currentdict
end
/Courier exch definefont pop
%FOPEndFontReencode
%%EndProlog
%%Page: 1 1
%%PageBoundingBox: 0 0 840 665
%%BeginPageSetup
[1 0 0 -1 0 665] CT
%%EndPageSetup
GS
1 GC
N
0 0 840 665 re
f
GR
GS
1 GC
N
0 0 840 665 re
f
GR
GS
1 GC
N
109 592 M
760 592 L
760 50 L
109 50 L
cp
f
GR
GS
0.149 GC
2 setlinecap
1 LJ
0.5 LW
N
109 592 M
760 592 L
S
GR
GS
0.149 GC
2 setlinecap
1 LJ
0.5 LW
N
109 50 M
760 50 L
S
GR
GS
0.149 GC
2 setlinecap
1 LJ
0.5 LW
N
109 592 M
109 585.49 L
S
GR
GS
0.149 GC
2 setlinecap
1 LJ
0.5 LW
N
239.2 592 M
239.2 585.49 L
S
GR
GS
0.149 GC
2 setlinecap
1 LJ
0.5 LW
N
369.4 592 M
369.4 585.49 L
S
GR
GS
0.149 GC
2 setlinecap
1 LJ
0.5 LW
N
499.6 592 M
499.6 585.49 L
S
GR
GS
0.149 GC
2 setlinecap
1 LJ
0.5 LW
N
629.8 592 M
629.8 585.49 L
S
GR
GS
0.149 GC
2 setlinecap
1 LJ
0.5 LW
N
760 592 M
760 585.49 L
S
GR
GS
0.149 GC
2 setlinecap
1 LJ
0.5 LW
N
109 50 M
109 56.51 L
S
GR
GS
0.149 GC
2 setlinecap
1 LJ
0.5 LW
N
239.2 50 M
239.2 56.51 L
S
GR
GS
0.149 GC
2 setlinecap
1 LJ
0.5 LW
N
369.4 50 M
369.4 56.51 L
S
GR
GS
0.149 GC
2 setlinecap
1 LJ
0.5 LW
N
499.6 50 M
499.6 56.51 L
S
GR
GS
0.149 GC
2 setlinecap
1 LJ
0.5 LW
N
629.8 50 M
629.8 56.51 L
S
GR
GS
0.149 GC
2 setlinecap
1 LJ
0.5 LW
N
760 50 M
760 56.51 L
S
GR
GS
[1 0 0 1 109 598.79999] CT
0.149 GC
/Helvetica 24 F
GS
[1 0 0 1 0 0] CT
-7 23 moveto 
1 -1 scale
(0) t 
GR
GR
GS
[1 0 0 1 239.2 598.79999] CT
0.149 GC
/Helvetica 24 F
GS
[1 0 0 1 0 0] CT
-17 23 moveto 
1 -1 scale
(0.2) t 
GR
GR
GS
[1 0 0 1 369.39999 598.79999] CT
0.149 GC
/Helvetica 24 F
GS
[1 0 0 1 0 0] CT
-17 23 moveto 
1 -1 scale
(0.4) t 
GR
GR
GS
[1 0 0 1 499.60001 598.79999] CT
0.149 GC
/Helvetica 24 F
GS
[1 0 0 1 0 0] CT
-17 23 moveto 
1 -1 scale
(0.6) t 
GR
GR
GS
[1 0 0 1 629.79999 598.79999] CT
0.149 GC
/Helvetica 24 F
GS
[1 0 0 1 0 0] CT
-17 23 moveto 
1 -1 scale
(0.8) t 
GR
GR
GS
[1 0 0 1 760 598.79999] CT
0.149 GC
/Helvetica 24 F
GS
[1 0 0 1 0 0] CT
-7 23 moveto 
1 -1 scale
(1) t 
GR
GR
GS
[1 0 0 1 434.50031 628.29999] CT
0.149 GC
/Helvetica 26.4 F
GS
[1 0 0 1 0 0] CT
-64.5 26 moveto 
1 -1 scale
(Noise level) t 
GR
GR
GS
0.149 GC
2 setlinecap
1 LJ
0.5 LW
N
109 592 M
109 50 L
S
GR
GS
0.149 GC
2 setlinecap
1 LJ
0.5 LW
N
760 592 M
760 50 L
S
GR
GS
0.149 GC
2 setlinecap
1 LJ
0.5 LW
N
109 592 M
115.51 592 L
S
GR
GS
0.149 GC
2 setlinecap
1 LJ
0.5 LW
N
109 524.25 M
115.51 524.25 L
S
GR
GS
0.149 GC
2 setlinecap
1 LJ
0.5 LW
N
109 456.5 M
115.51 456.5 L
S
GR
GS
0.149 GC
2 setlinecap
1 LJ
0.5 LW
N
109 388.75 M
115.51 388.75 L
S
GR
GS
0.149 GC
2 setlinecap
1 LJ
0.5 LW
N
109 321 M
115.51 321 L
S
GR
GS
0.149 GC
2 setlinecap
1 LJ
0.5 LW
N
109 253.25 M
115.51 253.25 L
S
GR
GS
0.149 GC
2 setlinecap
1 LJ
0.5 LW
N
109 185.5 M
115.51 185.5 L
S
GR
GS
0.149 GC
2 setlinecap
1 LJ
0.5 LW
N
109 117.75 M
115.51 117.75 L
S
GR
GS
0.149 GC
2 setlinecap
1 LJ
0.5 LW
N
109 50 M
115.51 50 L
S
GR
GS
0.149 GC
2 setlinecap
1 LJ
0.5 LW
N
760 592 M
753.49 592 L
S
GR
GS
0.149 GC
2 setlinecap
1 LJ
0.5 LW
N
760 524.25 M
753.49 524.25 L
S
GR
GS
0.149 GC
2 setlinecap
1 LJ
0.5 LW
N
760 456.5 M
753.49 456.5 L
S
GR
GS
0.149 GC
2 setlinecap
1 LJ
0.5 LW
N
760 388.75 M
753.49 388.75 L
S
GR
GS
0.149 GC
2 setlinecap
1 LJ
0.5 LW
N
760 321 M
753.49 321 L
S
GR
GS
0.149 GC
2 setlinecap
1 LJ
0.5 LW
N
760 253.25 M
753.49 253.25 L
S
GR
GS
0.149 GC
2 setlinecap
1 LJ
0.5 LW
N
760 185.5 M
753.49 185.5 L
S
GR
GS
0.149 GC
2 setlinecap
1 LJ
0.5 LW
N
760 117.75 M
753.49 117.75 L
S
GR
GS
0.149 GC
2 setlinecap
1 LJ
0.5 LW
N
760 50 M
753.49 50 L
S
GR
GS
[1 0 0 1 102.2 592] CT
0.149 GC
/Helvetica 24 F
GS
[1 0 0 1 0 0] CT
-14 8.5 moveto 
1 -1 scale
(0) t 
GR
GR
GS
[1 0 0 1 102.2 524.25] CT
0.149 GC
/Helvetica 24 F
GS
[1 0 0 1 0 0] CT
-34 8.5 moveto 
1 -1 scale
(0.1) t 
GR
GR
GS
[1 0 0 1 102.2 456.5] CT
0.149 GC
/Helvetica 24 F
GS
[1 0 0 1 0 0] CT
-34 8.5 moveto 
1 -1 scale
(0.2) t 
GR
GR
GS
[1 0 0 1 102.2 388.75] CT
0.149 GC
/Helvetica 24 F
GS
[1 0 0 1 0 0] CT
-34 8.5 moveto 
1 -1 scale
(0.3) t 
GR
GR
GS
[1 0 0 1 102.2 321] CT
0.149 GC
/Helvetica 24 F
GS
[1 0 0 1 0 0] CT
-34 8.5 moveto 
1 -1 scale
(0.4) t 
GR
GR
GS
[1 0 0 1 102.2 253.25] CT
0.149 GC
/Helvetica 24 F
GS
[1 0 0 1 0 0] CT
-34 8.5 moveto 
1 -1 scale
(0.5) t 
GR
GR
GS
[1 0 0 1 102.2 185.49998] CT
0.149 GC
/Helvetica 24 F
GS
[1 0 0 1 0 0] CT
-34 8.5 moveto 
1 -1 scale
(0.6) t 
GR
GR
GS
[1 0 0 1 102.2 117.75001] CT
0.149 GC
/Helvetica 24 F
GS
[1 0 0 1 0 0] CT
-34 8.5 moveto 
1 -1 scale
(0.7) t 
GR
GR
GS
[1 0 0 1 102.2 49.99999] CT
0.149 GC
/Helvetica 24 F
GS
[1 0 0 1 0 0] CT
-34 8.5 moveto 
1 -1 scale
(0.8) t 
GR
GR
GS
[0 -1 1 0 65.7 320.99973] CT
0.149 GC
/Helvetica 26.4 F
GS
[1 0 0 1 0 0] CT
-35.5 -6 moveto 
1 -1 scale
(Errors) t 
GR
GR
GS
0 0.447 0.741 RC
1 LJ
2 LW
N
109 513.827 M
141.55 522.513 L
174.1 519.038 L
206.65 511.221 L
239.2 492.112 L
271.75 473.003 L
304.3 438.26 L
336.85 394.83 L
369.4 365.298 L
401.95 316.657 L
434.5 281.045 L
467.05 233.272 L
499.6 224.587 L
532.15 168.997 L
564.7 166.391 L
597.25 138.596 L
629.8 115.144 L
662.35 101.247 L
694.9 102.115 L
727.45 83.006 L
760 63.029 L
S
GR
GS
0.851 0.325 0.098 RC
1 LJ
2 LW
N
109 592 M
141.55 592 L
174.1 592 L
206.65 590.263 L
239.2 582.445 L
271.75 572.022 L
304.3 556.388 L
336.85 517.301 L
369.4 479.952 L
401.95 437.391 L
434.5 378.327 L
467.05 333.16 L
499.6 287.125 L
532.15 233.272 L
564.7 214.163 L
597.25 193.317 L
629.8 150.756 L
662.35 124.699 L
694.9 109.933 L
727.45 108.196 L
760 76.926 L
S
GR
GS
0.929 0.694 0.125 RC
1 LJ
2 LW
N
109 539.885 M
141.55 538.147 L
174.1 539.885 L
206.65 529.462 L
239.2 526.856 L
271.75 517.301 L
304.3 511.221 L
336.85 489.506 L
369.4 464.317 L
401.95 421.756 L
434.5 387.881 L
467.05 353.138 L
499.6 317.526 L
532.15 269.753 L
564.7 254.987 L
597.25 203.74 L
629.8 195.923 L
662.35 168.997 L
694.9 142.071 L
727.45 125.567 L
760 100.378 L
S
GR
GS
0.494 0.184 0.557 RC
1 LJ
2 LW
N
109 592 M
141.55 592 L
174.1 592 L
206.65 592 L
239.2 591.131 L
271.75 585.051 L
304.3 571.154 L
336.85 546.833 L
369.4 509.484 L
401.95 450.42 L
434.5 384.407 L
467.05 335.766 L
499.6 313.183 L
532.15 256.724 L
564.7 215.032 L
597.25 198.529 L
629.8 171.603 L
662.35 139.465 L
694.9 116.013 L
727.45 102.115 L
760 94.298 L
S
GR
GS
0.467 0.675 0.188 RC
1 LJ
2 LW
N
109 592 M
141.55 592 L
174.1 592 L
206.65 592 L
239.2 591.131 L
271.75 584.183 L
304.3 573.76 L
336.85 538.147 L
369.4 512.09 L
401.95 459.106 L
434.5 415.676 L
467.05 365.298 L
499.6 336.635 L
532.15 263.673 L
564.7 220.244 L
597.25 205.478 L
629.8 186.369 L
662.35 138.596 L
694.9 128.173 L
727.45 112.538 L
760 79.532 L
S
GR
GS
1 GC
N
727 547 M
727 411 L
505.5 411 L
505.5 547 L
cp
f
GR
GS
[1 0 0 1 542.5 426] CT
/Helvetica 21.6 F
GS
[1 0 0 1 0 0] CT
0 8 moveto 
1 -1 scale
(10 hidden neurons) t 
GR
GR
GS
0 0.447 0.741 RC
1 LJ
2 LW
N
509.5 426 M
539.5 426 L
S
GR
GS
[1 0 0 1 542.5 452.5] CT
/Helvetica 21.6 F
GS
[1 0 0 1 0 0] CT
0 8 moveto 
1 -1 scale
(15 hidden neurons) t 
GR
GR
GS
0.851 0.325 0.098 RC
1 LJ
2 LW
N
509.5 452.5 M
539.5 452.5 L
S
GR
GS
[1 0 0 1 542.5 479] CT
/Helvetica 21.6 F
GS
[1 0 0 1 0 0] CT
0 8 moveto 
1 -1 scale
(20 hidden neurons) t 
GR
GR
GS
0.929 0.694 0.125 RC
1 LJ
2 LW
N
509.5 479 M
539.5 479 L
S
GR
GS
[1 0 0 1 542.5 505.5] CT
/Helvetica 21.6 F
GS
[1 0 0 1 0 0] CT
0 8 moveto 
1 -1 scale
(25 hidden neurons) t 
GR
GR
GS
0.494 0.184 0.557 RC
1 LJ
2 LW
N
509.5 505.5 M
539.5 505.5 L
S
GR
GS
[1 0 0 1 542.5 532] CT
/Helvetica 21.6 F
GS
[1 0 0 1 0 0] CT
0 8 moveto 
1 -1 scale
(30 hidden neurons) t 
GR
GR
GS
0.467 0.675 0.188 RC
1 LJ
2 LW
N
509.5 532 M
539.5 532 L
S
GR
GS
0.149 GC
10.0 ML
0.5 LW
N
505.5 547 M
505.5 411 L
727 411 L
727 547 L
cp
S
GR
%%Trailer
%%Pages: 1
%%EOF
