%!PS-Adobe-3.0 EPSF-3.0
%%Creator: (MATLAB, The Mathworks, Inc. Version 9.1.0.441655 \(R2016b\). Operating System: Windows 8)
%%Title: (C:/Users/Eigenaar/WIT/Data Mining/data-mining/Session 2/plots/lm.eps)
%%CreationDate: 2017-11-22T17:31:44
%%Pages: (atend)
%%BoundingBox: 0 0 734 591
%%LanguageLevel: 3
%%EndComments
%%BeginProlog
%%BeginResource: procset (Apache XML Graphics Std ProcSet) 1.2 0
%%Version: 1.2 0
%%Copyright: (Copyright 2001-2003,2010 The Apache Software Foundation. License terms: http://www.apache.org/licenses/LICENSE-2.0)
/bd{bind def}bind def
/ld{load def}bd
/GR/grestore ld
/M/moveto ld
/LJ/setlinejoin ld
/C/curveto ld
/f/fill ld
/LW/setlinewidth ld
/GC/setgray ld
/t/show ld
/N/newpath ld
/CT/concat ld
/cp/closepath ld
/S/stroke ld
/L/lineto ld
/CC/setcmykcolor ld
/A/ashow ld
/GS/gsave ld
/RC/setrgbcolor ld
/RM/rmoveto ld
/ML/setmiterlimit ld
/re {4 2 roll M
1 index 0 rlineto
0 exch rlineto
neg 0 rlineto
cp } bd
/_ctm matrix def
/_tm matrix def
/BT { _ctm currentmatrix pop matrix _tm copy pop 0 0 moveto } bd
/ET { _ctm setmatrix } bd
/iTm { _ctm setmatrix _tm concat } bd
/Tm { _tm astore pop iTm 0 0 moveto } bd
/ux 0.0 def
/uy 0.0 def
/F {
  /Tp exch def
  /Tf exch def
  Tf findfont Tp scalefont setfont
  /cf Tf def  /cs Tp def
} bd
/ULS {currentpoint /uy exch def /ux exch def} bd
/ULE {
  /Tcx currentpoint pop def
  gsave
  newpath
  cf findfont cs scalefont dup
  /FontMatrix get 0 get /Ts exch def /FontInfo get dup
  /UnderlinePosition get Ts mul /To exch def
  /UnderlineThickness get Ts mul /Tt exch def
  ux uy To add moveto  Tcx uy To add lineto
  Tt setlinewidth stroke
  grestore
} bd
/OLE {
  /Tcx currentpoint pop def
  gsave
  newpath
  cf findfont cs scalefont dup
  /FontMatrix get 0 get /Ts exch def /FontInfo get dup
  /UnderlinePosition get Ts mul /To exch def
  /UnderlineThickness get Ts mul /Tt exch def
  ux uy To add cs add moveto Tcx uy To add cs add lineto
  Tt setlinewidth stroke
  grestore
} bd
/SOE {
  /Tcx currentpoint pop def
  gsave
  newpath
  cf findfont cs scalefont dup
  /FontMatrix get 0 get /Ts exch def /FontInfo get dup
  /UnderlinePosition get Ts mul /To exch def
  /UnderlineThickness get Ts mul /Tt exch def
  ux uy To add cs 10 mul 26 idiv add moveto Tcx uy To add cs 10 mul 26 idiv add lineto
  Tt setlinewidth stroke
  grestore
} bd
/QT {
/Y22 exch store
/X22 exch store
/Y21 exch store
/X21 exch store
currentpoint
/Y21 load 2 mul add 3 div exch
/X21 load 2 mul add 3 div exch
/X21 load 2 mul /X22 load add 3 div
/Y21 load 2 mul /Y22 load add 3 div
/X22 load /Y22 load curveto
} bd
/SSPD {
dup length /d exch dict def
{
/v exch def
/k exch def
currentpagedevice k known {
/cpdv currentpagedevice k get def
v cpdv ne {
/upd false def
/nullv v type /nulltype eq def
/nullcpdv cpdv type /nulltype eq def
nullv nullcpdv or
{
/upd true def
} {
/sametype v type cpdv type eq def
sametype {
v type /arraytype eq {
/vlen v length def
/cpdvlen cpdv length def
vlen cpdvlen eq {
0 1 vlen 1 sub {
/i exch def
/obj v i get def
/cpdobj cpdv i get def
obj cpdobj ne {
/upd true def
exit
} if
} for
} {
/upd true def
} ifelse
} {
v type /dicttype eq {
v {
/dv exch def
/dk exch def
/cpddv cpdv dk get def
dv cpddv ne {
/upd true def
exit
} if
} forall
} {
/upd true def
} ifelse
} ifelse
} if
} ifelse
upd true eq {
d k v put
} if
} if
} if
} forall
d length 0 gt {
d setpagedevice
} if
} bd
/RE { % /NewFontName [NewEncodingArray] /FontName RE -
  findfont dup length dict begin
  {
    1 index /FID ne
    {def} {pop pop} ifelse
  } forall
  /Encoding exch def
  /FontName 1 index def
  currentdict definefont pop
  end
} bind def
%%EndResource
%%BeginResource: procset (Apache XML Graphics EPS ProcSet) 1.0 0
%%Version: 1.0 0
%%Copyright: (Copyright 2002-2003 The Apache Software Foundation. License terms: http://www.apache.org/licenses/LICENSE-2.0)
/BeginEPSF { %def
/b4_Inc_state save def         % Save state for cleanup
/dict_count countdictstack def % Count objects on dict stack
/op_count count 1 sub def      % Count objects on operand stack
userdict begin                 % Push userdict on dict stack
/showpage { } def              % Redefine showpage, { } = null proc
0 setgray 0 setlinecap         % Prepare graphics state
1 setlinewidth 0 setlinejoin
10 setmiterlimit [ ] 0 setdash newpath
/languagelevel where           % If level not equal to 1 then
{pop languagelevel             % set strokeadjust and
1 ne                           % overprint to their defaults.
{false setstrokeadjust false setoverprint
} if
} if
} bd
/EndEPSF { %def
count op_count sub {pop} repeat            % Clean up stacks
countdictstack dict_count sub {end} repeat
b4_Inc_state restore
} bd
%%EndResource
%FOPBeginFontDict
%%IncludeResource: font Courier-Bold
%%IncludeResource: font Helvetica
%%IncludeResource: font Courier-BoldOblique
%%IncludeResource: font Courier-Oblique
%%IncludeResource: font Times-Roman
%%IncludeResource: font Helvetica-BoldOblique
%%IncludeResource: font Helvetica-Bold
%%IncludeResource: font Helvetica-Oblique
%%IncludeResource: font Times-BoldItalic
%%IncludeResource: font Courier
%%IncludeResource: font Times-Italic
%%IncludeResource: font Times-Bold
%%IncludeResource: font Symbol
%%IncludeResource: font ZapfDingbats
%FOPEndFontDict
%%BeginResource: encoding WinAnsiEncoding
/WinAnsiEncoding [
/.notdef /.notdef /.notdef /.notdef /.notdef
/.notdef /.notdef /.notdef /.notdef /.notdef
/.notdef /.notdef /.notdef /.notdef /.notdef
/.notdef /.notdef /.notdef /.notdef /.notdef
/.notdef /.notdef /.notdef /.notdef /.notdef
/.notdef /.notdef /.notdef /.notdef /.notdef
/.notdef /.notdef /space /exclam /quotedbl
/numbersign /dollar /percent /ampersand /quotesingle
/parenleft /parenright /asterisk /plus /comma
/hyphen /period /slash /zero /one
/two /three /four /five /six
/seven /eight /nine /colon /semicolon
/less /equal /greater /question /at
/A /B /C /D /E
/F /G /H /I /J
/K /L /M /N /O
/P /Q /R /S /T
/U /V /W /X /Y
/Z /bracketleft /backslash /bracketright /asciicircum
/underscore /quoteleft /a /b /c
/d /e /f /g /h
/i /j /k /l /m
/n /o /p /q /r
/s /t /u /v /w
/x /y /z /braceleft /bar
/braceright /asciitilde /bullet /Euro /bullet
/quotesinglbase /florin /quotedblbase /ellipsis /dagger
/daggerdbl /circumflex /perthousand /Scaron /guilsinglleft
/OE /bullet /Zcaron /bullet /bullet
/quoteleft /quoteright /quotedblleft /quotedblright /bullet
/endash /emdash /asciitilde /trademark /scaron
/guilsinglright /oe /bullet /zcaron /Ydieresis
/space /exclamdown /cent /sterling /currency
/yen /brokenbar /section /dieresis /copyright
/ordfeminine /guillemotleft /logicalnot /sfthyphen /registered
/macron /degree /plusminus /twosuperior /threesuperior
/acute /mu /paragraph /middot /cedilla
/onesuperior /ordmasculine /guillemotright /onequarter /onehalf
/threequarters /questiondown /Agrave /Aacute /Acircumflex
/Atilde /Adieresis /Aring /AE /Ccedilla
/Egrave /Eacute /Ecircumflex /Edieresis /Igrave
/Iacute /Icircumflex /Idieresis /Eth /Ntilde
/Ograve /Oacute /Ocircumflex /Otilde /Odieresis
/multiply /Oslash /Ugrave /Uacute /Ucircumflex
/Udieresis /Yacute /Thorn /germandbls /agrave
/aacute /acircumflex /atilde /adieresis /aring
/ae /ccedilla /egrave /eacute /ecircumflex
/edieresis /igrave /iacute /icircumflex /idieresis
/eth /ntilde /ograve /oacute /ocircumflex
/otilde /odieresis /divide /oslash /ugrave
/uacute /ucircumflex /udieresis /yacute /thorn
/ydieresis
] def
%%EndResource
%FOPBeginFontReencode
/Courier-Bold findfont
dup length dict begin
  {1 index /FID ne {def} {pop pop} ifelse} forall
  /Encoding WinAnsiEncoding def
  currentdict
end
/Courier-Bold exch definefont pop
/Helvetica findfont
dup length dict begin
  {1 index /FID ne {def} {pop pop} ifelse} forall
  /Encoding WinAnsiEncoding def
  currentdict
end
/Helvetica exch definefont pop
/Courier-BoldOblique findfont
dup length dict begin
  {1 index /FID ne {def} {pop pop} ifelse} forall
  /Encoding WinAnsiEncoding def
  currentdict
end
/Courier-BoldOblique exch definefont pop
/Courier-Oblique findfont
dup length dict begin
  {1 index /FID ne {def} {pop pop} ifelse} forall
  /Encoding WinAnsiEncoding def
  currentdict
end
/Courier-Oblique exch definefont pop
/Times-Roman findfont
dup length dict begin
  {1 index /FID ne {def} {pop pop} ifelse} forall
  /Encoding WinAnsiEncoding def
  currentdict
end
/Times-Roman exch definefont pop
/Helvetica-BoldOblique findfont
dup length dict begin
  {1 index /FID ne {def} {pop pop} ifelse} forall
  /Encoding WinAnsiEncoding def
  currentdict
end
/Helvetica-BoldOblique exch definefont pop
/Helvetica-Bold findfont
dup length dict begin
  {1 index /FID ne {def} {pop pop} ifelse} forall
  /Encoding WinAnsiEncoding def
  currentdict
end
/Helvetica-Bold exch definefont pop
/Helvetica-Oblique findfont
dup length dict begin
  {1 index /FID ne {def} {pop pop} ifelse} forall
  /Encoding WinAnsiEncoding def
  currentdict
end
/Helvetica-Oblique exch definefont pop
/Times-BoldItalic findfont
dup length dict begin
  {1 index /FID ne {def} {pop pop} ifelse} forall
  /Encoding WinAnsiEncoding def
  currentdict
end
/Times-BoldItalic exch definefont pop
/Courier findfont
dup length dict begin
  {1 index /FID ne {def} {pop pop} ifelse} forall
  /Encoding WinAnsiEncoding def
  currentdict
end
/Courier exch definefont pop
/Times-Italic findfont
dup length dict begin
  {1 index /FID ne {def} {pop pop} ifelse} forall
  /Encoding WinAnsiEncoding def
  currentdict
end
/Times-Italic exch definefont pop
/Times-Bold findfont
dup length dict begin
  {1 index /FID ne {def} {pop pop} ifelse} forall
  /Encoding WinAnsiEncoding def
  currentdict
end
/Times-Bold exch definefont pop
%FOPEndFontReencode
%%EndProlog
%%Page: 1 1
%%PageBoundingBox: 0 0 734 591
%%BeginPageSetup
[1 0 0 -1 0 591] CT
%%EndPageSetup
GS
[0.75 0 0 0.75 0 0] CT
1 GC
N
0 0 978 788 re
f
GR
GS
[0.75 0 0 0.75 0 0] CT
1 GC
N
0 0 978 788 re
f
GR
GS
[0.75 0 0 0.75 0 0] CT
1 GC
N
127 701 M
885 701 L
885 59 L
127 59 L
cp
f
GR
GS
[0.75 0 0 0.75 0 0] CT
0.149 GC
2 setlinecap
1 LJ
0.667 LW
N
127 701 M
885 701 L
S
GR
GS
[0.75 0 0 0.75 0 0] CT
0.149 GC
2 setlinecap
1 LJ
0.667 LW
N
127 59 M
885 59 L
S
GR
GS
[0.75 0 0 0.75 0 0] CT
0.149 GC
2 setlinecap
1 LJ
0.667 LW
N
127 701 M
127 693.42 L
S
GR
GS
[0.75 0 0 0.75 0 0] CT
0.149 GC
2 setlinecap
1 LJ
0.667 LW
N
278.6 701 M
278.6 693.42 L
S
GR
GS
[0.75 0 0 0.75 0 0] CT
0.149 GC
2 setlinecap
1 LJ
0.667 LW
N
430.2 701 M
430.2 693.42 L
S
GR
GS
[0.75 0 0 0.75 0 0] CT
0.149 GC
2 setlinecap
1 LJ
0.667 LW
N
581.8 701 M
581.8 693.42 L
S
GR
GS
[0.75 0 0 0.75 0 0] CT
0.149 GC
2 setlinecap
1 LJ
0.667 LW
N
733.4 701 M
733.4 693.42 L
S
GR
GS
[0.75 0 0 0.75 0 0] CT
0.149 GC
2 setlinecap
1 LJ
0.667 LW
N
885 701 M
885 693.42 L
S
GR
GS
[0.75 0 0 0.75 0 0] CT
0.149 GC
2 setlinecap
1 LJ
0.667 LW
N
127 59 M
127 66.58 L
S
GR
GS
[0.75 0 0 0.75 0 0] CT
0.149 GC
2 setlinecap
1 LJ
0.667 LW
N
278.6 59 M
278.6 66.58 L
S
GR
GS
[0.75 0 0 0.75 0 0] CT
0.149 GC
2 setlinecap
1 LJ
0.667 LW
N
430.2 59 M
430.2 66.58 L
S
GR
GS
[0.75 0 0 0.75 0 0] CT
0.149 GC
2 setlinecap
1 LJ
0.667 LW
N
581.8 59 M
581.8 66.58 L
S
GR
GS
[0.75 0 0 0.75 0 0] CT
0.149 GC
2 setlinecap
1 LJ
0.667 LW
N
733.4 59 M
733.4 66.58 L
S
GR
GS
[0.75 0 0 0.75 0 0] CT
0.149 GC
2 setlinecap
1 LJ
0.667 LW
N
885 59 M
885 66.58 L
S
GR
GS
[0.75 0 0 0.75 95.25 531.35001] CT
0.149 GC
/Helvetica 24 F
GS
[1 0 0 1 0 0] CT
-7 25 moveto 
1 -1 scale
(0) t 
GR
GR
GS
[0.75 0 0 0.75 208.95 531.35001] CT
0.149 GC
/Helvetica 24 F
GS
[1 0 0 1 0 0] CT
-13.5 25 moveto 
1 -1 scale
(20) t 
GR
GR
GS
[0.75 0 0 0.75 322.65001 531.35001] CT
0.149 GC
/Helvetica 24 F
GS
[1 0 0 1 0 0] CT
-13.5 25 moveto 
1 -1 scale
(40) t 
GR
GR
GS
[0.75 0 0 0.75 436.34999 531.35001] CT
0.149 GC
/Helvetica 24 F
GS
[1 0 0 1 0 0] CT
-13.5 25 moveto 
1 -1 scale
(60) t 
GR
GR
GS
[0.75 0 0 0.75 550.05002 531.35001] CT
0.149 GC
/Helvetica 24 F
GS
[1 0 0 1 0 0] CT
-13.5 25 moveto 
1 -1 scale
(80) t 
GR
GR
GS
[0.75 0 0 0.75 663.75 531.35001] CT
0.149 GC
/Helvetica 24 F
GS
[1 0 0 1 0 0] CT
-20.5 25 moveto 
1 -1 scale
(100) t 
GR
GR
GS
[0.75 0 0 0.75 379.50027 555.59999] CT
0.149 GC
/Helvetica 26.4 F
GS
[1 0 0 1 0 0] CT
-46.5 27 moveto 
1 -1 scale
(Time [s]) t 
GR
GR
GS
[0.75 0 0 0.75 0 0] CT
0.149 GC
2 setlinecap
1 LJ
0.667 LW
N
127 701 M
127 59 L
S
GR
GS
[0.75 0 0 0.75 0 0] CT
0.149 GC
2 setlinecap
1 LJ
0.667 LW
N
885 701 M
885 59 L
S
GR
GS
[0.75 0 0 0.75 0 0] CT
0.149 GC
2 setlinecap
1 LJ
0.667 LW
N
127 701 M
134.58 701 L
S
GR
GS
[0.75 0 0 0.75 0 0] CT
0.149 GC
2 setlinecap
1 LJ
0.667 LW
N
127 609.286 M
134.58 609.286 L
S
GR
GS
[0.75 0 0 0.75 0 0] CT
0.149 GC
2 setlinecap
1 LJ
0.667 LW
N
127 517.571 M
134.58 517.571 L
S
GR
GS
[0.75 0 0 0.75 0 0] CT
0.149 GC
2 setlinecap
1 LJ
0.667 LW
N
127 425.857 M
134.58 425.857 L
S
GR
GS
[0.75 0 0 0.75 0 0] CT
0.149 GC
2 setlinecap
1 LJ
0.667 LW
N
127 334.143 M
134.58 334.143 L
S
GR
GS
[0.75 0 0 0.75 0 0] CT
0.149 GC
2 setlinecap
1 LJ
0.667 LW
N
127 242.429 M
134.58 242.429 L
S
GR
GS
[0.75 0 0 0.75 0 0] CT
0.149 GC
2 setlinecap
1 LJ
0.667 LW
N
127 150.714 M
134.58 150.714 L
S
GR
GS
[0.75 0 0 0.75 0 0] CT
0.149 GC
2 setlinecap
1 LJ
0.667 LW
N
127 59 M
134.58 59 L
S
GR
GS
[0.75 0 0 0.75 0 0] CT
0.149 GC
2 setlinecap
1 LJ
0.667 LW
N
885 701 M
877.42 701 L
S
GR
GS
[0.75 0 0 0.75 0 0] CT
0.149 GC
2 setlinecap
1 LJ
0.667 LW
N
885 609.286 M
877.42 609.286 L
S
GR
GS
[0.75 0 0 0.75 0 0] CT
0.149 GC
2 setlinecap
1 LJ
0.667 LW
N
885 517.571 M
877.42 517.571 L
S
GR
GS
[0.75 0 0 0.75 0 0] CT
0.149 GC
2 setlinecap
1 LJ
0.667 LW
N
885 425.857 M
877.42 425.857 L
S
GR
GS
[0.75 0 0 0.75 0 0] CT
0.149 GC
2 setlinecap
1 LJ
0.667 LW
N
885 334.143 M
877.42 334.143 L
S
GR
GS
[0.75 0 0 0.75 0 0] CT
0.149 GC
2 setlinecap
1 LJ
0.667 LW
N
885 242.429 M
877.42 242.429 L
S
GR
GS
[0.75 0 0 0.75 0 0] CT
0.149 GC
2 setlinecap
1 LJ
0.667 LW
N
885 150.714 M
877.42 150.714 L
S
GR
GS
[0.75 0 0 0.75 0 0] CT
0.149 GC
2 setlinecap
1 LJ
0.667 LW
N
885 59 M
877.42 59 L
S
GR
GS
[0.75 0 0 0.75 89.65 525.75] CT
0.149 GC
/Helvetica 24 F
GS
[1 0 0 1 0 0] CT
-49 9.5 moveto 
1 -1 scale
(-400) t 
GR
GR
GS
[0.75 0 0 0.75 89.65 456.96428] CT
0.149 GC
/Helvetica 24 F
GS
[1 0 0 1 0 0] CT
-49 9.5 moveto 
1 -1 scale
(-300) t 
GR
GR
GS
[0.75 0 0 0.75 89.65 388.17856] CT
0.149 GC
/Helvetica 24 F
GS
[1 0 0 1 0 0] CT
-49 9.5 moveto 
1 -1 scale
(-200) t 
GR
GR
GS
[0.75 0 0 0.75 89.65 319.39286] CT
0.149 GC
/Helvetica 24 F
GS
[1 0 0 1 0 0] CT
-49 9.5 moveto 
1 -1 scale
(-100) t 
GR
GR
GS
[0.75 0 0 0.75 89.65 250.60714] CT
0.149 GC
/Helvetica 24 F
GS
[1 0 0 1 0 0] CT
-14 9.5 moveto 
1 -1 scale
(0) t 
GR
GR
GS
[0.75 0 0 0.75 89.65 181.82143] CT
0.149 GC
/Helvetica 24 F
GS
[1 0 0 1 0 0] CT
-41 9.5 moveto 
1 -1 scale
(100) t 
GR
GR
GS
[0.75 0 0 0.75 89.65 113.03571] CT
0.149 GC
/Helvetica 24 F
GS
[1 0 0 1 0 0] CT
-41 9.5 moveto 
1 -1 scale
(200) t 
GR
GR
GS
[0.75 0 0 0.75 89.65 44.25] CT
0.149 GC
/Helvetica 24 F
GS
[1 0 0 1 0 0] CT
-41 9.5 moveto 
1 -1 scale
(300) t 
GR
GR
GS
[0.75 0 0 0.75 0 0] CT
0 0.447 0.741 RC
1 LJ
2.667 LW
N
134.58 265.241 M
142.16 173.62 L
149.74 226.417 L
157.32 302.665 L
164.9 317.666 L
172.48 322.488 L
180.06 317.456 L
187.64 295.22 L
195.22 224.359 L
202.8 178.254 L
210.38 269.973 L
217.96 312.669 L
225.54 318.271 L
233.12 320.523 L
240.7 307.046 L
248.28 267.85 L
255.86 184.856 L
263.44 230.438 L
271.02 305.505 L
278.6 316.089 L
286.18 326.357 L
293.76 315.223 L
301.34 291.404 L
308.92 216.873 L
316.5 194.957 L
324.08 283.124 L
331.66 310.627 L
339.24 322.896 L
346.82 323.281 L
354.4 309.647 L
361.98 258.918 L
369.56 184.189 L
377.14 251.08 L
384.72 309.787 L
392.3 322.904 L
399.88 326.318 L
407.46 317.179 L
415.04 286.836 L
422.62 204.94 L
430.2 210.323 L
437.78 297.24 L
445.36 319.7 L
452.94 320.269 L
460.52 322.48 L
468.1 301.22 L
475.68 237.894 L
483.26 185.272 L
490.84 272.468 L
498.42 313.098 L
506 324.824 L
513.58 320.674 L
521.16 316.718 L
528.74 267.175 L
536.32 190.809 L
543.9 236.873 L
551.48 303.411 L
559.06 322.79 L
566.64 320.652 L
574.22 318.51 L
581.8 297.834 L
589.38 213.869 L
596.96 200.022 L
604.54 287.239 L
612.12 317.055 L
619.7 320.932 L
627.28 318.366 L
634.86 304.5 L
642.44 247.08 L
650.02 184.396 L
657.6 259.278 L
665.18 310.77 L
672.76 322.277 L
680.34 319.81 L
687.92 316.931 L
695.5 275.504 L
703.08 193.063 L
710.66 222.981 L
718.24 297.488 L
725.82 318.64 L
733.4 321.871 L
740.98 315.697 L
748.56 301.162 L
756.14 223.54 L
763.72 191.487 L
771.3 277.514 L
778.88 315.379 L
786.46 318.557 L
794.04 318.054 L
801.62 306.165 L
809.2 256.713 L
816.78 180.515 L
824.36 247.895 L
831.94 307.182 L
839.52 320.176 L
847.1 321.02 L
854.68 315.659 L
862.26 284.035 L
869.84 197.673 L
877.42 209.544 L
885 291.611 L
S
GR
GS
[0.75 0 0 0.75 0 0] CT
0.851 0.325 0.098 RC
1 LJ
2.667 LW
N
134.58 264.473 M
142.16 196.317 L
149.74 239.614 L
157.32 308.844 L
164.9 325.893 L
172.48 330.258 L
180.06 326.75 L
187.64 296.459 L
195.22 225.275 L
202.8 218.181 L
210.38 289.485 L
217.96 323.059 L
225.54 331.87 L
233.12 328.987 L
240.7 323.695 L
248.28 265.268 L
255.86 208.572 L
263.44 267.741 L
271.02 319.526 L
278.6 329.205 L
286.18 326.996 L
293.76 316.808 L
301.34 290.295 L
308.92 218.327 L
316.5 253.151 L
324.08 306.559 L
331.66 327.987 L
339.24 322.961 L
346.82 321.279 L
354.4 295.052 L
361.98 228.252 L
369.56 249.983 L
377.14 300.916 L
384.72 322.927 L
392.3 319.299 L
399.88 322.982 L
407.46 294.018 L
415.04 235.589 L
422.62 241.613 L
430.2 297.718 L
437.78 323.243 L
445.36 316.296 L
452.94 314.147 L
460.52 290.522 L
468.1 241.174 L
475.68 237.135 L
483.26 291.048 L
490.84 320.246 L
498.42 313.968 L
506 310.18 L
513.58 287.295 L
521.16 240.58 L
528.74 235.735 L
536.32 288.898 L
543.9 319.575 L
551.48 310.812 L
559.06 308.113 L
566.64 285.284 L
574.22 241.955 L
581.8 232.514 L
589.38 287.752 L
596.96 318.356 L
604.54 310.472 L
612.12 303.947 L
619.7 283.224 L
627.28 241.075 L
634.86 231.542 L
642.44 285.445 L
650.02 317.579 L
657.6 309.059 L
665.18 301.708 L
672.76 282.029 L
680.34 240.116 L
687.92 230.178 L
695.5 284.117 L
703.08 317.068 L
710.66 308.421 L
718.24 300.152 L
725.82 280.403 L
733.4 239.602 L
740.98 228.994 L
748.56 283.946 L
756.14 316.656 L
763.72 308.644 L
771.3 298.929 L
778.88 279.809 L
786.46 238.805 L
794.04 228.25 L
801.62 283.109 L
809.2 316.719 L
816.78 308.607 L
824.36 298.46 L
831.94 279.358 L
839.52 238.076 L
847.1 227.224 L
854.68 282.901 L
862.26 316.702 L
869.84 308.981 L
877.42 298.496 L
885 279.499 L
S
GR
GS
[0.75 0 0 0.75 0 0] CT
0.929 0.694 0.125 RC
1 LJ
2.667 LW
N
134.58 267.819 M
142.16 171.311 L
149.74 223.993 L
157.32 308.377 L
164.9 325.97 L
172.48 327.492 L
180.06 323.962 L
187.64 307.17 L
195.22 241.139 L
202.8 165.354 L
210.38 267.093 L
217.96 320.014 L
225.54 332.926 L
233.12 329.026 L
240.7 332.831 L
248.28 294.664 L
255.86 214.55 L
263.44 184.601 L
271.02 297.728 L
278.6 329.014 L
286.18 330.026 L
293.76 326.054 L
301.34 325.367 L
308.92 273.988 L
316.5 177.583 L
324.08 234.11 L
331.66 323.148 L
339.24 333.234 L
346.82 333.065 L
354.4 339.78 L
361.98 315.789 L
369.56 263.425 L
377.14 168.477 L
384.72 269.368 L
392.3 320.082 L
399.88 333.824 L
407.46 319.428 L
415.04 326.49 L
422.62 286.015 L
430.2 226.653 L
437.78 198.49 L
445.36 313.305 L
452.94 322.95 L
460.52 326.307 L
468.1 322.032 L
475.68 305.764 L
483.26 257.747 L
490.84 186.91 L
498.42 274.218 L
506 319.311 L
513.58 332.994 L
521.16 310.714 L
528.74 323.978 L
536.32 271.852 L
543.9 224.459 L
551.48 246.768 L
559.06 300.969 L
566.64 317.136 L
574.22 331.934 L
581.8 304.718 L
589.38 282.863 L
596.96 204.367 L
604.54 240.699 L
612.12 295.968 L
619.7 335.502 L
627.28 322.59 L
634.86 310.189 L
642.44 303.423 L
650.02 249.743 L
657.6 227.653 L
665.18 278.956 L
672.76 317.579 L
680.34 323.532 L
687.92 331.334 L
695.5 303.038 L
703.08 248.822 L
710.66 216.908 L
718.24 273.624 L
725.82 313.795 L
733.4 333.689 L
740.98 306.783 L
748.56 307.266 L
756.14 275.172 L
763.72 234.793 L
771.3 263.69 L
778.88 293.631 L
786.46 330.125 L
794.04 318.339 L
801.62 308.968 L
809.2 267.143 L
816.78 222.508 L
824.36 264.84 L
831.94 306.602 L
839.52 339.612 L
847.1 316.814 L
854.68 295.106 L
862.26 278.714 L
869.84 248.96 L
877.42 266.522 L
885 292.712 L
S
GR
GS
[0.75 0 0 0.75 0 0] CT
0.494 0.184 0.557 RC
1 LJ
2.667 LW
N
134.58 265.339 M
142.16 168.546 L
149.74 229.011 L
157.32 307.83 L
164.9 323.558 L
172.48 325.289 L
180.06 321.219 L
187.64 307.829 L
195.22 227.405 L
202.8 164.322 L
210.38 273.001 L
217.96 316.668 L
225.54 325.188 L
233.12 325.693 L
240.7 322.182 L
248.28 291.847 L
255.86 187.813 L
263.44 196.054 L
271.02 298.781 L
278.6 324.342 L
286.18 330.006 L
293.76 331.514 L
301.34 322.118 L
308.92 260.388 L
316.5 159.342 L
324.08 242.245 L
331.66 314.659 L
339.24 327.059 L
346.82 332.598 L
354.4 334.746 L
361.98 322.215 L
369.56 232.941 L
377.14 154.404 L
384.72 277.469 L
392.3 319.419 L
399.88 329.37 L
407.46 336.618 L
415.04 332.125 L
422.62 306.176 L
430.2 201.968 L
437.78 185.305 L
445.36 296.306 L
452.94 329.356 L
460.52 342.319 L
468.1 339.637 L
475.68 331.107 L
483.26 266.265 L
490.84 177.118 L
498.42 232.282 L
506 314.85 L
513.58 338.201 L
521.16 344.701 L
528.74 342.122 L
536.32 335.485 L
543.9 240.323 L
551.48 160.311 L
559.06 276.74 L
566.64 330.904 L
574.22 336.523 L
581.8 343.483 L
589.38 340.44 L
596.96 321.939 L
604.54 222.747 L
612.12 165.311 L
619.7 286.026 L
627.28 333.124 L
634.86 340.416 L
642.44 347.907 L
650.02 332.642 L
657.6 281.544 L
665.18 194.074 L
672.76 218.511 L
680.34 322.787 L
687.92 344.057 L
695.5 361.374 L
703.08 349.082 L
710.66 341.872 L
718.24 248.134 L
725.82 185.688 L
733.4 273.605 L
740.98 325.422 L
748.56 345.758 L
756.14 348.632 L
763.72 353.376 L
771.3 334.18 L
778.88 217.498 L
786.46 184.147 L
794.04 298.59 L
801.62 345.557 L
809.2 347.344 L
816.78 373.997 L
824.36 350.215 L
831.94 294.75 L
839.52 203.091 L
847.1 212.381 L
854.68 339.798 L
862.26 347.025 L
869.84 378.679 L
877.42 373.328 L
885 380.33 L
S
GR
GS
[0.75 0 0 0.75 0 0] CT
0.467 0.675 0.188 RC
1 LJ
2.667 LW
N
134.58 268.456 M
142.16 170.1 L
149.74 221.958 L
157.32 301.121 L
164.9 320.301 L
172.48 323.938 L
180.06 320.934 L
187.64 303.309 L
195.22 232.038 L
202.8 162.128 L
210.38 260.771 L
217.96 311.421 L
225.54 321.973 L
233.12 323.667 L
240.7 317.918 L
248.28 289.802 L
255.86 192.153 L
263.44 184.43 L
271.02 285.156 L
278.6 317.468 L
286.18 323.752 L
293.76 323.855 L
301.34 314.849 L
308.92 272.639 L
316.5 162.403 L
324.08 212.537 L
331.66 299.984 L
339.24 321.432 L
346.82 324.531 L
354.4 323.428 L
361.98 311.327 L
369.56 255.623 L
377.14 147.141 L
384.72 235.685 L
392.3 307.948 L
399.88 322.002 L
407.46 326.6 L
415.04 325.549 L
422.62 311.898 L
430.2 248.448 L
437.78 137.963 L
445.36 243.085 L
452.94 310.76 L
460.52 323.515 L
468.1 326.494 L
475.68 324.954 L
483.26 314.174 L
490.84 254.085 L
498.42 132.874 L
506 233.652 L
513.58 310.889 L
521.16 324.366 L
528.74 328.674 L
536.32 332.505 L
543.9 329.192 L
551.48 301.151 L
559.06 170.631 L
566.64 135.42 L
574.22 297.921 L
581.8 333.797 L
589.38 325.09 L
596.96 317.796 L
604.54 318.769 L
612.12 317.194 L
619.7 275.168 L
627.28 137.191 L
634.86 198.922 L
642.44 307.4 L
650.02 324.201 L
657.6 347.579 L
665.18 354.412 L
672.76 355.506 L
680.34 391.262 L
687.92 513.767 L
695.5 653.699 L
703.08 631.342 L
710.66 538.916 L
718.24 576.298 L
725.82 640.052 L
733.4 549.784 L
740.98 411.103 L
748.56 141.032 L
756.14 272.287 L
763.72 308.738 L
771.3 173.946 L
778.88 331.491 L
786.46 130.105 L
794.04 90.589 L
801.62 64.042 L
809.2 293.69 L
816.78 360.227 L
824.36 355.192 L
831.94 425.843 L
839.52 356.191 L
847.1 236.435 L
854.68 216.067 L
862.26 336.654 L
869.84 305.405 L
877.42 215.388 L
885 329.351 L
S
GR
GS
[0.75 0 0 0.75 0 0] CT
0.302 0.745 0.933 RC
1 LJ
2.667 LW
N
134.58 268.109 M
142.16 170.891 L
149.74 222.251 L
157.32 301.126 L
164.9 321.303 L
172.48 324.054 L
180.06 321.303 L
187.64 304.794 L
195.22 233.257 L
202.8 161.72 L
210.38 260.771 L
217.96 313.049 L
225.54 323.137 L
233.12 324.971 L
240.7 320.386 L
248.28 292.871 L
255.86 195.654 L
263.44 179.146 L
271.02 285.534 L
278.6 317.634 L
286.18 323.137 L
293.76 325.889 L
301.34 318.551 L
308.92 279.114 L
316.5 167.223 L
324.08 202.991 L
331.66 299.291 L
339.24 322.22 L
346.82 325.889 L
354.4 325.889 L
361.98 316.717 L
369.56 269.026 L
377.14 149.797 L
384.72 218.583 L
392.3 306.629 L
399.88 323.137 L
407.46 325.889 L
415.04 326.806 L
422.62 317.634 L
430.2 269.943 L
437.78 140.626 L
445.36 213.997 L
452.94 306.629 L
460.52 324.054 L
468.1 326.806 L
475.68 326.806 L
483.26 322.22 L
490.84 291.037 L
498.42 158.051 L
506 169.974 L
513.58 297.457 L
521.16 322.22 L
528.74 325.889 L
536.32 327.723 L
543.9 327.723 L
551.48 321.303 L
559.06 269.026 L
566.64 100.271 L
574.22 213.997 L
581.8 312.131 L
589.38 325.889 L
596.96 327.723 L
604.54 327.723 L
612.12 329.557 L
619.7 330.474 L
627.28 331.391 L
634.86 326.806 L
642.44 315.8 L
650.02 322.22 L
657.6 324.971 L
665.18 322.22 L
672.76 315.8 L
680.34 305.711 L
687.92 295.623 L
695.5 281.866 L
703.08 271.777 L
710.66 269.943 L
718.24 280.031 L
725.82 290.12 L
733.4 291.954 L
740.98 287.369 L
748.56 278.197 L
756.14 269.943 L
763.72 272.694 L
771.3 281.866 L
778.88 290.12 L
786.46 291.037 L
794.04 285.534 L
801.62 274.529 L
809.2 268.109 L
816.78 272.694 L
824.36 281.866 L
831.94 291.037 L
839.52 291.037 L
847.1 284.617 L
854.68 272.694 L
862.26 267.191 L
869.84 273.611 L
877.42 284.617 L
885 290.12 L
S
GR
GS
[0.75 0 0 0.75 0 0] CT
1 GC
N
184 667 M
184 411 L
478 411 L
478 667 L
cp
f
GR
GS
[0.75 0 0 0.75 185.92934 325.85458] CT
/Helvetica 21.6 F
GS
[1 0 0 1 0 0] CT
0 9 moveto 
1 -1 scale
(Approximation1) t 
GR
GR
GS
[0.75 0 0 0.75 0 0] CT
0 0.447 0.741 RC
1 LJ
2.667 LW
N
214.868 434.473 M
244.902 434.473 L
S
GR
GS
[0.75 0 0 0.75 185.92934 357.21275] CT
/Helvetica 21.6 F
GS
[1 0 0 1 0 0] CT
0 9 moveto 
1 -1 scale
(Approximation2) t 
GR
GR
GS
[0.75 0 0 0.75 0 0] CT
0.851 0.325 0.098 RC
1 LJ
2.667 LW
N
214.868 476.284 M
244.902 476.284 L
S
GR
GS
[0.75 0 0 0.75 185.92934 388.57091] CT
/Helvetica 21.6 F
GS
[1 0 0 1 0 0] CT
0 9 moveto 
1 -1 scale
(Approximation3) t 
GR
GR
GS
[0.75 0 0 0.75 0 0] CT
0.929 0.694 0.125 RC
1 LJ
2.667 LW
N
214.868 518.095 M
244.902 518.095 L
S
GR
GS
[0.75 0 0 0.75 185.92934 419.92909] CT
/Helvetica 21.6 F
GS
[1 0 0 1 0 0] CT
0 9 moveto 
1 -1 scale
(Approximation4) t 
GR
GR
GS
[0.75 0 0 0.75 0 0] CT
0.494 0.184 0.557 RC
1 LJ
2.667 LW
N
214.868 559.905 M
244.902 559.905 L
S
GR
GS
[0.75 0 0 0.75 185.92934 451.28723] CT
/Helvetica 21.6 F
GS
[1 0 0 1 0 0] CT
0 9 moveto 
1 -1 scale
(Approximation5) t 
GR
GR
GS
[0.75 0 0 0.75 0 0] CT
0.467 0.675 0.188 RC
1 LJ
2.667 LW
N
214.868 601.716 M
244.902 601.716 L
S
GR
GS
[0.75 0 0 0.75 185.92934 482.64542] CT
/Helvetica 21.6 F
GS
[1 0 0 1 0 0] CT
0 9 moveto 
1 -1 scale
(Laser Prediction Set) t 
GR
GR
GS
[0.75 0 0 0.75 0 0] CT
0.302 0.745 0.933 RC
1 LJ
2.667 LW
N
214.868 643.527 M
244.902 643.527 L
S
GR
GS
[0.75 0 0 0.75 0 0] CT
0.149 GC
10.0 ML
0.667 LW
N
184 667 M
184 411 L
478 411 L
478 667 L
cp
S
GR
%%Trailer
%%Pages: 1
%%EOF
