%!PS-Adobe-3.0 EPSF-3.0
%%Creator: (MATLAB, The Mathworks, Inc. Version 9.1.0.441655 \(R2016b\). Operating System: Windows 8)
%%Title: (C:/Users/Eigenaar/WIT/Data Mining/data-mining/Session 2/plots/mu1.eps)
%%CreationDate: 2017-11-22T20:22:17
%%Pages: (atend)
%%BoundingBox: 0 0 980 664
%%LanguageLevel: 3
%%EndComments
%%BeginProlog
%%BeginResource: procset (Apache XML Graphics Std ProcSet) 1.2 0
%%Version: 1.2 0
%%Copyright: (Copyright 2001-2003,2010 The Apache Software Foundation. License terms: http://www.apache.org/licenses/LICENSE-2.0)
/bd{bind def}bind def
/ld{load def}bd
/GR/grestore ld
/M/moveto ld
/LJ/setlinejoin ld
/C/curveto ld
/f/fill ld
/LW/setlinewidth ld
/GC/setgray ld
/t/show ld
/N/newpath ld
/CT/concat ld
/cp/closepath ld
/S/stroke ld
/L/lineto ld
/CC/setcmykcolor ld
/A/ashow ld
/GS/gsave ld
/RC/setrgbcolor ld
/RM/rmoveto ld
/ML/setmiterlimit ld
/re {4 2 roll M
1 index 0 rlineto
0 exch rlineto
neg 0 rlineto
cp } bd
/_ctm matrix def
/_tm matrix def
/BT { _ctm currentmatrix pop matrix _tm copy pop 0 0 moveto } bd
/ET { _ctm setmatrix } bd
/iTm { _ctm setmatrix _tm concat } bd
/Tm { _tm astore pop iTm 0 0 moveto } bd
/ux 0.0 def
/uy 0.0 def
/F {
  /Tp exch def
  /Tf exch def
  Tf findfont Tp scalefont setfont
  /cf Tf def  /cs Tp def
} bd
/ULS {currentpoint /uy exch def /ux exch def} bd
/ULE {
  /Tcx currentpoint pop def
  gsave
  newpath
  cf findfont cs scalefont dup
  /FontMatrix get 0 get /Ts exch def /FontInfo get dup
  /UnderlinePosition get Ts mul /To exch def
  /UnderlineThickness get Ts mul /Tt exch def
  ux uy To add moveto  Tcx uy To add lineto
  Tt setlinewidth stroke
  grestore
} bd
/OLE {
  /Tcx currentpoint pop def
  gsave
  newpath
  cf findfont cs scalefont dup
  /FontMatrix get 0 get /Ts exch def /FontInfo get dup
  /UnderlinePosition get Ts mul /To exch def
  /UnderlineThickness get Ts mul /Tt exch def
  ux uy To add cs add moveto Tcx uy To add cs add lineto
  Tt setlinewidth stroke
  grestore
} bd
/SOE {
  /Tcx currentpoint pop def
  gsave
  newpath
  cf findfont cs scalefont dup
  /FontMatrix get 0 get /Ts exch def /FontInfo get dup
  /UnderlinePosition get Ts mul /To exch def
  /UnderlineThickness get Ts mul /Tt exch def
  ux uy To add cs 10 mul 26 idiv add moveto Tcx uy To add cs 10 mul 26 idiv add lineto
  Tt setlinewidth stroke
  grestore
} bd
/QT {
/Y22 exch store
/X22 exch store
/Y21 exch store
/X21 exch store
currentpoint
/Y21 load 2 mul add 3 div exch
/X21 load 2 mul add 3 div exch
/X21 load 2 mul /X22 load add 3 div
/Y21 load 2 mul /Y22 load add 3 div
/X22 load /Y22 load curveto
} bd
/SSPD {
dup length /d exch dict def
{
/v exch def
/k exch def
currentpagedevice k known {
/cpdv currentpagedevice k get def
v cpdv ne {
/upd false def
/nullv v type /nulltype eq def
/nullcpdv cpdv type /nulltype eq def
nullv nullcpdv or
{
/upd true def
} {
/sametype v type cpdv type eq def
sametype {
v type /arraytype eq {
/vlen v length def
/cpdvlen cpdv length def
vlen cpdvlen eq {
0 1 vlen 1 sub {
/i exch def
/obj v i get def
/cpdobj cpdv i get def
obj cpdobj ne {
/upd true def
exit
} if
} for
} {
/upd true def
} ifelse
} {
v type /dicttype eq {
v {
/dv exch def
/dk exch def
/cpddv cpdv dk get def
dv cpddv ne {
/upd true def
exit
} if
} forall
} {
/upd true def
} ifelse
} ifelse
} if
} ifelse
upd true eq {
d k v put
} if
} if
} if
} forall
d length 0 gt {
d setpagedevice
} if
} bd
/RE { % /NewFontName [NewEncodingArray] /FontName RE -
  findfont dup length dict begin
  {
    1 index /FID ne
    {def} {pop pop} ifelse
  } forall
  /Encoding exch def
  /FontName 1 index def
  currentdict definefont pop
  end
} bind def
%%EndResource
%%BeginResource: procset (Apache XML Graphics EPS ProcSet) 1.0 0
%%Version: 1.0 0
%%Copyright: (Copyright 2002-2003 The Apache Software Foundation. License terms: http://www.apache.org/licenses/LICENSE-2.0)
/BeginEPSF { %def
/b4_Inc_state save def         % Save state for cleanup
/dict_count countdictstack def % Count objects on dict stack
/op_count count 1 sub def      % Count objects on operand stack
userdict begin                 % Push userdict on dict stack
/showpage { } def              % Redefine showpage, { } = null proc
0 setgray 0 setlinecap         % Prepare graphics state
1 setlinewidth 0 setlinejoin
10 setmiterlimit [ ] 0 setdash newpath
/languagelevel where           % If level not equal to 1 then
{pop languagelevel             % set strokeadjust and
1 ne                           % overprint to their defaults.
{false setstrokeadjust false setoverprint
} if
} if
} bd
/EndEPSF { %def
count op_count sub {pop} repeat            % Clean up stacks
countdictstack dict_count sub {end} repeat
b4_Inc_state restore
} bd
%%EndResource
%FOPBeginFontDict
%%IncludeResource: font Courier-Bold
%%IncludeResource: font Helvetica
%%IncludeResource: font Courier-BoldOblique
%%IncludeResource: font Courier-Oblique
%%IncludeResource: font Times-Roman
%%IncludeResource: font Helvetica-BoldOblique
%%IncludeResource: font Helvetica-Bold
%%IncludeResource: font Helvetica-Oblique
%%IncludeResource: font Times-BoldItalic
%%IncludeResource: font Courier
%%IncludeResource: font Times-Italic
%%IncludeResource: font Times-Bold
%%IncludeResource: font Symbol
%%IncludeResource: font ZapfDingbats
%FOPEndFontDict
%%BeginResource: encoding WinAnsiEncoding
/WinAnsiEncoding [
/.notdef /.notdef /.notdef /.notdef /.notdef
/.notdef /.notdef /.notdef /.notdef /.notdef
/.notdef /.notdef /.notdef /.notdef /.notdef
/.notdef /.notdef /.notdef /.notdef /.notdef
/.notdef /.notdef /.notdef /.notdef /.notdef
/.notdef /.notdef /.notdef /.notdef /.notdef
/.notdef /.notdef /space /exclam /quotedbl
/numbersign /dollar /percent /ampersand /quotesingle
/parenleft /parenright /asterisk /plus /comma
/hyphen /period /slash /zero /one
/two /three /four /five /six
/seven /eight /nine /colon /semicolon
/less /equal /greater /question /at
/A /B /C /D /E
/F /G /H /I /J
/K /L /M /N /O
/P /Q /R /S /T
/U /V /W /X /Y
/Z /bracketleft /backslash /bracketright /asciicircum
/underscore /quoteleft /a /b /c
/d /e /f /g /h
/i /j /k /l /m
/n /o /p /q /r
/s /t /u /v /w
/x /y /z /braceleft /bar
/braceright /asciitilde /bullet /Euro /bullet
/quotesinglbase /florin /quotedblbase /ellipsis /dagger
/daggerdbl /circumflex /perthousand /Scaron /guilsinglleft
/OE /bullet /Zcaron /bullet /bullet
/quoteleft /quoteright /quotedblleft /quotedblright /bullet
/endash /emdash /asciitilde /trademark /scaron
/guilsinglright /oe /bullet /zcaron /Ydieresis
/space /exclamdown /cent /sterling /currency
/yen /brokenbar /section /dieresis /copyright
/ordfeminine /guillemotleft /logicalnot /sfthyphen /registered
/macron /degree /plusminus /twosuperior /threesuperior
/acute /mu /paragraph /middot /cedilla
/onesuperior /ordmasculine /guillemotright /onequarter /onehalf
/threequarters /questiondown /Agrave /Aacute /Acircumflex
/Atilde /Adieresis /Aring /AE /Ccedilla
/Egrave /Eacute /Ecircumflex /Edieresis /Igrave
/Iacute /Icircumflex /Idieresis /Eth /Ntilde
/Ograve /Oacute /Ocircumflex /Otilde /Odieresis
/multiply /Oslash /Ugrave /Uacute /Ucircumflex
/Udieresis /Yacute /Thorn /germandbls /agrave
/aacute /acircumflex /atilde /adieresis /aring
/ae /ccedilla /egrave /eacute /ecircumflex
/edieresis /igrave /iacute /icircumflex /idieresis
/eth /ntilde /ograve /oacute /ocircumflex
/otilde /odieresis /divide /oslash /ugrave
/uacute /ucircumflex /udieresis /yacute /thorn
/ydieresis
] def
%%EndResource
%FOPBeginFontReencode
/Courier-Bold findfont
dup length dict begin
  {1 index /FID ne {def} {pop pop} ifelse} forall
  /Encoding WinAnsiEncoding def
  currentdict
end
/Courier-Bold exch definefont pop
/Helvetica findfont
dup length dict begin
  {1 index /FID ne {def} {pop pop} ifelse} forall
  /Encoding WinAnsiEncoding def
  currentdict
end
/Helvetica exch definefont pop
/Courier-BoldOblique findfont
dup length dict begin
  {1 index /FID ne {def} {pop pop} ifelse} forall
  /Encoding WinAnsiEncoding def
  currentdict
end
/Courier-BoldOblique exch definefont pop
/Courier-Oblique findfont
dup length dict begin
  {1 index /FID ne {def} {pop pop} ifelse} forall
  /Encoding WinAnsiEncoding def
  currentdict
end
/Courier-Oblique exch definefont pop
/Times-Roman findfont
dup length dict begin
  {1 index /FID ne {def} {pop pop} ifelse} forall
  /Encoding WinAnsiEncoding def
  currentdict
end
/Times-Roman exch definefont pop
/Helvetica-BoldOblique findfont
dup length dict begin
  {1 index /FID ne {def} {pop pop} ifelse} forall
  /Encoding WinAnsiEncoding def
  currentdict
end
/Helvetica-BoldOblique exch definefont pop
/Helvetica-Bold findfont
dup length dict begin
  {1 index /FID ne {def} {pop pop} ifelse} forall
  /Encoding WinAnsiEncoding def
  currentdict
end
/Helvetica-Bold exch definefont pop
/Helvetica-Oblique findfont
dup length dict begin
  {1 index /FID ne {def} {pop pop} ifelse} forall
  /Encoding WinAnsiEncoding def
  currentdict
end
/Helvetica-Oblique exch definefont pop
/Times-BoldItalic findfont
dup length dict begin
  {1 index /FID ne {def} {pop pop} ifelse} forall
  /Encoding WinAnsiEncoding def
  currentdict
end
/Times-BoldItalic exch definefont pop
/Courier findfont
dup length dict begin
  {1 index /FID ne {def} {pop pop} ifelse} forall
  /Encoding WinAnsiEncoding def
  currentdict
end
/Courier exch definefont pop
/Times-Italic findfont
dup length dict begin
  {1 index /FID ne {def} {pop pop} ifelse} forall
  /Encoding WinAnsiEncoding def
  currentdict
end
/Times-Italic exch definefont pop
/Times-Bold findfont
dup length dict begin
  {1 index /FID ne {def} {pop pop} ifelse} forall
  /Encoding WinAnsiEncoding def
  currentdict
end
/Times-Bold exch definefont pop
%FOPEndFontReencode
%%EndProlog
%%Page: 1 1
%%PageBoundingBox: 0 0 980 664
%%BeginPageSetup
[1 0 0 -1 0 664] CT
%%EndPageSetup
GS
[0.75 0 0 0.75 0 0.25] CT
N
0 0 M
1306 0 L
1306 885 L
0 885 L
0 0 L
cp
clip
1 GC
N
0 0 1306 885 re
f
GR
GS
[0.75 0 0 0.75 0 0.25] CT
1 GC
N
0 0 1306 885 re
f
GR
GS
[0.75 0 0 0.75 0 0.25] CT
1 GC
N
170 788 M
1182 788 L
1182 66 L
170 66 L
cp
f
GR
GS
[0.75 0 0 0.75 0 0.25] CT
0.149 GC
2 setlinecap
1 LJ
0.667 LW
N
170 788 M
1182 788 L
S
GR
GS
[0.75 0 0 0.75 0 0.25] CT
0.149 GC
2 setlinecap
1 LJ
0.667 LW
N
170 66 M
1182 66 L
S
GR
GS
[0.75 0 0 0.75 0 0.25] CT
0.149 GC
2 setlinecap
1 LJ
0.667 LW
N
170 788 M
170 777.88 L
S
GR
GS
[0.75 0 0 0.75 0 0.25] CT
0.149 GC
2 setlinecap
1 LJ
0.667 LW
N
271.2 788 M
271.2 777.88 L
S
GR
GS
[0.75 0 0 0.75 0 0.25] CT
0.149 GC
2 setlinecap
1 LJ
0.667 LW
N
372.4 788 M
372.4 777.88 L
S
GR
GS
[0.75 0 0 0.75 0 0.25] CT
0.149 GC
2 setlinecap
1 LJ
0.667 LW
N
473.6 788 M
473.6 777.88 L
S
GR
GS
[0.75 0 0 0.75 0 0.25] CT
0.149 GC
2 setlinecap
1 LJ
0.667 LW
N
574.8 788 M
574.8 777.88 L
S
GR
GS
[0.75 0 0 0.75 0 0.25] CT
0.149 GC
2 setlinecap
1 LJ
0.667 LW
N
676 788 M
676 777.88 L
S
GR
GS
[0.75 0 0 0.75 0 0.25] CT
0.149 GC
2 setlinecap
1 LJ
0.667 LW
N
777.2 788 M
777.2 777.88 L
S
GR
GS
[0.75 0 0 0.75 0 0.25] CT
0.149 GC
2 setlinecap
1 LJ
0.667 LW
N
878.4 788 M
878.4 777.88 L
S
GR
GS
[0.75 0 0 0.75 0 0.25] CT
0.149 GC
2 setlinecap
1 LJ
0.667 LW
N
979.6 788 M
979.6 777.88 L
S
GR
GS
[0.75 0 0 0.75 0 0.25] CT
0.149 GC
2 setlinecap
1 LJ
0.667 LW
N
1080.8 788 M
1080.8 777.88 L
S
GR
GS
[0.75 0 0 0.75 0 0.25] CT
0.149 GC
2 setlinecap
1 LJ
0.667 LW
N
1182 788 M
1182 777.88 L
S
GR
GS
[0.75 0 0 0.75 0 0.25] CT
0.149 GC
2 setlinecap
1 LJ
0.667 LW
N
170 66 M
170 76.12 L
S
GR
GS
[0.75 0 0 0.75 0 0.25] CT
0.149 GC
2 setlinecap
1 LJ
0.667 LW
N
271.2 66 M
271.2 76.12 L
S
GR
GS
[0.75 0 0 0.75 0 0.25] CT
0.149 GC
2 setlinecap
1 LJ
0.667 LW
N
372.4 66 M
372.4 76.12 L
S
GR
GS
[0.75 0 0 0.75 0 0.25] CT
0.149 GC
2 setlinecap
1 LJ
0.667 LW
N
473.6 66 M
473.6 76.12 L
S
GR
GS
[0.75 0 0 0.75 0 0.25] CT
0.149 GC
2 setlinecap
1 LJ
0.667 LW
N
574.8 66 M
574.8 76.12 L
S
GR
GS
[0.75 0 0 0.75 0 0.25] CT
0.149 GC
2 setlinecap
1 LJ
0.667 LW
N
676 66 M
676 76.12 L
S
GR
GS
[0.75 0 0 0.75 0 0.25] CT
0.149 GC
2 setlinecap
1 LJ
0.667 LW
N
777.2 66 M
777.2 76.12 L
S
GR
GS
[0.75 0 0 0.75 0 0.25] CT
0.149 GC
2 setlinecap
1 LJ
0.667 LW
N
878.4 66 M
878.4 76.12 L
S
GR
GS
[0.75 0 0 0.75 0 0.25] CT
0.149 GC
2 setlinecap
1 LJ
0.667 LW
N
979.6 66 M
979.6 76.12 L
S
GR
GS
[0.75 0 0 0.75 0 0.25] CT
0.149 GC
2 setlinecap
1 LJ
0.667 LW
N
1080.8 66 M
1080.8 76.12 L
S
GR
GS
[0.75 0 0 0.75 0 0.25] CT
0.149 GC
2 setlinecap
1 LJ
0.667 LW
N
1182 66 M
1182 76.12 L
S
GR
GS
[0.75 0 0 0.75 127.5 596.85001] CT
0.149 GC
/Helvetica 24 F
GS
[1 0 0 1 0 0] CT
-7 25 moveto 
1 -1 scale
(0) t 
GR
GR
GS
[0.75 0 0 0.75 203.40001 596.85001] CT
0.149 GC
/Helvetica 24 F
GS
[1 0 0 1 0 0] CT
-13.5 25 moveto 
1 -1 scale
(10) t 
GR
GR
GS
[0.75 0 0 0.75 279.3 596.85001] CT
0.149 GC
/Helvetica 24 F
GS
[1 0 0 1 0 0] CT
-13.5 25 moveto 
1 -1 scale
(20) t 
GR
GR
GS
[0.75 0 0 0.75 355.2 596.85001] CT
0.149 GC
/Helvetica 24 F
GS
[1 0 0 1 0 0] CT
-13.5 25 moveto 
1 -1 scale
(30) t 
GR
GR
GS
[0.75 0 0 0.75 431.09999 596.85001] CT
0.149 GC
/Helvetica 24 F
GS
[1 0 0 1 0 0] CT
-13.5 25 moveto 
1 -1 scale
(40) t 
GR
GR
GS
[0.75 0 0 0.75 507 596.85001] CT
0.149 GC
/Helvetica 24 F
GS
[1 0 0 1 0 0] CT
-13.5 25 moveto 
1 -1 scale
(50) t 
GR
GR
GS
[0.75 0 0 0.75 582.90001 596.85001] CT
0.149 GC
/Helvetica 24 F
GS
[1 0 0 1 0 0] CT
-13.5 25 moveto 
1 -1 scale
(60) t 
GR
GR
GS
[0.75 0 0 0.75 658.80002 596.85001] CT
0.149 GC
/Helvetica 24 F
GS
[1 0 0 1 0 0] CT
-13.5 25 moveto 
1 -1 scale
(70) t 
GR
GR
GS
[0.75 0 0 0.75 734.69998 596.85001] CT
0.149 GC
/Helvetica 24 F
GS
[1 0 0 1 0 0] CT
-13.5 25 moveto 
1 -1 scale
(80) t 
GR
GR
GS
[0.75 0 0 0.75 810.60004 596.85001] CT
0.149 GC
/Helvetica 24 F
GS
[1 0 0 1 0 0] CT
-13.5 25 moveto 
1 -1 scale
(90) t 
GR
GR
GS
[0.75 0 0 0.75 886.5 596.85001] CT
0.149 GC
/Helvetica 24 F
GS
[1 0 0 1 0 0] CT
-20.5 25 moveto 
1 -1 scale
(100) t 
GR
GR
GS
[0.75 0 0 0.75 507.00037 621.09999] CT
0.149 GC
/Helvetica 26.4 F
GS
[1 0 0 1 0 0] CT
-46.5 27 moveto 
1 -1 scale
(Time [s]) t 
GR
GR
GS
[0.75 0 0 0.75 0 0.25] CT
0.149 GC
2 setlinecap
1 LJ
0.667 LW
N
170 788 M
170 66 L
S
GR
GS
[0.75 0 0 0.75 0 0.25] CT
0.149 GC
2 setlinecap
1 LJ
0.667 LW
N
1182 788 M
1182 66 L
S
GR
GS
[0.75 0 0 0.75 0 0.25] CT
0.149 GC
2 setlinecap
1 LJ
0.667 LW
N
170 788 M
180.12 788 L
S
GR
GS
[0.75 0 0 0.75 0 0.25] CT
0.149 GC
2 setlinecap
1 LJ
0.667 LW
N
170 697.75 M
180.12 697.75 L
S
GR
GS
[0.75 0 0 0.75 0 0.25] CT
0.149 GC
2 setlinecap
1 LJ
0.667 LW
N
170 607.5 M
180.12 607.5 L
S
GR
GS
[0.75 0 0 0.75 0 0.25] CT
0.149 GC
2 setlinecap
1 LJ
0.667 LW
N
170 517.25 M
180.12 517.25 L
S
GR
GS
[0.75 0 0 0.75 0 0.25] CT
0.149 GC
2 setlinecap
1 LJ
0.667 LW
N
170 427 M
180.12 427 L
S
GR
GS
[0.75 0 0 0.75 0 0.25] CT
0.149 GC
2 setlinecap
1 LJ
0.667 LW
N
170 336.75 M
180.12 336.75 L
S
GR
GS
[0.75 0 0 0.75 0 0.25] CT
0.149 GC
2 setlinecap
1 LJ
0.667 LW
N
170 246.5 M
180.12 246.5 L
S
GR
GS
[0.75 0 0 0.75 0 0.25] CT
0.149 GC
2 setlinecap
1 LJ
0.667 LW
N
170 156.25 M
180.12 156.25 L
S
GR
GS
[0.75 0 0 0.75 0 0.25] CT
0.149 GC
2 setlinecap
1 LJ
0.667 LW
N
170 66 M
180.12 66 L
S
GR
GS
[0.75 0 0 0.75 0 0.25] CT
0.149 GC
2 setlinecap
1 LJ
0.667 LW
N
1182 788 M
1171.88 788 L
S
GR
GS
[0.75 0 0 0.75 0 0.25] CT
0.149 GC
2 setlinecap
1 LJ
0.667 LW
N
1182 697.75 M
1171.88 697.75 L
S
GR
GS
[0.75 0 0 0.75 0 0.25] CT
0.149 GC
2 setlinecap
1 LJ
0.667 LW
N
1182 607.5 M
1171.88 607.5 L
S
GR
GS
[0.75 0 0 0.75 0 0.25] CT
0.149 GC
2 setlinecap
1 LJ
0.667 LW
N
1182 517.25 M
1171.88 517.25 L
S
GR
GS
[0.75 0 0 0.75 0 0.25] CT
0.149 GC
2 setlinecap
1 LJ
0.667 LW
N
1182 427 M
1171.88 427 L
S
GR
GS
[0.75 0 0 0.75 0 0.25] CT
0.149 GC
2 setlinecap
1 LJ
0.667 LW
N
1182 336.75 M
1171.88 336.75 L
S
GR
GS
[0.75 0 0 0.75 0 0.25] CT
0.149 GC
2 setlinecap
1 LJ
0.667 LW
N
1182 246.5 M
1171.88 246.5 L
S
GR
GS
[0.75 0 0 0.75 0 0.25] CT
0.149 GC
2 setlinecap
1 LJ
0.667 LW
N
1182 156.25 M
1171.88 156.25 L
S
GR
GS
[0.75 0 0 0.75 0 0.25] CT
0.149 GC
2 setlinecap
1 LJ
0.667 LW
N
1182 66 M
1171.88 66 L
S
GR
GS
[0.75 0 0 0.75 121.90001 591.25] CT
0.149 GC
/Helvetica 24 F
GS
[1 0 0 1 0 0] CT
-49 9.5 moveto 
1 -1 scale
(-600) t 
GR
GR
GS
[0.75 0 0 0.75 121.90001 523.5625] CT
0.149 GC
/Helvetica 24 F
GS
[1 0 0 1 0 0] CT
-49 9.5 moveto 
1 -1 scale
(-400) t 
GR
GR
GS
[0.75 0 0 0.75 121.90001 455.875] CT
0.149 GC
/Helvetica 24 F
GS
[1 0 0 1 0 0] CT
-49 9.5 moveto 
1 -1 scale
(-200) t 
GR
GR
GS
[0.75 0 0 0.75 121.90001 388.1875] CT
0.149 GC
/Helvetica 24 F
GS
[1 0 0 1 0 0] CT
-14 9.5 moveto 
1 -1 scale
(0) t 
GR
GR
GS
[0.75 0 0 0.75 121.90001 320.5] CT
0.149 GC
/Helvetica 24 F
GS
[1 0 0 1 0 0] CT
-41 9.5 moveto 
1 -1 scale
(200) t 
GR
GR
GS
[0.75 0 0 0.75 121.90001 252.8125] CT
0.149 GC
/Helvetica 24 F
GS
[1 0 0 1 0 0] CT
-41 9.5 moveto 
1 -1 scale
(400) t 
GR
GR
GS
[0.75 0 0 0.75 121.90001 185.125] CT
0.149 GC
/Helvetica 24 F
GS
[1 0 0 1 0 0] CT
-41 9.5 moveto 
1 -1 scale
(600) t 
GR
GR
GS
[0.75 0 0 0.75 121.90001 117.4375] CT
0.149 GC
/Helvetica 24 F
GS
[1 0 0 1 0 0] CT
-41 9.5 moveto 
1 -1 scale
(800) t 
GR
GR
GS
[0.75 0 0 0.75 121.90001 49.75] CT
0.149 GC
/Helvetica 24 F
GS
[1 0 0 1 0 0] CT
-54 9.5 moveto 
1 -1 scale
(1000) t 
GR
GR
GS
[0.75 0 0 0.75 0 0.25] CT
0 0.447 0.741 RC
1 LJ
2.667 LW
N
180.12 484.303 M
190.24 437.641 L
200.36 462.559 L
210.48 500.591 L
220.6 510.695 L
230.72 512.181 L
240.84 510.965 L
250.96 502.104 L
261.08 466.726 L
271.2 432.408 L
281.32 481.802 L
291.44 507.707 L
301.56 512.114 L
311.68 512.571 L
321.8 511.198 L
331.92 496.974 L
342.04 448.55 L
352.16 440.657 L
362.28 493.389 L
372.4 509.62 L
382.52 513.272 L
392.64 513.406 L
402.76 510.303 L
412.88 492.102 L
423 434.64 L
433.12 450.09 L
443.24 500.054 L
453.36 511.951 L
463.48 514.163 L
473.6 514.654 L
483.72 511.102 L
493.84 492.277 L
503.96 429.281 L
514.08 448.699 L
524.2 501.821 L
534.32 512.432 L
544.44 514.681 L
554.56 515.683 L
564.68 513.481 L
574.8 502.004 L
584.92 444.458 L
595.04 415.201 L
605.16 502.286 L
615.28 511.864 L
625.4 516.37 L
635.52 518.217 L
645.64 517.137 L
655.76 517.667 L
665.88 512.555 L
676 486.162 L
686.12 421.521 L
696.24 452.793 L
706.36 493.98 L
716.48 496.001 L
726.6 482.362 L
736.72 467.102 L
746.84 503.094 L
756.96 488.343 L
767.08 453.534 L
777.2 446.787 L
787.32 491.891 L
797.44 518.24 L
807.56 511.306 L
817.68 510.438 L
827.8 502.978 L
837.92 472.171 L
848.04 397.185 L
858.16 443.322 L
868.28 531.091 L
878.4 497.56 L
888.52 517.711 L
898.64 560.829 L
908.76 562.594 L
918.88 560.503 L
929 557.419 L
939.12 512.268 L
949.24 329.327 L
959.36 431.888 L
969.48 500.012 L
979.6 458.798 L
989.72 521.608 L
999.84 541.773 L
1009.96 544.764 L
1020.08 609.858 L
1030.2 564.511 L
1040.32 596.071 L
1050.44 453.28 L
1060.56 413.532 L
1070.68 457.971 L
1080.8 478.275 L
1090.92 487.683 L
1101.04 520.99 L
1111.16 579.02 L
1121.28 553.17 L
1131.4 592.356 L
1141.52 584.793 L
1151.64 418.336 L
1161.76 326.243 L
1171.88 496.267 L
1182 511.978 L
S
GR
GS
[0.75 0 0 0.75 0 0.25] CT
0.851 0.325 0.098 RC
1 LJ
2.667 LW
N
180.12 476.667 M
190.24 442.266 L
200.36 468.207 L
210.48 500.948 L
220.6 510.838 L
230.72 511.7 L
240.84 509.436 L
250.96 492.749 L
261.08 456.624 L
271.2 453.494 L
281.32 487.782 L
291.44 505.791 L
301.56 511.199 L
311.68 510.623 L
321.8 503.467 L
331.92 468.886 L
342.04 448.075 L
352.16 479.583 L
362.28 502.472 L
372.4 509.037 L
382.52 511.949 L
392.64 505.232 L
402.76 482.516 L
412.88 453.27 L
423 469.645 L
433.12 496.846 L
443.24 507.835 L
453.36 511.721 L
463.48 507.343 L
473.6 490.574 L
483.72 459.743 L
493.84 464.577 L
503.96 492.85 L
514.08 505.341 L
524.2 510.977 L
534.32 509.22 L
544.44 497.103 L
554.56 467.495 L
564.68 461.506 L
574.8 489.085 L
584.92 504.655 L
595.04 510.947 L
605.16 510.555 L
615.28 501.068 L
625.4 474.231 L
635.52 462.249 L
645.64 485.618 L
655.76 503.669 L
665.88 510.525 L
676 511.89 L
686.12 504.538 L
696.24 480.313 L
706.36 463.812 L
716.48 483.134 L
726.6 502.802 L
736.72 509.618 L
746.84 512.834 L
756.96 506.723 L
767.08 485.644 L
777.2 466.755 L
787.32 481.28 L
797.44 501.429 L
807.56 508.845 L
817.68 512.935 L
827.8 508.248 L
837.92 489.68 L
848.04 470.385 L
858.16 480.97 L
868.28 500.219 L
878.4 507.897 L
888.52 512.534 L
898.64 509.263 L
908.76 492.967 L
918.88 474.106 L
929 481.707 L
939.12 499.518 L
949.24 507.255 L
959.36 511.986 L
969.48 509.82 L
979.6 495.324 L
989.72 477.346 L
999.84 483.597 L
1009.96 499.464 L
1020.08 507.051 L
1030.2 511.325 L
1040.32 510.154 L
1050.44 497.012 L
1060.56 479.986 L
1070.68 485.878 L
1080.8 500.033 L
1090.92 507.279 L
1101.04 510.799 L
1111.16 510.351 L
1121.28 498.078 L
1131.4 482.231 L
1141.52 488.364 L
1151.64 500.922 L
1161.76 507.649 L
1171.88 510.495 L
1182 510.309 L
S
GR
GS
[0.75 0 0 0.75 0 0.25] CT
0.929 0.694 0.125 RC
1 LJ
2.667 LW
N
180.12 483.088 M
190.24 437.51 L
200.36 462.701 L
210.48 499.184 L
220.6 507.529 L
230.72 509.509 L
240.84 511.241 L
250.96 498.545 L
261.08 463.959 L
271.2 434.79 L
281.32 482.657 L
291.44 504.814 L
301.56 508.257 L
311.68 509.772 L
321.8 506.971 L
331.92 484.968 L
342.04 441.119 L
352.16 456.29 L
362.28 496.509 L
372.4 505.941 L
382.52 510.011 L
392.64 510.846 L
402.76 496.665 L
412.88 465.82 L
423 436.714 L
433.12 481.055 L
443.24 502.215 L
453.36 506.29 L
463.48 508.58 L
473.6 507.027 L
483.72 483.764 L
493.84 442.218 L
503.96 459.521 L
514.08 496.436 L
524.2 502.239 L
534.32 509.227 L
544.44 508.868 L
554.56 492.6 L
564.68 460.342 L
574.8 441.391 L
584.92 484.745 L
595.04 501.836 L
605.16 505.441 L
615.28 507.537 L
625.4 502.44 L
635.52 474.072 L
645.64 438.857 L
655.76 469.434 L
665.88 498.175 L
676 500.87 L
686.12 508.901 L
696.24 507.459 L
706.36 485.639 L
716.48 447.391 L
726.6 453.242 L
736.72 490.187 L
746.84 499.014 L
756.96 505.087 L
767.08 507.709 L
777.2 493.107 L
787.32 460.236 L
797.44 440.947 L
807.56 481.351 L
817.68 498.97 L
827.8 498.673 L
837.92 506.684 L
848.04 500.029 L
858.16 472.034 L
868.28 436.912 L
878.4 468.575 L
888.52 496.163 L
898.64 495.444 L
908.76 505.66 L
918.88 507.15 L
929 481.05 L
939.12 443.802 L
949.24 452.219 L
959.36 487.773 L
969.48 494.376 L
979.6 501.101 L
989.72 506.36 L
999.84 487.526 L
1009.96 455.75 L
1020.08 439.499 L
1030.2 481.077 L
1040.32 495.249 L
1050.44 491.093 L
1060.56 503.729 L
1070.68 496.111 L
1080.8 465.664 L
1090.92 433.152 L
1101.04 470.683 L
1111.16 495.998 L
1121.28 486.936 L
1131.4 501.472 L
1141.52 508.384 L
1151.64 475.463 L
1161.76 436.306 L
1171.88 451.318 L
1182 485.54 L
S
GR
GS
[0.75 0 0 0.75 0 0.25] CT
0.494 0.184 0.557 RC
1 LJ
2.667 LW
N
180.12 480.646 M
190.24 436.244 L
200.36 463.726 L
210.48 490.716 L
220.6 509.46 L
230.72 503.618 L
240.84 496.019 L
250.96 479.001 L
261.08 449.217 L
271.2 441.483 L
281.32 478.641 L
291.44 494.678 L
301.56 507.262 L
311.68 511.975 L
321.8 487.307 L
331.92 457.06 L
342.04 400.592 L
352.16 457.159 L
362.28 489.986 L
372.4 539.153 L
382.52 537.749 L
392.64 489.383 L
402.76 474.519 L
412.88 304.367 L
423 191.665 L
433.12 302.867 L
443.24 437.514 L
453.36 666.094 L
463.48 628.433 L
473.6 620.765 L
483.72 339.848 L
493.84 188.644 L
503.96 142.341 L
514.08 295.243 L
524.2 535.103 L
534.32 723.554 L
544.44 763.372 L
554.56 568.774 L
564.68 282.51 L
574.8 105.699 L
584.92 132.902 L
595.04 388.069 L
605.16 531.191 L
615.28 754.65 L
625.4 610.826 L
635.52 414.215 L
645.64 303.271 L
655.76 198.248 L
665.88 334.309 L
676 465.3 L
686.12 576.676 L
696.24 624.05 L
706.36 752.285 L
716.48 224.738 L
726.6 307.092 L
736.72 210.835 L
746.84 305.804 L
756.96 380.851 L
767.08 540.854 L
777.2 678.438 L
787.32 669.479 L
797.44 313.455 L
807.56 183.255 L
817.68 255.743 L
827.8 360.52 L
837.92 349.14 L
848.04 601.048 L
858.16 783.157 L
868.28 610.339 L
878.4 200.697 L
888.52 283.549 L
898.64 110.096 L
908.76 417.14 L
918.88 424.394 L
929 579.063 L
939.12 772.559 L
949.24 576.862 L
959.36 267.052 L
969.48 274.838 L
979.6 376.23 L
989.72 385.071 L
999.84 484.323 L
1009.96 594.157 L
1020.08 446.815 L
1030.2 340.307 L
1040.32 159.28 L
1050.44 385.749 L
1060.56 326.256 L
1070.68 508.343 L
1080.8 356.518 L
1090.92 539.787 L
1101.04 400.975 L
1111.16 322.292 L
1121.28 363.547 L
1131.4 374.929 L
1141.52 432.227 L
1151.64 274.294 L
1161.76 417.388 L
1171.88 403.685 L
1182 282.727 L
S
GR
GS
[0.75 0 0 0.75 0 0.25] CT
0.467 0.675 0.188 RC
1 LJ
2.667 LW
N
180.12 485.075 M
190.24 435.973 L
200.36 461.582 L
210.48 502.212 L
220.6 511.054 L
230.72 512.854 L
240.84 510.97 L
250.96 503.735 L
261.08 467.507 L
271.2 430.592 L
281.32 483.13 L
291.44 506.368 L
301.56 511.447 L
311.68 513.899 L
321.8 511.008 L
331.92 496.324 L
342.04 447.006 L
352.16 443.469 L
362.28 492.89 L
372.4 510.233 L
382.52 513.424 L
392.64 513.998 L
402.76 508.362 L
412.88 489.137 L
423 433.238 L
433.12 450.602 L
443.24 501.939 L
453.36 511.291 L
463.48 510.924 L
473.6 513.284 L
483.72 509.422 L
493.84 486.922 L
503.96 421.491 L
514.08 462.941 L
524.2 504.396 L
534.32 512.83 L
544.44 517.104 L
554.56 513.349 L
564.68 507.829 L
574.8 482.79 L
584.92 423.906 L
595.04 456.395 L
605.16 504.9 L
615.28 512.038 L
625.4 512.048 L
635.52 515.415 L
645.64 514.33 L
655.76 505.774 L
665.88 452.019 L
676 414.336 L
686.12 496.851 L
696.24 514.355 L
706.36 520.008 L
716.48 500.639 L
726.6 521.572 L
736.72 504.83 L
746.84 466.626 L
756.96 417.227 L
767.08 483.055 L
777.2 505.33 L
787.32 510.224 L
797.44 519.926 L
807.56 533.025 L
817.68 534.277 L
827.8 570.202 L
837.92 569.934 L
848.04 544.766 L
858.16 562.991 L
868.28 633.768 L
878.4 538.404 L
888.52 549.164 L
898.64 532.06 L
908.76 528.501 L
918.88 469.411 L
929 502.219 L
939.12 426.433 L
949.24 501.902 L
959.36 432.585 L
969.48 493.358 L
979.6 487.111 L
989.72 480.089 L
999.84 493.999 L
1009.96 507.534 L
1020.08 534.677 L
1030.2 570.684 L
1040.32 507.887 L
1050.44 455.407 L
1060.56 445.305 L
1070.68 529.079 L
1080.8 502.389 L
1090.92 530.433 L
1101.04 520.851 L
1111.16 554.461 L
1121.28 620.094 L
1131.4 558.095 L
1141.52 561.019 L
1151.64 639.076 L
1161.76 660.376 L
1171.88 584.793 L
1182 664.67 L
S
GR
GS
[0.75 0 0 0.75 0 0.25] CT
0.302 0.745 0.933 RC
1 LJ
2.667 LW
N
180.12 484.76 M
190.24 436.927 L
200.36 462.198 L
210.48 501.005 L
220.6 510.932 L
230.72 512.286 L
240.84 510.932 L
250.96 502.81 L
261.08 467.612 L
271.2 432.415 L
281.32 481.15 L
291.44 506.871 L
301.56 511.835 L
311.68 512.737 L
321.8 510.481 L
331.92 496.944 L
342.04 449.111 L
352.16 440.989 L
362.28 493.334 L
372.4 509.128 L
382.52 511.835 L
392.64 513.189 L
402.76 509.579 L
412.88 490.175 L
423 435.122 L
433.12 452.721 L
443.24 500.103 L
453.36 511.384 L
463.48 513.189 L
473.6 513.189 L
483.72 508.676 L
493.84 485.211 L
503.96 426.549 L
514.08 460.392 L
524.2 503.712 L
534.32 511.835 L
544.44 513.189 L
554.56 513.64 L
564.68 509.128 L
574.8 485.663 L
584.92 422.036 L
595.04 458.136 L
605.16 503.712 L
615.28 512.286 L
625.4 513.64 L
635.52 513.64 L
645.64 511.384 L
655.76 496.041 L
665.88 430.61 L
676 436.476 L
686.12 499.2 L
696.24 511.384 L
706.36 513.189 L
716.48 514.091 L
726.6 514.091 L
736.72 510.932 L
746.84 485.211 L
756.96 402.181 L
767.08 458.136 L
777.2 506.42 L
787.32 513.189 L
797.44 514.091 L
807.56 514.091 L
817.68 514.994 L
827.8 515.445 L
837.92 515.896 L
848.04 513.64 L
858.16 508.225 L
868.28 511.384 L
878.4 512.737 L
888.52 511.384 L
898.64 508.225 L
908.76 503.261 L
918.88 498.297 L
929 491.529 L
939.12 486.565 L
949.24 485.663 L
959.36 490.626 L
969.48 495.59 L
979.6 496.492 L
989.72 494.236 L
999.84 489.724 L
1009.96 485.663 L
1020.08 487.016 L
1030.2 491.529 L
1040.32 495.59 L
1050.44 496.041 L
1060.56 493.334 L
1070.68 487.919 L
1080.8 484.76 L
1090.92 487.016 L
1101.04 491.529 L
1111.16 496.041 L
1121.28 496.041 L
1131.4 492.883 L
1141.52 487.016 L
1151.64 484.309 L
1161.76 487.467 L
1171.88 492.883 L
1182 495.59 L
S
GR
GS
[0.75 0 0 0.75 0 0.25] CT
1 GC
N
192 757 M
192 582 L
432 582 L
432 757 L
cp
f
GR
GS
[0.75 0 0 0.75 171.75 448.78438] CT
/Helvetica 21.6 F
GS
[1 0 0 1 0 0] CT
0 9 moveto 
1 -1 scale
(Approximation1) t 
GR
GR
GS
[0.75 0 0 0.75 0 0.25] CT
0 0.447 0.741 RC
1 LJ
2.667 LW
N
196 598.046 M
226 598.046 L
S
GR
GS
[0.75 0 0 0.75 171.75 470.22063] CT
/Helvetica 21.6 F
GS
[1 0 0 1 0 0] CT
0 9 moveto 
1 -1 scale
(Approximation2) t 
GR
GR
GS
[0.75 0 0 0.75 0 0.25] CT
0.851 0.325 0.098 RC
1 LJ
2.667 LW
N
196 626.628 M
226 626.628 L
S
GR
GS
[0.75 0 0 0.75 171.75 491.65688] CT
/Helvetica 21.6 F
GS
[1 0 0 1 0 0] CT
0 9 moveto 
1 -1 scale
(Approximation3) t 
GR
GR
GS
[0.75 0 0 0.75 0 0.25] CT
0.929 0.694 0.125 RC
1 LJ
2.667 LW
N
196 655.209 M
226 655.209 L
S
GR
GS
[0.75 0 0 0.75 171.75 513.09312] CT
/Helvetica 21.6 F
GS
[1 0 0 1 0 0] CT
0 9 moveto 
1 -1 scale
(Approximation4) t 
GR
GR
GS
[0.75 0 0 0.75 0 0.25] CT
0.494 0.184 0.557 RC
1 LJ
2.667 LW
N
196 683.791 M
226 683.791 L
S
GR
GS
[0.75 0 0 0.75 171.75 534.52937] CT
/Helvetica 21.6 F
GS
[1 0 0 1 0 0] CT
0 9 moveto 
1 -1 scale
(Approximation5) t 
GR
GR
GS
[0.75 0 0 0.75 0 0.25] CT
0.467 0.675 0.188 RC
1 LJ
2.667 LW
N
196 712.372 M
226 712.372 L
S
GR
GS
[0.75 0 0 0.75 171.75 555.96562] CT
/Helvetica 21.6 F
GS
[1 0 0 1 0 0] CT
0 9 moveto 
1 -1 scale
(Laser Prediction Set) t 
GR
GR
GS
[0.75 0 0 0.75 0 0.25] CT
0.302 0.745 0.933 RC
1 LJ
2.667 LW
N
196 740.954 M
226 740.954 L
S
GR
GS
[0.75 0 0 0.75 0 0.25] CT
0.149 GC
10.0 ML
0.667 LW
N
192 757 M
192 582 L
432 582 L
432 757 L
cp
S
GR
%%Trailer
%%Pages: 1
%%EOF
