%!PS-Adobe-3.0 EPSF-3.0
%%Creator: (MATLAB, The Mathworks, Inc. Version 9.1.0.441655 \(R2016b\). Operating System: Windows 8)
%%Title: (C:/Users/Eigenaar/WIT/Data Mining/data-mining/Session 2/plots/mu3.eps)
%%CreationDate: 2017-11-22T20:17:52
%%Pages: (atend)
%%BoundingBox: 0 0 847 634
%%LanguageLevel: 3
%%EndComments
%%BeginProlog
%%BeginResource: procset (Apache XML Graphics Std ProcSet) 1.2 0
%%Version: 1.2 0
%%Copyright: (Copyright 2001-2003,2010 The Apache Software Foundation. License terms: http://www.apache.org/licenses/LICENSE-2.0)
/bd{bind def}bind def
/ld{load def}bd
/GR/grestore ld
/M/moveto ld
/LJ/setlinejoin ld
/C/curveto ld
/f/fill ld
/LW/setlinewidth ld
/GC/setgray ld
/t/show ld
/N/newpath ld
/CT/concat ld
/cp/closepath ld
/S/stroke ld
/L/lineto ld
/CC/setcmykcolor ld
/A/ashow ld
/GS/gsave ld
/RC/setrgbcolor ld
/RM/rmoveto ld
/ML/setmiterlimit ld
/re {4 2 roll M
1 index 0 rlineto
0 exch rlineto
neg 0 rlineto
cp } bd
/_ctm matrix def
/_tm matrix def
/BT { _ctm currentmatrix pop matrix _tm copy pop 0 0 moveto } bd
/ET { _ctm setmatrix } bd
/iTm { _ctm setmatrix _tm concat } bd
/Tm { _tm astore pop iTm 0 0 moveto } bd
/ux 0.0 def
/uy 0.0 def
/F {
  /Tp exch def
  /Tf exch def
  Tf findfont Tp scalefont setfont
  /cf Tf def  /cs Tp def
} bd
/ULS {currentpoint /uy exch def /ux exch def} bd
/ULE {
  /Tcx currentpoint pop def
  gsave
  newpath
  cf findfont cs scalefont dup
  /FontMatrix get 0 get /Ts exch def /FontInfo get dup
  /UnderlinePosition get Ts mul /To exch def
  /UnderlineThickness get Ts mul /Tt exch def
  ux uy To add moveto  Tcx uy To add lineto
  Tt setlinewidth stroke
  grestore
} bd
/OLE {
  /Tcx currentpoint pop def
  gsave
  newpath
  cf findfont cs scalefont dup
  /FontMatrix get 0 get /Ts exch def /FontInfo get dup
  /UnderlinePosition get Ts mul /To exch def
  /UnderlineThickness get Ts mul /Tt exch def
  ux uy To add cs add moveto Tcx uy To add cs add lineto
  Tt setlinewidth stroke
  grestore
} bd
/SOE {
  /Tcx currentpoint pop def
  gsave
  newpath
  cf findfont cs scalefont dup
  /FontMatrix get 0 get /Ts exch def /FontInfo get dup
  /UnderlinePosition get Ts mul /To exch def
  /UnderlineThickness get Ts mul /Tt exch def
  ux uy To add cs 10 mul 26 idiv add moveto Tcx uy To add cs 10 mul 26 idiv add lineto
  Tt setlinewidth stroke
  grestore
} bd
/QT {
/Y22 exch store
/X22 exch store
/Y21 exch store
/X21 exch store
currentpoint
/Y21 load 2 mul add 3 div exch
/X21 load 2 mul add 3 div exch
/X21 load 2 mul /X22 load add 3 div
/Y21 load 2 mul /Y22 load add 3 div
/X22 load /Y22 load curveto
} bd
/SSPD {
dup length /d exch dict def
{
/v exch def
/k exch def
currentpagedevice k known {
/cpdv currentpagedevice k get def
v cpdv ne {
/upd false def
/nullv v type /nulltype eq def
/nullcpdv cpdv type /nulltype eq def
nullv nullcpdv or
{
/upd true def
} {
/sametype v type cpdv type eq def
sametype {
v type /arraytype eq {
/vlen v length def
/cpdvlen cpdv length def
vlen cpdvlen eq {
0 1 vlen 1 sub {
/i exch def
/obj v i get def
/cpdobj cpdv i get def
obj cpdobj ne {
/upd true def
exit
} if
} for
} {
/upd true def
} ifelse
} {
v type /dicttype eq {
v {
/dv exch def
/dk exch def
/cpddv cpdv dk get def
dv cpddv ne {
/upd true def
exit
} if
} forall
} {
/upd true def
} ifelse
} ifelse
} if
} ifelse
upd true eq {
d k v put
} if
} if
} if
} forall
d length 0 gt {
d setpagedevice
} if
} bd
/RE { % /NewFontName [NewEncodingArray] /FontName RE -
  findfont dup length dict begin
  {
    1 index /FID ne
    {def} {pop pop} ifelse
  } forall
  /Encoding exch def
  /FontName 1 index def
  currentdict definefont pop
  end
} bind def
%%EndResource
%%BeginResource: procset (Apache XML Graphics EPS ProcSet) 1.0 0
%%Version: 1.0 0
%%Copyright: (Copyright 2002-2003 The Apache Software Foundation. License terms: http://www.apache.org/licenses/LICENSE-2.0)
/BeginEPSF { %def
/b4_Inc_state save def         % Save state for cleanup
/dict_count countdictstack def % Count objects on dict stack
/op_count count 1 sub def      % Count objects on operand stack
userdict begin                 % Push userdict on dict stack
/showpage { } def              % Redefine showpage, { } = null proc
0 setgray 0 setlinecap         % Prepare graphics state
1 setlinewidth 0 setlinejoin
10 setmiterlimit [ ] 0 setdash newpath
/languagelevel where           % If level not equal to 1 then
{pop languagelevel             % set strokeadjust and
1 ne                           % overprint to their defaults.
{false setstrokeadjust false setoverprint
} if
} if
} bd
/EndEPSF { %def
count op_count sub {pop} repeat            % Clean up stacks
countdictstack dict_count sub {end} repeat
b4_Inc_state restore
} bd
%%EndResource
%FOPBeginFontDict
%%IncludeResource: font Courier-Bold
%%IncludeResource: font Helvetica
%%IncludeResource: font Courier-BoldOblique
%%IncludeResource: font Courier-Oblique
%%IncludeResource: font Times-Roman
%%IncludeResource: font Helvetica-BoldOblique
%%IncludeResource: font Helvetica-Bold
%%IncludeResource: font Helvetica-Oblique
%%IncludeResource: font Times-BoldItalic
%%IncludeResource: font Courier
%%IncludeResource: font Times-Italic
%%IncludeResource: font Times-Bold
%%IncludeResource: font Symbol
%%IncludeResource: font ZapfDingbats
%FOPEndFontDict
%%BeginResource: encoding WinAnsiEncoding
/WinAnsiEncoding [
/.notdef /.notdef /.notdef /.notdef /.notdef
/.notdef /.notdef /.notdef /.notdef /.notdef
/.notdef /.notdef /.notdef /.notdef /.notdef
/.notdef /.notdef /.notdef /.notdef /.notdef
/.notdef /.notdef /.notdef /.notdef /.notdef
/.notdef /.notdef /.notdef /.notdef /.notdef
/.notdef /.notdef /space /exclam /quotedbl
/numbersign /dollar /percent /ampersand /quotesingle
/parenleft /parenright /asterisk /plus /comma
/hyphen /period /slash /zero /one
/two /three /four /five /six
/seven /eight /nine /colon /semicolon
/less /equal /greater /question /at
/A /B /C /D /E
/F /G /H /I /J
/K /L /M /N /O
/P /Q /R /S /T
/U /V /W /X /Y
/Z /bracketleft /backslash /bracketright /asciicircum
/underscore /quoteleft /a /b /c
/d /e /f /g /h
/i /j /k /l /m
/n /o /p /q /r
/s /t /u /v /w
/x /y /z /braceleft /bar
/braceright /asciitilde /bullet /Euro /bullet
/quotesinglbase /florin /quotedblbase /ellipsis /dagger
/daggerdbl /circumflex /perthousand /Scaron /guilsinglleft
/OE /bullet /Zcaron /bullet /bullet
/quoteleft /quoteright /quotedblleft /quotedblright /bullet
/endash /emdash /asciitilde /trademark /scaron
/guilsinglright /oe /bullet /zcaron /Ydieresis
/space /exclamdown /cent /sterling /currency
/yen /brokenbar /section /dieresis /copyright
/ordfeminine /guillemotleft /logicalnot /sfthyphen /registered
/macron /degree /plusminus /twosuperior /threesuperior
/acute /mu /paragraph /middot /cedilla
/onesuperior /ordmasculine /guillemotright /onequarter /onehalf
/threequarters /questiondown /Agrave /Aacute /Acircumflex
/Atilde /Adieresis /Aring /AE /Ccedilla
/Egrave /Eacute /Ecircumflex /Edieresis /Igrave
/Iacute /Icircumflex /Idieresis /Eth /Ntilde
/Ograve /Oacute /Ocircumflex /Otilde /Odieresis
/multiply /Oslash /Ugrave /Uacute /Ucircumflex
/Udieresis /Yacute /Thorn /germandbls /agrave
/aacute /acircumflex /atilde /adieresis /aring
/ae /ccedilla /egrave /eacute /ecircumflex
/edieresis /igrave /iacute /icircumflex /idieresis
/eth /ntilde /ograve /oacute /ocircumflex
/otilde /odieresis /divide /oslash /ugrave
/uacute /ucircumflex /udieresis /yacute /thorn
/ydieresis
] def
%%EndResource
%FOPBeginFontReencode
/Courier-Bold findfont
dup length dict begin
  {1 index /FID ne {def} {pop pop} ifelse} forall
  /Encoding WinAnsiEncoding def
  currentdict
end
/Courier-Bold exch definefont pop
/Helvetica findfont
dup length dict begin
  {1 index /FID ne {def} {pop pop} ifelse} forall
  /Encoding WinAnsiEncoding def
  currentdict
end
/Helvetica exch definefont pop
/Courier-BoldOblique findfont
dup length dict begin
  {1 index /FID ne {def} {pop pop} ifelse} forall
  /Encoding WinAnsiEncoding def
  currentdict
end
/Courier-BoldOblique exch definefont pop
/Courier-Oblique findfont
dup length dict begin
  {1 index /FID ne {def} {pop pop} ifelse} forall
  /Encoding WinAnsiEncoding def
  currentdict
end
/Courier-Oblique exch definefont pop
/Times-Roman findfont
dup length dict begin
  {1 index /FID ne {def} {pop pop} ifelse} forall
  /Encoding WinAnsiEncoding def
  currentdict
end
/Times-Roman exch definefont pop
/Helvetica-BoldOblique findfont
dup length dict begin
  {1 index /FID ne {def} {pop pop} ifelse} forall
  /Encoding WinAnsiEncoding def
  currentdict
end
/Helvetica-BoldOblique exch definefont pop
/Helvetica-Bold findfont
dup length dict begin
  {1 index /FID ne {def} {pop pop} ifelse} forall
  /Encoding WinAnsiEncoding def
  currentdict
end
/Helvetica-Bold exch definefont pop
/Helvetica-Oblique findfont
dup length dict begin
  {1 index /FID ne {def} {pop pop} ifelse} forall
  /Encoding WinAnsiEncoding def
  currentdict
end
/Helvetica-Oblique exch definefont pop
/Times-BoldItalic findfont
dup length dict begin
  {1 index /FID ne {def} {pop pop} ifelse} forall
  /Encoding WinAnsiEncoding def
  currentdict
end
/Times-BoldItalic exch definefont pop
/Courier findfont
dup length dict begin
  {1 index /FID ne {def} {pop pop} ifelse} forall
  /Encoding WinAnsiEncoding def
  currentdict
end
/Courier exch definefont pop
/Times-Italic findfont
dup length dict begin
  {1 index /FID ne {def} {pop pop} ifelse} forall
  /Encoding WinAnsiEncoding def
  currentdict
end
/Times-Italic exch definefont pop
/Times-Bold findfont
dup length dict begin
  {1 index /FID ne {def} {pop pop} ifelse} forall
  /Encoding WinAnsiEncoding def
  currentdict
end
/Times-Bold exch definefont pop
%FOPEndFontReencode
%%EndProlog
%%Page: 1 1
%%PageBoundingBox: 0 0 847 634
%%BeginPageSetup
[1 0 0 -1 0 634] CT
%%EndPageSetup
GS
[0.75 0 0 0.75 0 0.25] CT
N
0 0 M
1129 0 L
1129 845 L
0 845 L
0 0 L
cp
clip
1 GC
N
0 0 1129 845 re
f
GR
GS
[0.75 0 0 0.75 0 0.25] CT
1 GC
N
0 0 1129 845 re
f
GR
GS
[0.75 0 0 0.75 0 0.25] CT
1 GC
N
147 752 M
1022 752 L
1022 63 L
147 63 L
cp
f
GR
GS
[0.75 0 0 0.75 0 0.25] CT
0.149 GC
2 setlinecap
1 LJ
0.667 LW
N
147 752 M
1022 752 L
S
GR
GS
[0.75 0 0 0.75 0 0.25] CT
0.149 GC
2 setlinecap
1 LJ
0.667 LW
N
147 63 M
1022 63 L
S
GR
GS
[0.75 0 0 0.75 0 0.25] CT
0.149 GC
2 setlinecap
1 LJ
0.667 LW
N
147 752 M
147 743.25 L
S
GR
GS
[0.75 0 0 0.75 0 0.25] CT
0.149 GC
2 setlinecap
1 LJ
0.667 LW
N
234.5 752 M
234.5 743.25 L
S
GR
GS
[0.75 0 0 0.75 0 0.25] CT
0.149 GC
2 setlinecap
1 LJ
0.667 LW
N
322 752 M
322 743.25 L
S
GR
GS
[0.75 0 0 0.75 0 0.25] CT
0.149 GC
2 setlinecap
1 LJ
0.667 LW
N
409.5 752 M
409.5 743.25 L
S
GR
GS
[0.75 0 0 0.75 0 0.25] CT
0.149 GC
2 setlinecap
1 LJ
0.667 LW
N
497 752 M
497 743.25 L
S
GR
GS
[0.75 0 0 0.75 0 0.25] CT
0.149 GC
2 setlinecap
1 LJ
0.667 LW
N
584.5 752 M
584.5 743.25 L
S
GR
GS
[0.75 0 0 0.75 0 0.25] CT
0.149 GC
2 setlinecap
1 LJ
0.667 LW
N
672 752 M
672 743.25 L
S
GR
GS
[0.75 0 0 0.75 0 0.25] CT
0.149 GC
2 setlinecap
1 LJ
0.667 LW
N
759.5 752 M
759.5 743.25 L
S
GR
GS
[0.75 0 0 0.75 0 0.25] CT
0.149 GC
2 setlinecap
1 LJ
0.667 LW
N
847 752 M
847 743.25 L
S
GR
GS
[0.75 0 0 0.75 0 0.25] CT
0.149 GC
2 setlinecap
1 LJ
0.667 LW
N
934.5 752 M
934.5 743.25 L
S
GR
GS
[0.75 0 0 0.75 0 0.25] CT
0.149 GC
2 setlinecap
1 LJ
0.667 LW
N
1022 752 M
1022 743.25 L
S
GR
GS
[0.75 0 0 0.75 0 0.25] CT
0.149 GC
2 setlinecap
1 LJ
0.667 LW
N
147 63 M
147 71.75 L
S
GR
GS
[0.75 0 0 0.75 0 0.25] CT
0.149 GC
2 setlinecap
1 LJ
0.667 LW
N
234.5 63 M
234.5 71.75 L
S
GR
GS
[0.75 0 0 0.75 0 0.25] CT
0.149 GC
2 setlinecap
1 LJ
0.667 LW
N
322 63 M
322 71.75 L
S
GR
GS
[0.75 0 0 0.75 0 0.25] CT
0.149 GC
2 setlinecap
1 LJ
0.667 LW
N
409.5 63 M
409.5 71.75 L
S
GR
GS
[0.75 0 0 0.75 0 0.25] CT
0.149 GC
2 setlinecap
1 LJ
0.667 LW
N
497 63 M
497 71.75 L
S
GR
GS
[0.75 0 0 0.75 0 0.25] CT
0.149 GC
2 setlinecap
1 LJ
0.667 LW
N
584.5 63 M
584.5 71.75 L
S
GR
GS
[0.75 0 0 0.75 0 0.25] CT
0.149 GC
2 setlinecap
1 LJ
0.667 LW
N
672 63 M
672 71.75 L
S
GR
GS
[0.75 0 0 0.75 0 0.25] CT
0.149 GC
2 setlinecap
1 LJ
0.667 LW
N
759.5 63 M
759.5 71.75 L
S
GR
GS
[0.75 0 0 0.75 0 0.25] CT
0.149 GC
2 setlinecap
1 LJ
0.667 LW
N
847 63 M
847 71.75 L
S
GR
GS
[0.75 0 0 0.75 0 0.25] CT
0.149 GC
2 setlinecap
1 LJ
0.667 LW
N
934.5 63 M
934.5 71.75 L
S
GR
GS
[0.75 0 0 0.75 0 0.25] CT
0.149 GC
2 setlinecap
1 LJ
0.667 LW
N
1022 63 M
1022 71.75 L
S
GR
GS
[0.75 0 0 0.75 110.25 569.85001] CT
0.149 GC
/Helvetica 24 F
GS
[1 0 0 1 0 0] CT
-7 25 moveto 
1 -1 scale
(0) t 
GR
GR
GS
[0.75 0 0 0.75 175.875 569.85001] CT
0.149 GC
/Helvetica 24 F
GS
[1 0 0 1 0 0] CT
-13.5 25 moveto 
1 -1 scale
(10) t 
GR
GR
GS
[0.75 0 0 0.75 241.5 569.85001] CT
0.149 GC
/Helvetica 24 F
GS
[1 0 0 1 0 0] CT
-13.5 25 moveto 
1 -1 scale
(20) t 
GR
GR
GS
[0.75 0 0 0.75 307.125 569.85001] CT
0.149 GC
/Helvetica 24 F
GS
[1 0 0 1 0 0] CT
-13.5 25 moveto 
1 -1 scale
(30) t 
GR
GR
GS
[0.75 0 0 0.75 372.75 569.85001] CT
0.149 GC
/Helvetica 24 F
GS
[1 0 0 1 0 0] CT
-13.5 25 moveto 
1 -1 scale
(40) t 
GR
GR
GS
[0.75 0 0 0.75 438.375 569.85001] CT
0.149 GC
/Helvetica 24 F
GS
[1 0 0 1 0 0] CT
-13.5 25 moveto 
1 -1 scale
(50) t 
GR
GR
GS
[0.75 0 0 0.75 504 569.85001] CT
0.149 GC
/Helvetica 24 F
GS
[1 0 0 1 0 0] CT
-13.5 25 moveto 
1 -1 scale
(60) t 
GR
GR
GS
[0.75 0 0 0.75 569.625 569.85001] CT
0.149 GC
/Helvetica 24 F
GS
[1 0 0 1 0 0] CT
-13.5 25 moveto 
1 -1 scale
(70) t 
GR
GR
GS
[0.75 0 0 0.75 635.25 569.85001] CT
0.149 GC
/Helvetica 24 F
GS
[1 0 0 1 0 0] CT
-13.5 25 moveto 
1 -1 scale
(80) t 
GR
GR
GS
[0.75 0 0 0.75 700.875 569.85001] CT
0.149 GC
/Helvetica 24 F
GS
[1 0 0 1 0 0] CT
-13.5 25 moveto 
1 -1 scale
(90) t 
GR
GR
GS
[0.75 0 0 0.75 766.5 569.85001] CT
0.149 GC
/Helvetica 24 F
GS
[1 0 0 1 0 0] CT
-20.5 25 moveto 
1 -1 scale
(100) t 
GR
GR
GS
[0.75 0 0 0.75 438.37532 594.09999] CT
0.149 GC
/Helvetica 26.4 F
GS
[1 0 0 1 0 0] CT
-46.5 27 moveto 
1 -1 scale
(Time [s]) t 
GR
GR
GS
[0.75 0 0 0.75 0 0.25] CT
0.149 GC
2 setlinecap
1 LJ
0.667 LW
N
147 752 M
147 63 L
S
GR
GS
[0.75 0 0 0.75 0 0.25] CT
0.149 GC
2 setlinecap
1 LJ
0.667 LW
N
1022 752 M
1022 63 L
S
GR
GS
[0.75 0 0 0.75 0 0.25] CT
0.149 GC
2 setlinecap
1 LJ
0.667 LW
N
147 752 M
155.75 752 L
S
GR
GS
[0.75 0 0 0.75 0 0.25] CT
0.149 GC
2 setlinecap
1 LJ
0.667 LW
N
147 653.571 M
155.75 653.571 L
S
GR
GS
[0.75 0 0 0.75 0 0.25] CT
0.149 GC
2 setlinecap
1 LJ
0.667 LW
N
147 555.143 M
155.75 555.143 L
S
GR
GS
[0.75 0 0 0.75 0 0.25] CT
0.149 GC
2 setlinecap
1 LJ
0.667 LW
N
147 456.714 M
155.75 456.714 L
S
GR
GS
[0.75 0 0 0.75 0 0.25] CT
0.149 GC
2 setlinecap
1 LJ
0.667 LW
N
147 358.286 M
155.75 358.286 L
S
GR
GS
[0.75 0 0 0.75 0 0.25] CT
0.149 GC
2 setlinecap
1 LJ
0.667 LW
N
147 259.857 M
155.75 259.857 L
S
GR
GS
[0.75 0 0 0.75 0 0.25] CT
0.149 GC
2 setlinecap
1 LJ
0.667 LW
N
147 161.429 M
155.75 161.429 L
S
GR
GS
[0.75 0 0 0.75 0 0.25] CT
0.149 GC
2 setlinecap
1 LJ
0.667 LW
N
147 63 M
155.75 63 L
S
GR
GS
[0.75 0 0 0.75 0 0.25] CT
0.149 GC
2 setlinecap
1 LJ
0.667 LW
N
1022 752 M
1013.25 752 L
S
GR
GS
[0.75 0 0 0.75 0 0.25] CT
0.149 GC
2 setlinecap
1 LJ
0.667 LW
N
1022 653.571 M
1013.25 653.571 L
S
GR
GS
[0.75 0 0 0.75 0 0.25] CT
0.149 GC
2 setlinecap
1 LJ
0.667 LW
N
1022 555.143 M
1013.25 555.143 L
S
GR
GS
[0.75 0 0 0.75 0 0.25] CT
0.149 GC
2 setlinecap
1 LJ
0.667 LW
N
1022 456.714 M
1013.25 456.714 L
S
GR
GS
[0.75 0 0 0.75 0 0.25] CT
0.149 GC
2 setlinecap
1 LJ
0.667 LW
N
1022 358.286 M
1013.25 358.286 L
S
GR
GS
[0.75 0 0 0.75 0 0.25] CT
0.149 GC
2 setlinecap
1 LJ
0.667 LW
N
1022 259.857 M
1013.25 259.857 L
S
GR
GS
[0.75 0 0 0.75 0 0.25] CT
0.149 GC
2 setlinecap
1 LJ
0.667 LW
N
1022 161.429 M
1013.25 161.429 L
S
GR
GS
[0.75 0 0 0.75 0 0.25] CT
0.149 GC
2 setlinecap
1 LJ
0.667 LW
N
1022 63 M
1013.25 63 L
S
GR
GS
[0.75 0 0 0.75 104.65001 564.25] CT
0.149 GC
/Helvetica 24 F
GS
[1 0 0 1 0 0] CT
-49 9.5 moveto 
1 -1 scale
(-600) t 
GR
GR
GS
[0.75 0 0 0.75 104.65001 490.42856] CT
0.149 GC
/Helvetica 24 F
GS
[1 0 0 1 0 0] CT
-49 9.5 moveto 
1 -1 scale
(-400) t 
GR
GR
GS
[0.75 0 0 0.75 104.65001 416.60716] CT
0.149 GC
/Helvetica 24 F
GS
[1 0 0 1 0 0] CT
-49 9.5 moveto 
1 -1 scale
(-200) t 
GR
GR
GS
[0.75 0 0 0.75 104.65001 342.78572] CT
0.149 GC
/Helvetica 24 F
GS
[1 0 0 1 0 0] CT
-14 9.5 moveto 
1 -1 scale
(0) t 
GR
GR
GS
[0.75 0 0 0.75 104.65001 268.96428] CT
0.149 GC
/Helvetica 24 F
GS
[1 0 0 1 0 0] CT
-41 9.5 moveto 
1 -1 scale
(200) t 
GR
GR
GS
[0.75 0 0 0.75 104.65001 195.14286] CT
0.149 GC
/Helvetica 24 F
GS
[1 0 0 1 0 0] CT
-41 9.5 moveto 
1 -1 scale
(400) t 
GR
GR
GS
[0.75 0 0 0.75 104.65001 121.32143] CT
0.149 GC
/Helvetica 24 F
GS
[1 0 0 1 0 0] CT
-41 9.5 moveto 
1 -1 scale
(600) t 
GR
GR
GS
[0.75 0 0 0.75 104.65001 47.5] CT
0.149 GC
/Helvetica 24 F
GS
[1 0 0 1 0 0] CT
-41 9.5 moveto 
1 -1 scale
(800) t 
GR
GR
GS
[0.75 0 0 0.75 0 0.25] CT
0 0.447 0.741 RC
1 LJ
2.667 LW
N
155.75 424.037 M
164.5 380.263 L
173.25 405.417 L
182 442.933 L
190.75 449.838 L
199.5 448.236 L
208.25 447.366 L
217 437.572 L
225.75 405.576 L
234.5 393.508 L
243.25 433.085 L
252 451.254 L
260.75 446.947 L
269.5 443.616 L
278.25 435.954 L
287 416.669 L
295.75 403.796 L
304.5 429.548 L
313.25 444.034 L
322 447.922 L
330.75 441.638 L
339.5 433.732 L
348.25 415.766 L
357 413.072 L
365.75 437.173 L
374.5 445.131 L
383.25 446.99 L
392 441.321 L
400.75 429.849 L
409.5 417.188 L
418.25 425.111 L
427 445.224 L
435.75 453.866 L
444.5 450.675 L
453.25 440.444 L
462 431.304 L
470.75 420.167 L
479.5 443.296 L
488.25 460.972 L
497 460.388 L
505.75 456.117 L
514.5 443.823 L
523.25 430.143 L
532 435.175 L
540.75 466.124 L
549.5 479.077 L
558.25 466.979 L
567 454.401 L
575.75 444.892 L
584.5 439.043 L
593.25 467.319 L
602 494.851 L
610.75 481.932 L
619.5 468.609 L
628.25 453.046 L
637 445.745 L
645.75 472.35 L
654.5 512.111 L
663.25 502.688 L
672 478.446 L
680.75 457.741 L
689.5 447.451 L
698.25 477.799 L
707 536.292 L
715.75 517.527 L
724.5 500.95 L
733.25 461.112 L
742 445.907 L
750.75 468.966 L
759.5 563.797 L
768.25 536.949 L
777 539.912 L
785.75 463.598 L
794.5 443.544 L
803.25 454.759 L
812 575.185 L
820.75 576.085 L
829.5 564.524 L
838.25 457.297 L
847 452.051 L
855.75 437.987 L
864.5 557.08 L
873.25 600.337 L
882 583.437 L
890.75 458.091 L
899.5 447.964 L
908.25 421.971 L
917 528.924 L
925.75 599.01 L
934.5 586.289 L
943.25 469.705 L
952 436.459 L
960.75 418.697 L
969.5 508.059 L
978.25 590.056 L
987 579.089 L
995.75 452.046 L
1004.5 431.292 L
1013.25 422.58 L
1022 499.979 L
S
GR
GS
[0.75 0 0 0.75 0 0.25] CT
0.851 0.325 0.098 RC
1 LJ
2.667 LW
N
155.75 420.42 M
164.5 368.275 L
173.25 397.903 L
182 439.123 L
190.75 448.531 L
199.5 450.542 L
208.25 448.72 L
217 439.523 L
225.75 400.483 L
234.5 366.824 L
243.25 418.809 L
252 444.534 L
260.75 449.21 L
269.5 450.129 L
278.25 446.136 L
287 429.771 L
295.75 377.315 L
304.5 382.739 L
313.25 434.02 L
322 447.003 L
330.75 450.351 L
339.5 449.984 L
348.25 442.971 L
357 415.717 L
365.75 364.177 L
374.5 406.87 L
383.25 439.752 L
392 448.84 L
400.75 450.364 L
409.5 448.001 L
418.25 437.29 L
427 396.869 L
435.75 370.91 L
444.5 425.849 L
453.25 444.966 L
462 449.338 L
470.75 450.623 L
479.5 443.893 L
488.25 427.153 L
497 376.133 L
505.75 396.389 L
514.5 438.03 L
523.25 446.527 L
532 448.964 L
540.75 448.641 L
549.5 437.702 L
558.25 410.083 L
567 373.452 L
575.75 423.003 L
584.5 442.418 L
593.25 447.494 L
602 448.043 L
610.75 443.009 L
619.5 426.03 L
628.25 387.412 L
637 400.258 L
645.75 443.078 L
654.5 446.448 L
663.25 451.646 L
672 447.1 L
680.75 435.824 L
689.5 405.892 L
698.25 386.436 L
707 431.214 L
715.75 444.323 L
724.5 451.441 L
733.25 447.321 L
742 442.199 L
750.75 419.135 L
759.5 388.278 L
768.25 414.174 L
777 447.106 L
785.75 450.44 L
794.5 453.375 L
803.25 445.328 L
812 430.866 L
820.75 394.609 L
829.5 399.055 L
838.25 437.357 L
847 449.708 L
855.75 452.125 L
864.5 448.827 L
873.25 436.614 L
882 404.474 L
890.75 387.492 L
899.5 426.373 L
908.25 447.495 L
917 450.799 L
925.75 451.579 L
934.5 441.729 L
943.25 419.452 L
952 383.243 L
960.75 410.453 L
969.5 443.247 L
978.25 450.611 L
987 450.621 L
995.75 448.399 L
1004.5 428.812 L
1013.25 390.145 L
1022 391.067 L
S
GR
GS
[0.75 0 0 0.75 0 0.25] CT
0.929 0.694 0.125 RC
1 LJ
2.667 LW
N
155.75 421.001 M
164.5 368.332 L
173.25 397.309 L
182 438.89 L
190.75 449.033 L
199.5 451.576 L
208.25 449.502 L
217 440.228 L
225.75 401.751 L
234.5 363.987 L
243.25 417.38 L
252 444.89 L
260.75 450.724 L
269.5 450.896 L
278.25 448.127 L
287 433.816 L
295.75 381.15 L
304.5 375.701 L
313.25 429.787 L
322 448.329 L
330.75 451.183 L
339.5 451.125 L
348.25 445.977 L
357 424.855 L
365.75 365.799 L
374.5 391.309 L
383.25 437.247 L
392 450.301 L
400.75 452.325 L
409.5 450.886 L
418.25 446.574 L
427 417.588 L
435.75 356.945 L
444.5 402.667 L
453.25 442.165 L
462 451.196 L
470.75 452.901 L
479.5 450.692 L
488.25 446.911 L
497 412.249 L
505.75 352.077 L
514.5 407.92 L
523.25 446.018 L
532 450.984 L
540.75 452.815 L
549.5 453.393 L
558.25 445.48 L
567 410.77 L
575.75 350.565 L
584.5 405.28 L
593.25 441.909 L
602 449.953 L
610.75 449.9 L
619.5 452.238 L
628.25 439.695 L
637 408.449 L
645.75 354.147 L
654.5 410.283 L
663.25 433.868 L
672 454.981 L
680.75 451.369 L
689.5 454.166 L
698.25 444.151 L
707 415.368 L
715.75 354.71 L
724.5 417.69 L
733.25 440.731 L
742 462.778 L
750.75 458.363 L
759.5 463.535 L
768.25 470.768 L
777 460.385 L
785.75 427.147 L
794.5 372.896 L
803.25 367.638 L
812 465.578 L
820.75 479.273 L
829.5 447.113 L
838.25 482.734 L
847 484.988 L
855.75 535.605 L
864.5 699.362 L
873.25 687.108 L
882 557.383 L
890.75 546.764 L
899.5 686.484 L
908.25 630.014 L
917 655.849 L
925.75 704.662 L
934.5 494.116 L
943.25 497.784 L
952 326.565 L
960.75 401.519 L
969.5 420.781 L
978.25 296.26 L
987 337.602 L
995.75 329.071 L
1004.5 202.784 L
1013.25 274.715 L
1022 236.177 L
S
GR
GS
[0.75 0 0 0.75 0 0.25] CT
0.494 0.184 0.557 RC
1 LJ
2.667 LW
N
155.75 420.431 M
164.5 368.156 L
173.25 396.915 L
182 438.527 L
190.75 449.139 L
199.5 451.586 L
208.25 448.809 L
217 440.573 L
225.75 402.483 L
234.5 362.364 L
243.25 416.685 L
252 445.577 L
260.75 449.758 L
269.5 451.164 L
278.25 448.078 L
287 433.2 L
295.75 382.233 L
304.5 374.797 L
313.25 431.222 L
322 449.094 L
330.75 450.649 L
339.5 451.28 L
348.25 446.706 L
357 424.398 L
365.75 363.982 L
374.5 391.843 L
383.25 437.677 L
392 447.506 L
400.75 453.946 L
409.5 451.928 L
418.25 446.363 L
427 420.03 L
435.75 353.181 L
444.5 401.178 L
453.25 445.427 L
462 445.821 L
470.75 456.985 L
479.5 452.513 L
488.25 443.976 L
497 420.28 L
505.75 348.625 L
514.5 402.667 L
523.25 453.731 L
532 450.745 L
540.75 458.536 L
549.5 453.37 L
558.25 444.942 L
567 415.848 L
575.75 341.619 L
584.5 407.83 L
593.25 448.445 L
602 458.564 L
610.75 460.292 L
619.5 457.03 L
628.25 464.635 L
637 435.967 L
645.75 347.501 L
654.5 369.624 L
663.25 443.853 L
672 447.868 L
680.75 457.419 L
689.5 421.894 L
698.25 411.799 L
707 394.577 L
715.75 350.026 L
724.5 385.386 L
733.25 453.431 L
742 497.225 L
750.75 432.097 L
759.5 413.428 L
768.25 379.675 L
777 374.883 L
785.75 393.17 L
794.5 446.216 L
803.25 420.249 L
812 404.848 L
820.75 363.002 L
829.5 294.288 L
838.25 315.356 L
847 425.701 L
855.75 437.69 L
864.5 384.527 L
873.25 321.836 L
882 223.848 L
890.75 217.619 L
899.5 244 L
908.25 265.679 L
917 335.197 L
925.75 356.65 L
934.5 176.736 L
943.25 224.706 L
952 133.37 L
960.75 263.869 L
969.5 211.005 L
978.25 277.647 L
987 264.846 L
995.75 144.447 L
1004.5 167.686 L
1013.25 121.536 L
1022 192.133 L
S
GR
GS
[0.75 0 0 0.75 0 0.25] CT
0.467 0.675 0.188 RC
1 LJ
2.667 LW
N
155.75 412.665 M
164.5 367.294 L
173.25 403.896 L
182 435.688 L
190.75 450.918 L
199.5 450.597 L
208.25 445.016 L
217 425.518 L
225.75 378.673 L
234.5 383.863 L
243.25 425.894 L
252 442.605 L
260.75 452.107 L
269.5 444.671 L
278.25 432.722 L
287 398.02 L
295.75 366.187 L
304.5 421.059 L
313.25 438.558 L
322 448.53 L
330.75 448.237 L
339.5 437.439 L
348.25 416.202 L
357 362.127 L
365.75 408.38 L
374.5 437.093 L
383.25 443.739 L
392 454.906 L
400.75 445.669 L
409.5 424.561 L
418.25 379.281 L
427 382.692 L
435.75 427.489 L
444.5 439.272 L
453.25 450.625 L
462 446.331 L
470.75 428.252 L
479.5 402.652 L
488.25 371.746 L
497 409.703 L
505.75 437.967 L
514.5 449.658 L
523.25 448.584 L
532 440.852 L
540.75 416.779 L
549.5 367.64 L
558.25 404.689 L
567 430.497 L
575.75 442.173 L
584.5 449.447 L
593.25 444.249 L
602 422.34 L
610.75 375.301 L
619.5 384.92 L
628.25 431.451 L
637 429.661 L
645.75 452.092 L
654.5 441.886 L
663.25 432.297 L
672 403.983 L
680.75 377.096 L
689.5 414.133 L
698.25 433.476 L
707 446.606 L
715.75 447.513 L
724.5 432.761 L
733.25 413.498 L
742 369.593 L
750.75 406.111 L
759.5 427.591 L
768.25 436.346 L
777 446.617 L
785.75 438.482 L
794.5 416.059 L
803.25 375.094 L
812 387.744 L
820.75 430.266 L
829.5 418.987 L
838.25 443.023 L
847 437.442 L
855.75 414.001 L
864.5 394.677 L
873.25 380.316 L
882 420.502 L
890.75 420.849 L
899.5 444.592 L
908.25 441.575 L
917 420.722 L
925.75 401.632 L
934.5 371.209 L
943.25 409.688 L
952 409.226 L
960.75 426.503 L
969.5 433.482 L
978.25 415.998 L
987 398.103 L
995.75 371.581 L
1004.5 373.377 L
1013.25 426.335 L
1022 382.648 L
S
GR
GS
[0.75 0 0 0.75 0 0.25] CT
0.302 0.745 0.933 RC
1 LJ
2.667 LW
N
155.75 421.28 M
164.5 369.113 L
173.25 396.673 L
182 438.997 L
190.75 449.824 L
199.5 451.301 L
208.25 449.824 L
217 440.966 L
225.75 402.579 L
234.5 364.191 L
243.25 417.343 L
252 445.395 L
260.75 450.809 L
269.5 451.793 L
278.25 449.332 L
287 434.568 L
295.75 382.401 L
304.5 373.542 L
313.25 430.631 L
322 447.856 L
330.75 450.809 L
339.5 452.285 L
348.25 448.348 L
357 427.186 L
365.75 367.144 L
374.5 386.338 L
383.25 438.013 L
392 450.316 L
400.75 452.285 L
409.5 452.285 L
418.25 447.364 L
427 421.772 L
435.75 357.794 L
444.5 394.704 L
453.25 441.95 L
462 450.809 L
470.75 452.285 L
479.5 452.777 L
488.25 447.856 L
497 422.264 L
505.75 352.872 L
514.5 392.244 L
523.25 441.95 L
532 451.301 L
540.75 452.777 L
549.5 452.777 L
558.25 450.316 L
567 433.584 L
575.75 362.223 L
584.5 368.621 L
593.25 437.029 L
602 450.316 L
610.75 452.285 L
619.5 453.269 L
628.25 453.269 L
637 449.824 L
645.75 421.772 L
654.5 331.218 L
663.25 392.244 L
672 444.903 L
680.75 452.285 L
689.5 453.269 L
698.25 453.269 L
707 454.254 L
715.75 454.746 L
724.5 455.238 L
733.25 452.777 L
742 446.871 L
750.75 450.316 L
759.5 451.793 L
768.25 450.316 L
777 446.871 L
785.75 441.458 L
794.5 436.044 L
803.25 428.662 L
812 423.249 L
820.75 422.264 L
829.5 427.678 L
838.25 433.091 L
847 434.076 L
855.75 431.615 L
864.5 426.694 L
873.25 422.264 L
882 423.741 L
890.75 428.662 L
899.5 433.091 L
908.25 433.584 L
917 430.631 L
925.75 424.725 L
934.5 421.28 L
943.25 423.741 L
952 428.662 L
960.75 433.584 L
969.5 433.584 L
978.25 430.139 L
987 423.741 L
995.75 420.788 L
1004.5 424.233 L
1013.25 430.139 L
1022 433.091 L
S
GR
GS
[0.75 0 0 0.75 0 0.25] CT
1 GC
N
176 321 M
176 85 L
502 85 L
502 321 L
cp
f
GR
GS
[0.75 0 0 0.75 192.06358 80.22923] CT
/Helvetica 21.6 F
GS
[1 0 0 1 0 0] CT
0 9 moveto 
1 -1 scale
(Approximation1) t 
GR
GR
GS
[0.75 0 0 0.75 0 0.25] CT
0 0.447 0.741 RC
1 LJ
2.667 LW
N
223.118 106.639 M
253.088 106.639 L
S
GR
GS
[0.75 0 0 0.75 192.06358 109.13754] CT
/Helvetica 21.6 F
GS
[1 0 0 1 0 0] CT
0 9 moveto 
1 -1 scale
(Approximation2) t 
GR
GR
GS
[0.75 0 0 0.75 0 0.25] CT
0.851 0.325 0.098 RC
1 LJ
2.667 LW
N
223.118 145.183 M
253.088 145.183 L
S
GR
GS
[0.75 0 0 0.75 192.06358 138.04585] CT
/Helvetica 21.6 F
GS
[1 0 0 1 0 0] CT
0 9 moveto 
1 -1 scale
(Approximation3) t 
GR
GR
GS
[0.75 0 0 0.75 0 0.25] CT
0.929 0.694 0.125 RC
1 LJ
2.667 LW
N
223.118 183.728 M
253.088 183.728 L
S
GR
GS
[0.75 0 0 0.75 192.06358 166.95415] CT
/Helvetica 21.6 F
GS
[1 0 0 1 0 0] CT
0 9 moveto 
1 -1 scale
(Approximation4) t 
GR
GR
GS
[0.75 0 0 0.75 0 0.25] CT
0.494 0.184 0.557 RC
1 LJ
2.667 LW
N
223.118 222.272 M
253.088 222.272 L
S
GR
GS
[0.75 0 0 0.75 192.06358 195.86246] CT
/Helvetica 21.6 F
GS
[1 0 0 1 0 0] CT
0 9 moveto 
1 -1 scale
(Approximation5) t 
GR
GR
GS
[0.75 0 0 0.75 0 0.25] CT
0.467 0.675 0.188 RC
1 LJ
2.667 LW
N
223.118 260.817 M
253.088 260.817 L
S
GR
GS
[0.75 0 0 0.75 192.06358 224.77077] CT
/Helvetica 21.6 F
GS
[1 0 0 1 0 0] CT
0 9 moveto 
1 -1 scale
(Laser Prediction Set) t 
GR
GR
GS
[0.75 0 0 0.75 0 0.25] CT
0.302 0.745 0.933 RC
1 LJ
2.667 LW
N
223.118 299.361 M
253.088 299.361 L
S
GR
GS
[0.75 0 0 0.75 0 0.25] CT
0.149 GC
10.0 ML
0.667 LW
N
176 321 M
176 85 L
502 85 L
502 321 L
cp
S
GR
%%Trailer
%%Pages: 1
%%EOF
