%!PS-Adobe-3.0 EPSF-3.0
%%Creator: (MATLAB, The Mathworks, Inc. Version 9.1.0.441655 \(R2016b\). Operating System: Windows 8)
%%Title: (C:/Users/Eigenaar/WIT/Data Mining/data-mining/Session 2/plots/mu5.eps)
%%CreationDate: 2017-11-22T20:13:47
%%Pages: (atend)
%%BoundingBox: 0 0 892 609
%%LanguageLevel: 3
%%EndComments
%%BeginProlog
%%BeginResource: procset (Apache XML Graphics Std ProcSet) 1.2 0
%%Version: 1.2 0
%%Copyright: (Copyright 2001-2003,2010 The Apache Software Foundation. License terms: http://www.apache.org/licenses/LICENSE-2.0)
/bd{bind def}bind def
/ld{load def}bd
/GR/grestore ld
/M/moveto ld
/LJ/setlinejoin ld
/C/curveto ld
/f/fill ld
/LW/setlinewidth ld
/GC/setgray ld
/t/show ld
/N/newpath ld
/CT/concat ld
/cp/closepath ld
/S/stroke ld
/L/lineto ld
/CC/setcmykcolor ld
/A/ashow ld
/GS/gsave ld
/RC/setrgbcolor ld
/RM/rmoveto ld
/ML/setmiterlimit ld
/re {4 2 roll M
1 index 0 rlineto
0 exch rlineto
neg 0 rlineto
cp } bd
/_ctm matrix def
/_tm matrix def
/BT { _ctm currentmatrix pop matrix _tm copy pop 0 0 moveto } bd
/ET { _ctm setmatrix } bd
/iTm { _ctm setmatrix _tm concat } bd
/Tm { _tm astore pop iTm 0 0 moveto } bd
/ux 0.0 def
/uy 0.0 def
/F {
  /Tp exch def
  /Tf exch def
  Tf findfont Tp scalefont setfont
  /cf Tf def  /cs Tp def
} bd
/ULS {currentpoint /uy exch def /ux exch def} bd
/ULE {
  /Tcx currentpoint pop def
  gsave
  newpath
  cf findfont cs scalefont dup
  /FontMatrix get 0 get /Ts exch def /FontInfo get dup
  /UnderlinePosition get Ts mul /To exch def
  /UnderlineThickness get Ts mul /Tt exch def
  ux uy To add moveto  Tcx uy To add lineto
  Tt setlinewidth stroke
  grestore
} bd
/OLE {
  /Tcx currentpoint pop def
  gsave
  newpath
  cf findfont cs scalefont dup
  /FontMatrix get 0 get /Ts exch def /FontInfo get dup
  /UnderlinePosition get Ts mul /To exch def
  /UnderlineThickness get Ts mul /Tt exch def
  ux uy To add cs add moveto Tcx uy To add cs add lineto
  Tt setlinewidth stroke
  grestore
} bd
/SOE {
  /Tcx currentpoint pop def
  gsave
  newpath
  cf findfont cs scalefont dup
  /FontMatrix get 0 get /Ts exch def /FontInfo get dup
  /UnderlinePosition get Ts mul /To exch def
  /UnderlineThickness get Ts mul /Tt exch def
  ux uy To add cs 10 mul 26 idiv add moveto Tcx uy To add cs 10 mul 26 idiv add lineto
  Tt setlinewidth stroke
  grestore
} bd
/QT {
/Y22 exch store
/X22 exch store
/Y21 exch store
/X21 exch store
currentpoint
/Y21 load 2 mul add 3 div exch
/X21 load 2 mul add 3 div exch
/X21 load 2 mul /X22 load add 3 div
/Y21 load 2 mul /Y22 load add 3 div
/X22 load /Y22 load curveto
} bd
/SSPD {
dup length /d exch dict def
{
/v exch def
/k exch def
currentpagedevice k known {
/cpdv currentpagedevice k get def
v cpdv ne {
/upd false def
/nullv v type /nulltype eq def
/nullcpdv cpdv type /nulltype eq def
nullv nullcpdv or
{
/upd true def
} {
/sametype v type cpdv type eq def
sametype {
v type /arraytype eq {
/vlen v length def
/cpdvlen cpdv length def
vlen cpdvlen eq {
0 1 vlen 1 sub {
/i exch def
/obj v i get def
/cpdobj cpdv i get def
obj cpdobj ne {
/upd true def
exit
} if
} for
} {
/upd true def
} ifelse
} {
v type /dicttype eq {
v {
/dv exch def
/dk exch def
/cpddv cpdv dk get def
dv cpddv ne {
/upd true def
exit
} if
} forall
} {
/upd true def
} ifelse
} ifelse
} if
} ifelse
upd true eq {
d k v put
} if
} if
} if
} forall
d length 0 gt {
d setpagedevice
} if
} bd
/RE { % /NewFontName [NewEncodingArray] /FontName RE -
  findfont dup length dict begin
  {
    1 index /FID ne
    {def} {pop pop} ifelse
  } forall
  /Encoding exch def
  /FontName 1 index def
  currentdict definefont pop
  end
} bind def
%%EndResource
%%BeginResource: procset (Apache XML Graphics EPS ProcSet) 1.0 0
%%Version: 1.0 0
%%Copyright: (Copyright 2002-2003 The Apache Software Foundation. License terms: http://www.apache.org/licenses/LICENSE-2.0)
/BeginEPSF { %def
/b4_Inc_state save def         % Save state for cleanup
/dict_count countdictstack def % Count objects on dict stack
/op_count count 1 sub def      % Count objects on operand stack
userdict begin                 % Push userdict on dict stack
/showpage { } def              % Redefine showpage, { } = null proc
0 setgray 0 setlinecap         % Prepare graphics state
1 setlinewidth 0 setlinejoin
10 setmiterlimit [ ] 0 setdash newpath
/languagelevel where           % If level not equal to 1 then
{pop languagelevel             % set strokeadjust and
1 ne                           % overprint to their defaults.
{false setstrokeadjust false setoverprint
} if
} if
} bd
/EndEPSF { %def
count op_count sub {pop} repeat            % Clean up stacks
countdictstack dict_count sub {end} repeat
b4_Inc_state restore
} bd
%%EndResource
%FOPBeginFontDict
%%IncludeResource: font Courier-Bold
%%IncludeResource: font Helvetica
%%IncludeResource: font Courier-BoldOblique
%%IncludeResource: font Courier-Oblique
%%IncludeResource: font Times-Roman
%%IncludeResource: font Helvetica-BoldOblique
%%IncludeResource: font Helvetica-Bold
%%IncludeResource: font Helvetica-Oblique
%%IncludeResource: font Times-BoldItalic
%%IncludeResource: font Courier
%%IncludeResource: font Times-Italic
%%IncludeResource: font Times-Bold
%%IncludeResource: font Symbol
%%IncludeResource: font ZapfDingbats
%FOPEndFontDict
%%BeginResource: encoding WinAnsiEncoding
/WinAnsiEncoding [
/.notdef /.notdef /.notdef /.notdef /.notdef
/.notdef /.notdef /.notdef /.notdef /.notdef
/.notdef /.notdef /.notdef /.notdef /.notdef
/.notdef /.notdef /.notdef /.notdef /.notdef
/.notdef /.notdef /.notdef /.notdef /.notdef
/.notdef /.notdef /.notdef /.notdef /.notdef
/.notdef /.notdef /space /exclam /quotedbl
/numbersign /dollar /percent /ampersand /quotesingle
/parenleft /parenright /asterisk /plus /comma
/hyphen /period /slash /zero /one
/two /three /four /five /six
/seven /eight /nine /colon /semicolon
/less /equal /greater /question /at
/A /B /C /D /E
/F /G /H /I /J
/K /L /M /N /O
/P /Q /R /S /T
/U /V /W /X /Y
/Z /bracketleft /backslash /bracketright /asciicircum
/underscore /quoteleft /a /b /c
/d /e /f /g /h
/i /j /k /l /m
/n /o /p /q /r
/s /t /u /v /w
/x /y /z /braceleft /bar
/braceright /asciitilde /bullet /Euro /bullet
/quotesinglbase /florin /quotedblbase /ellipsis /dagger
/daggerdbl /circumflex /perthousand /Scaron /guilsinglleft
/OE /bullet /Zcaron /bullet /bullet
/quoteleft /quoteright /quotedblleft /quotedblright /bullet
/endash /emdash /asciitilde /trademark /scaron
/guilsinglright /oe /bullet /zcaron /Ydieresis
/space /exclamdown /cent /sterling /currency
/yen /brokenbar /section /dieresis /copyright
/ordfeminine /guillemotleft /logicalnot /sfthyphen /registered
/macron /degree /plusminus /twosuperior /threesuperior
/acute /mu /paragraph /middot /cedilla
/onesuperior /ordmasculine /guillemotright /onequarter /onehalf
/threequarters /questiondown /Agrave /Aacute /Acircumflex
/Atilde /Adieresis /Aring /AE /Ccedilla
/Egrave /Eacute /Ecircumflex /Edieresis /Igrave
/Iacute /Icircumflex /Idieresis /Eth /Ntilde
/Ograve /Oacute /Ocircumflex /Otilde /Odieresis
/multiply /Oslash /Ugrave /Uacute /Ucircumflex
/Udieresis /Yacute /Thorn /germandbls /agrave
/aacute /acircumflex /atilde /adieresis /aring
/ae /ccedilla /egrave /eacute /ecircumflex
/edieresis /igrave /iacute /icircumflex /idieresis
/eth /ntilde /ograve /oacute /ocircumflex
/otilde /odieresis /divide /oslash /ugrave
/uacute /ucircumflex /udieresis /yacute /thorn
/ydieresis
] def
%%EndResource
%FOPBeginFontReencode
/Courier-Bold findfont
dup length dict begin
  {1 index /FID ne {def} {pop pop} ifelse} forall
  /Encoding WinAnsiEncoding def
  currentdict
end
/Courier-Bold exch definefont pop
/Helvetica findfont
dup length dict begin
  {1 index /FID ne {def} {pop pop} ifelse} forall
  /Encoding WinAnsiEncoding def
  currentdict
end
/Helvetica exch definefont pop
/Courier-BoldOblique findfont
dup length dict begin
  {1 index /FID ne {def} {pop pop} ifelse} forall
  /Encoding WinAnsiEncoding def
  currentdict
end
/Courier-BoldOblique exch definefont pop
/Courier-Oblique findfont
dup length dict begin
  {1 index /FID ne {def} {pop pop} ifelse} forall
  /Encoding WinAnsiEncoding def
  currentdict
end
/Courier-Oblique exch definefont pop
/Times-Roman findfont
dup length dict begin
  {1 index /FID ne {def} {pop pop} ifelse} forall
  /Encoding WinAnsiEncoding def
  currentdict
end
/Times-Roman exch definefont pop
/Helvetica-BoldOblique findfont
dup length dict begin
  {1 index /FID ne {def} {pop pop} ifelse} forall
  /Encoding WinAnsiEncoding def
  currentdict
end
/Helvetica-BoldOblique exch definefont pop
/Helvetica-Bold findfont
dup length dict begin
  {1 index /FID ne {def} {pop pop} ifelse} forall
  /Encoding WinAnsiEncoding def
  currentdict
end
/Helvetica-Bold exch definefont pop
/Helvetica-Oblique findfont
dup length dict begin
  {1 index /FID ne {def} {pop pop} ifelse} forall
  /Encoding WinAnsiEncoding def
  currentdict
end
/Helvetica-Oblique exch definefont pop
/Times-BoldItalic findfont
dup length dict begin
  {1 index /FID ne {def} {pop pop} ifelse} forall
  /Encoding WinAnsiEncoding def
  currentdict
end
/Times-BoldItalic exch definefont pop
/Courier findfont
dup length dict begin
  {1 index /FID ne {def} {pop pop} ifelse} forall
  /Encoding WinAnsiEncoding def
  currentdict
end
/Courier exch definefont pop
/Times-Italic findfont
dup length dict begin
  {1 index /FID ne {def} {pop pop} ifelse} forall
  /Encoding WinAnsiEncoding def
  currentdict
end
/Times-Italic exch definefont pop
/Times-Bold findfont
dup length dict begin
  {1 index /FID ne {def} {pop pop} ifelse} forall
  /Encoding WinAnsiEncoding def
  currentdict
end
/Times-Bold exch definefont pop
%FOPEndFontReencode
%%EndProlog
%%Page: 1 1
%%PageBoundingBox: 0 0 892 609
%%BeginPageSetup
[1 0 0 -1 0 609] CT
%%EndPageSetup
GS
[0.75 0 0 0.75 0 0] CT
1 GC
N
0 0 1189 812 re
f
GR
GS
[0.75 0 0 0.75 0 0] CT
1 GC
N
0 0 1189 812 re
f
GR
GS
[0.75 0 0 0.75 0 0] CT
1 GC
N
155 723 M
1076 723 L
1076 61 L
155 61 L
cp
f
GR
GS
[0.75 0 0 0.75 0 0] CT
0.149 GC
2 setlinecap
1 LJ
0.667 LW
N
155 723 M
1076 723 L
S
GR
GS
[0.75 0 0 0.75 0 0] CT
0.149 GC
2 setlinecap
1 LJ
0.667 LW
N
155 61 M
1076 61 L
S
GR
GS
[0.75 0 0 0.75 0 0] CT
0.149 GC
2 setlinecap
1 LJ
0.667 LW
N
155 723 M
155 713.79 L
S
GR
GS
[0.75 0 0 0.75 0 0] CT
0.149 GC
2 setlinecap
1 LJ
0.667 LW
N
247.1 723 M
247.1 713.79 L
S
GR
GS
[0.75 0 0 0.75 0 0] CT
0.149 GC
2 setlinecap
1 LJ
0.667 LW
N
339.2 723 M
339.2 713.79 L
S
GR
GS
[0.75 0 0 0.75 0 0] CT
0.149 GC
2 setlinecap
1 LJ
0.667 LW
N
431.3 723 M
431.3 713.79 L
S
GR
GS
[0.75 0 0 0.75 0 0] CT
0.149 GC
2 setlinecap
1 LJ
0.667 LW
N
523.4 723 M
523.4 713.79 L
S
GR
GS
[0.75 0 0 0.75 0 0] CT
0.149 GC
2 setlinecap
1 LJ
0.667 LW
N
615.5 723 M
615.5 713.79 L
S
GR
GS
[0.75 0 0 0.75 0 0] CT
0.149 GC
2 setlinecap
1 LJ
0.667 LW
N
707.6 723 M
707.6 713.79 L
S
GR
GS
[0.75 0 0 0.75 0 0] CT
0.149 GC
2 setlinecap
1 LJ
0.667 LW
N
799.7 723 M
799.7 713.79 L
S
GR
GS
[0.75 0 0 0.75 0 0] CT
0.149 GC
2 setlinecap
1 LJ
0.667 LW
N
891.8 723 M
891.8 713.79 L
S
GR
GS
[0.75 0 0 0.75 0 0] CT
0.149 GC
2 setlinecap
1 LJ
0.667 LW
N
983.9 723 M
983.9 713.79 L
S
GR
GS
[0.75 0 0 0.75 0 0] CT
0.149 GC
2 setlinecap
1 LJ
0.667 LW
N
1076 723 M
1076 713.79 L
S
GR
GS
[0.75 0 0 0.75 0 0] CT
0.149 GC
2 setlinecap
1 LJ
0.667 LW
N
155 61 M
155 70.21 L
S
GR
GS
[0.75 0 0 0.75 0 0] CT
0.149 GC
2 setlinecap
1 LJ
0.667 LW
N
247.1 61 M
247.1 70.21 L
S
GR
GS
[0.75 0 0 0.75 0 0] CT
0.149 GC
2 setlinecap
1 LJ
0.667 LW
N
339.2 61 M
339.2 70.21 L
S
GR
GS
[0.75 0 0 0.75 0 0] CT
0.149 GC
2 setlinecap
1 LJ
0.667 LW
N
431.3 61 M
431.3 70.21 L
S
GR
GS
[0.75 0 0 0.75 0 0] CT
0.149 GC
2 setlinecap
1 LJ
0.667 LW
N
523.4 61 M
523.4 70.21 L
S
GR
GS
[0.75 0 0 0.75 0 0] CT
0.149 GC
2 setlinecap
1 LJ
0.667 LW
N
615.5 61 M
615.5 70.21 L
S
GR
GS
[0.75 0 0 0.75 0 0] CT
0.149 GC
2 setlinecap
1 LJ
0.667 LW
N
707.6 61 M
707.6 70.21 L
S
GR
GS
[0.75 0 0 0.75 0 0] CT
0.149 GC
2 setlinecap
1 LJ
0.667 LW
N
799.7 61 M
799.7 70.21 L
S
GR
GS
[0.75 0 0 0.75 0 0] CT
0.149 GC
2 setlinecap
1 LJ
0.667 LW
N
891.8 61 M
891.8 70.21 L
S
GR
GS
[0.75 0 0 0.75 0 0] CT
0.149 GC
2 setlinecap
1 LJ
0.667 LW
N
983.9 61 M
983.9 70.21 L
S
GR
GS
[0.75 0 0 0.75 0 0] CT
0.149 GC
2 setlinecap
1 LJ
0.667 LW
N
1076 61 M
1076 70.21 L
S
GR
GS
[0.75 0 0 0.75 116.25 547.85001] CT
0.149 GC
/Helvetica 24 F
GS
[1 0 0 1 0 0] CT
-7 25 moveto 
1 -1 scale
(0) t 
GR
GR
GS
[0.75 0 0 0.75 185.325 547.85001] CT
0.149 GC
/Helvetica 24 F
GS
[1 0 0 1 0 0] CT
-13.5 25 moveto 
1 -1 scale
(10) t 
GR
GR
GS
[0.75 0 0 0.75 254.40001 547.85001] CT
0.149 GC
/Helvetica 24 F
GS
[1 0 0 1 0 0] CT
-13.5 25 moveto 
1 -1 scale
(20) t 
GR
GR
GS
[0.75 0 0 0.75 323.47499 547.85001] CT
0.149 GC
/Helvetica 24 F
GS
[1 0 0 1 0 0] CT
-13.5 25 moveto 
1 -1 scale
(30) t 
GR
GR
GS
[0.75 0 0 0.75 392.55002 547.85001] CT
0.149 GC
/Helvetica 24 F
GS
[1 0 0 1 0 0] CT
-13.5 25 moveto 
1 -1 scale
(40) t 
GR
GR
GS
[0.75 0 0 0.75 461.625 547.85001] CT
0.149 GC
/Helvetica 24 F
GS
[1 0 0 1 0 0] CT
-13.5 25 moveto 
1 -1 scale
(50) t 
GR
GR
GS
[0.75 0 0 0.75 530.69998 547.85001] CT
0.149 GC
/Helvetica 24 F
GS
[1 0 0 1 0 0] CT
-13.5 25 moveto 
1 -1 scale
(60) t 
GR
GR
GS
[0.75 0 0 0.75 599.77501 547.85001] CT
0.149 GC
/Helvetica 24 F
GS
[1 0 0 1 0 0] CT
-13.5 25 moveto 
1 -1 scale
(70) t 
GR
GR
GS
[0.75 0 0 0.75 668.84999 547.85001] CT
0.149 GC
/Helvetica 24 F
GS
[1 0 0 1 0 0] CT
-13.5 25 moveto 
1 -1 scale
(80) t 
GR
GR
GS
[0.75 0 0 0.75 737.92502 547.85001] CT
0.149 GC
/Helvetica 24 F
GS
[1 0 0 1 0 0] CT
-13.5 25 moveto 
1 -1 scale
(90) t 
GR
GR
GS
[0.75 0 0 0.75 807 547.85001] CT
0.149 GC
/Helvetica 24 F
GS
[1 0 0 1 0 0] CT
-20.5 25 moveto 
1 -1 scale
(100) t 
GR
GR
GS
[0.75 0 0 0.75 461.62532 572.09999] CT
0.149 GC
/Helvetica 26.4 F
GS
[1 0 0 1 0 0] CT
-46.5 27 moveto 
1 -1 scale
(Time [s]) t 
GR
GR
GS
[0.75 0 0 0.75 0 0] CT
0.149 GC
2 setlinecap
1 LJ
0.667 LW
N
155 723 M
155 61 L
S
GR
GS
[0.75 0 0 0.75 0 0] CT
0.149 GC
2 setlinecap
1 LJ
0.667 LW
N
1076 723 M
1076 61 L
S
GR
GS
[0.75 0 0 0.75 0 0] CT
0.149 GC
2 setlinecap
1 LJ
0.667 LW
N
155 723 M
164.21 723 L
S
GR
GS
[0.75 0 0 0.75 0 0] CT
0.149 GC
2 setlinecap
1 LJ
0.667 LW
N
155 640.25 M
164.21 640.25 L
S
GR
GS
[0.75 0 0 0.75 0 0] CT
0.149 GC
2 setlinecap
1 LJ
0.667 LW
N
155 557.5 M
164.21 557.5 L
S
GR
GS
[0.75 0 0 0.75 0 0] CT
0.149 GC
2 setlinecap
1 LJ
0.667 LW
N
155 474.75 M
164.21 474.75 L
S
GR
GS
[0.75 0 0 0.75 0 0] CT
0.149 GC
2 setlinecap
1 LJ
0.667 LW
N
155 392 M
164.21 392 L
S
GR
GS
[0.75 0 0 0.75 0 0] CT
0.149 GC
2 setlinecap
1 LJ
0.667 LW
N
155 309.25 M
164.21 309.25 L
S
GR
GS
[0.75 0 0 0.75 0 0] CT
0.149 GC
2 setlinecap
1 LJ
0.667 LW
N
155 226.5 M
164.21 226.5 L
S
GR
GS
[0.75 0 0 0.75 0 0] CT
0.149 GC
2 setlinecap
1 LJ
0.667 LW
N
155 143.75 M
164.21 143.75 L
S
GR
GS
[0.75 0 0 0.75 0 0] CT
0.149 GC
2 setlinecap
1 LJ
0.667 LW
N
155 61 M
164.21 61 L
S
GR
GS
[0.75 0 0 0.75 0 0] CT
0.149 GC
2 setlinecap
1 LJ
0.667 LW
N
1076 723 M
1066.79 723 L
S
GR
GS
[0.75 0 0 0.75 0 0] CT
0.149 GC
2 setlinecap
1 LJ
0.667 LW
N
1076 640.25 M
1066.79 640.25 L
S
GR
GS
[0.75 0 0 0.75 0 0] CT
0.149 GC
2 setlinecap
1 LJ
0.667 LW
N
1076 557.5 M
1066.79 557.5 L
S
GR
GS
[0.75 0 0 0.75 0 0] CT
0.149 GC
2 setlinecap
1 LJ
0.667 LW
N
1076 474.75 M
1066.79 474.75 L
S
GR
GS
[0.75 0 0 0.75 0 0] CT
0.149 GC
2 setlinecap
1 LJ
0.667 LW
N
1076 392 M
1066.79 392 L
S
GR
GS
[0.75 0 0 0.75 0 0] CT
0.149 GC
2 setlinecap
1 LJ
0.667 LW
N
1076 309.25 M
1066.79 309.25 L
S
GR
GS
[0.75 0 0 0.75 0 0] CT
0.149 GC
2 setlinecap
1 LJ
0.667 LW
N
1076 226.5 M
1066.79 226.5 L
S
GR
GS
[0.75 0 0 0.75 0 0] CT
0.149 GC
2 setlinecap
1 LJ
0.667 LW
N
1076 143.75 M
1066.79 143.75 L
S
GR
GS
[0.75 0 0 0.75 0 0] CT
0.149 GC
2 setlinecap
1 LJ
0.667 LW
N
1076 61 M
1066.79 61 L
S
GR
GS
[0.75 0 0 0.75 110.65001 542.25] CT
0.149 GC
/Helvetica 24 F
GS
[1 0 0 1 0 0] CT
-49 9.5 moveto 
1 -1 scale
(-800) t 
GR
GR
GS
[0.75 0 0 0.75 110.65001 480.1875] CT
0.149 GC
/Helvetica 24 F
GS
[1 0 0 1 0 0] CT
-49 9.5 moveto 
1 -1 scale
(-600) t 
GR
GR
GS
[0.75 0 0 0.75 110.65001 418.125] CT
0.149 GC
/Helvetica 24 F
GS
[1 0 0 1 0 0] CT
-49 9.5 moveto 
1 -1 scale
(-400) t 
GR
GR
GS
[0.75 0 0 0.75 110.65001 356.0625] CT
0.149 GC
/Helvetica 24 F
GS
[1 0 0 1 0 0] CT
-49 9.5 moveto 
1 -1 scale
(-200) t 
GR
GR
GS
[0.75 0 0 0.75 110.65001 294] CT
0.149 GC
/Helvetica 24 F
GS
[1 0 0 1 0 0] CT
-14 9.5 moveto 
1 -1 scale
(0) t 
GR
GR
GS
[0.75 0 0 0.75 110.65001 231.9375] CT
0.149 GC
/Helvetica 24 F
GS
[1 0 0 1 0 0] CT
-41 9.5 moveto 
1 -1 scale
(200) t 
GR
GR
GS
[0.75 0 0 0.75 110.65001 169.875] CT
0.149 GC
/Helvetica 24 F
GS
[1 0 0 1 0 0] CT
-41 9.5 moveto 
1 -1 scale
(400) t 
GR
GR
GS
[0.75 0 0 0.75 110.65001 107.8125] CT
0.149 GC
/Helvetica 24 F
GS
[1 0 0 1 0 0] CT
-41 9.5 moveto 
1 -1 scale
(600) t 
GR
GR
GS
[0.75 0 0 0.75 110.65001 45.75] CT
0.149 GC
/Helvetica 24 F
GS
[1 0 0 1 0 0] CT
-41 9.5 moveto 
1 -1 scale
(800) t 
GR
GR
GS
[0.75 0 0 0.75 0 0] CT
0 0.447 0.741 RC
1 LJ
2.667 LW
N
164.21 362.13 M
173.42 316.876 L
182.63 341.993 L
191.84 377.176 L
201.05 386.546 L
210.26 388.118 L
219.47 386.548 L
228.68 379.113 L
237.89 346.881 L
247.1 313.087 L
256.31 358.4 L
265.52 381.708 L
274.73 387.064 L
283.94 388.711 L
293.15 385.457 L
302.36 374.479 L
311.57 329.911 L
320.78 321.485 L
329.99 368.717 L
339.2 385.702 L
348.41 388.859 L
357.62 387.893 L
366.83 385.206 L
376.04 368.482 L
385.25 316.67 L
394.46 328.415 L
403.67 375.106 L
412.88 384.705 L
422.09 389.045 L
431.3 386.261 L
440.51 385.164 L
449.72 365.209 L
458.93 311.871 L
468.14 332.072 L
477.35 378.441 L
486.56 386.17 L
495.77 386.146 L
504.98 386.766 L
514.19 384.682 L
523.4 368.875 L
532.61 319.125 L
541.82 323.64 L
551.03 374.881 L
560.24 383.903 L
569.45 384.632 L
578.66 385.173 L
587.87 381.832 L
597.08 376.256 L
606.29 342.196 L
615.5 296.919 L
624.71 356.751 L
633.92 385.61 L
643.13 381.95 L
652.34 383.587 L
661.55 370.482 L
670.76 374.401 L
679.97 348.345 L
689.18 310.858 L
698.39 327.955 L
707.6 385.573 L
716.81 396.608 L
726.02 373.127 L
735.23 379.712 L
744.44 359.669 L
753.65 335.826 L
762.86 322.449 L
772.07 354.139 L
781.28 391.626 L
790.49 391.102 L
799.7 372.245 L
808.91 406.812 L
818.12 369.751 L
827.33 389.042 L
836.54 360.007 L
845.75 337.163 L
854.96 333.564 L
864.17 381.266 L
873.38 358.559 L
882.59 424.99 L
891.8 380.746 L
901.01 386.129 L
910.22 346.788 L
919.43 317.296 L
928.64 328.66 L
937.85 369.771 L
947.06 347.669 L
956.27 438.123 L
965.48 332.195 L
974.69 409.376 L
983.9 322.341 L
993.11 337.68 L
1002.32 341.962 L
1011.53 420.72 L
1020.74 415.512 L
1029.95 430.18 L
1039.16 385.936 L
1048.37 340.105 L
1057.58 413.178 L
1066.79 466.437 L
1076 561.242 L
S
GR
GS
[0.75 0 0 0.75 0 0] CT
0.851 0.325 0.098 RC
1 LJ
2.667 LW
N
164.21 361.406 M
173.42 317.96 L
182.63 342.335 L
191.84 377.124 L
201.05 385.743 L
210.26 387.625 L
219.47 386.265 L
228.68 378.149 L
237.89 345.169 L
247.1 314.063 L
256.31 359.806 L
265.52 382.12 L
274.73 387.541 L
283.94 387.363 L
293.15 385.689 L
302.36 372.107 L
311.57 327.96 L
320.78 323.456 L
329.99 370.981 L
339.2 385.344 L
348.41 388.09 L
357.62 388.268 L
366.83 384.423 L
376.04 365.696 L
385.25 314.906 L
394.46 334.673 L
403.67 376.082 L
412.88 386.206 L
422.09 388.004 L
431.3 387.91 L
440.51 383.53 L
449.72 361.106 L
458.93 308.115 L
468.14 341.865 L
477.35 379.681 L
486.56 387.763 L
495.77 387.749 L
504.98 387.884 L
514.19 383.571 L
523.4 360.504 L
532.61 304.673 L
541.82 342.654 L
551.03 380.972 L
560.24 387.619 L
569.45 388.35 L
578.66 388.77 L
587.87 387.658 L
597.08 367.787 L
606.29 310.527 L
615.5 327.226 L
624.71 378.257 L
633.92 387.9 L
643.13 389.285 L
652.34 389.342 L
661.55 390.433 L
670.76 379.985 L
679.97 336.67 L
689.18 292.735 L
698.39 350.395 L
707.6 384.348 L
716.81 393.891 L
726.02 394.461 L
735.23 387.041 L
744.44 385.329 L
753.65 370.13 L
762.86 311.953 L
772.07 321.167 L
781.28 374.986 L
790.49 382.359 L
799.7 381.295 L
808.91 409.91 L
818.12 365.122 L
827.33 332.494 L
836.54 291.444 L
845.75 378.196 L
854.96 386.143 L
864.17 355.689 L
873.38 424.352 L
882.59 411.424 L
891.8 408.844 L
901.01 346.828 L
910.22 306.05 L
919.43 334.907 L
928.64 361.592 L
937.85 408.553 L
947.06 368.97 L
956.27 422.525 L
965.48 301.099 L
974.69 310.765 L
983.9 255.767 L
993.11 420.231 L
1002.32 358.945 L
1011.53 301.127 L
1020.74 448.072 L
1029.95 381.027 L
1039.16 539.272 L
1048.37 481.412 L
1057.58 621.161 L
1066.79 396.395 L
1076 321.756 L
S
GR
GS
[0.75 0 0 0.75 0 0] CT
0.929 0.694 0.125 RC
1 LJ
2.667 LW
N
164.21 361.69 M
173.42 319.051 L
182.63 342.793 L
191.84 373.457 L
201.05 381.347 L
210.26 386.65 L
219.47 382.772 L
228.68 372.461 L
237.89 337.694 L
247.1 322.436 L
256.31 360.988 L
265.52 377.298 L
274.73 382.299 L
283.94 383.695 L
293.15 373.045 L
302.36 356.392 L
311.57 317.84 L
320.78 344.625 L
329.99 369.559 L
339.2 376.076 L
348.41 385.28 L
357.62 377.794 L
366.83 362.959 L
376.04 331.543 L
385.25 322.164 L
394.46 365.806 L
403.67 373.482 L
412.88 378.865 L
422.09 384.703 L
431.3 372.689 L
440.51 356.139 L
449.72 308.434 L
458.93 340.99 L
468.14 369.835 L
477.35 372.144 L
486.56 384.903 L
495.77 379.77 L
504.98 366.232 L
514.19 337.821 L
523.4 307.938 L
532.61 356.569 L
541.82 372.286 L
551.03 374.156 L
560.24 388.042 L
569.45 379.512 L
578.66 372.218 L
587.87 321.725 L
597.08 311.291 L
606.29 356.112 L
615.5 371.476 L
624.71 378.85 L
633.92 379.147 L
643.13 366.783 L
652.34 364.725 L
661.55 319.565 L
670.76 319.462 L
679.97 354.888 L
689.18 369.485 L
698.39 382.385 L
707.6 377.34 L
716.81 366.181 L
726.02 345.428 L
735.23 309.226 L
744.44 339.725 L
753.65 357.262 L
762.86 355.747 L
772.07 380.003 L
781.28 369.543 L
790.49 370.705 L
799.7 325.619 L
808.91 299.093 L
818.12 338.666 L
827.33 336.971 L
836.54 330.149 L
845.75 351.622 L
854.96 328.837 L
864.17 353.394 L
873.38 329.068 L
882.59 293.219 L
891.8 291.649 L
901.01 250.908 L
910.22 230.509 L
919.43 192.515 L
928.64 211.087 L
937.85 229.494 L
947.06 206.313 L
956.27 164.695 L
965.48 161.771 L
974.69 141.152 L
983.9 156.49 L
993.11 142.954 L
1002.32 157.886 L
1011.53 168.625 L
1020.74 163.793 L
1029.95 167.405 L
1039.16 143.617 L
1048.37 129.556 L
1057.58 144.125 L
1066.79 107.711 L
1076 124.27 L
S
GR
GS
[0.75 0 0 0.75 0 0] CT
0.494 0.184 0.557 RC
1 LJ
2.667 LW
N
164.21 371.141 M
173.42 313.417 L
182.63 327.712 L
191.84 371.578 L
201.05 384.532 L
210.26 383.65 L
219.47 381.895 L
228.68 384.716 L
237.89 374.375 L
247.1 319.888 L
256.31 307.012 L
265.52 369.825 L
274.73 380.141 L
283.94 383.003 L
293.15 385.873 L
302.36 381.333 L
311.57 369.461 L
320.78 363.334 L
329.99 318.751 L
339.2 312.444 L
348.41 374.948 L
357.62 378.966 L
366.83 388.477 L
376.04 387.913 L
385.25 365.145 L
394.46 334.155 L
403.67 391.476 L
412.88 394.903 L
422.09 350.054 L
431.3 310.926 L
440.51 379.156 L
449.72 384.818 L
458.93 355.353 L
468.14 319.799 L
477.35 368.802 L
486.56 404.346 L
495.77 389.26 L
504.98 388.579 L
514.19 306.986 L
523.4 306.512 L
532.61 344.456 L
541.82 377.071 L
551.03 409.878 L
560.24 373.487 L
569.45 365.102 L
578.66 437.874 L
587.87 425.46 L
597.08 331.819 L
606.29 95.591 L
615.5 313.615 L
624.71 446.536 L
633.92 371.401 L
643.13 316.534 L
652.34 325.63 L
661.55 422.484 L
670.76 531.013 L
679.97 430.741 L
689.18 152.844 L
698.39 122.347 L
707.6 483.357 L
716.81 386.345 L
726.02 271.811 L
735.23 270.224 L
744.44 427.704 L
753.65 666.818 L
762.86 495.547 L
772.07 192.055 L
781.28 177.463 L
790.49 392.717 L
799.7 422.062 L
808.91 320.063 L
818.12 246.226 L
827.33 351.459 L
836.54 572.18 L
845.75 541.334 L
854.96 309.582 L
864.17 160.692 L
873.38 352.115 L
882.59 283.667 L
891.8 397.323 L
901.01 320.298 L
910.22 295.81 L
919.43 496.239 L
928.64 457.422 L
937.85 545.557 L
947.06 216.975 L
956.27 162.329 L
965.48 391.271 L
974.69 284.896 L
983.9 232.467 L
993.11 279.595 L
1002.32 321.532 L
1011.53 566.126 L
1020.74 488.318 L
1029.95 335.063 L
1039.16 122.891 L
1048.37 269.711 L
1057.58 404.676 L
1066.79 292.589 L
1076 266.179 L
S
GR
GS
[0.75 0 0 0.75 0 0] CT
0.467 0.675 0.188 RC
1 LJ
2.667 LW
N
164.21 362.015 M
173.42 318.686 L
182.63 341.993 L
191.84 376.921 L
201.05 385.896 L
210.26 387.727 L
219.47 386.328 L
228.68 378.923 L
237.89 346.802 L
247.1 314.595 L
256.31 358.857 L
265.52 382.25 L
274.73 386.945 L
283.94 387.718 L
293.15 385.511 L
302.36 373.481 L
311.57 330.329 L
320.78 322.923 L
329.99 370.39 L
339.2 384.829 L
348.41 388.17 L
357.62 388.005 L
366.83 385.011 L
376.04 367.014 L
385.25 316.37 L
394.46 333.611 L
403.67 376.675 L
412.88 386.129 L
422.09 388.767 L
431.3 386.747 L
440.51 382.737 L
449.72 357.465 L
458.93 305.806 L
468.14 343.296 L
477.35 380.935 L
486.56 389.029 L
495.77 386.585 L
504.98 387.624 L
514.19 380.859 L
523.4 348.933 L
532.61 297.638 L
541.82 350.247 L
551.03 385.739 L
560.24 388.927 L
569.45 387.367 L
578.66 387.339 L
587.87 380.968 L
597.08 343.261 L
606.29 288.726 L
615.5 344.443 L
624.71 389.722 L
633.92 390.855 L
643.13 390.467 L
652.34 395.624 L
661.55 394.516 L
670.76 345.307 L
679.97 249.18 L
689.18 317.446 L
698.39 408.437 L
707.6 408.956 L
716.81 413.6 L
726.02 430.244 L
735.23 459.938 L
744.44 286.259 L
753.65 255.482 L
762.86 396.337 L
772.07 375.17 L
781.28 327.337 L
790.49 360.74 L
799.7 406.953 L
808.91 409.725 L
818.12 267.183 L
827.33 271.806 L
836.54 329.764 L
845.75 371.661 L
854.96 383.319 L
864.17 374.533 L
873.38 245.966 L
882.59 330.69 L
891.8 237.579 L
901.01 304.245 L
910.22 310.12 L
919.43 495.322 L
928.64 451.557 L
937.85 411.266 L
947.06 270.815 L
956.27 205.54 L
965.48 277.612 L
974.69 271.209 L
983.9 312.117 L
993.11 352.56 L
1002.32 316.419 L
1011.53 426.298 L
1020.74 329.781 L
1029.95 446.348 L
1039.16 242.685 L
1048.37 259.922 L
1057.58 162.365 L
1066.79 241.322 L
1076 372.531 L
S
GR
GS
[0.75 0 0 0.75 0 0] CT
0.302 0.745 0.933 RC
1 LJ
2.667 LW
N
164.21 362.21 M
173.42 318.353 L
182.63 341.522 L
191.84 377.105 L
201.05 386.207 L
210.26 387.449 L
219.47 386.207 L
228.68 378.76 L
237.89 346.487 L
247.1 314.215 L
256.31 358.9 L
265.52 382.484 L
274.73 387.035 L
283.94 387.862 L
293.15 385.794 L
302.36 373.381 L
311.57 329.524 L
320.78 322.076 L
329.99 370.071 L
339.2 384.552 L
348.41 387.035 L
357.62 388.276 L
366.83 384.966 L
376.04 367.175 L
385.25 316.698 L
394.46 332.834 L
403.67 376.277 L
412.88 386.621 L
422.09 388.276 L
431.3 388.276 L
440.51 384.139 L
449.72 362.624 L
458.93 308.836 L
468.14 339.867 L
477.35 379.587 L
486.56 387.035 L
495.77 388.276 L
504.98 388.69 L
514.19 384.552 L
523.4 363.038 L
532.61 304.699 L
541.82 337.799 L
551.03 379.587 L
560.24 387.449 L
569.45 388.69 L
578.66 388.69 L
587.87 386.621 L
597.08 372.554 L
606.29 312.56 L
615.5 317.939 L
624.71 375.45 L
633.92 386.621 L
643.13 388.276 L
652.34 389.104 L
661.55 389.104 L
670.76 386.207 L
679.97 362.624 L
689.18 286.494 L
698.39 337.799 L
707.6 382.07 L
716.81 388.276 L
726.02 389.104 L
735.23 389.104 L
744.44 389.931 L
753.65 390.345 L
762.86 390.759 L
772.07 388.69 L
781.28 383.725 L
790.49 386.621 L
799.7 387.862 L
808.91 386.621 L
818.12 383.725 L
827.33 379.174 L
836.54 374.622 L
845.75 368.416 L
854.96 363.865 L
864.17 363.038 L
873.38 367.589 L
882.59 372.14 L
891.8 372.967 L
901.01 370.899 L
910.22 366.761 L
919.43 363.038 L
928.64 364.279 L
937.85 368.416 L
947.06 372.14 L
956.27 372.554 L
965.48 370.071 L
974.69 365.106 L
983.9 362.21 L
993.11 364.279 L
1002.32 368.416 L
1011.53 372.554 L
1020.74 372.554 L
1029.95 369.658 L
1039.16 364.279 L
1048.37 361.796 L
1057.58 364.693 L
1066.79 369.658 L
1076 372.14 L
S
GR
GS
[0.75 0 0 0.75 0 0] CT
1 GC
N
189 671 M
189 449 L
498 449 L
498 671 L
cp
f
GR
GS
[0.75 0 0 0.75 195.30778 352.01646] CT
/Helvetica 21.6 F
GS
[1 0 0 1 0 0] CT
0 9 moveto 
1 -1 scale
(Approximation1) t 
GR
GR
GS
[0.75 0 0 0.75 0 0] CT
0 0.447 0.741 RC
1 LJ
2.667 LW
N
227.375 469.355 M
257.407 469.355 L
S
GR
GS
[0.75 0 0 0.75 195.30778 379.20989] CT
/Helvetica 21.6 F
GS
[1 0 0 1 0 0] CT
0 9 moveto 
1 -1 scale
(Approximation2) t 
GR
GR
GS
[0.75 0 0 0.75 0 0] CT
0.851 0.325 0.098 RC
1 LJ
2.667 LW
N
227.375 505.613 M
257.407 505.613 L
S
GR
GS
[0.75 0 0 0.75 195.30778 406.40327] CT
/Helvetica 21.6 F
GS
[1 0 0 1 0 0] CT
0 9 moveto 
1 -1 scale
(Approximation3) t 
GR
GR
GS
[0.75 0 0 0.75 0 0] CT
0.929 0.694 0.125 RC
1 LJ
2.667 LW
N
227.375 541.871 M
257.407 541.871 L
S
GR
GS
[0.75 0 0 0.75 195.30778 433.59673] CT
/Helvetica 21.6 F
GS
[1 0 0 1 0 0] CT
0 9 moveto 
1 -1 scale
(Approximation4) t 
GR
GR
GS
[0.75 0 0 0.75 0 0] CT
0.494 0.184 0.557 RC
1 LJ
2.667 LW
N
227.375 578.129 M
257.407 578.129 L
S
GR
GS
[0.75 0 0 0.75 195.30778 460.79013] CT
/Helvetica 21.6 F
GS
[1 0 0 1 0 0] CT
0 9 moveto 
1 -1 scale
(Approximation5) t 
GR
GR
GS
[0.75 0 0 0.75 0 0] CT
0.467 0.675 0.188 RC
1 LJ
2.667 LW
N
227.375 614.387 M
257.407 614.387 L
S
GR
GS
[0.75 0 0 0.75 195.30778 487.98354] CT
/Helvetica 21.6 F
GS
[1 0 0 1 0 0] CT
0 9 moveto 
1 -1 scale
(Laser Prediction Set) t 
GR
GR
GS
[0.75 0 0 0.75 0 0] CT
0.302 0.745 0.933 RC
1 LJ
2.667 LW
N
227.375 650.645 M
257.407 650.645 L
S
GR
GS
[0.75 0 0 0.75 0 0] CT
0.149 GC
10.0 ML
0.667 LW
N
189 671 M
189 449 L
498 449 L
498 671 L
cp
S
GR
%%Trailer
%%Pages: 1
%%EOF
