%!PS-Adobe-3.0 EPSF-3.0
%%Creator: (MATLAB, The Mathworks, Inc. Version 9.1.0.441655 \(R2016b\). Operating System: Windows 8)
%%Title: (C:/Users/Eigenaar/WIT/Data Mining/data-mining/Session 2/plots/mu7.eps)
%%CreationDate: 2017-11-22T20:09:39
%%Pages: (atend)
%%BoundingBox: 0 0 786 619
%%LanguageLevel: 3
%%EndComments
%%BeginProlog
%%BeginResource: procset (Apache XML Graphics Std ProcSet) 1.2 0
%%Version: 1.2 0
%%Copyright: (Copyright 2001-2003,2010 The Apache Software Foundation. License terms: http://www.apache.org/licenses/LICENSE-2.0)
/bd{bind def}bind def
/ld{load def}bd
/GR/grestore ld
/M/moveto ld
/LJ/setlinejoin ld
/C/curveto ld
/f/fill ld
/LW/setlinewidth ld
/GC/setgray ld
/t/show ld
/N/newpath ld
/CT/concat ld
/cp/closepath ld
/S/stroke ld
/L/lineto ld
/CC/setcmykcolor ld
/A/ashow ld
/GS/gsave ld
/RC/setrgbcolor ld
/RM/rmoveto ld
/ML/setmiterlimit ld
/re {4 2 roll M
1 index 0 rlineto
0 exch rlineto
neg 0 rlineto
cp } bd
/_ctm matrix def
/_tm matrix def
/BT { _ctm currentmatrix pop matrix _tm copy pop 0 0 moveto } bd
/ET { _ctm setmatrix } bd
/iTm { _ctm setmatrix _tm concat } bd
/Tm { _tm astore pop iTm 0 0 moveto } bd
/ux 0.0 def
/uy 0.0 def
/F {
  /Tp exch def
  /Tf exch def
  Tf findfont Tp scalefont setfont
  /cf Tf def  /cs Tp def
} bd
/ULS {currentpoint /uy exch def /ux exch def} bd
/ULE {
  /Tcx currentpoint pop def
  gsave
  newpath
  cf findfont cs scalefont dup
  /FontMatrix get 0 get /Ts exch def /FontInfo get dup
  /UnderlinePosition get Ts mul /To exch def
  /UnderlineThickness get Ts mul /Tt exch def
  ux uy To add moveto  Tcx uy To add lineto
  Tt setlinewidth stroke
  grestore
} bd
/OLE {
  /Tcx currentpoint pop def
  gsave
  newpath
  cf findfont cs scalefont dup
  /FontMatrix get 0 get /Ts exch def /FontInfo get dup
  /UnderlinePosition get Ts mul /To exch def
  /UnderlineThickness get Ts mul /Tt exch def
  ux uy To add cs add moveto Tcx uy To add cs add lineto
  Tt setlinewidth stroke
  grestore
} bd
/SOE {
  /Tcx currentpoint pop def
  gsave
  newpath
  cf findfont cs scalefont dup
  /FontMatrix get 0 get /Ts exch def /FontInfo get dup
  /UnderlinePosition get Ts mul /To exch def
  /UnderlineThickness get Ts mul /Tt exch def
  ux uy To add cs 10 mul 26 idiv add moveto Tcx uy To add cs 10 mul 26 idiv add lineto
  Tt setlinewidth stroke
  grestore
} bd
/QT {
/Y22 exch store
/X22 exch store
/Y21 exch store
/X21 exch store
currentpoint
/Y21 load 2 mul add 3 div exch
/X21 load 2 mul add 3 div exch
/X21 load 2 mul /X22 load add 3 div
/Y21 load 2 mul /Y22 load add 3 div
/X22 load /Y22 load curveto
} bd
/SSPD {
dup length /d exch dict def
{
/v exch def
/k exch def
currentpagedevice k known {
/cpdv currentpagedevice k get def
v cpdv ne {
/upd false def
/nullv v type /nulltype eq def
/nullcpdv cpdv type /nulltype eq def
nullv nullcpdv or
{
/upd true def
} {
/sametype v type cpdv type eq def
sametype {
v type /arraytype eq {
/vlen v length def
/cpdvlen cpdv length def
vlen cpdvlen eq {
0 1 vlen 1 sub {
/i exch def
/obj v i get def
/cpdobj cpdv i get def
obj cpdobj ne {
/upd true def
exit
} if
} for
} {
/upd true def
} ifelse
} {
v type /dicttype eq {
v {
/dv exch def
/dk exch def
/cpddv cpdv dk get def
dv cpddv ne {
/upd true def
exit
} if
} forall
} {
/upd true def
} ifelse
} ifelse
} if
} ifelse
upd true eq {
d k v put
} if
} if
} if
} forall
d length 0 gt {
d setpagedevice
} if
} bd
/RE { % /NewFontName [NewEncodingArray] /FontName RE -
  findfont dup length dict begin
  {
    1 index /FID ne
    {def} {pop pop} ifelse
  } forall
  /Encoding exch def
  /FontName 1 index def
  currentdict definefont pop
  end
} bind def
%%EndResource
%%BeginResource: procset (Apache XML Graphics EPS ProcSet) 1.0 0
%%Version: 1.0 0
%%Copyright: (Copyright 2002-2003 The Apache Software Foundation. License terms: http://www.apache.org/licenses/LICENSE-2.0)
/BeginEPSF { %def
/b4_Inc_state save def         % Save state for cleanup
/dict_count countdictstack def % Count objects on dict stack
/op_count count 1 sub def      % Count objects on operand stack
userdict begin                 % Push userdict on dict stack
/showpage { } def              % Redefine showpage, { } = null proc
0 setgray 0 setlinecap         % Prepare graphics state
1 setlinewidth 0 setlinejoin
10 setmiterlimit [ ] 0 setdash newpath
/languagelevel where           % If level not equal to 1 then
{pop languagelevel             % set strokeadjust and
1 ne                           % overprint to their defaults.
{false setstrokeadjust false setoverprint
} if
} if
} bd
/EndEPSF { %def
count op_count sub {pop} repeat            % Clean up stacks
countdictstack dict_count sub {end} repeat
b4_Inc_state restore
} bd
%%EndResource
%FOPBeginFontDict
%%IncludeResource: font Courier-Bold
%%IncludeResource: font Helvetica
%%IncludeResource: font Courier-BoldOblique
%%IncludeResource: font Courier-Oblique
%%IncludeResource: font Times-Roman
%%IncludeResource: font Helvetica-BoldOblique
%%IncludeResource: font Helvetica-Bold
%%IncludeResource: font Helvetica-Oblique
%%IncludeResource: font Times-BoldItalic
%%IncludeResource: font Courier
%%IncludeResource: font Times-Italic
%%IncludeResource: font Times-Bold
%%IncludeResource: font Symbol
%%IncludeResource: font ZapfDingbats
%FOPEndFontDict
%%BeginResource: encoding WinAnsiEncoding
/WinAnsiEncoding [
/.notdef /.notdef /.notdef /.notdef /.notdef
/.notdef /.notdef /.notdef /.notdef /.notdef
/.notdef /.notdef /.notdef /.notdef /.notdef
/.notdef /.notdef /.notdef /.notdef /.notdef
/.notdef /.notdef /.notdef /.notdef /.notdef
/.notdef /.notdef /.notdef /.notdef /.notdef
/.notdef /.notdef /space /exclam /quotedbl
/numbersign /dollar /percent /ampersand /quotesingle
/parenleft /parenright /asterisk /plus /comma
/hyphen /period /slash /zero /one
/two /three /four /five /six
/seven /eight /nine /colon /semicolon
/less /equal /greater /question /at
/A /B /C /D /E
/F /G /H /I /J
/K /L /M /N /O
/P /Q /R /S /T
/U /V /W /X /Y
/Z /bracketleft /backslash /bracketright /asciicircum
/underscore /quoteleft /a /b /c
/d /e /f /g /h
/i /j /k /l /m
/n /o /p /q /r
/s /t /u /v /w
/x /y /z /braceleft /bar
/braceright /asciitilde /bullet /Euro /bullet
/quotesinglbase /florin /quotedblbase /ellipsis /dagger
/daggerdbl /circumflex /perthousand /Scaron /guilsinglleft
/OE /bullet /Zcaron /bullet /bullet
/quoteleft /quoteright /quotedblleft /quotedblright /bullet
/endash /emdash /asciitilde /trademark /scaron
/guilsinglright /oe /bullet /zcaron /Ydieresis
/space /exclamdown /cent /sterling /currency
/yen /brokenbar /section /dieresis /copyright
/ordfeminine /guillemotleft /logicalnot /sfthyphen /registered
/macron /degree /plusminus /twosuperior /threesuperior
/acute /mu /paragraph /middot /cedilla
/onesuperior /ordmasculine /guillemotright /onequarter /onehalf
/threequarters /questiondown /Agrave /Aacute /Acircumflex
/Atilde /Adieresis /Aring /AE /Ccedilla
/Egrave /Eacute /Ecircumflex /Edieresis /Igrave
/Iacute /Icircumflex /Idieresis /Eth /Ntilde
/Ograve /Oacute /Ocircumflex /Otilde /Odieresis
/multiply /Oslash /Ugrave /Uacute /Ucircumflex
/Udieresis /Yacute /Thorn /germandbls /agrave
/aacute /acircumflex /atilde /adieresis /aring
/ae /ccedilla /egrave /eacute /ecircumflex
/edieresis /igrave /iacute /icircumflex /idieresis
/eth /ntilde /ograve /oacute /ocircumflex
/otilde /odieresis /divide /oslash /ugrave
/uacute /ucircumflex /udieresis /yacute /thorn
/ydieresis
] def
%%EndResource
%FOPBeginFontReencode
/Courier-Bold findfont
dup length dict begin
  {1 index /FID ne {def} {pop pop} ifelse} forall
  /Encoding WinAnsiEncoding def
  currentdict
end
/Courier-Bold exch definefont pop
/Helvetica findfont
dup length dict begin
  {1 index /FID ne {def} {pop pop} ifelse} forall
  /Encoding WinAnsiEncoding def
  currentdict
end
/Helvetica exch definefont pop
/Courier-BoldOblique findfont
dup length dict begin
  {1 index /FID ne {def} {pop pop} ifelse} forall
  /Encoding WinAnsiEncoding def
  currentdict
end
/Courier-BoldOblique exch definefont pop
/Courier-Oblique findfont
dup length dict begin
  {1 index /FID ne {def} {pop pop} ifelse} forall
  /Encoding WinAnsiEncoding def
  currentdict
end
/Courier-Oblique exch definefont pop
/Times-Roman findfont
dup length dict begin
  {1 index /FID ne {def} {pop pop} ifelse} forall
  /Encoding WinAnsiEncoding def
  currentdict
end
/Times-Roman exch definefont pop
/Helvetica-BoldOblique findfont
dup length dict begin
  {1 index /FID ne {def} {pop pop} ifelse} forall
  /Encoding WinAnsiEncoding def
  currentdict
end
/Helvetica-BoldOblique exch definefont pop
/Helvetica-Bold findfont
dup length dict begin
  {1 index /FID ne {def} {pop pop} ifelse} forall
  /Encoding WinAnsiEncoding def
  currentdict
end
/Helvetica-Bold exch definefont pop
/Helvetica-Oblique findfont
dup length dict begin
  {1 index /FID ne {def} {pop pop} ifelse} forall
  /Encoding WinAnsiEncoding def
  currentdict
end
/Helvetica-Oblique exch definefont pop
/Times-BoldItalic findfont
dup length dict begin
  {1 index /FID ne {def} {pop pop} ifelse} forall
  /Encoding WinAnsiEncoding def
  currentdict
end
/Times-BoldItalic exch definefont pop
/Courier findfont
dup length dict begin
  {1 index /FID ne {def} {pop pop} ifelse} forall
  /Encoding WinAnsiEncoding def
  currentdict
end
/Courier exch definefont pop
/Times-Italic findfont
dup length dict begin
  {1 index /FID ne {def} {pop pop} ifelse} forall
  /Encoding WinAnsiEncoding def
  currentdict
end
/Times-Italic exch definefont pop
/Times-Bold findfont
dup length dict begin
  {1 index /FID ne {def} {pop pop} ifelse} forall
  /Encoding WinAnsiEncoding def
  currentdict
end
/Times-Bold exch definefont pop
%FOPEndFontReencode
%%EndProlog
%%Page: 1 1
%%PageBoundingBox: 0 0 786 619
%%BeginPageSetup
[1 0 0 -1 0 619] CT
%%EndPageSetup
GS
[0.75 0 0 0.75 0 0.25] CT
N
0 0 M
1048 0 L
1048 825 L
0 825 L
0 0 L
cp
clip
1 GC
N
0 0 1048 825 re
f
GR
GS
[0.75 0 0 0.75 0 0.25] CT
1 GC
N
0 0 1048 825 re
f
GR
GS
[0.75 0 0 0.75 0 0.25] CT
1 GC
N
136 734 M
948 734 L
948 62 L
136 62 L
cp
f
GR
GS
[0.75 0 0 0.75 0 0.25] CT
0.149 GC
2 setlinecap
1 LJ
0.667 LW
N
136 734 M
948 734 L
S
GR
GS
[0.75 0 0 0.75 0 0.25] CT
0.149 GC
2 setlinecap
1 LJ
0.667 LW
N
136 62 M
948 62 L
S
GR
GS
[0.75 0 0 0.75 0 0.25] CT
0.149 GC
2 setlinecap
1 LJ
0.667 LW
N
136 734 M
136 725.88 L
S
GR
GS
[0.75 0 0 0.75 0 0.25] CT
0.149 GC
2 setlinecap
1 LJ
0.667 LW
N
217.2 734 M
217.2 725.88 L
S
GR
GS
[0.75 0 0 0.75 0 0.25] CT
0.149 GC
2 setlinecap
1 LJ
0.667 LW
N
298.4 734 M
298.4 725.88 L
S
GR
GS
[0.75 0 0 0.75 0 0.25] CT
0.149 GC
2 setlinecap
1 LJ
0.667 LW
N
379.6 734 M
379.6 725.88 L
S
GR
GS
[0.75 0 0 0.75 0 0.25] CT
0.149 GC
2 setlinecap
1 LJ
0.667 LW
N
460.8 734 M
460.8 725.88 L
S
GR
GS
[0.75 0 0 0.75 0 0.25] CT
0.149 GC
2 setlinecap
1 LJ
0.667 LW
N
542 734 M
542 725.88 L
S
GR
GS
[0.75 0 0 0.75 0 0.25] CT
0.149 GC
2 setlinecap
1 LJ
0.667 LW
N
623.2 734 M
623.2 725.88 L
S
GR
GS
[0.75 0 0 0.75 0 0.25] CT
0.149 GC
2 setlinecap
1 LJ
0.667 LW
N
704.4 734 M
704.4 725.88 L
S
GR
GS
[0.75 0 0 0.75 0 0.25] CT
0.149 GC
2 setlinecap
1 LJ
0.667 LW
N
785.6 734 M
785.6 725.88 L
S
GR
GS
[0.75 0 0 0.75 0 0.25] CT
0.149 GC
2 setlinecap
1 LJ
0.667 LW
N
866.8 734 M
866.8 725.88 L
S
GR
GS
[0.75 0 0 0.75 0 0.25] CT
0.149 GC
2 setlinecap
1 LJ
0.667 LW
N
948 734 M
948 725.88 L
S
GR
GS
[0.75 0 0 0.75 0 0.25] CT
0.149 GC
2 setlinecap
1 LJ
0.667 LW
N
136 62 M
136 70.12 L
S
GR
GS
[0.75 0 0 0.75 0 0.25] CT
0.149 GC
2 setlinecap
1 LJ
0.667 LW
N
217.2 62 M
217.2 70.12 L
S
GR
GS
[0.75 0 0 0.75 0 0.25] CT
0.149 GC
2 setlinecap
1 LJ
0.667 LW
N
298.4 62 M
298.4 70.12 L
S
GR
GS
[0.75 0 0 0.75 0 0.25] CT
0.149 GC
2 setlinecap
1 LJ
0.667 LW
N
379.6 62 M
379.6 70.12 L
S
GR
GS
[0.75 0 0 0.75 0 0.25] CT
0.149 GC
2 setlinecap
1 LJ
0.667 LW
N
460.8 62 M
460.8 70.12 L
S
GR
GS
[0.75 0 0 0.75 0 0.25] CT
0.149 GC
2 setlinecap
1 LJ
0.667 LW
N
542 62 M
542 70.12 L
S
GR
GS
[0.75 0 0 0.75 0 0.25] CT
0.149 GC
2 setlinecap
1 LJ
0.667 LW
N
623.2 62 M
623.2 70.12 L
S
GR
GS
[0.75 0 0 0.75 0 0.25] CT
0.149 GC
2 setlinecap
1 LJ
0.667 LW
N
704.4 62 M
704.4 70.12 L
S
GR
GS
[0.75 0 0 0.75 0 0.25] CT
0.149 GC
2 setlinecap
1 LJ
0.667 LW
N
785.6 62 M
785.6 70.12 L
S
GR
GS
[0.75 0 0 0.75 0 0.25] CT
0.149 GC
2 setlinecap
1 LJ
0.667 LW
N
866.8 62 M
866.8 70.12 L
S
GR
GS
[0.75 0 0 0.75 0 0.25] CT
0.149 GC
2 setlinecap
1 LJ
0.667 LW
N
948 62 M
948 70.12 L
S
GR
GS
[0.75 0 0 0.75 102 556.35001] CT
0.149 GC
/Helvetica 24 F
GS
[1 0 0 1 0 0] CT
-7 25 moveto 
1 -1 scale
(0) t 
GR
GR
GS
[0.75 0 0 0.75 162.9 556.35001] CT
0.149 GC
/Helvetica 24 F
GS
[1 0 0 1 0 0] CT
-13.5 25 moveto 
1 -1 scale
(10) t 
GR
GR
GS
[0.75 0 0 0.75 223.8 556.35001] CT
0.149 GC
/Helvetica 24 F
GS
[1 0 0 1 0 0] CT
-13.5 25 moveto 
1 -1 scale
(20) t 
GR
GR
GS
[0.75 0 0 0.75 284.7 556.35001] CT
0.149 GC
/Helvetica 24 F
GS
[1 0 0 1 0 0] CT
-13.5 25 moveto 
1 -1 scale
(30) t 
GR
GR
GS
[0.75 0 0 0.75 345.59999 556.35001] CT
0.149 GC
/Helvetica 24 F
GS
[1 0 0 1 0 0] CT
-13.5 25 moveto 
1 -1 scale
(40) t 
GR
GR
GS
[0.75 0 0 0.75 406.5 556.35001] CT
0.149 GC
/Helvetica 24 F
GS
[1 0 0 1 0 0] CT
-13.5 25 moveto 
1 -1 scale
(50) t 
GR
GR
GS
[0.75 0 0 0.75 467.40001 556.35001] CT
0.149 GC
/Helvetica 24 F
GS
[1 0 0 1 0 0] CT
-13.5 25 moveto 
1 -1 scale
(60) t 
GR
GR
GS
[0.75 0 0 0.75 528.30002 556.35001] CT
0.149 GC
/Helvetica 24 F
GS
[1 0 0 1 0 0] CT
-13.5 25 moveto 
1 -1 scale
(70) t 
GR
GR
GS
[0.75 0 0 0.75 589.19998 556.35001] CT
0.149 GC
/Helvetica 24 F
GS
[1 0 0 1 0 0] CT
-13.5 25 moveto 
1 -1 scale
(80) t 
GR
GR
GS
[0.75 0 0 0.75 650.09999 556.35001] CT
0.149 GC
/Helvetica 24 F
GS
[1 0 0 1 0 0] CT
-13.5 25 moveto 
1 -1 scale
(90) t 
GR
GR
GS
[0.75 0 0 0.75 711 556.35001] CT
0.149 GC
/Helvetica 24 F
GS
[1 0 0 1 0 0] CT
-20.5 25 moveto 
1 -1 scale
(100) t 
GR
GR
GS
[0.75 0 0 0.75 406.50027 580.59999] CT
0.149 GC
/Helvetica 26.4 F
GS
[1 0 0 1 0 0] CT
-46.5 27 moveto 
1 -1 scale
(Time [s]) t 
GR
GR
GS
[0.75 0 0 0.75 0 0.25] CT
0.149 GC
2 setlinecap
1 LJ
0.667 LW
N
136 734 M
136 62 L
S
GR
GS
[0.75 0 0 0.75 0 0.25] CT
0.149 GC
2 setlinecap
1 LJ
0.667 LW
N
948 734 M
948 62 L
S
GR
GS
[0.75 0 0 0.75 0 0.25] CT
0.149 GC
2 setlinecap
1 LJ
0.667 LW
N
136 734 M
144.12 734 L
S
GR
GS
[0.75 0 0 0.75 0 0.25] CT
0.149 GC
2 setlinecap
1 LJ
0.667 LW
N
136 666.8 M
144.12 666.8 L
S
GR
GS
[0.75 0 0 0.75 0 0.25] CT
0.149 GC
2 setlinecap
1 LJ
0.667 LW
N
136 599.6 M
144.12 599.6 L
S
GR
GS
[0.75 0 0 0.75 0 0.25] CT
0.149 GC
2 setlinecap
1 LJ
0.667 LW
N
136 532.4 M
144.12 532.4 L
S
GR
GS
[0.75 0 0 0.75 0 0.25] CT
0.149 GC
2 setlinecap
1 LJ
0.667 LW
N
136 465.2 M
144.12 465.2 L
S
GR
GS
[0.75 0 0 0.75 0 0.25] CT
0.149 GC
2 setlinecap
1 LJ
0.667 LW
N
136 398 M
144.12 398 L
S
GR
GS
[0.75 0 0 0.75 0 0.25] CT
0.149 GC
2 setlinecap
1 LJ
0.667 LW
N
136 330.8 M
144.12 330.8 L
S
GR
GS
[0.75 0 0 0.75 0 0.25] CT
0.149 GC
2 setlinecap
1 LJ
0.667 LW
N
136 263.6 M
144.12 263.6 L
S
GR
GS
[0.75 0 0 0.75 0 0.25] CT
0.149 GC
2 setlinecap
1 LJ
0.667 LW
N
136 196.4 M
144.12 196.4 L
S
GR
GS
[0.75 0 0 0.75 0 0.25] CT
0.149 GC
2 setlinecap
1 LJ
0.667 LW
N
136 129.2 M
144.12 129.2 L
S
GR
GS
[0.75 0 0 0.75 0 0.25] CT
0.149 GC
2 setlinecap
1 LJ
0.667 LW
N
136 62 M
144.12 62 L
S
GR
GS
[0.75 0 0 0.75 0 0.25] CT
0.149 GC
2 setlinecap
1 LJ
0.667 LW
N
948 734 M
939.88 734 L
S
GR
GS
[0.75 0 0 0.75 0 0.25] CT
0.149 GC
2 setlinecap
1 LJ
0.667 LW
N
948 666.8 M
939.88 666.8 L
S
GR
GS
[0.75 0 0 0.75 0 0.25] CT
0.149 GC
2 setlinecap
1 LJ
0.667 LW
N
948 599.6 M
939.88 599.6 L
S
GR
GS
[0.75 0 0 0.75 0 0.25] CT
0.149 GC
2 setlinecap
1 LJ
0.667 LW
N
948 532.4 M
939.88 532.4 L
S
GR
GS
[0.75 0 0 0.75 0 0.25] CT
0.149 GC
2 setlinecap
1 LJ
0.667 LW
N
948 465.2 M
939.88 465.2 L
S
GR
GS
[0.75 0 0 0.75 0 0.25] CT
0.149 GC
2 setlinecap
1 LJ
0.667 LW
N
948 398 M
939.88 398 L
S
GR
GS
[0.75 0 0 0.75 0 0.25] CT
0.149 GC
2 setlinecap
1 LJ
0.667 LW
N
948 330.8 M
939.88 330.8 L
S
GR
GS
[0.75 0 0 0.75 0 0.25] CT
0.149 GC
2 setlinecap
1 LJ
0.667 LW
N
948 263.6 M
939.88 263.6 L
S
GR
GS
[0.75 0 0 0.75 0 0.25] CT
0.149 GC
2 setlinecap
1 LJ
0.667 LW
N
948 196.4 M
939.88 196.4 L
S
GR
GS
[0.75 0 0 0.75 0 0.25] CT
0.149 GC
2 setlinecap
1 LJ
0.667 LW
N
948 129.2 M
939.88 129.2 L
S
GR
GS
[0.75 0 0 0.75 0 0.25] CT
0.149 GC
2 setlinecap
1 LJ
0.667 LW
N
948 62 M
939.88 62 L
S
GR
GS
[0.75 0 0 0.75 96.40001 550.75] CT
0.149 GC
/Helvetica 24 F
GS
[1 0 0 1 0 0] CT
-49 9.5 moveto 
1 -1 scale
(-400) t 
GR
GR
GS
[0.75 0 0 0.75 96.40001 500.34999] CT
0.149 GC
/Helvetica 24 F
GS
[1 0 0 1 0 0] CT
-49 9.5 moveto 
1 -1 scale
(-300) t 
GR
GR
GS
[0.75 0 0 0.75 96.40001 449.94998] CT
0.149 GC
/Helvetica 24 F
GS
[1 0 0 1 0 0] CT
-49 9.5 moveto 
1 -1 scale
(-200) t 
GR
GR
GS
[0.75 0 0 0.75 96.40001 399.55002] CT
0.149 GC
/Helvetica 24 F
GS
[1 0 0 1 0 0] CT
-49 9.5 moveto 
1 -1 scale
(-100) t 
GR
GR
GS
[0.75 0 0 0.75 96.40001 349.15001] CT
0.149 GC
/Helvetica 24 F
GS
[1 0 0 1 0 0] CT
-14 9.5 moveto 
1 -1 scale
(0) t 
GR
GR
GS
[0.75 0 0 0.75 96.40001 298.75] CT
0.149 GC
/Helvetica 24 F
GS
[1 0 0 1 0 0] CT
-41 9.5 moveto 
1 -1 scale
(100) t 
GR
GR
GS
[0.75 0 0 0.75 96.40001 248.34999] CT
0.149 GC
/Helvetica 24 F
GS
[1 0 0 1 0 0] CT
-41 9.5 moveto 
1 -1 scale
(200) t 
GR
GR
GS
[0.75 0 0 0.75 96.40001 197.95] CT
0.149 GC
/Helvetica 24 F
GS
[1 0 0 1 0 0] CT
-41 9.5 moveto 
1 -1 scale
(300) t 
GR
GR
GS
[0.75 0 0 0.75 96.40001 147.55] CT
0.149 GC
/Helvetica 24 F
GS
[1 0 0 1 0 0] CT
-41 9.5 moveto 
1 -1 scale
(400) t 
GR
GR
GS
[0.75 0 0 0.75 96.40001 97.15] CT
0.149 GC
/Helvetica 24 F
GS
[1 0 0 1 0 0] CT
-41 9.5 moveto 
1 -1 scale
(500) t 
GR
GR
GS
[0.75 0 0 0.75 96.40001 46.75] CT
0.149 GC
/Helvetica 24 F
GS
[1 0 0 1 0 0] CT
-41 9.5 moveto 
1 -1 scale
(600) t 
GR
GR
GS
[0.75 0 0 0.75 0 0.25] CT
0 0.447 0.741 RC
1 LJ
2.667 LW
N
144.12 397.072 M
152.24 345.854 L
160.36 397.513 L
168.48 444.395 L
176.6 450.012 L
184.72 451.631 L
192.84 452.951 L
200.96 430.979 L
209.08 355.609 L
217.2 356.331 L
225.32 426.148 L
233.44 447.289 L
241.56 446.751 L
249.68 455.821 L
257.8 445.007 L
265.92 392.268 L
274.04 341.312 L
282.16 398.837 L
290.28 441.405 L
298.4 440.971 L
306.52 452.147 L
314.64 450.95 L
322.76 429.403 L
330.88 354.371 L
339 350.757 L
347.12 422.429 L
355.24 435.47 L
363.36 445.109 L
371.48 453.502 L
379.6 446.682 L
387.72 394.454 L
395.84 338.562 L
403.96 390.906 L
412.08 425.659 L
420.2 439.066 L
428.32 449.292 L
436.44 453.2 L
444.56 433.538 L
452.68 358.752 L
460.8 337.788 L
468.92 399.561 L
477.04 428.953 L
485.16 443.062 L
493.28 453.451 L
501.4 454.723 L
509.52 416.164 L
517.64 339.712 L
525.76 341.894 L
533.88 396.258 L
542 429.617 L
550.12 444.961 L
558.24 458.661 L
566.36 453.154 L
574.48 417.294 L
582.6 333.831 L
590.72 299.559 L
598.84 397.291 L
606.96 442.526 L
615.08 442.834 L
623.2 450.671 L
631.32 465.613 L
639.44 467.623 L
647.56 424.233 L
655.68 339.31 L
663.8 183.873 L
671.92 391.953 L
680.04 478.403 L
688.16 448.095 L
696.28 347.208 L
704.4 505.656 L
712.52 491.471 L
720.64 388.656 L
728.76 333.454 L
736.88 304.679 L
745 450.786 L
753.12 359.631 L
761.24 557.908 L
769.36 468.536 L
777.48 404.72 L
785.6 323.089 L
793.72 246.667 L
801.84 340.039 L
809.96 312.391 L
818.08 515.884 L
826.2 384.423 L
834.32 534.231 L
842.44 519.855 L
850.56 450.965 L
858.68 362.498 L
866.8 200.973 L
874.92 395.486 L
883.04 311.369 L
891.16 479.843 L
899.28 477.622 L
907.4 516.349 L
915.52 375.365 L
923.64 181.865 L
931.76 318.107 L
939.88 383.031 L
948 390.248 L
S
GR
GS
[0.75 0 0 0.75 0 0.25] CT
0.851 0.325 0.098 RC
1 LJ
2.667 LW
N
144.12 416.857 M
152.24 354.371 L
160.36 383.912 L
168.48 441.472 L
176.6 456.033 L
184.72 458.943 L
192.84 458.718 L
200.96 441.471 L
209.08 392.939 L
217.2 358.159 L
225.32 406.953 L
233.44 449.896 L
241.56 456.069 L
249.68 459.038 L
257.8 452.945 L
265.92 423.687 L
274.04 373.79 L
282.16 372.341 L
290.28 429.915 L
298.4 453.83 L
306.52 455.127 L
314.64 456.818 L
322.76 439.038 L
330.88 405.543 L
339 374.875 L
347.12 398.516 L
355.24 442.65 L
363.36 454.202 L
371.48 453.331 L
379.6 448.526 L
387.72 412.864 L
395.84 388.59 L
403.96 400.165 L
412.08 433.132 L
420.2 454.711 L
428.32 458.617 L
436.44 448.346 L
444.56 425.076 L
452.68 385.249 L
460.8 404.063 L
468.92 437.819 L
477.04 457.293 L
485.16 462.171 L
493.28 456.296 L
501.4 438.904 L
509.52 394.079 L
517.64 392.125 L
525.76 437.036 L
533.88 461.365 L
542 463.267 L
550.12 465.649 L
558.24 449.38 L
566.36 412.044 L
574.48 387.022 L
582.6 425.512 L
590.72 457.333 L
598.84 466.405 L
606.96 463.814 L
615.08 459.422 L
623.2 424.936 L
631.32 390.987 L
639.44 412.593 L
647.56 450.601 L
655.68 466.477 L
663.8 467.484 L
671.92 461.482 L
680.04 437.232 L
688.16 395.06 L
696.28 405.594 L
704.4 441.476 L
712.52 464.243 L
720.64 467.3 L
728.76 462.998 L
736.88 446.153 L
745 400.945 L
753.12 395.714 L
761.24 433.393 L
769.36 462.761 L
777.48 466.906 L
785.6 466.203 L
793.72 453.298 L
801.84 412.076 L
809.96 385.4 L
818.08 422.356 L
826.2 458.629 L
834.32 466.406 L
842.44 464.272 L
850.56 459.922 L
858.68 425.711 L
866.8 381.483 L
874.92 407.214 L
883.04 452.865 L
891.16 465.532 L
899.28 465.533 L
907.4 463.256 L
915.52 440.343 L
923.64 384.6 L
931.76 392.142 L
939.88 441.612 L
948 463.038 L
S
GR
GS
[0.75 0 0 0.75 0 0.25] CT
0.929 0.694 0.125 RC
1 LJ
2.667 LW
N
144.12 416.131 M
152.24 343.447 L
160.36 382.746 L
168.48 439.105 L
176.6 454.424 L
184.72 458.366 L
192.84 455.013 L
200.96 443.988 L
209.08 392.635 L
217.2 338.91 L
225.32 410.781 L
233.44 450.333 L
241.56 456.356 L
249.68 456.936 L
257.8 454.128 L
265.92 434.679 L
274.04 363.257 L
282.16 351.221 L
290.28 425.562 L
298.4 451.699 L
306.52 456.733 L
314.64 457.451 L
322.76 452.304 L
330.88 425.116 L
339 340.272 L
347.12 367.536 L
355.24 438.476 L
363.36 455.372 L
371.48 461.058 L
379.6 458.802 L
387.72 454.571 L
395.84 425.116 L
403.96 341.162 L
412.08 365.66 L
420.2 445.32 L
428.32 454.705 L
436.44 456.608 L
444.56 458.819 L
452.68 459.865 L
460.8 422.256 L
468.92 326.687 L
477.04 367.622 L
485.16 447.256 L
493.28 446.686 L
501.4 471.193 L
509.52 462.981 L
517.64 472.985 L
525.76 461.18 L
533.88 375.675 L
542 280.963 L
550.12 416.6 L
558.24 475.321 L
566.36 449.552 L
574.48 436.275 L
582.6 391.22 L
590.72 430.223 L
598.84 388.932 L
606.96 323.252 L
615.08 364.496 L
623.2 411.357 L
631.32 488.745 L
639.44 311.028 L
647.56 434.672 L
655.68 500.387 L
663.8 424.777 L
671.92 346.593 L
680.04 164.425 L
688.16 373.727 L
696.28 544.175 L
704.4 381.06 L
712.52 209.741 L
720.64 421.783 L
728.76 681.786 L
736.88 551.308 L
745 167.589 L
753.12 166.47 L
761.24 495.229 L
769.36 211.452 L
777.48 531.274 L
785.6 404.572 L
793.72 322.196 L
801.84 520.863 L
809.96 373.956 L
818.08 126.173 L
826.2 484.529 L
834.32 594.282 L
842.44 66.759 L
850.56 307.298 L
858.68 575.097 L
866.8 427.631 L
874.92 387.232 L
883.04 429.063 L
891.16 599.036 L
899.28 561.992 L
907.4 638.32 L
915.52 316.797 L
923.64 293.675 L
931.76 548.842 L
939.88 410.288 L
948 114.557 L
S
GR
GS
[0.75 0 0 0.75 0 0.25] CT
0.494 0.184 0.557 RC
1 LJ
2.667 LW
N
144.12 416.438 M
152.24 345.575 L
160.36 382.678 L
168.48 440.588 L
176.6 455.009 L
184.72 457.423 L
192.84 455.38 L
200.96 442.945 L
209.08 391.056 L
217.2 339.459 L
225.32 411.605 L
233.44 449.288 L
241.56 456.662 L
249.68 457.269 L
257.8 453.673 L
265.92 432.402 L
274.04 361.429 L
282.16 355.587 L
290.28 430.809 L
298.4 453.747 L
306.52 457.883 L
314.64 457.949 L
322.76 451.957 L
330.88 420.125 L
339 339.677 L
347.12 376.625 L
355.24 441.116 L
363.36 455.68 L
371.48 458.335 L
379.6 457.941 L
387.72 449.64 L
395.84 408.767 L
403.96 327.215 L
412.08 391.862 L
420.2 446.798 L
428.32 457.299 L
436.44 459.01 L
444.56 458.264 L
452.68 448.28 L
460.8 401.046 L
468.92 320.912 L
477.04 399.172 L
485.16 449.554 L
493.28 457.834 L
501.4 459.743 L
509.52 459.825 L
517.64 452.088 L
525.76 409.705 L
533.88 312.611 L
542 386.596 L
550.12 448.029 L
558.24 457.474 L
566.36 458.786 L
574.48 460.157 L
582.6 457.014 L
590.72 436.067 L
598.84 339.134 L
606.96 333.402 L
615.08 431.748 L
623.2 457.462 L
631.32 460.63 L
639.44 459.175 L
647.56 461.418 L
655.68 462.105 L
663.8 459.034 L
671.92 416.451 L
680.04 312.651 L
688.16 390.559 L
696.28 435.193 L
704.4 453.619 L
712.52 439.408 L
720.64 432.261 L
728.76 407.566 L
736.88 334.131 L
745 355.69 L
753.12 454.81 L
761.24 522.418 L
769.36 454.749 L
777.48 478.276 L
785.6 500.937 L
793.72 566.676 L
801.84 722.134 L
809.96 563.53 L
818.08 418.721 L
826.2 362.886 L
834.32 374.717 L
842.44 479.512 L
850.56 505.249 L
858.68 419.303 L
866.8 451.111 L
874.92 340.705 L
883.04 260.929 L
891.16 412.978 L
899.28 481.196 L
907.4 455.981 L
915.52 444.968 L
923.64 430.887 L
931.76 367.391 L
939.88 356.221 L
948 302.866 L
S
GR
GS
[0.75 0 0 0.75 0 0.25] CT
0.467 0.675 0.188 RC
1 LJ
2.667 LW
N
144.12 415.53 M
152.24 352.804 L
160.36 391.369 L
168.48 449.983 L
176.6 462.809 L
184.72 454.768 L
192.84 448.218 L
200.96 432.736 L
209.08 382.329 L
217.2 373.002 L
225.32 439.998 L
233.44 470.808 L
241.56 460.258 L
249.68 453.418 L
257.8 443.296 L
265.92 401.605 L
274.04 359.334 L
282.16 435.077 L
290.28 475.62 L
298.4 470.324 L
306.52 461.172 L
314.64 453.975 L
322.76 426.981 L
330.88 363.398 L
339 416.024 L
347.12 466.91 L
355.24 469.962 L
363.36 463.713 L
371.48 459.223 L
379.6 433.983 L
387.72 385.749 L
395.84 406.106 L
403.96 456.05 L
412.08 468.607 L
420.2 465.725 L
428.32 455.753 L
436.44 429.126 L
444.56 392.183 L
452.68 397.721 L
460.8 463.078 L
468.92 482.222 L
477.04 475.304 L
485.16 464.441 L
493.28 437.172 L
501.4 394.815 L
509.52 386.332 L
517.64 464.492 L
525.76 483.274 L
533.88 475.713 L
542 466.643 L
550.12 454.057 L
558.24 404.346 L
566.36 380.614 L
574.48 453.791 L
582.6 475.23 L
590.72 471.12 L
598.84 463.435 L
606.96 445.847 L
615.08 393.55 L
623.2 384.846 L
631.32 464.324 L
639.44 482.127 L
647.56 478.095 L
655.68 465.328 L
663.8 443.367 L
671.92 383.27 L
680.04 375.643 L
688.16 467.781 L
696.28 481.787 L
704.4 486.61 L
712.52 478.335 L
720.64 474.135 L
728.76 405.65 L
736.88 365.479 L
745 444.577 L
753.12 466.305 L
761.24 478.807 L
769.36 467.786 L
777.48 451.272 L
785.6 407.487 L
793.72 380.068 L
801.84 447.861 L
809.96 463.534 L
818.08 486.445 L
826.2 471.487 L
834.32 451.579 L
842.44 394.161 L
850.56 365.708 L
858.68 448.118 L
866.8 482.918 L
874.92 508.982 L
883.04 490.821 L
891.16 485.823 L
899.28 427.357 L
907.4 368.778 L
915.52 413.952 L
923.64 477.75 L
931.76 482.371 L
939.88 459.736 L
948 453.236 L
S
GR
GS
[0.75 0 0 0.75 0 0.25] CT
0.302 0.745 0.933 RC
1 LJ
2.667 LW
N
144.12 416.816 M
152.24 345.584 L
160.36 383.216 L
168.48 441.008 L
176.6 455.792 L
184.72 457.808 L
192.84 455.792 L
200.96 443.696 L
209.08 391.28 L
217.2 338.864 L
225.32 411.44 L
233.44 449.744 L
241.56 457.136 L
249.68 458.48 L
257.8 455.12 L
265.92 434.96 L
274.04 363.728 L
282.16 351.632 L
290.28 429.584 L
298.4 453.104 L
306.52 457.136 L
314.64 459.152 L
322.76 453.776 L
330.88 424.88 L
339 342.896 L
347.12 369.104 L
355.24 439.664 L
363.36 456.464 L
371.48 459.152 L
379.6 459.152 L
387.72 452.432 L
395.84 417.488 L
403.96 330.128 L
412.08 380.528 L
420.2 445.04 L
428.32 457.136 L
436.44 459.152 L
444.56 459.824 L
452.68 453.104 L
460.8 418.16 L
468.92 323.408 L
477.04 377.168 L
485.16 445.04 L
493.28 457.808 L
501.4 459.824 L
509.52 459.824 L
517.64 456.464 L
525.76 433.616 L
533.88 336.176 L
542 344.912 L
550.12 438.32 L
558.24 456.464 L
566.36 459.152 L
574.48 460.496 L
582.6 460.496 L
590.72 455.792 L
598.84 417.488 L
606.96 293.84 L
615.08 377.168 L
623.2 449.072 L
631.32 459.152 L
639.44 460.496 L
647.56 460.496 L
655.68 461.84 L
663.8 462.512 L
671.92 463.184 L
680.04 459.824 L
688.16 451.76 L
696.28 456.464 L
704.4 458.48 L
712.52 456.464 L
720.64 451.76 L
728.76 444.368 L
736.88 436.976 L
745 426.896 L
753.12 419.504 L
761.24 418.16 L
769.36 425.552 L
777.48 432.944 L
785.6 434.288 L
793.72 430.928 L
801.84 424.208 L
809.96 418.16 L
818.08 420.176 L
826.2 426.896 L
834.32 432.944 L
842.44 433.616 L
850.56 429.584 L
858.68 421.52 L
866.8 416.816 L
874.92 420.176 L
883.04 426.896 L
891.16 433.616 L
899.28 433.616 L
907.4 428.912 L
915.52 420.176 L
923.64 416.144 L
931.76 420.848 L
939.88 428.912 L
948 432.944 L
S
GR
GS
[0.75 0 0 0.75 0 0.25] CT
1 GC
N
177 278 M
177 92 L
430 92 L
430 278 L
cp
f
GR
GS
[0.75 0 0 0.75 165.41598 82.04083] CT
/Helvetica 21.6 F
GS
[1 0 0 1 0 0] CT
0 9 moveto 
1 -1 scale
(Approximation1) t 
GR
GR
GS
[0.75 0 0 0.75 0 0.25] CT
0 0.447 0.741 RC
1 LJ
2.667 LW
N
187.576 109.054 M
217.557 109.054 L
S
GR
GS
[0.75 0 0 0.75 165.41598 104.8245] CT
/Helvetica 21.6 F
GS
[1 0 0 1 0 0] CT
0 9 moveto 
1 -1 scale
(Approximation2) t 
GR
GR
GS
[0.75 0 0 0.75 0 0.25] CT
0.851 0.325 0.098 RC
1 LJ
2.667 LW
N
187.576 139.433 M
217.557 139.433 L
S
GR
GS
[0.75 0 0 0.75 165.41598 127.60817] CT
/Helvetica 21.6 F
GS
[1 0 0 1 0 0] CT
0 9 moveto 
1 -1 scale
(Approximation3) t 
GR
GR
GS
[0.75 0 0 0.75 0 0.25] CT
0.929 0.694 0.125 RC
1 LJ
2.667 LW
N
187.576 169.811 M
217.557 169.811 L
S
GR
GS
[0.75 0 0 0.75 165.41598 150.39183] CT
/Helvetica 21.6 F
GS
[1 0 0 1 0 0] CT
0 9 moveto 
1 -1 scale
(Approximation4) t 
GR
GR
GS
[0.75 0 0 0.75 0 0.25] CT
0.494 0.184 0.557 RC
1 LJ
2.667 LW
N
187.576 200.189 M
217.557 200.189 L
S
GR
GS
[0.75 0 0 0.75 165.41598 173.1755] CT
/Helvetica 21.6 F
GS
[1 0 0 1 0 0] CT
0 9 moveto 
1 -1 scale
(Approximation5) t 
GR
GR
GS
[0.75 0 0 0.75 0 0.25] CT
0.467 0.675 0.188 RC
1 LJ
2.667 LW
N
187.576 230.567 M
217.557 230.567 L
S
GR
GS
[0.75 0 0 0.75 165.41598 195.95917] CT
/Helvetica 21.6 F
GS
[1 0 0 1 0 0] CT
0 9 moveto 
1 -1 scale
(Laser Prediction Set) t 
GR
GR
GS
[0.75 0 0 0.75 0 0.25] CT
0.302 0.745 0.933 RC
1 LJ
2.667 LW
N
187.576 260.946 M
217.557 260.946 L
S
GR
GS
[0.75 0 0 0.75 0 0.25] CT
0.149 GC
10.0 ML
0.667 LW
N
177 278 M
177 92 L
430 92 L
430 278 L
cp
S
GR
%%Trailer
%%Pages: 1
%%EOF
