%!PS-Adobe-3.0 EPSF-3.0
%%Creator: (MATLAB, The Mathworks, Inc. Version 9.3.0.713579 \(R2017b\). Operating System: Mac OS X)
%%Title: (/Users/hannesvdc/WIT/data-mining/Session 2/plots/noiselevel.eps)
%%CreationDate: 2017-11-25T14:36:21
%%Pages: (atend)
%%BoundingBox: 0 0 936 664
%%LanguageLevel: 3
%%EndComments
%%BeginProlog
%%BeginResource: procset (Apache XML Graphics Std ProcSet) 1.2 0
%%Version: 1.2 0
%%Copyright: (Copyright 2001-2003,2010 The Apache Software Foundation. License terms: http://www.apache.org/licenses/LICENSE-2.0)
/bd{bind def}bind def
/ld{load def}bd
/GR/grestore ld
/GS/gsave ld
/RM/rmoveto ld
/C/curveto ld
/t/show ld
/L/lineto ld
/ML/setmiterlimit ld
/CT/concat ld
/f/fill ld
/N/newpath ld
/S/stroke ld
/CC/setcmykcolor ld
/A/ashow ld
/cp/closepath ld
/RC/setrgbcolor ld
/LJ/setlinejoin ld
/GC/setgray ld
/LW/setlinewidth ld
/M/moveto ld
/re {4 2 roll M
1 index 0 rlineto
0 exch rlineto
neg 0 rlineto
cp } bd
/_ctm matrix def
/_tm matrix def
/BT { _ctm currentmatrix pop matrix _tm copy pop 0 0 moveto } bd
/ET { _ctm setmatrix } bd
/iTm { _ctm setmatrix _tm concat } bd
/Tm { _tm astore pop iTm 0 0 moveto } bd
/ux 0.0 def
/uy 0.0 def
/F {
  /Tp exch def
  /Tf exch def
  Tf findfont Tp scalefont setfont
  /cf Tf def  /cs Tp def
} bd
/ULS {currentpoint /uy exch def /ux exch def} bd
/ULE {
  /Tcx currentpoint pop def
  gsave
  newpath
  cf findfont cs scalefont dup
  /FontMatrix get 0 get /Ts exch def /FontInfo get dup
  /UnderlinePosition get Ts mul /To exch def
  /UnderlineThickness get Ts mul /Tt exch def
  ux uy To add moveto  Tcx uy To add lineto
  Tt setlinewidth stroke
  grestore
} bd
/OLE {
  /Tcx currentpoint pop def
  gsave
  newpath
  cf findfont cs scalefont dup
  /FontMatrix get 0 get /Ts exch def /FontInfo get dup
  /UnderlinePosition get Ts mul /To exch def
  /UnderlineThickness get Ts mul /Tt exch def
  ux uy To add cs add moveto Tcx uy To add cs add lineto
  Tt setlinewidth stroke
  grestore
} bd
/SOE {
  /Tcx currentpoint pop def
  gsave
  newpath
  cf findfont cs scalefont dup
  /FontMatrix get 0 get /Ts exch def /FontInfo get dup
  /UnderlinePosition get Ts mul /To exch def
  /UnderlineThickness get Ts mul /Tt exch def
  ux uy To add cs 10 mul 26 idiv add moveto Tcx uy To add cs 10 mul 26 idiv add lineto
  Tt setlinewidth stroke
  grestore
} bd
/QT {
/Y22 exch store
/X22 exch store
/Y21 exch store
/X21 exch store
currentpoint
/Y21 load 2 mul add 3 div exch
/X21 load 2 mul add 3 div exch
/X21 load 2 mul /X22 load add 3 div
/Y21 load 2 mul /Y22 load add 3 div
/X22 load /Y22 load curveto
} bd
/SSPD {
dup length /d exch dict def
{
/v exch def
/k exch def
currentpagedevice k known {
/cpdv currentpagedevice k get def
v cpdv ne {
/upd false def
/nullv v type /nulltype eq def
/nullcpdv cpdv type /nulltype eq def
nullv nullcpdv or
{
/upd true def
} {
/sametype v type cpdv type eq def
sametype {
v type /arraytype eq {
/vlen v length def
/cpdvlen cpdv length def
vlen cpdvlen eq {
0 1 vlen 1 sub {
/i exch def
/obj v i get def
/cpdobj cpdv i get def
obj cpdobj ne {
/upd true def
exit
} if
} for
} {
/upd true def
} ifelse
} {
v type /dicttype eq {
v {
/dv exch def
/dk exch def
/cpddv cpdv dk get def
dv cpddv ne {
/upd true def
exit
} if
} forall
} {
/upd true def
} ifelse
} ifelse
} if
} ifelse
upd true eq {
d k v put
} if
} if
} if
} forall
d length 0 gt {
d setpagedevice
} if
} bd
/RE { % /NewFontName [NewEncodingArray] /FontName RE -
  findfont dup length dict begin
  {
    1 index /FID ne
    {def} {pop pop} ifelse
  } forall
  /Encoding exch def
  /FontName 1 index def
  currentdict definefont pop
  end
} bind def
%%EndResource
%%BeginResource: procset (Apache XML Graphics EPS ProcSet) 1.0 0
%%Version: 1.0 0
%%Copyright: (Copyright 2002-2003 The Apache Software Foundation. License terms: http://www.apache.org/licenses/LICENSE-2.0)
/BeginEPSF { %def
/b4_Inc_state save def         % Save state for cleanup
/dict_count countdictstack def % Count objects on dict stack
/op_count count 1 sub def      % Count objects on operand stack
userdict begin                 % Push userdict on dict stack
/showpage { } def              % Redefine showpage, { } = null proc
0 setgray 0 setlinecap         % Prepare graphics state
1 setlinewidth 0 setlinejoin
10 setmiterlimit [ ] 0 setdash newpath
/languagelevel where           % If level not equal to 1 then
{pop languagelevel             % set strokeadjust and
1 ne                           % overprint to their defaults.
{false setstrokeadjust false setoverprint
} if
} if
} bd
/EndEPSF { %def
count op_count sub {pop} repeat            % Clean up stacks
countdictstack dict_count sub {end} repeat
b4_Inc_state restore
} bd
%%EndResource
%FOPBeginFontDict
%%IncludeResource: font Courier-Oblique
%%IncludeResource: font Courier-BoldOblique
%%IncludeResource: font Courier-Bold
%%IncludeResource: font ZapfDingbats
%%IncludeResource: font Symbol
%%IncludeResource: font Helvetica
%%IncludeResource: font Helvetica-Oblique
%%IncludeResource: font Helvetica-Bold
%%IncludeResource: font Helvetica-BoldOblique
%%IncludeResource: font Times-Roman
%%IncludeResource: font Times-Italic
%%IncludeResource: font Times-Bold
%%IncludeResource: font Times-BoldItalic
%%IncludeResource: font Courier
%FOPEndFontDict
%%BeginResource: encoding WinAnsiEncoding
/WinAnsiEncoding [
/.notdef /.notdef /.notdef /.notdef /.notdef
/.notdef /.notdef /.notdef /.notdef /.notdef
/.notdef /.notdef /.notdef /.notdef /.notdef
/.notdef /.notdef /.notdef /.notdef /.notdef
/.notdef /.notdef /.notdef /.notdef /.notdef
/.notdef /.notdef /.notdef /.notdef /.notdef
/.notdef /.notdef /space /exclam /quotedbl
/numbersign /dollar /percent /ampersand /quotesingle
/parenleft /parenright /asterisk /plus /comma
/hyphen /period /slash /zero /one
/two /three /four /five /six
/seven /eight /nine /colon /semicolon
/less /equal /greater /question /at
/A /B /C /D /E
/F /G /H /I /J
/K /L /M /N /O
/P /Q /R /S /T
/U /V /W /X /Y
/Z /bracketleft /backslash /bracketright /asciicircum
/underscore /quoteleft /a /b /c
/d /e /f /g /h
/i /j /k /l /m
/n /o /p /q /r
/s /t /u /v /w
/x /y /z /braceleft /bar
/braceright /asciitilde /bullet /Euro /bullet
/quotesinglbase /florin /quotedblbase /ellipsis /dagger
/daggerdbl /circumflex /perthousand /Scaron /guilsinglleft
/OE /bullet /Zcaron /bullet /bullet
/quoteleft /quoteright /quotedblleft /quotedblright /bullet
/endash /emdash /asciitilde /trademark /scaron
/guilsinglright /oe /bullet /zcaron /Ydieresis
/space /exclamdown /cent /sterling /currency
/yen /brokenbar /section /dieresis /copyright
/ordfeminine /guillemotleft /logicalnot /sfthyphen /registered
/macron /degree /plusminus /twosuperior /threesuperior
/acute /mu /paragraph /middot /cedilla
/onesuperior /ordmasculine /guillemotright /onequarter /onehalf
/threequarters /questiondown /Agrave /Aacute /Acircumflex
/Atilde /Adieresis /Aring /AE /Ccedilla
/Egrave /Eacute /Ecircumflex /Edieresis /Igrave
/Iacute /Icircumflex /Idieresis /Eth /Ntilde
/Ograve /Oacute /Ocircumflex /Otilde /Odieresis
/multiply /Oslash /Ugrave /Uacute /Ucircumflex
/Udieresis /Yacute /Thorn /germandbls /agrave
/aacute /acircumflex /atilde /adieresis /aring
/ae /ccedilla /egrave /eacute /ecircumflex
/edieresis /igrave /iacute /icircumflex /idieresis
/eth /ntilde /ograve /oacute /ocircumflex
/otilde /odieresis /divide /oslash /ugrave
/uacute /ucircumflex /udieresis /yacute /thorn
/ydieresis
] def
%%EndResource
%FOPBeginFontReencode
/Courier-Oblique findfont
dup length dict begin
  {1 index /FID ne {def} {pop pop} ifelse} forall
  /Encoding WinAnsiEncoding def
  currentdict
end
/Courier-Oblique exch definefont pop
/Courier-BoldOblique findfont
dup length dict begin
  {1 index /FID ne {def} {pop pop} ifelse} forall
  /Encoding WinAnsiEncoding def
  currentdict
end
/Courier-BoldOblique exch definefont pop
/Courier-Bold findfont
dup length dict begin
  {1 index /FID ne {def} {pop pop} ifelse} forall
  /Encoding WinAnsiEncoding def
  currentdict
end
/Courier-Bold exch definefont pop
/Helvetica findfont
dup length dict begin
  {1 index /FID ne {def} {pop pop} ifelse} forall
  /Encoding WinAnsiEncoding def
  currentdict
end
/Helvetica exch definefont pop
/Helvetica-Oblique findfont
dup length dict begin
  {1 index /FID ne {def} {pop pop} ifelse} forall
  /Encoding WinAnsiEncoding def
  currentdict
end
/Helvetica-Oblique exch definefont pop
/Helvetica-Bold findfont
dup length dict begin
  {1 index /FID ne {def} {pop pop} ifelse} forall
  /Encoding WinAnsiEncoding def
  currentdict
end
/Helvetica-Bold exch definefont pop
/Helvetica-BoldOblique findfont
dup length dict begin
  {1 index /FID ne {def} {pop pop} ifelse} forall
  /Encoding WinAnsiEncoding def
  currentdict
end
/Helvetica-BoldOblique exch definefont pop
/Times-Roman findfont
dup length dict begin
  {1 index /FID ne {def} {pop pop} ifelse} forall
  /Encoding WinAnsiEncoding def
  currentdict
end
/Times-Roman exch definefont pop
/Times-Italic findfont
dup length dict begin
  {1 index /FID ne {def} {pop pop} ifelse} forall
  /Encoding WinAnsiEncoding def
  currentdict
end
/Times-Italic exch definefont pop
/Times-Bold findfont
dup length dict begin
  {1 index /FID ne {def} {pop pop} ifelse} forall
  /Encoding WinAnsiEncoding def
  currentdict
end
/Times-Bold exch definefont pop
/Times-BoldItalic findfont
dup length dict begin
  {1 index /FID ne {def} {pop pop} ifelse} forall
  /Encoding WinAnsiEncoding def
  currentdict
end
/Times-BoldItalic exch definefont pop
/Courier findfont
dup length dict begin
  {1 index /FID ne {def} {pop pop} ifelse} forall
  /Encoding WinAnsiEncoding def
  currentdict
end
/Courier exch definefont pop
%FOPEndFontReencode
%%EndProlog
%%Page: 1 1
%%PageBoundingBox: 0 0 936 664
%%BeginPageSetup
[1 0 0 -1 0 664] CT
%%EndPageSetup
GS
1 GC
N
0 0 936 664 re
f
GR
GS
1 GC
N
0 0 936 664 re
f
GR
GS
1 GC
N
121.5 591 M
847 591 L
847 50 L
121.5 50 L
cp
f
GR
GS
0.149 GC
2 setlinecap
1 LJ
0.5 LW
N
121.5 591 M
847 591 L
S
GR
GS
0.149 GC
2 setlinecap
1 LJ
0.5 LW
N
121.5 50 M
847 50 L
S
GR
GS
0.149 GC
2 setlinecap
1 LJ
0.5 LW
N
121.5 591 M
121.5 583.745 L
S
GR
GS
0.149 GC
2 setlinecap
1 LJ
0.5 LW
N
266.6 591 M
266.6 583.745 L
S
GR
GS
0.149 GC
2 setlinecap
1 LJ
0.5 LW
N
411.7 591 M
411.7 583.745 L
S
GR
GS
0.149 GC
2 setlinecap
1 LJ
0.5 LW
N
556.8 591 M
556.8 583.745 L
S
GR
GS
0.149 GC
2 setlinecap
1 LJ
0.5 LW
N
701.9 591 M
701.9 583.745 L
S
GR
GS
0.149 GC
2 setlinecap
1 LJ
0.5 LW
N
847 591 M
847 583.745 L
S
GR
GS
0.149 GC
2 setlinecap
1 LJ
0.5 LW
N
121.5 50 M
121.5 57.255 L
S
GR
GS
0.149 GC
2 setlinecap
1 LJ
0.5 LW
N
266.6 50 M
266.6 57.255 L
S
GR
GS
0.149 GC
2 setlinecap
1 LJ
0.5 LW
N
411.7 50 M
411.7 57.255 L
S
GR
GS
0.149 GC
2 setlinecap
1 LJ
0.5 LW
N
556.8 50 M
556.8 57.255 L
S
GR
GS
0.149 GC
2 setlinecap
1 LJ
0.5 LW
N
701.9 50 M
701.9 57.255 L
S
GR
GS
0.149 GC
2 setlinecap
1 LJ
0.5 LW
N
847 50 M
847 57.255 L
S
GR
GS
[1 0 0 1 121.5 597.79999] CT
0.149 GC
/Helvetica 24 F
GS
[1 0 0 1 0 0] CT
-7 23 moveto 
1 -1 scale
(0) t 
GR
GR
GS
[1 0 0 1 266.60001 597.79999] CT
0.149 GC
/Helvetica 24 F
GS
[1 0 0 1 0 0] CT
-17 23 moveto 
1 -1 scale
(0.2) t 
GR
GR
GS
[1 0 0 1 411.70001 597.79999] CT
0.149 GC
/Helvetica 24 F
GS
[1 0 0 1 0 0] CT
-17 23 moveto 
1 -1 scale
(0.4) t 
GR
GR
GS
[1 0 0 1 556.79999 597.79999] CT
0.149 GC
/Helvetica 24 F
GS
[1 0 0 1 0 0] CT
-17 23 moveto 
1 -1 scale
(0.6) t 
GR
GR
GS
[1 0 0 1 701.90002 597.79999] CT
0.149 GC
/Helvetica 24 F
GS
[1 0 0 1 0 0] CT
-17 23 moveto 
1 -1 scale
(0.8) t 
GR
GR
GS
[1 0 0 1 847 597.79999] CT
0.149 GC
/Helvetica 24 F
GS
[1 0 0 1 0 0] CT
-7 23 moveto 
1 -1 scale
(1) t 
GR
GR
GS
[1 0 0 1 484.25034 627.29999] CT
0.149 GC
/Helvetica 26.4 F
GS
[1 0 0 1 0 0] CT
-68.5 26 moveto 
1 -1 scale
(Noise Level) t 
GR
GR
GS
0.149 GC
2 setlinecap
1 LJ
0.5 LW
N
121.5 591 M
121.5 50 L
S
GR
GS
0.149 GC
2 setlinecap
1 LJ
0.5 LW
N
847 591 M
847 50 L
S
GR
GS
0.149 GC
2 setlinecap
1 LJ
0.5 LW
N
121.5 591 M
128.755 591 L
S
GR
GS
0.149 GC
2 setlinecap
1 LJ
0.5 LW
N
121.5 536.9 M
128.755 536.9 L
S
GR
GS
0.149 GC
2 setlinecap
1 LJ
0.5 LW
N
121.5 482.8 M
128.755 482.8 L
S
GR
GS
0.149 GC
2 setlinecap
1 LJ
0.5 LW
N
121.5 428.7 M
128.755 428.7 L
S
GR
GS
0.149 GC
2 setlinecap
1 LJ
0.5 LW
N
121.5 374.6 M
128.755 374.6 L
S
GR
GS
0.149 GC
2 setlinecap
1 LJ
0.5 LW
N
121.5 320.5 M
128.755 320.5 L
S
GR
GS
0.149 GC
2 setlinecap
1 LJ
0.5 LW
N
121.5 266.4 M
128.755 266.4 L
S
GR
GS
0.149 GC
2 setlinecap
1 LJ
0.5 LW
N
121.5 212.3 M
128.755 212.3 L
S
GR
GS
0.149 GC
2 setlinecap
1 LJ
0.5 LW
N
121.5 158.2 M
128.755 158.2 L
S
GR
GS
0.149 GC
2 setlinecap
1 LJ
0.5 LW
N
121.5 104.1 M
128.755 104.1 L
S
GR
GS
0.149 GC
2 setlinecap
1 LJ
0.5 LW
N
121.5 50 M
128.755 50 L
S
GR
GS
0.149 GC
2 setlinecap
1 LJ
0.5 LW
N
847 591 M
839.745 591 L
S
GR
GS
0.149 GC
2 setlinecap
1 LJ
0.5 LW
N
847 536.9 M
839.745 536.9 L
S
GR
GS
0.149 GC
2 setlinecap
1 LJ
0.5 LW
N
847 482.8 M
839.745 482.8 L
S
GR
GS
0.149 GC
2 setlinecap
1 LJ
0.5 LW
N
847 428.7 M
839.745 428.7 L
S
GR
GS
0.149 GC
2 setlinecap
1 LJ
0.5 LW
N
847 374.6 M
839.745 374.6 L
S
GR
GS
0.149 GC
2 setlinecap
1 LJ
0.5 LW
N
847 320.5 M
839.745 320.5 L
S
GR
GS
0.149 GC
2 setlinecap
1 LJ
0.5 LW
N
847 266.4 M
839.745 266.4 L
S
GR
GS
0.149 GC
2 setlinecap
1 LJ
0.5 LW
N
847 212.3 M
839.745 212.3 L
S
GR
GS
0.149 GC
2 setlinecap
1 LJ
0.5 LW
N
847 158.2 M
839.745 158.2 L
S
GR
GS
0.149 GC
2 setlinecap
1 LJ
0.5 LW
N
847 104.1 M
839.745 104.1 L
S
GR
GS
0.149 GC
2 setlinecap
1 LJ
0.5 LW
N
847 50 M
839.745 50 L
S
GR
GS
[1 0 0 1 114.7 591] CT
0.149 GC
/Helvetica 24 F
GS
[1 0 0 1 0 0] CT
-14 8.5 moveto 
1 -1 scale
(0) t 
GR
GR
GS
[1 0 0 1 114.7 536.90002] CT
0.149 GC
/Helvetica 24 F
GS
[1 0 0 1 0 0] CT
-27 8.5 moveto 
1 -1 scale
(10) t 
GR
GR
GS
[1 0 0 1 114.7 482.79999] CT
0.149 GC
/Helvetica 24 F
GS
[1 0 0 1 0 0] CT
-27 8.5 moveto 
1 -1 scale
(20) t 
GR
GR
GS
[1 0 0 1 114.7 428.70001] CT
0.149 GC
/Helvetica 24 F
GS
[1 0 0 1 0 0] CT
-27 8.5 moveto 
1 -1 scale
(30) t 
GR
GR
GS
[1 0 0 1 114.7 374.60001] CT
0.149 GC
/Helvetica 24 F
GS
[1 0 0 1 0 0] CT
-27 8.5 moveto 
1 -1 scale
(40) t 
GR
GR
GS
[1 0 0 1 114.7 320.5] CT
0.149 GC
/Helvetica 24 F
GS
[1 0 0 1 0 0] CT
-27 8.5 moveto 
1 -1 scale
(50) t 
GR
GR
GS
[1 0 0 1 114.7 266.39999] CT
0.149 GC
/Helvetica 24 F
GS
[1 0 0 1 0 0] CT
-27 8.5 moveto 
1 -1 scale
(60) t 
GR
GR
GS
[1 0 0 1 114.7 212.3] CT
0.149 GC
/Helvetica 24 F
GS
[1 0 0 1 0 0] CT
-27 8.5 moveto 
1 -1 scale
(70) t 
GR
GR
GS
[1 0 0 1 114.7 158.2] CT
0.149 GC
/Helvetica 24 F
GS
[1 0 0 1 0 0] CT
-27 8.5 moveto 
1 -1 scale
(80) t 
GR
GR
GS
[1 0 0 1 114.7 104.1] CT
0.149 GC
/Helvetica 24 F
GS
[1 0 0 1 0 0] CT
-27 8.5 moveto 
1 -1 scale
(90) t 
GR
GR
GS
[1 0 0 1 114.7 50] CT
0.149 GC
/Helvetica 24 F
GS
[1 0 0 1 0 0] CT
-41 8.5 moveto 
1 -1 scale
(100) t 
GR
GR
GS
[0 -1 1 0 71.2 320.49976] CT
0.149 GC
/Helvetica 26.4 F
GS
[1 0 0 1 0 0] CT
-35.5 -6 moveto 
1 -1 scale
(Errors) t 
GR
GR
GS
0 0.447 0.741 RC
[10 6] 0 setdash
2 LJ
0.5 LW
N
121.5 591 M
157.775 591 L
194.05 590.306 L
230.325 555.627 L
266.6 505.688 L
302.875 418.296 L
339.15 352.405 L
375.425 299.692 L
411.7 253.915 L
447.975 219.929 L
484.25 173.459 L
520.525 158.894 L
556.8 155.426 L
593.075 141.554 L
629.35 124.214 L
665.625 117.972 L
701.9 123.521 L
738.175 108.955 L
774.45 111.036 L
810.725 103.406 L
847 106.874 L
S
GR
GS
0.851 0.325 0.098 RC
1 LJ
0.5 LW
N
121.5 591 M
157.775 591 L
194.05 591 L
230.325 591 L
266.6 590.306 L
302.875 585.451 L
339.15 574.354 L
375.425 554.933 L
411.7 525.109 L
447.975 477.945 L
484.25 425.232 L
520.525 386.391 L
556.8 368.358 L
593.075 323.274 L
629.35 289.982 L
665.625 276.804 L
701.9 255.303 L
738.175 229.64 L
774.45 210.913 L
810.725 199.815 L
847 193.573 L
S
GR
GS
0.929 0.694 0.125 RC
1 LJ
0.5 LW
N
121.5 591 M
157.775 591 L
194.05 591 L
230.325 591 L
266.6 591 L
302.875 587.532 L
339.15 577.128 L
375.425 562.563 L
411.7 525.803 L
447.975 480.026 L
484.25 429.394 L
520.525 394.714 L
556.8 359.341 L
593.075 323.274 L
629.35 303.854 L
665.625 274.029 L
701.9 246.979 L
738.175 225.478 L
774.45 203.283 L
810.725 206.751 L
847 191.492 L
S
GR
GS
0.494 0.184 0.557 RC
1 LJ
0.5 LW
N
121.5 591 M
157.775 591 L
194.05 591 L
230.325 591 L
266.6 591 L
302.875 584.758 L
339.15 584.758 L
375.425 554.933 L
411.7 538.287 L
447.975 489.736 L
484.25 440.491 L
520.525 407.199 L
556.8 375.987 L
593.075 334.372 L
629.35 300.386 L
665.625 281.659 L
701.9 253.915 L
738.175 257.383 L
774.45 219.929 L
810.725 208.832 L
847 191.492 L
S
GR
GS
0.467 0.675 0.188 RC
1 LJ
0.5 LW
N
121.5 591 M
157.775 591 L
194.05 591 L
230.325 591 L
266.6 591 L
302.875 586.145 L
339.15 576.435 L
375.425 557.014 L
411.7 511.931 L
447.975 469.622 L
484.25 418.296 L
520.525 369.745 L
556.8 357.26 L
593.075 299.692 L
629.35 271.255 L
665.625 257.383 L
701.9 231.027 L
738.175 226.865 L
774.45 192.879 L
810.725 187.331 L
847 169.991 L
S
GR
GS
0.302 0.745 0.933 RC
1 LJ
0.5 LW
N
121.5 591 M
157.775 591 L
194.05 591 L
230.325 591 L
266.6 590.306 L
302.875 581.29 L
339.15 560.482 L
375.425 538.981 L
411.7 508.463 L
447.975 463.379 L
484.25 404.424 L
520.525 369.051 L
556.8 348.937 L
593.075 297.612 L
629.35 265.706 L
665.625 248.367 L
701.9 232.414 L
738.175 217.155 L
774.45 189.412 L
810.725 185.944 L
847 173.459 L
S
GR
GS
1 GC
N
431 220.5 M
431 58 L
131.5 58 L
131.5 220.5 L
cp
f
GR
GS
[1 0 0 1 168.5 73] CT
/Helvetica 21.6 F
GS
[1 0 0 1 0 0] CT
0 8 moveto 
1 -1 scale
(Network 1) t 
GR
GR
GS
0 0.447 0.741 RC
[10 6] 0 setdash
2 LJ
0.5 LW
N
135.5 73 M
165.5 73 L
S
GR
GS
[1 0 0 1 168.5 99.5] CT
/Helvetica 21.6 F
GS
[1 0 0 1 0 0] CT
0 8 moveto 
1 -1 scale
(Network 2 Noise level 1) t 
GR
GR
GS
0.851 0.325 0.098 RC
1 LJ
0.5 LW
N
135.5 99.5 M
165.5 99.5 L
S
GR
GS
[1 0 0 1 168.5 126] CT
/Helvetica 21.6 F
GS
[1 0 0 1 0 0] CT
0 8 moveto 
1 -1 scale
(Network 2 Noise level 0.75) t 
GR
GR
GS
0.929 0.694 0.125 RC
1 LJ
0.5 LW
N
135.5 126 M
165.5 126 L
S
GR
GS
[1 0 0 1 168.5 152.5] CT
/Helvetica 21.6 F
GS
[1 0 0 1 0 0] CT
0 8 moveto 
1 -1 scale
(Network 2 Noise level 0.5) t 
GR
GR
GS
0.494 0.184 0.557 RC
1 LJ
0.5 LW
N
135.5 152.5 M
165.5 152.5 L
S
GR
GS
[1 0 0 1 168.5 179] CT
/Helvetica 21.6 F
GS
[1 0 0 1 0 0] CT
0 8 moveto 
1 -1 scale
(Network 2 Noise level 0.25) t 
GR
GR
GS
0.467 0.675 0.188 RC
1 LJ
0.5 LW
N
135.5 179 M
165.5 179 L
S
GR
GS
[1 0 0 1 168.5 205.5] CT
/Helvetica 21.6 F
GS
[1 0 0 1 0 0] CT
0 8 moveto 
1 -1 scale
(Network 2 Noise level 0.1) t 
GR
GR
GS
0.302 0.745 0.933 RC
1 LJ
0.5 LW
N
135.5 205.5 M
165.5 205.5 L
S
GR
GS
0.149 GC
10.0 ML
0.5 LW
N
131.5 220.5 M
131.5 58 L
431 58 L
431 220.5 L
cp
S
GR
%%Trailer
%%Pages: 1
%%EOF
