%!PS-Adobe-3.0 EPSF-3.0
%%Creator: (MATLAB, The Mathworks, Inc. Version 9.1.0.441655 \(R2016b\). Operating System: Windows 8)
%%Title: (C:/Users/Eigenaar/WIT/Data Mining/data-mining/Session 2/plots/p15.eps)
%%CreationDate: 2017-11-22T14:38:03
%%Pages: (atend)
%%BoundingBox: 0 0 888 632
%%LanguageLevel: 3
%%EndComments
%%BeginProlog
%%BeginResource: procset (Apache XML Graphics Std ProcSet) 1.2 0
%%Version: 1.2 0
%%Copyright: (Copyright 2001-2003,2010 The Apache Software Foundation. License terms: http://www.apache.org/licenses/LICENSE-2.0)
/bd{bind def}bind def
/ld{load def}bd
/GR/grestore ld
/M/moveto ld
/LJ/setlinejoin ld
/C/curveto ld
/f/fill ld
/LW/setlinewidth ld
/GC/setgray ld
/t/show ld
/N/newpath ld
/CT/concat ld
/cp/closepath ld
/S/stroke ld
/L/lineto ld
/CC/setcmykcolor ld
/A/ashow ld
/GS/gsave ld
/RC/setrgbcolor ld
/RM/rmoveto ld
/ML/setmiterlimit ld
/re {4 2 roll M
1 index 0 rlineto
0 exch rlineto
neg 0 rlineto
cp } bd
/_ctm matrix def
/_tm matrix def
/BT { _ctm currentmatrix pop matrix _tm copy pop 0 0 moveto } bd
/ET { _ctm setmatrix } bd
/iTm { _ctm setmatrix _tm concat } bd
/Tm { _tm astore pop iTm 0 0 moveto } bd
/ux 0.0 def
/uy 0.0 def
/F {
  /Tp exch def
  /Tf exch def
  Tf findfont Tp scalefont setfont
  /cf Tf def  /cs Tp def
} bd
/ULS {currentpoint /uy exch def /ux exch def} bd
/ULE {
  /Tcx currentpoint pop def
  gsave
  newpath
  cf findfont cs scalefont dup
  /FontMatrix get 0 get /Ts exch def /FontInfo get dup
  /UnderlinePosition get Ts mul /To exch def
  /UnderlineThickness get Ts mul /Tt exch def
  ux uy To add moveto  Tcx uy To add lineto
  Tt setlinewidth stroke
  grestore
} bd
/OLE {
  /Tcx currentpoint pop def
  gsave
  newpath
  cf findfont cs scalefont dup
  /FontMatrix get 0 get /Ts exch def /FontInfo get dup
  /UnderlinePosition get Ts mul /To exch def
  /UnderlineThickness get Ts mul /Tt exch def
  ux uy To add cs add moveto Tcx uy To add cs add lineto
  Tt setlinewidth stroke
  grestore
} bd
/SOE {
  /Tcx currentpoint pop def
  gsave
  newpath
  cf findfont cs scalefont dup
  /FontMatrix get 0 get /Ts exch def /FontInfo get dup
  /UnderlinePosition get Ts mul /To exch def
  /UnderlineThickness get Ts mul /Tt exch def
  ux uy To add cs 10 mul 26 idiv add moveto Tcx uy To add cs 10 mul 26 idiv add lineto
  Tt setlinewidth stroke
  grestore
} bd
/QT {
/Y22 exch store
/X22 exch store
/Y21 exch store
/X21 exch store
currentpoint
/Y21 load 2 mul add 3 div exch
/X21 load 2 mul add 3 div exch
/X21 load 2 mul /X22 load add 3 div
/Y21 load 2 mul /Y22 load add 3 div
/X22 load /Y22 load curveto
} bd
/SSPD {
dup length /d exch dict def
{
/v exch def
/k exch def
currentpagedevice k known {
/cpdv currentpagedevice k get def
v cpdv ne {
/upd false def
/nullv v type /nulltype eq def
/nullcpdv cpdv type /nulltype eq def
nullv nullcpdv or
{
/upd true def
} {
/sametype v type cpdv type eq def
sametype {
v type /arraytype eq {
/vlen v length def
/cpdvlen cpdv length def
vlen cpdvlen eq {
0 1 vlen 1 sub {
/i exch def
/obj v i get def
/cpdobj cpdv i get def
obj cpdobj ne {
/upd true def
exit
} if
} for
} {
/upd true def
} ifelse
} {
v type /dicttype eq {
v {
/dv exch def
/dk exch def
/cpddv cpdv dk get def
dv cpddv ne {
/upd true def
exit
} if
} forall
} {
/upd true def
} ifelse
} ifelse
} if
} ifelse
upd true eq {
d k v put
} if
} if
} if
} forall
d length 0 gt {
d setpagedevice
} if
} bd
/RE { % /NewFontName [NewEncodingArray] /FontName RE -
  findfont dup length dict begin
  {
    1 index /FID ne
    {def} {pop pop} ifelse
  } forall
  /Encoding exch def
  /FontName 1 index def
  currentdict definefont pop
  end
} bind def
%%EndResource
%%BeginResource: procset (Apache XML Graphics EPS ProcSet) 1.0 0
%%Version: 1.0 0
%%Copyright: (Copyright 2002-2003 The Apache Software Foundation. License terms: http://www.apache.org/licenses/LICENSE-2.0)
/BeginEPSF { %def
/b4_Inc_state save def         % Save state for cleanup
/dict_count countdictstack def % Count objects on dict stack
/op_count count 1 sub def      % Count objects on operand stack
userdict begin                 % Push userdict on dict stack
/showpage { } def              % Redefine showpage, { } = null proc
0 setgray 0 setlinecap         % Prepare graphics state
1 setlinewidth 0 setlinejoin
10 setmiterlimit [ ] 0 setdash newpath
/languagelevel where           % If level not equal to 1 then
{pop languagelevel             % set strokeadjust and
1 ne                           % overprint to their defaults.
{false setstrokeadjust false setoverprint
} if
} if
} bd
/EndEPSF { %def
count op_count sub {pop} repeat            % Clean up stacks
countdictstack dict_count sub {end} repeat
b4_Inc_state restore
} bd
%%EndResource
%FOPBeginFontDict
%%IncludeResource: font Courier-Bold
%%IncludeResource: font Helvetica
%%IncludeResource: font Courier-BoldOblique
%%IncludeResource: font Courier-Oblique
%%IncludeResource: font Times-Roman
%%IncludeResource: font Helvetica-BoldOblique
%%IncludeResource: font Helvetica-Bold
%%IncludeResource: font Helvetica-Oblique
%%IncludeResource: font Times-BoldItalic
%%IncludeResource: font Courier
%%IncludeResource: font Times-Italic
%%IncludeResource: font Times-Bold
%%IncludeResource: font Symbol
%%IncludeResource: font ZapfDingbats
%FOPEndFontDict
%%BeginResource: encoding WinAnsiEncoding
/WinAnsiEncoding [
/.notdef /.notdef /.notdef /.notdef /.notdef
/.notdef /.notdef /.notdef /.notdef /.notdef
/.notdef /.notdef /.notdef /.notdef /.notdef
/.notdef /.notdef /.notdef /.notdef /.notdef
/.notdef /.notdef /.notdef /.notdef /.notdef
/.notdef /.notdef /.notdef /.notdef /.notdef
/.notdef /.notdef /space /exclam /quotedbl
/numbersign /dollar /percent /ampersand /quotesingle
/parenleft /parenright /asterisk /plus /comma
/hyphen /period /slash /zero /one
/two /three /four /five /six
/seven /eight /nine /colon /semicolon
/less /equal /greater /question /at
/A /B /C /D /E
/F /G /H /I /J
/K /L /M /N /O
/P /Q /R /S /T
/U /V /W /X /Y
/Z /bracketleft /backslash /bracketright /asciicircum
/underscore /quoteleft /a /b /c
/d /e /f /g /h
/i /j /k /l /m
/n /o /p /q /r
/s /t /u /v /w
/x /y /z /braceleft /bar
/braceright /asciitilde /bullet /Euro /bullet
/quotesinglbase /florin /quotedblbase /ellipsis /dagger
/daggerdbl /circumflex /perthousand /Scaron /guilsinglleft
/OE /bullet /Zcaron /bullet /bullet
/quoteleft /quoteright /quotedblleft /quotedblright /bullet
/endash /emdash /asciitilde /trademark /scaron
/guilsinglright /oe /bullet /zcaron /Ydieresis
/space /exclamdown /cent /sterling /currency
/yen /brokenbar /section /dieresis /copyright
/ordfeminine /guillemotleft /logicalnot /sfthyphen /registered
/macron /degree /plusminus /twosuperior /threesuperior
/acute /mu /paragraph /middot /cedilla
/onesuperior /ordmasculine /guillemotright /onequarter /onehalf
/threequarters /questiondown /Agrave /Aacute /Acircumflex
/Atilde /Adieresis /Aring /AE /Ccedilla
/Egrave /Eacute /Ecircumflex /Edieresis /Igrave
/Iacute /Icircumflex /Idieresis /Eth /Ntilde
/Ograve /Oacute /Ocircumflex /Otilde /Odieresis
/multiply /Oslash /Ugrave /Uacute /Ucircumflex
/Udieresis /Yacute /Thorn /germandbls /agrave
/aacute /acircumflex /atilde /adieresis /aring
/ae /ccedilla /egrave /eacute /ecircumflex
/edieresis /igrave /iacute /icircumflex /idieresis
/eth /ntilde /ograve /oacute /ocircumflex
/otilde /odieresis /divide /oslash /ugrave
/uacute /ucircumflex /udieresis /yacute /thorn
/ydieresis
] def
%%EndResource
%FOPBeginFontReencode
/Courier-Bold findfont
dup length dict begin
  {1 index /FID ne {def} {pop pop} ifelse} forall
  /Encoding WinAnsiEncoding def
  currentdict
end
/Courier-Bold exch definefont pop
/Helvetica findfont
dup length dict begin
  {1 index /FID ne {def} {pop pop} ifelse} forall
  /Encoding WinAnsiEncoding def
  currentdict
end
/Helvetica exch definefont pop
/Courier-BoldOblique findfont
dup length dict begin
  {1 index /FID ne {def} {pop pop} ifelse} forall
  /Encoding WinAnsiEncoding def
  currentdict
end
/Courier-BoldOblique exch definefont pop
/Courier-Oblique findfont
dup length dict begin
  {1 index /FID ne {def} {pop pop} ifelse} forall
  /Encoding WinAnsiEncoding def
  currentdict
end
/Courier-Oblique exch definefont pop
/Times-Roman findfont
dup length dict begin
  {1 index /FID ne {def} {pop pop} ifelse} forall
  /Encoding WinAnsiEncoding def
  currentdict
end
/Times-Roman exch definefont pop
/Helvetica-BoldOblique findfont
dup length dict begin
  {1 index /FID ne {def} {pop pop} ifelse} forall
  /Encoding WinAnsiEncoding def
  currentdict
end
/Helvetica-BoldOblique exch definefont pop
/Helvetica-Bold findfont
dup length dict begin
  {1 index /FID ne {def} {pop pop} ifelse} forall
  /Encoding WinAnsiEncoding def
  currentdict
end
/Helvetica-Bold exch definefont pop
/Helvetica-Oblique findfont
dup length dict begin
  {1 index /FID ne {def} {pop pop} ifelse} forall
  /Encoding WinAnsiEncoding def
  currentdict
end
/Helvetica-Oblique exch definefont pop
/Times-BoldItalic findfont
dup length dict begin
  {1 index /FID ne {def} {pop pop} ifelse} forall
  /Encoding WinAnsiEncoding def
  currentdict
end
/Times-BoldItalic exch definefont pop
/Courier findfont
dup length dict begin
  {1 index /FID ne {def} {pop pop} ifelse} forall
  /Encoding WinAnsiEncoding def
  currentdict
end
/Courier exch definefont pop
/Times-Italic findfont
dup length dict begin
  {1 index /FID ne {def} {pop pop} ifelse} forall
  /Encoding WinAnsiEncoding def
  currentdict
end
/Times-Italic exch definefont pop
/Times-Bold findfont
dup length dict begin
  {1 index /FID ne {def} {pop pop} ifelse} forall
  /Encoding WinAnsiEncoding def
  currentdict
end
/Times-Bold exch definefont pop
%FOPEndFontReencode
%%EndProlog
%%Page: 1 1
%%PageBoundingBox: 0 0 888 632
%%BeginPageSetup
[1 0 0 -1 0 632] CT
%%EndPageSetup
GS
[0.75 0 0 0.75 0 0.5] CT
1 GC
N
0 0 1184 842 re
f
GR
GS
[0.75 0 0 0.75 0 0.5] CT
1 GC
N
0 0 1184 842 re
f
GR
GS
[0.75 0 0 0.75 0 0.5] CT
1 GC
N
154 749 M
1072 749 L
1072 63 L
154 63 L
cp
f
GR
GS
[0.75 0 0 0.75 0 0.5] CT
0.149 GC
2 setlinecap
1 LJ
0.667 LW
N
154 749 M
1072 749 L
S
GR
GS
[0.75 0 0 0.75 0 0.5] CT
0.149 GC
2 setlinecap
1 LJ
0.667 LW
N
154 63 M
1072 63 L
S
GR
GS
[0.75 0 0 0.75 0 0.5] CT
0.149 GC
2 setlinecap
1 LJ
0.667 LW
N
154 749 M
154 739.82 L
S
GR
GS
[0.75 0 0 0.75 0 0.5] CT
0.149 GC
2 setlinecap
1 LJ
0.667 LW
N
245.8 749 M
245.8 739.82 L
S
GR
GS
[0.75 0 0 0.75 0 0.5] CT
0.149 GC
2 setlinecap
1 LJ
0.667 LW
N
337.6 749 M
337.6 739.82 L
S
GR
GS
[0.75 0 0 0.75 0 0.5] CT
0.149 GC
2 setlinecap
1 LJ
0.667 LW
N
429.4 749 M
429.4 739.82 L
S
GR
GS
[0.75 0 0 0.75 0 0.5] CT
0.149 GC
2 setlinecap
1 LJ
0.667 LW
N
521.2 749 M
521.2 739.82 L
S
GR
GS
[0.75 0 0 0.75 0 0.5] CT
0.149 GC
2 setlinecap
1 LJ
0.667 LW
N
613 749 M
613 739.82 L
S
GR
GS
[0.75 0 0 0.75 0 0.5] CT
0.149 GC
2 setlinecap
1 LJ
0.667 LW
N
704.8 749 M
704.8 739.82 L
S
GR
GS
[0.75 0 0 0.75 0 0.5] CT
0.149 GC
2 setlinecap
1 LJ
0.667 LW
N
796.6 749 M
796.6 739.82 L
S
GR
GS
[0.75 0 0 0.75 0 0.5] CT
0.149 GC
2 setlinecap
1 LJ
0.667 LW
N
888.4 749 M
888.4 739.82 L
S
GR
GS
[0.75 0 0 0.75 0 0.5] CT
0.149 GC
2 setlinecap
1 LJ
0.667 LW
N
980.2 749 M
980.2 739.82 L
S
GR
GS
[0.75 0 0 0.75 0 0.5] CT
0.149 GC
2 setlinecap
1 LJ
0.667 LW
N
1072 749 M
1072 739.82 L
S
GR
GS
[0.75 0 0 0.75 0 0.5] CT
0.149 GC
2 setlinecap
1 LJ
0.667 LW
N
154 63 M
154 72.18 L
S
GR
GS
[0.75 0 0 0.75 0 0.5] CT
0.149 GC
2 setlinecap
1 LJ
0.667 LW
N
245.8 63 M
245.8 72.18 L
S
GR
GS
[0.75 0 0 0.75 0 0.5] CT
0.149 GC
2 setlinecap
1 LJ
0.667 LW
N
337.6 63 M
337.6 72.18 L
S
GR
GS
[0.75 0 0 0.75 0 0.5] CT
0.149 GC
2 setlinecap
1 LJ
0.667 LW
N
429.4 63 M
429.4 72.18 L
S
GR
GS
[0.75 0 0 0.75 0 0.5] CT
0.149 GC
2 setlinecap
1 LJ
0.667 LW
N
521.2 63 M
521.2 72.18 L
S
GR
GS
[0.75 0 0 0.75 0 0.5] CT
0.149 GC
2 setlinecap
1 LJ
0.667 LW
N
613 63 M
613 72.18 L
S
GR
GS
[0.75 0 0 0.75 0 0.5] CT
0.149 GC
2 setlinecap
1 LJ
0.667 LW
N
704.8 63 M
704.8 72.18 L
S
GR
GS
[0.75 0 0 0.75 0 0.5] CT
0.149 GC
2 setlinecap
1 LJ
0.667 LW
N
796.6 63 M
796.6 72.18 L
S
GR
GS
[0.75 0 0 0.75 0 0.5] CT
0.149 GC
2 setlinecap
1 LJ
0.667 LW
N
888.4 63 M
888.4 72.18 L
S
GR
GS
[0.75 0 0 0.75 0 0.5] CT
0.149 GC
2 setlinecap
1 LJ
0.667 LW
N
980.2 63 M
980.2 72.18 L
S
GR
GS
[0.75 0 0 0.75 0 0.5] CT
0.149 GC
2 setlinecap
1 LJ
0.667 LW
N
1072 63 M
1072 72.18 L
S
GR
GS
[0.75 0 0 0.75 115.5 567.85001] CT
0.149 GC
/Helvetica 24 F
GS
[1 0 0 1 0 0] CT
-7 25 moveto 
1 -1 scale
(0) t 
GR
GR
GS
[0.75 0 0 0.75 184.35 567.85001] CT
0.149 GC
/Helvetica 24 F
GS
[1 0 0 1 0 0] CT
-13.5 25 moveto 
1 -1 scale
(10) t 
GR
GR
GS
[0.75 0 0 0.75 253.2 567.85001] CT
0.149 GC
/Helvetica 24 F
GS
[1 0 0 1 0 0] CT
-13.5 25 moveto 
1 -1 scale
(20) t 
GR
GR
GS
[0.75 0 0 0.75 322.05 567.85001] CT
0.149 GC
/Helvetica 24 F
GS
[1 0 0 1 0 0] CT
-13.5 25 moveto 
1 -1 scale
(30) t 
GR
GR
GS
[0.75 0 0 0.75 390.90001 567.85001] CT
0.149 GC
/Helvetica 24 F
GS
[1 0 0 1 0 0] CT
-13.5 25 moveto 
1 -1 scale
(40) t 
GR
GR
GS
[0.75 0 0 0.75 459.75 567.85001] CT
0.149 GC
/Helvetica 24 F
GS
[1 0 0 1 0 0] CT
-13.5 25 moveto 
1 -1 scale
(50) t 
GR
GR
GS
[0.75 0 0 0.75 528.59999 567.85001] CT
0.149 GC
/Helvetica 24 F
GS
[1 0 0 1 0 0] CT
-13.5 25 moveto 
1 -1 scale
(60) t 
GR
GR
GS
[0.75 0 0 0.75 597.44998 567.85001] CT
0.149 GC
/Helvetica 24 F
GS
[1 0 0 1 0 0] CT
-13.5 25 moveto 
1 -1 scale
(70) t 
GR
GR
GS
[0.75 0 0 0.75 666.30002 567.85001] CT
0.149 GC
/Helvetica 24 F
GS
[1 0 0 1 0 0] CT
-13.5 25 moveto 
1 -1 scale
(80) t 
GR
GR
GS
[0.75 0 0 0.75 735.15001 567.85001] CT
0.149 GC
/Helvetica 24 F
GS
[1 0 0 1 0 0] CT
-13.5 25 moveto 
1 -1 scale
(90) t 
GR
GR
GS
[0.75 0 0 0.75 804 567.85001] CT
0.149 GC
/Helvetica 24 F
GS
[1 0 0 1 0 0] CT
-20.5 25 moveto 
1 -1 scale
(100) t 
GR
GR
GS
[0.75 0 0 0.75 459.75032 592.09999] CT
0.149 GC
/Helvetica 26.4 F
GS
[1 0 0 1 0 0] CT
-46.5 27 moveto 
1 -1 scale
(Time [s]) t 
GR
GR
GS
[0.75 0 0 0.75 0 0.5] CT
0.149 GC
2 setlinecap
1 LJ
0.667 LW
N
154 749 M
154 63 L
S
GR
GS
[0.75 0 0 0.75 0 0.5] CT
0.149 GC
2 setlinecap
1 LJ
0.667 LW
N
1072 749 M
1072 63 L
S
GR
GS
[0.75 0 0 0.75 0 0.5] CT
0.149 GC
2 setlinecap
1 LJ
0.667 LW
N
154 749 M
163.18 749 L
S
GR
GS
[0.75 0 0 0.75 0 0.5] CT
0.149 GC
2 setlinecap
1 LJ
0.667 LW
N
154 651 M
163.18 651 L
S
GR
GS
[0.75 0 0 0.75 0 0.5] CT
0.149 GC
2 setlinecap
1 LJ
0.667 LW
N
154 553 M
163.18 553 L
S
GR
GS
[0.75 0 0 0.75 0 0.5] CT
0.149 GC
2 setlinecap
1 LJ
0.667 LW
N
154 455 M
163.18 455 L
S
GR
GS
[0.75 0 0 0.75 0 0.5] CT
0.149 GC
2 setlinecap
1 LJ
0.667 LW
N
154 357 M
163.18 357 L
S
GR
GS
[0.75 0 0 0.75 0 0.5] CT
0.149 GC
2 setlinecap
1 LJ
0.667 LW
N
154 259 M
163.18 259 L
S
GR
GS
[0.75 0 0 0.75 0 0.5] CT
0.149 GC
2 setlinecap
1 LJ
0.667 LW
N
154 161 M
163.18 161 L
S
GR
GS
[0.75 0 0 0.75 0 0.5] CT
0.149 GC
2 setlinecap
1 LJ
0.667 LW
N
154 63 M
163.18 63 L
S
GR
GS
[0.75 0 0 0.75 0 0.5] CT
0.149 GC
2 setlinecap
1 LJ
0.667 LW
N
1072 749 M
1062.82 749 L
S
GR
GS
[0.75 0 0 0.75 0 0.5] CT
0.149 GC
2 setlinecap
1 LJ
0.667 LW
N
1072 651 M
1062.82 651 L
S
GR
GS
[0.75 0 0 0.75 0 0.5] CT
0.149 GC
2 setlinecap
1 LJ
0.667 LW
N
1072 553 M
1062.82 553 L
S
GR
GS
[0.75 0 0 0.75 0 0.5] CT
0.149 GC
2 setlinecap
1 LJ
0.667 LW
N
1072 455 M
1062.82 455 L
S
GR
GS
[0.75 0 0 0.75 0 0.5] CT
0.149 GC
2 setlinecap
1 LJ
0.667 LW
N
1072 357 M
1062.82 357 L
S
GR
GS
[0.75 0 0 0.75 0 0.5] CT
0.149 GC
2 setlinecap
1 LJ
0.667 LW
N
1072 259 M
1062.82 259 L
S
GR
GS
[0.75 0 0 0.75 0 0.5] CT
0.149 GC
2 setlinecap
1 LJ
0.667 LW
N
1072 161 M
1062.82 161 L
S
GR
GS
[0.75 0 0 0.75 0 0.5] CT
0.149 GC
2 setlinecap
1 LJ
0.667 LW
N
1072 63 M
1062.82 63 L
S
GR
GS
[0.75 0 0 0.75 109.90001 562.25] CT
0.149 GC
/Helvetica 24 F
GS
[1 0 0 1 0 0] CT
-62 9.5 moveto 
1 -1 scale
(-1000) t 
GR
GR
GS
[0.75 0 0 0.75 109.90001 488.75] CT
0.149 GC
/Helvetica 24 F
GS
[1 0 0 1 0 0] CT
-49 9.5 moveto 
1 -1 scale
(-800) t 
GR
GR
GS
[0.75 0 0 0.75 109.90001 415.25] CT
0.149 GC
/Helvetica 24 F
GS
[1 0 0 1 0 0] CT
-49 9.5 moveto 
1 -1 scale
(-600) t 
GR
GR
GS
[0.75 0 0 0.75 109.90001 341.75] CT
0.149 GC
/Helvetica 24 F
GS
[1 0 0 1 0 0] CT
-49 9.5 moveto 
1 -1 scale
(-400) t 
GR
GR
GS
[0.75 0 0 0.75 109.90001 268.25] CT
0.149 GC
/Helvetica 24 F
GS
[1 0 0 1 0 0] CT
-49 9.5 moveto 
1 -1 scale
(-200) t 
GR
GR
GS
[0.75 0 0 0.75 109.90001 194.75] CT
0.149 GC
/Helvetica 24 F
GS
[1 0 0 1 0 0] CT
-14 9.5 moveto 
1 -1 scale
(0) t 
GR
GR
GS
[0.75 0 0 0.75 109.90001 121.25] CT
0.149 GC
/Helvetica 24 F
GS
[1 0 0 1 0 0] CT
-41 9.5 moveto 
1 -1 scale
(200) t 
GR
GR
GS
[0.75 0 0 0.75 109.90001 47.75] CT
0.149 GC
/Helvetica 24 F
GS
[1 0 0 1 0 0] CT
-41 9.5 moveto 
1 -1 scale
(400) t 
GR
GR
GS
[0.75 0 0 0.75 0 0.5] CT
0 0.447 0.741 RC
1 LJ
2.667 LW
N
163.18 222.565 M
172.36 171.109 L
181.54 199.678 L
190.72 241.132 L
199.9 252.597 L
209.08 254.895 L
218.26 252.193 L
227.44 243.018 L
236.62 203.297 L
245.8 166.927 L
254.98 219.89 L
264.16 247.473 L
273.34 254.857 L
282.52 254.266 L
291.7 251.28 L
300.88 236.428 L
310.06 183.764 L
319.24 176.106 L
328.42 232.569 L
337.6 251.527 L
346.78 255.726 L
355.96 254.647 L
365.14 250.849 L
374.32 229.627 L
383.5 168.296 L
392.68 187.171 L
401.86 239.789 L
411.04 253.601 L
420.22 256.624 L
429.4 254.857 L
438.58 252.415 L
447.76 228.156 L
456.94 159.566 L
466.12 187.67 L
475.3 242.851 L
484.48 254.977 L
493.66 256.63 L
502.84 255.226 L
512.02 256.408 L
521.2 239.653 L
530.38 170.812 L
539.56 156.001 L
548.74 238.134 L
557.92 253.449 L
567.1 258.382 L
576.28 252.381 L
585.46 261.717 L
594.64 256.912 L
603.82 260.367 L
613 244.496 L
622.18 209.887 L
631.36 201.036 L
640.54 233.394 L
649.72 243.33 L
658.9 238.849 L
668.08 238.09 L
677.26 250.055 L
686.44 217.733 L
695.62 209.407 L
704.8 224.251 L
713.98 242.959 L
723.16 239.583 L
732.34 236.548 L
741.52 235.1 L
750.7 216.573 L
759.88 209.376 L
769.06 218.361 L
778.24 236.608 L
787.42 241.159 L
796.6 241.105 L
805.78 229.854 L
814.96 214.098 L
824.14 207.821 L
833.32 221.734 L
842.5 235.829 L
851.68 241.424 L
860.86 240.847 L
870.04 229.898 L
879.22 213.255 L
888.4 206.254 L
897.58 222.344 L
906.76 236.812 L
915.94 242.591 L
925.12 241.076 L
934.3 231.086 L
943.48 212.142 L
952.66 205.199 L
961.84 222.001 L
971.02 237.38 L
980.2 242.946 L
989.38 241.826 L
998.56 231.709 L
1007.74 211.704 L
1016.92 203.642 L
1026.1 221.597 L
1035.28 237.67 L
1044.46 243.638 L
1053.64 242.845 L
1062.82 232.619 L
1072 211.614 L
S
GR
GS
[0.75 0 0 0.75 0 0.5] CT
0.851 0.325 0.098 RC
1 LJ
2.667 LW
N
163.18 223.501 M
172.36 170.75 L
181.54 199.207 L
190.72 243.189 L
199.9 256.706 L
209.08 257.749 L
218.26 252.058 L
227.44 240.48 L
236.62 195.857 L
245.8 172.439 L
254.98 224.126 L
264.16 246.011 L
273.34 253.352 L
282.52 258.03 L
291.7 250.258 L
300.88 230.327 L
310.06 174.449 L
319.24 185.519 L
328.42 234.146 L
337.6 249.131 L
346.78 255.911 L
355.96 255.312 L
365.14 250.702 L
374.32 227.29 L
383.5 161.971 L
392.68 190.735 L
401.86 243.882 L
411.04 259.214 L
420.22 257.488 L
429.4 252.401 L
438.58 239.378 L
447.76 201.37 L
456.94 165.508 L
466.12 213.261 L
475.3 237.172 L
484.48 245.809 L
493.66 265.974 L
502.84 245.316 L
512.02 223.064 L
521.2 167.087 L
530.38 191.303 L
539.56 218.701 L
548.74 231.012 L
557.92 257.854 L
567.1 262.89 L
576.28 264.254 L
585.46 269.244 L
594.64 292.952 L
603.82 343.526 L
613 284.827 L
622.18 216.317 L
631.36 188.742 L
640.54 221.773 L
649.72 199.546 L
658.9 172.565 L
668.08 166.647 L
677.26 219.188 L
686.44 260.543 L
695.62 358.37 L
704.8 611.826 L
713.98 654.264 L
723.16 570.748 L
732.34 287.389 L
741.52 196.626 L
750.7 178.409 L
759.88 291.532 L
769.06 358 L
778.24 221.262 L
787.42 232.709 L
796.6 234.965 L
805.78 308.132 L
814.96 314.122 L
824.14 296.22 L
833.32 234.979 L
842.5 275.876 L
851.68 244.537 L
860.86 202.727 L
870.04 297.855 L
879.22 289.27 L
888.4 236.81 L
897.58 189.736 L
906.76 260.793 L
915.94 218.006 L
925.12 225.405 L
934.3 266.383 L
943.48 270.983 L
952.66 259.887 L
961.84 204.275 L
971.02 225.91 L
980.2 218.857 L
989.38 214.568 L
998.56 231.172 L
1007.74 239.275 L
1016.92 241.392 L
1026.1 213.9 L
1035.28 219.916 L
1044.46 213.253 L
1053.64 227.668 L
1062.82 230.556 L
1072 236.152 L
S
GR
GS
[0.75 0 0 0.75 0 0.5] CT
0.929 0.694 0.125 RC
1 LJ
2.667 LW
N
163.18 222.97 M
172.36 171.357 L
181.54 200.065 L
190.72 241.74 L
199.9 251.852 L
209.08 253.784 L
218.26 251.684 L
227.44 242.238 L
236.62 202.543 L
245.8 168.896 L
254.98 221.369 L
264.16 247.739 L
273.34 252.902 L
282.52 253.672 L
291.7 250.111 L
300.88 233.669 L
310.06 181.151 L
319.24 182.397 L
328.42 234.589 L
337.6 250.835 L
346.78 253.449 L
355.96 253.206 L
365.14 247.834 L
374.32 221.502 L
383.5 165.416 L
392.68 201.899 L
401.86 243.45 L
411.04 252.509 L
420.22 254.157 L
429.4 252.391 L
438.58 244.177 L
447.76 206.546 L
456.94 162.726 L
466.12 216.562 L
475.3 247.566 L
484.48 252.938 L
493.66 254.18 L
502.84 251.696 L
512.02 239.898 L
521.2 192.002 L
530.38 167.745 L
539.56 227.85 L
548.74 249.947 L
557.92 253.541 L
567.1 253.986 L
576.28 251.289 L
585.46 235.302 L
594.64 178.371 L
603.82 176.906 L
613 233.725 L
622.18 251.095 L
631.36 253.655 L
640.54 253.894 L
649.72 250.165 L
658.9 230.947 L
668.08 168.395 L
677.26 185.904 L
686.44 238.781 L
695.62 252.276 L
704.8 254.008 L
713.98 253.551 L
723.16 249.196 L
732.34 227.171 L
741.52 162.535 L
750.7 190.396 L
759.88 241.632 L
769.06 252.617 L
778.24 253.926 L
787.42 253.576 L
796.6 248.224 L
805.78 226.483 L
814.96 161.913 L
824.14 188.254 L
833.32 241.485 L
842.5 252.297 L
851.68 253.451 L
860.86 253.585 L
870.04 247.451 L
879.22 229.061 L
888.4 166.923 L
897.58 180.483 L
906.76 237.991 L
915.94 251.52 L
925.12 252.626 L
934.3 252.615 L
943.48 246.134 L
952.66 231.091 L
961.84 174.354 L
971.02 174.575 L
980.2 232.94 L
989.38 250.362 L
998.56 251.251 L
1007.74 250.996 L
1016.92 243.944 L
1026.1 228.187 L
1035.28 172.18 L
1044.46 183.292 L
1053.64 233.786 L
1062.82 249.788 L
1072 250.009 L
S
GR
GS
[0.75 0 0 0.75 0 0.5] CT
0.494 0.184 0.557 RC
1 LJ
2.667 LW
N
163.18 222.125 M
172.36 170.067 L
181.54 200.378 L
190.72 241.255 L
199.9 251.972 L
209.08 254.064 L
218.26 251.5 L
227.44 242.854 L
236.62 202.205 L
245.8 166.852 L
254.98 220.416 L
264.16 247.973 L
273.34 253.963 L
282.52 254.473 L
291.7 251.212 L
300.88 235.229 L
310.06 181.081 L
319.24 177.231 L
328.42 233.719 L
337.6 251.551 L
346.78 254.579 L
355.96 254.121 L
365.14 250.224 L
374.32 226.403 L
383.5 164.64 L
392.68 189.97 L
401.86 240.511 L
411.04 252.972 L
420.22 255.205 L
429.4 254.42 L
438.58 251.358 L
447.76 225.085 L
456.94 156 L
466.12 190.517 L
475.3 243.912 L
484.48 254.799 L
493.66 256.962 L
502.84 256.755 L
512.02 255.727 L
521.2 245.636 L
530.38 192.045 L
539.56 146.421 L
548.74 228.979 L
557.92 251.611 L
567.1 256.106 L
576.28 257.719 L
585.46 255.574 L
594.64 251.981 L
603.82 223.539 L
613 141.242 L
622.18 194.767 L
631.36 247.011 L
640.54 257.208 L
649.72 256.505 L
658.9 256.682 L
668.08 257.846 L
677.26 254.491 L
686.44 260.34 L
695.62 242.049 L
704.8 208.612 L
713.98 210.464 L
723.16 237.724 L
732.34 240.163 L
741.52 240.157 L
750.7 229.203 L
759.88 213.372 L
769.06 211.944 L
778.24 230.33 L
787.42 238.487 L
796.6 241.05 L
805.78 244.891 L
814.96 237.06 L
824.14 217.525 L
833.32 205.954 L
842.5 223.145 L
851.68 238.863 L
860.86 244.25 L
870.04 244.56 L
879.22 235.75 L
888.4 216.983 L
897.58 206.324 L
906.76 223.408 L
915.94 238.983 L
925.12 244.129 L
934.3 244.654 L
943.48 236.212 L
952.66 216.807 L
961.84 205.4 L
971.02 222.339 L
980.2 238.981 L
989.38 245.092 L
998.56 244.988 L
1007.74 236.504 L
1016.92 216.807 L
1026.1 204.557 L
1035.28 221.71 L
1044.46 239.099 L
1053.64 245.348 L
1062.82 245.473 L
1072 237.139 L
S
GR
GS
[0.75 0 0 0.75 0 0.5] CT
0.467 0.675 0.188 RC
1 LJ
2.667 LW
N
163.18 223.202 M
172.36 171.017 L
181.54 199.195 L
190.72 241.292 L
199.9 251.304 L
209.08 253.539 L
218.26 252.451 L
227.44 243.793 L
236.62 205.065 L
245.8 165.192 L
254.98 217.616 L
264.16 246.625 L
273.34 252.837 L
282.52 253.879 L
291.7 251.796 L
300.88 238.193 L
310.06 187.231 L
319.24 172.008 L
328.42 231.332 L
337.6 250.782 L
346.78 253.875 L
355.96 253.747 L
365.14 249.967 L
374.32 229.842 L
383.5 173.186 L
392.68 185.252 L
401.86 238.806 L
411.04 251.162 L
420.22 253.71 L
429.4 253.187 L
438.58 248.198 L
447.76 221.375 L
456.94 161.953 L
466.12 196.424 L
475.3 241.904 L
484.48 251.418 L
493.66 253.801 L
502.84 253.157 L
512.02 246.639 L
521.2 214.087 L
530.38 153.573 L
539.56 202.306 L
548.74 243.515 L
557.92 251.992 L
567.1 253.435 L
576.28 252.46 L
585.46 244.679 L
594.64 208.222 L
603.82 148.617 L
613 205.151 L
622.18 244.711 L
631.36 252.248 L
640.54 252.72 L
649.72 250.485 L
658.9 240.361 L
668.08 197.737 L
677.26 150.903 L
686.44 212.952 L
695.62 246.624 L
704.8 252.321 L
713.98 251.897 L
723.16 247.558 L
732.34 233.161 L
741.52 180.824 L
750.7 163.128 L
759.88 225.716 L
769.06 248.624 L
778.24 251.633 L
787.42 250.757 L
796.6 245.663 L
805.78 226.488 L
814.96 164.968 L
824.14 174.388 L
833.32 233.678 L
842.5 248.202 L
851.68 250.701 L
860.86 249.516 L
870.04 244.571 L
879.22 220.032 L
888.4 153.648 L
897.58 179.447 L
906.76 236.647 L
915.94 247.983 L
925.12 249.314 L
934.3 247.226 L
943.48 240.601 L
952.66 209.168 L
961.84 147.321 L
971.02 188.052 L
980.2 238.339 L
989.38 248.613 L
998.56 248.79 L
1007.74 243.457 L
1016.92 231.683 L
1026.1 186.154 L
1035.28 149.79 L
1044.46 208.987 L
1053.64 242.886 L
1062.82 248.838 L
1072 249.054 L
S
GR
GS
[0.75 0 0 0.75 0 0.5] CT
0.302 0.745 0.933 RC
1 LJ
2.667 LW
N
163.18 223.72 M
172.36 171.78 L
181.54 199.22 L
190.72 241.36 L
199.9 252.14 L
209.08 253.61 L
218.26 252.14 L
227.44 243.32 L
236.62 205.1 L
245.8 166.88 L
254.98 219.8 L
264.16 247.73 L
273.34 253.12 L
282.52 254.1 L
291.7 251.65 L
300.88 236.95 L
310.06 185.01 L
319.24 176.19 L
328.42 233.03 L
337.6 250.18 L
346.78 253.12 L
355.96 254.59 L
365.14 250.67 L
374.32 229.6 L
383.5 169.82 L
392.68 188.93 L
401.86 240.38 L
411.04 252.63 L
420.22 254.59 L
429.4 254.59 L
438.58 249.69 L
447.76 224.21 L
456.94 160.51 L
466.12 197.26 L
475.3 244.3 L
484.48 253.12 L
493.66 254.59 L
502.84 255.08 L
512.02 250.18 L
521.2 224.7 L
530.38 155.61 L
539.56 194.81 L
548.74 244.3 L
557.92 253.61 L
567.1 255.08 L
576.28 255.08 L
585.46 252.63 L
594.64 235.97 L
603.82 164.92 L
613 171.29 L
622.18 239.4 L
631.36 252.63 L
640.54 254.59 L
649.72 255.57 L
658.9 255.57 L
668.08 252.14 L
677.26 224.21 L
686.44 134.05 L
695.62 194.81 L
704.8 247.24 L
713.98 254.59 L
723.16 255.57 L
732.34 255.57 L
741.52 256.55 L
750.7 257.04 L
759.88 257.53 L
769.06 255.08 L
778.24 249.2 L
787.42 252.63 L
796.6 254.1 L
805.78 252.63 L
814.96 249.2 L
824.14 243.81 L
833.32 238.42 L
842.5 231.07 L
851.68 225.68 L
860.86 224.7 L
870.04 230.09 L
879.22 235.48 L
888.4 236.46 L
897.58 234.01 L
906.76 229.11 L
915.94 224.7 L
925.12 226.17 L
934.3 231.07 L
943.48 235.48 L
952.66 235.97 L
961.84 233.03 L
971.02 227.15 L
980.2 223.72 L
989.38 226.17 L
998.56 231.07 L
1007.74 235.97 L
1016.92 235.97 L
1026.1 232.54 L
1035.28 226.17 L
1044.46 223.23 L
1053.64 226.66 L
1062.82 232.54 L
1072 235.48 L
S
GR
GS
[0.75 0 0 0.75 0 0.5] CT
1 GC
N
174 695 M
174 520 L
414 520 L
414 695 L
cp
f
GR
GS
[0.75 0 0 0.75 158.25 402.53438] CT
/Helvetica 21.6 F
GS
[1 0 0 1 0 0] CT
0 9 moveto 
1 -1 scale
(Approximation1) t 
GR
GR
GS
[0.75 0 0 0.75 0 0.5] CT
0 0.447 0.741 RC
1 LJ
2.667 LW
N
178 536.046 M
208 536.046 L
S
GR
GS
[0.75 0 0 0.75 158.25 423.97063] CT
/Helvetica 21.6 F
GS
[1 0 0 1 0 0] CT
0 9 moveto 
1 -1 scale
(Approximation2) t 
GR
GR
GS
[0.75 0 0 0.75 0 0.5] CT
0.851 0.325 0.098 RC
1 LJ
2.667 LW
N
178 564.628 M
208 564.628 L
S
GR
GS
[0.75 0 0 0.75 158.25 445.40688] CT
/Helvetica 21.6 F
GS
[1 0 0 1 0 0] CT
0 9 moveto 
1 -1 scale
(Approximation3) t 
GR
GR
GS
[0.75 0 0 0.75 0 0.5] CT
0.929 0.694 0.125 RC
1 LJ
2.667 LW
N
178 593.209 M
208 593.209 L
S
GR
GS
[0.75 0 0 0.75 158.25 466.84312] CT
/Helvetica 21.6 F
GS
[1 0 0 1 0 0] CT
0 9 moveto 
1 -1 scale
(Approximation4) t 
GR
GR
GS
[0.75 0 0 0.75 0 0.5] CT
0.494 0.184 0.557 RC
1 LJ
2.667 LW
N
178 621.791 M
208 621.791 L
S
GR
GS
[0.75 0 0 0.75 158.25 488.27937] CT
/Helvetica 21.6 F
GS
[1 0 0 1 0 0] CT
0 9 moveto 
1 -1 scale
(Approximation5) t 
GR
GR
GS
[0.75 0 0 0.75 0 0.5] CT
0.467 0.675 0.188 RC
1 LJ
2.667 LW
N
178 650.372 M
208 650.372 L
S
GR
GS
[0.75 0 0 0.75 158.25 509.71562] CT
/Helvetica 21.6 F
GS
[1 0 0 1 0 0] CT
0 9 moveto 
1 -1 scale
(Laser Prediction Set) t 
GR
GR
GS
[0.75 0 0 0.75 0 0.5] CT
0.302 0.745 0.933 RC
1 LJ
2.667 LW
N
178 678.954 M
208 678.954 L
S
GR
GS
[0.75 0 0 0.75 0 0.5] CT
0.149 GC
10.0 ML
0.667 LW
N
174 695 M
174 520 L
414 520 L
414 695 L
cp
S
GR
%%Trailer
%%Pages: 1
%%EOF
