%!PS-Adobe-3.0 EPSF-3.0
%%Creator: (MATLAB, The Mathworks, Inc. Version 9.1.0.441655 \(R2016b\). Operating System: Windows 8)
%%Title: (C:/Users/Eigenaar/WIT/Data Mining/data-mining/Session 2/plots/p22.eps)
%%CreationDate: 2017-11-22T14:51:09
%%Pages: (atend)
%%BoundingBox: 0 0 890 596
%%LanguageLevel: 3
%%EndComments
%%BeginProlog
%%BeginResource: procset (Apache XML Graphics Std ProcSet) 1.2 0
%%Version: 1.2 0
%%Copyright: (Copyright 2001-2003,2010 The Apache Software Foundation. License terms: http://www.apache.org/licenses/LICENSE-2.0)
/bd{bind def}bind def
/ld{load def}bd
/GR/grestore ld
/M/moveto ld
/LJ/setlinejoin ld
/C/curveto ld
/f/fill ld
/LW/setlinewidth ld
/GC/setgray ld
/t/show ld
/N/newpath ld
/CT/concat ld
/cp/closepath ld
/S/stroke ld
/L/lineto ld
/CC/setcmykcolor ld
/A/ashow ld
/GS/gsave ld
/RC/setrgbcolor ld
/RM/rmoveto ld
/ML/setmiterlimit ld
/re {4 2 roll M
1 index 0 rlineto
0 exch rlineto
neg 0 rlineto
cp } bd
/_ctm matrix def
/_tm matrix def
/BT { _ctm currentmatrix pop matrix _tm copy pop 0 0 moveto } bd
/ET { _ctm setmatrix } bd
/iTm { _ctm setmatrix _tm concat } bd
/Tm { _tm astore pop iTm 0 0 moveto } bd
/ux 0.0 def
/uy 0.0 def
/F {
  /Tp exch def
  /Tf exch def
  Tf findfont Tp scalefont setfont
  /cf Tf def  /cs Tp def
} bd
/ULS {currentpoint /uy exch def /ux exch def} bd
/ULE {
  /Tcx currentpoint pop def
  gsave
  newpath
  cf findfont cs scalefont dup
  /FontMatrix get 0 get /Ts exch def /FontInfo get dup
  /UnderlinePosition get Ts mul /To exch def
  /UnderlineThickness get Ts mul /Tt exch def
  ux uy To add moveto  Tcx uy To add lineto
  Tt setlinewidth stroke
  grestore
} bd
/OLE {
  /Tcx currentpoint pop def
  gsave
  newpath
  cf findfont cs scalefont dup
  /FontMatrix get 0 get /Ts exch def /FontInfo get dup
  /UnderlinePosition get Ts mul /To exch def
  /UnderlineThickness get Ts mul /Tt exch def
  ux uy To add cs add moveto Tcx uy To add cs add lineto
  Tt setlinewidth stroke
  grestore
} bd
/SOE {
  /Tcx currentpoint pop def
  gsave
  newpath
  cf findfont cs scalefont dup
  /FontMatrix get 0 get /Ts exch def /FontInfo get dup
  /UnderlinePosition get Ts mul /To exch def
  /UnderlineThickness get Ts mul /Tt exch def
  ux uy To add cs 10 mul 26 idiv add moveto Tcx uy To add cs 10 mul 26 idiv add lineto
  Tt setlinewidth stroke
  grestore
} bd
/QT {
/Y22 exch store
/X22 exch store
/Y21 exch store
/X21 exch store
currentpoint
/Y21 load 2 mul add 3 div exch
/X21 load 2 mul add 3 div exch
/X21 load 2 mul /X22 load add 3 div
/Y21 load 2 mul /Y22 load add 3 div
/X22 load /Y22 load curveto
} bd
/SSPD {
dup length /d exch dict def
{
/v exch def
/k exch def
currentpagedevice k known {
/cpdv currentpagedevice k get def
v cpdv ne {
/upd false def
/nullv v type /nulltype eq def
/nullcpdv cpdv type /nulltype eq def
nullv nullcpdv or
{
/upd true def
} {
/sametype v type cpdv type eq def
sametype {
v type /arraytype eq {
/vlen v length def
/cpdvlen cpdv length def
vlen cpdvlen eq {
0 1 vlen 1 sub {
/i exch def
/obj v i get def
/cpdobj cpdv i get def
obj cpdobj ne {
/upd true def
exit
} if
} for
} {
/upd true def
} ifelse
} {
v type /dicttype eq {
v {
/dv exch def
/dk exch def
/cpddv cpdv dk get def
dv cpddv ne {
/upd true def
exit
} if
} forall
} {
/upd true def
} ifelse
} ifelse
} if
} ifelse
upd true eq {
d k v put
} if
} if
} if
} forall
d length 0 gt {
d setpagedevice
} if
} bd
/RE { % /NewFontName [NewEncodingArray] /FontName RE -
  findfont dup length dict begin
  {
    1 index /FID ne
    {def} {pop pop} ifelse
  } forall
  /Encoding exch def
  /FontName 1 index def
  currentdict definefont pop
  end
} bind def
%%EndResource
%%BeginResource: procset (Apache XML Graphics EPS ProcSet) 1.0 0
%%Version: 1.0 0
%%Copyright: (Copyright 2002-2003 The Apache Software Foundation. License terms: http://www.apache.org/licenses/LICENSE-2.0)
/BeginEPSF { %def
/b4_Inc_state save def         % Save state for cleanup
/dict_count countdictstack def % Count objects on dict stack
/op_count count 1 sub def      % Count objects on operand stack
userdict begin                 % Push userdict on dict stack
/showpage { } def              % Redefine showpage, { } = null proc
0 setgray 0 setlinecap         % Prepare graphics state
1 setlinewidth 0 setlinejoin
10 setmiterlimit [ ] 0 setdash newpath
/languagelevel where           % If level not equal to 1 then
{pop languagelevel             % set strokeadjust and
1 ne                           % overprint to their defaults.
{false setstrokeadjust false setoverprint
} if
} if
} bd
/EndEPSF { %def
count op_count sub {pop} repeat            % Clean up stacks
countdictstack dict_count sub {end} repeat
b4_Inc_state restore
} bd
%%EndResource
%FOPBeginFontDict
%%IncludeResource: font Courier-Bold
%%IncludeResource: font Helvetica
%%IncludeResource: font Courier-BoldOblique
%%IncludeResource: font Courier-Oblique
%%IncludeResource: font Times-Roman
%%IncludeResource: font Helvetica-BoldOblique
%%IncludeResource: font Helvetica-Bold
%%IncludeResource: font Helvetica-Oblique
%%IncludeResource: font Times-BoldItalic
%%IncludeResource: font Courier
%%IncludeResource: font Times-Italic
%%IncludeResource: font Times-Bold
%%IncludeResource: font Symbol
%%IncludeResource: font ZapfDingbats
%FOPEndFontDict
%%BeginResource: encoding WinAnsiEncoding
/WinAnsiEncoding [
/.notdef /.notdef /.notdef /.notdef /.notdef
/.notdef /.notdef /.notdef /.notdef /.notdef
/.notdef /.notdef /.notdef /.notdef /.notdef
/.notdef /.notdef /.notdef /.notdef /.notdef
/.notdef /.notdef /.notdef /.notdef /.notdef
/.notdef /.notdef /.notdef /.notdef /.notdef
/.notdef /.notdef /space /exclam /quotedbl
/numbersign /dollar /percent /ampersand /quotesingle
/parenleft /parenright /asterisk /plus /comma
/hyphen /period /slash /zero /one
/two /three /four /five /six
/seven /eight /nine /colon /semicolon
/less /equal /greater /question /at
/A /B /C /D /E
/F /G /H /I /J
/K /L /M /N /O
/P /Q /R /S /T
/U /V /W /X /Y
/Z /bracketleft /backslash /bracketright /asciicircum
/underscore /quoteleft /a /b /c
/d /e /f /g /h
/i /j /k /l /m
/n /o /p /q /r
/s /t /u /v /w
/x /y /z /braceleft /bar
/braceright /asciitilde /bullet /Euro /bullet
/quotesinglbase /florin /quotedblbase /ellipsis /dagger
/daggerdbl /circumflex /perthousand /Scaron /guilsinglleft
/OE /bullet /Zcaron /bullet /bullet
/quoteleft /quoteright /quotedblleft /quotedblright /bullet
/endash /emdash /asciitilde /trademark /scaron
/guilsinglright /oe /bullet /zcaron /Ydieresis
/space /exclamdown /cent /sterling /currency
/yen /brokenbar /section /dieresis /copyright
/ordfeminine /guillemotleft /logicalnot /sfthyphen /registered
/macron /degree /plusminus /twosuperior /threesuperior
/acute /mu /paragraph /middot /cedilla
/onesuperior /ordmasculine /guillemotright /onequarter /onehalf
/threequarters /questiondown /Agrave /Aacute /Acircumflex
/Atilde /Adieresis /Aring /AE /Ccedilla
/Egrave /Eacute /Ecircumflex /Edieresis /Igrave
/Iacute /Icircumflex /Idieresis /Eth /Ntilde
/Ograve /Oacute /Ocircumflex /Otilde /Odieresis
/multiply /Oslash /Ugrave /Uacute /Ucircumflex
/Udieresis /Yacute /Thorn /germandbls /agrave
/aacute /acircumflex /atilde /adieresis /aring
/ae /ccedilla /egrave /eacute /ecircumflex
/edieresis /igrave /iacute /icircumflex /idieresis
/eth /ntilde /ograve /oacute /ocircumflex
/otilde /odieresis /divide /oslash /ugrave
/uacute /ucircumflex /udieresis /yacute /thorn
/ydieresis
] def
%%EndResource
%FOPBeginFontReencode
/Courier-Bold findfont
dup length dict begin
  {1 index /FID ne {def} {pop pop} ifelse} forall
  /Encoding WinAnsiEncoding def
  currentdict
end
/Courier-Bold exch definefont pop
/Helvetica findfont
dup length dict begin
  {1 index /FID ne {def} {pop pop} ifelse} forall
  /Encoding WinAnsiEncoding def
  currentdict
end
/Helvetica exch definefont pop
/Courier-BoldOblique findfont
dup length dict begin
  {1 index /FID ne {def} {pop pop} ifelse} forall
  /Encoding WinAnsiEncoding def
  currentdict
end
/Courier-BoldOblique exch definefont pop
/Courier-Oblique findfont
dup length dict begin
  {1 index /FID ne {def} {pop pop} ifelse} forall
  /Encoding WinAnsiEncoding def
  currentdict
end
/Courier-Oblique exch definefont pop
/Times-Roman findfont
dup length dict begin
  {1 index /FID ne {def} {pop pop} ifelse} forall
  /Encoding WinAnsiEncoding def
  currentdict
end
/Times-Roman exch definefont pop
/Helvetica-BoldOblique findfont
dup length dict begin
  {1 index /FID ne {def} {pop pop} ifelse} forall
  /Encoding WinAnsiEncoding def
  currentdict
end
/Helvetica-BoldOblique exch definefont pop
/Helvetica-Bold findfont
dup length dict begin
  {1 index /FID ne {def} {pop pop} ifelse} forall
  /Encoding WinAnsiEncoding def
  currentdict
end
/Helvetica-Bold exch definefont pop
/Helvetica-Oblique findfont
dup length dict begin
  {1 index /FID ne {def} {pop pop} ifelse} forall
  /Encoding WinAnsiEncoding def
  currentdict
end
/Helvetica-Oblique exch definefont pop
/Times-BoldItalic findfont
dup length dict begin
  {1 index /FID ne {def} {pop pop} ifelse} forall
  /Encoding WinAnsiEncoding def
  currentdict
end
/Times-BoldItalic exch definefont pop
/Courier findfont
dup length dict begin
  {1 index /FID ne {def} {pop pop} ifelse} forall
  /Encoding WinAnsiEncoding def
  currentdict
end
/Courier exch definefont pop
/Times-Italic findfont
dup length dict begin
  {1 index /FID ne {def} {pop pop} ifelse} forall
  /Encoding WinAnsiEncoding def
  currentdict
end
/Times-Italic exch definefont pop
/Times-Bold findfont
dup length dict begin
  {1 index /FID ne {def} {pop pop} ifelse} forall
  /Encoding WinAnsiEncoding def
  currentdict
end
/Times-Bold exch definefont pop
%FOPEndFontReencode
%%EndProlog
%%Page: 1 1
%%PageBoundingBox: 0 0 890 596
%%BeginPageSetup
[1 0 0 -1 0 596] CT
%%EndPageSetup
GS
[0.75 0 0 0.75 0 -0.25] CT
1 GC
N
0 0 1186 795 re
f
GR
GS
[0.75 0 0 0.75 0 -0.25] CT
1 GC
N
0 0 1186 795 re
f
GR
GS
[0.75 0 0 0.75 0 -0.25] CT
1 GC
N
154 708 M
1073 708 L
1073 60 L
154 60 L
cp
f
GR
GS
[0.75 0 0 0.75 0 -0.25] CT
0.149 GC
2 setlinecap
1 LJ
0.667 LW
N
154 708 M
1073 708 L
S
GR
GS
[0.75 0 0 0.75 0 -0.25] CT
0.149 GC
2 setlinecap
1 LJ
0.667 LW
N
154 60 M
1073 60 L
S
GR
GS
[0.75 0 0 0.75 0 -0.25] CT
0.149 GC
2 setlinecap
1 LJ
0.667 LW
N
154 708 M
154 698.81 L
S
GR
GS
[0.75 0 0 0.75 0 -0.25] CT
0.149 GC
2 setlinecap
1 LJ
0.667 LW
N
245.9 708 M
245.9 698.81 L
S
GR
GS
[0.75 0 0 0.75 0 -0.25] CT
0.149 GC
2 setlinecap
1 LJ
0.667 LW
N
337.8 708 M
337.8 698.81 L
S
GR
GS
[0.75 0 0 0.75 0 -0.25] CT
0.149 GC
2 setlinecap
1 LJ
0.667 LW
N
429.7 708 M
429.7 698.81 L
S
GR
GS
[0.75 0 0 0.75 0 -0.25] CT
0.149 GC
2 setlinecap
1 LJ
0.667 LW
N
521.6 708 M
521.6 698.81 L
S
GR
GS
[0.75 0 0 0.75 0 -0.25] CT
0.149 GC
2 setlinecap
1 LJ
0.667 LW
N
613.5 708 M
613.5 698.81 L
S
GR
GS
[0.75 0 0 0.75 0 -0.25] CT
0.149 GC
2 setlinecap
1 LJ
0.667 LW
N
705.4 708 M
705.4 698.81 L
S
GR
GS
[0.75 0 0 0.75 0 -0.25] CT
0.149 GC
2 setlinecap
1 LJ
0.667 LW
N
797.3 708 M
797.3 698.81 L
S
GR
GS
[0.75 0 0 0.75 0 -0.25] CT
0.149 GC
2 setlinecap
1 LJ
0.667 LW
N
889.2 708 M
889.2 698.81 L
S
GR
GS
[0.75 0 0 0.75 0 -0.25] CT
0.149 GC
2 setlinecap
1 LJ
0.667 LW
N
981.1 708 M
981.1 698.81 L
S
GR
GS
[0.75 0 0 0.75 0 -0.25] CT
0.149 GC
2 setlinecap
1 LJ
0.667 LW
N
1073 708 M
1073 698.81 L
S
GR
GS
[0.75 0 0 0.75 0 -0.25] CT
0.149 GC
2 setlinecap
1 LJ
0.667 LW
N
154 60 M
154 69.19 L
S
GR
GS
[0.75 0 0 0.75 0 -0.25] CT
0.149 GC
2 setlinecap
1 LJ
0.667 LW
N
245.9 60 M
245.9 69.19 L
S
GR
GS
[0.75 0 0 0.75 0 -0.25] CT
0.149 GC
2 setlinecap
1 LJ
0.667 LW
N
337.8 60 M
337.8 69.19 L
S
GR
GS
[0.75 0 0 0.75 0 -0.25] CT
0.149 GC
2 setlinecap
1 LJ
0.667 LW
N
429.7 60 M
429.7 69.19 L
S
GR
GS
[0.75 0 0 0.75 0 -0.25] CT
0.149 GC
2 setlinecap
1 LJ
0.667 LW
N
521.6 60 M
521.6 69.19 L
S
GR
GS
[0.75 0 0 0.75 0 -0.25] CT
0.149 GC
2 setlinecap
1 LJ
0.667 LW
N
613.5 60 M
613.5 69.19 L
S
GR
GS
[0.75 0 0 0.75 0 -0.25] CT
0.149 GC
2 setlinecap
1 LJ
0.667 LW
N
705.4 60 M
705.4 69.19 L
S
GR
GS
[0.75 0 0 0.75 0 -0.25] CT
0.149 GC
2 setlinecap
1 LJ
0.667 LW
N
797.3 60 M
797.3 69.19 L
S
GR
GS
[0.75 0 0 0.75 0 -0.25] CT
0.149 GC
2 setlinecap
1 LJ
0.667 LW
N
889.2 60 M
889.2 69.19 L
S
GR
GS
[0.75 0 0 0.75 0 -0.25] CT
0.149 GC
2 setlinecap
1 LJ
0.667 LW
N
981.1 60 M
981.1 69.19 L
S
GR
GS
[0.75 0 0 0.75 0 -0.25] CT
0.149 GC
2 setlinecap
1 LJ
0.667 LW
N
1073 60 M
1073 69.19 L
S
GR
GS
[0.75 0 0 0.75 115.5 536.35001] CT
0.149 GC
/Helvetica 24 F
GS
[1 0 0 1 0 0] CT
-7 25 moveto 
1 -1 scale
(0) t 
GR
GR
GS
[0.75 0 0 0.75 184.425 536.35001] CT
0.149 GC
/Helvetica 24 F
GS
[1 0 0 1 0 0] CT
-13.5 25 moveto 
1 -1 scale
(10) t 
GR
GR
GS
[0.75 0 0 0.75 253.34999 536.35001] CT
0.149 GC
/Helvetica 24 F
GS
[1 0 0 1 0 0] CT
-13.5 25 moveto 
1 -1 scale
(20) t 
GR
GR
GS
[0.75 0 0 0.75 322.27501 536.35001] CT
0.149 GC
/Helvetica 24 F
GS
[1 0 0 1 0 0] CT
-13.5 25 moveto 
1 -1 scale
(30) t 
GR
GR
GS
[0.75 0 0 0.75 391.19998 536.35001] CT
0.149 GC
/Helvetica 24 F
GS
[1 0 0 1 0 0] CT
-13.5 25 moveto 
1 -1 scale
(40) t 
GR
GR
GS
[0.75 0 0 0.75 460.125 536.35001] CT
0.149 GC
/Helvetica 24 F
GS
[1 0 0 1 0 0] CT
-13.5 25 moveto 
1 -1 scale
(50) t 
GR
GR
GS
[0.75 0 0 0.75 529.05002 536.35001] CT
0.149 GC
/Helvetica 24 F
GS
[1 0 0 1 0 0] CT
-13.5 25 moveto 
1 -1 scale
(60) t 
GR
GR
GS
[0.75 0 0 0.75 597.97499 536.35001] CT
0.149 GC
/Helvetica 24 F
GS
[1 0 0 1 0 0] CT
-13.5 25 moveto 
1 -1 scale
(70) t 
GR
GR
GS
[0.75 0 0 0.75 666.90001 536.35001] CT
0.149 GC
/Helvetica 24 F
GS
[1 0 0 1 0 0] CT
-13.5 25 moveto 
1 -1 scale
(80) t 
GR
GR
GS
[0.75 0 0 0.75 735.82498 536.35001] CT
0.149 GC
/Helvetica 24 F
GS
[1 0 0 1 0 0] CT
-13.5 25 moveto 
1 -1 scale
(90) t 
GR
GR
GS
[0.75 0 0 0.75 804.75 536.35001] CT
0.149 GC
/Helvetica 24 F
GS
[1 0 0 1 0 0] CT
-20.5 25 moveto 
1 -1 scale
(100) t 
GR
GR
GS
[0.75 0 0 0.75 460.12532 560.59999] CT
0.149 GC
/Helvetica 26.4 F
GS
[1 0 0 1 0 0] CT
-46.5 27 moveto 
1 -1 scale
(Time [s]) t 
GR
GR
GS
[0.75 0 0 0.75 0 -0.25] CT
0.149 GC
2 setlinecap
1 LJ
0.667 LW
N
154 708 M
154 60 L
S
GR
GS
[0.75 0 0 0.75 0 -0.25] CT
0.149 GC
2 setlinecap
1 LJ
0.667 LW
N
1073 708 M
1073 60 L
S
GR
GS
[0.75 0 0 0.75 0 -0.25] CT
0.149 GC
2 setlinecap
1 LJ
0.667 LW
N
154 708 M
163.19 708 L
S
GR
GS
[0.75 0 0 0.75 0 -0.25] CT
0.149 GC
2 setlinecap
1 LJ
0.667 LW
N
154 627 M
163.19 627 L
S
GR
GS
[0.75 0 0 0.75 0 -0.25] CT
0.149 GC
2 setlinecap
1 LJ
0.667 LW
N
154 546 M
163.19 546 L
S
GR
GS
[0.75 0 0 0.75 0 -0.25] CT
0.149 GC
2 setlinecap
1 LJ
0.667 LW
N
154 465 M
163.19 465 L
S
GR
GS
[0.75 0 0 0.75 0 -0.25] CT
0.149 GC
2 setlinecap
1 LJ
0.667 LW
N
154 384 M
163.19 384 L
S
GR
GS
[0.75 0 0 0.75 0 -0.25] CT
0.149 GC
2 setlinecap
1 LJ
0.667 LW
N
154 303 M
163.19 303 L
S
GR
GS
[0.75 0 0 0.75 0 -0.25] CT
0.149 GC
2 setlinecap
1 LJ
0.667 LW
N
154 222 M
163.19 222 L
S
GR
GS
[0.75 0 0 0.75 0 -0.25] CT
0.149 GC
2 setlinecap
1 LJ
0.667 LW
N
154 141 M
163.19 141 L
S
GR
GS
[0.75 0 0 0.75 0 -0.25] CT
0.149 GC
2 setlinecap
1 LJ
0.667 LW
N
154 60 M
163.19 60 L
S
GR
GS
[0.75 0 0 0.75 0 -0.25] CT
0.149 GC
2 setlinecap
1 LJ
0.667 LW
N
1073 708 M
1063.81 708 L
S
GR
GS
[0.75 0 0 0.75 0 -0.25] CT
0.149 GC
2 setlinecap
1 LJ
0.667 LW
N
1073 627 M
1063.81 627 L
S
GR
GS
[0.75 0 0 0.75 0 -0.25] CT
0.149 GC
2 setlinecap
1 LJ
0.667 LW
N
1073 546 M
1063.81 546 L
S
GR
GS
[0.75 0 0 0.75 0 -0.25] CT
0.149 GC
2 setlinecap
1 LJ
0.667 LW
N
1073 465 M
1063.81 465 L
S
GR
GS
[0.75 0 0 0.75 0 -0.25] CT
0.149 GC
2 setlinecap
1 LJ
0.667 LW
N
1073 384 M
1063.81 384 L
S
GR
GS
[0.75 0 0 0.75 0 -0.25] CT
0.149 GC
2 setlinecap
1 LJ
0.667 LW
N
1073 303 M
1063.81 303 L
S
GR
GS
[0.75 0 0 0.75 0 -0.25] CT
0.149 GC
2 setlinecap
1 LJ
0.667 LW
N
1073 222 M
1063.81 222 L
S
GR
GS
[0.75 0 0 0.75 0 -0.25] CT
0.149 GC
2 setlinecap
1 LJ
0.667 LW
N
1073 141 M
1063.81 141 L
S
GR
GS
[0.75 0 0 0.75 0 -0.25] CT
0.149 GC
2 setlinecap
1 LJ
0.667 LW
N
1073 60 M
1063.81 60 L
S
GR
GS
[0.75 0 0 0.75 109.90001 530.75] CT
0.149 GC
/Helvetica 24 F
GS
[1 0 0 1 0 0] CT
-49 9.5 moveto 
1 -1 scale
(-400) t 
GR
GR
GS
[0.75 0 0 0.75 109.90001 470] CT
0.149 GC
/Helvetica 24 F
GS
[1 0 0 1 0 0] CT
-49 9.5 moveto 
1 -1 scale
(-300) t 
GR
GR
GS
[0.75 0 0 0.75 109.90001 409.25] CT
0.149 GC
/Helvetica 24 F
GS
[1 0 0 1 0 0] CT
-49 9.5 moveto 
1 -1 scale
(-200) t 
GR
GR
GS
[0.75 0 0 0.75 109.90001 348.5] CT
0.149 GC
/Helvetica 24 F
GS
[1 0 0 1 0 0] CT
-49 9.5 moveto 
1 -1 scale
(-100) t 
GR
GR
GS
[0.75 0 0 0.75 109.90001 287.75] CT
0.149 GC
/Helvetica 24 F
GS
[1 0 0 1 0 0] CT
-14 9.5 moveto 
1 -1 scale
(0) t 
GR
GR
GS
[0.75 0 0 0.75 109.90001 227] CT
0.149 GC
/Helvetica 24 F
GS
[1 0 0 1 0 0] CT
-41 9.5 moveto 
1 -1 scale
(100) t 
GR
GR
GS
[0.75 0 0 0.75 109.90001 166.25] CT
0.149 GC
/Helvetica 24 F
GS
[1 0 0 1 0 0] CT
-41 9.5 moveto 
1 -1 scale
(200) t 
GR
GR
GS
[0.75 0 0 0.75 109.90001 105.5] CT
0.149 GC
/Helvetica 24 F
GS
[1 0 0 1 0 0] CT
-41 9.5 moveto 
1 -1 scale
(300) t 
GR
GR
GS
[0.75 0 0 0.75 109.90001 44.75] CT
0.149 GC
/Helvetica 24 F
GS
[1 0 0 1 0 0] CT
-41 9.5 moveto 
1 -1 scale
(400) t 
GR
GR
GS
[0.75 0 0 0.75 0 -0.25] CT
0 0.447 0.741 RC
1 LJ
2.667 LW
N
163.19 325.619 M
172.38 241.97 L
181.57 278.527 L
190.76 345.65 L
199.95 386.278 L
209.14 390.147 L
218.33 380.674 L
227.52 358.093 L
236.71 288.276 L
245.9 211.337 L
255.09 321.302 L
264.28 369.108 L
273.47 370.455 L
282.66 383.678 L
291.85 384.479 L
301.04 334.214 L
310.23 223.861 L
319.42 260.25 L
328.61 344.454 L
337.8 370.087 L
346.99 349.555 L
356.18 332.453 L
365.37 333.932 L
374.56 320.689 L
383.75 322.248 L
392.94 291.977 L
402.13 312.815 L
411.32 372.266 L
420.51 366.17 L
429.7 363.582 L
438.89 332.45 L
448.08 314.658 L
457.27 318.898 L
466.46 349.224 L
475.65 336.447 L
484.84 333.014 L
494.03 385.294 L
503.22 394.596 L
512.41 352.269 L
521.6 286.687 L
530.79 287.927 L
539.98 365.373 L
549.17 363.139 L
558.36 381.409 L
567.55 383.637 L
576.74 369.996 L
585.93 316.208 L
595.12 262.384 L
604.31 303.08 L
613.5 379.094 L
622.69 426.985 L
631.88 371.121 L
641.07 336.649 L
650.26 328.748 L
659.45 244.98 L
668.64 254.939 L
677.83 342.685 L
687.02 384.838 L
696.21 416.054 L
705.4 376.424 L
714.59 289.41 L
723.78 277.406 L
732.97 277.195 L
742.16 270.936 L
751.35 338.4 L
760.54 395.74 L
769.73 415.228 L
778.92 392.056 L
788.11 301.785 L
797.3 282.626 L
806.49 317.98 L
815.68 295.513 L
824.87 352.65 L
834.06 393.709 L
843.25 429.536 L
852.44 393.681 L
861.63 291.989 L
870.82 243.576 L
880.01 310.416 L
889.2 348.942 L
898.39 374.266 L
907.58 372.393 L
916.77 354.079 L
925.96 341.711 L
935.15 281.07 L
944.34 243.739 L
953.53 317.758 L
962.72 392.3 L
971.91 396.045 L
981.1 357.78 L
990.29 306.689 L
999.48 310.666 L
1008.67 353.697 L
1017.86 375.681 L
1027.05 338.557 L
1036.24 348.962 L
1045.43 371.953 L
1054.62 371.573 L
1063.81 343.347 L
1073 319.715 L
S
GR
GS
[0.75 0 0 0.75 0 -0.25] CT
0.851 0.325 0.098 RC
1 LJ
2.667 LW
N
163.19 324.27 M
172.38 234.961 L
181.57 283.219 L
190.76 354.576 L
199.95 359.335 L
209.14 366.86 L
218.33 354.739 L
227.52 336.267 L
236.71 280.987 L
245.9 228.77 L
255.09 326.129 L
264.28 345.707 L
273.47 363.343 L
282.66 348.486 L
291.85 340.983 L
301.04 311.935 L
310.23 226.506 L
319.42 287.304 L
328.61 335.021 L
337.8 337.723 L
346.99 345.739 L
356.18 348.768 L
365.37 289.114 L
374.56 223.612 L
383.75 251.25 L
392.94 304.17 L
402.13 262.942 L
411.32 317.165 L
420.51 395.253 L
429.7 256.986 L
438.89 262.988 L
448.08 307.684 L
457.27 341.831 L
466.46 327.969 L
475.65 261.841 L
484.84 316.075 L
494.03 235.7 L
503.22 329.369 L
512.41 320.389 L
521.6 327.224 L
530.79 382.691 L
539.98 293.604 L
549.17 140.473 L
558.36 278.747 L
567.55 363.635 L
576.74 359.183 L
585.93 345.744 L
595.12 450.361 L
604.31 500.836 L
613.5 465.649 L
622.69 575.364 L
631.88 515.353 L
641.07 319.494 L
650.26 220.47 L
659.45 199.048 L
668.64 409.925 L
677.83 343.687 L
687.02 536.252 L
696.21 494.362 L
705.4 390.047 L
714.59 324.633 L
723.78 422.982 L
732.97 490.412 L
742.16 263.399 L
751.35 310.634 L
760.54 374.591 L
769.73 333.208 L
778.92 357.973 L
788.11 437.075 L
797.3 363.977 L
806.49 277.541 L
815.68 412.79 L
824.87 490.278 L
834.06 309.247 L
843.25 464.014 L
852.44 490.762 L
861.63 445.909 L
870.82 220.687 L
880.01 453.651 L
889.2 544.592 L
898.39 215.782 L
907.58 411.837 L
916.77 469.811 L
925.96 422.331 L
935.15 371.664 L
944.34 406.053 L
953.53 433.941 L
962.72 232.705 L
971.91 393.859 L
981.1 467.292 L
990.29 363.684 L
999.48 438.1 L
1008.67 464.203 L
1017.86 444.158 L
1027.05 474.763 L
1036.24 497.515 L
1045.43 495.087 L
1054.62 235.893 L
1063.81 249.245 L
1073 381.16 L
S
GR
GS
[0.75 0 0 0.75 0 -0.25] CT
0.929 0.694 0.125 RC
1 LJ
2.667 LW
N
163.19 324.163 M
172.38 237.951 L
181.57 287.217 L
190.76 355.401 L
199.95 372.38 L
209.14 375.301 L
218.33 372.663 L
227.52 356.571 L
236.71 293.314 L
245.9 233.085 L
255.09 320.78 L
264.28 363.989 L
273.47 372.916 L
282.66 376.369 L
291.85 370.286 L
301.04 342.305 L
310.23 255.776 L
319.42 256.321 L
328.61 343.594 L
337.8 369.179 L
346.99 376.581 L
356.18 375.071 L
365.37 366.766 L
374.56 325.876 L
383.75 233.976 L
392.94 278.418 L
402.13 352.705 L
411.32 370.414 L
420.51 373.638 L
429.7 373.846 L
438.89 360.748 L
448.08 309.374 L
457.27 216.355 L
466.46 304.836 L
475.65 364.643 L
484.84 379.354 L
494.03 373.86 L
503.22 373.077 L
512.41 360.445 L
521.6 290.124 L
530.79 215.247 L
539.98 313.385 L
549.17 367.836 L
558.36 368.381 L
567.55 379.487 L
576.74 371.399 L
585.93 366.072 L
595.12 293.388 L
604.31 200.352 L
613.5 322.414 L
622.69 365.925 L
631.88 383.583 L
641.07 371.998 L
650.26 375.589 L
659.45 373.721 L
668.64 352.577 L
677.83 211.223 L
687.02 251.197 L
696.21 337.687 L
705.4 362.946 L
714.59 361.045 L
723.78 350.288 L
732.97 338.548 L
742.16 307.657 L
751.35 226.761 L
760.54 289.419 L
769.73 401.625 L
778.92 345.347 L
788.11 352.48 L
797.3 375.63 L
806.49 282.843 L
815.68 263.774 L
824.87 214.805 L
834.06 292.875 L
843.25 354.796 L
852.44 327.559 L
861.63 341.237 L
870.82 342.186 L
880.01 245.623 L
889.2 319.698 L
898.39 289.153 L
907.58 315.195 L
916.77 298.225 L
925.96 225.059 L
935.15 304.927 L
944.34 331.716 L
953.53 99.043 L
962.72 454.772 L
971.91 463.617 L
981.1 408.986 L
990.29 421.429 L
999.48 669.099 L
1008.67 418.885 L
1017.86 531.878 L
1027.05 272.978 L
1036.24 181.051 L
1045.43 218.116 L
1054.62 172.127 L
1063.81 135.915 L
1073 162.66 L
S
GR
GS
[0.75 0 0 0.75 0 -0.25] CT
0.494 0.184 0.557 RC
1 LJ
2.667 LW
N
163.19 330.034 M
172.38 254.324 L
181.57 288.116 L
190.76 361.665 L
199.95 373.656 L
209.14 377.522 L
218.33 369.439 L
227.52 358.392 L
236.71 311.597 L
245.9 259.532 L
255.09 328.018 L
264.28 366.039 L
273.47 375.123 L
282.66 375.889 L
291.85 364.875 L
301.04 346.528 L
310.23 303.079 L
319.42 304.782 L
328.61 359.031 L
337.8 371.375 L
346.99 379.111 L
356.18 372.751 L
365.37 359.536 L
374.56 329.959 L
383.75 321.051 L
392.94 353.762 L
402.13 366.869 L
411.32 377.139 L
420.51 380.877 L
429.7 362.725 L
438.89 342.764 L
448.08 327.4 L
457.27 350.046 L
466.46 368.78 L
475.65 375.3 L
484.84 378.198 L
494.03 363.263 L
503.22 342.43 L
512.41 337.557 L
521.6 349 L
530.79 367.242 L
539.98 370.169 L
549.17 374.055 L
558.36 362.436 L
567.55 339.909 L
576.74 338.94 L
585.93 349.962 L
595.12 364.069 L
604.31 365.005 L
613.5 367.742 L
622.69 360.045 L
631.88 337.772 L
641.07 339.35 L
650.26 351.334 L
659.45 360.45 L
668.64 364.722 L
677.83 364.585 L
687.02 358.182 L
696.21 340.154 L
705.4 339.958 L
714.59 353.186 L
723.78 360.359 L
732.97 364.395 L
742.16 363.582 L
751.35 357.054 L
760.54 343.829 L
769.73 342.081 L
778.92 354.478 L
788.11 361.274 L
797.3 364.682 L
806.49 363.669 L
815.68 356.954 L
824.87 346.547 L
834.06 345.011 L
843.25 355.383 L
852.44 362.116 L
861.63 363.945 L
870.82 363.354 L
880.01 356.69 L
889.2 348.318 L
898.39 347.621 L
907.58 355.62 L
916.77 361.927 L
925.96 363.089 L
935.15 362.295 L
944.34 356.383 L
953.53 349.159 L
962.72 349.55 L
971.91 355.593 L
981.1 361.007 L
990.29 362.063 L
999.48 360.984 L
1008.67 355.943 L
1017.86 350.02 L
1027.05 350.777 L
1036.24 355.733 L
1045.43 360.086 L
1054.62 361.38 L
1063.81 359.912 L
1073 355.725 L
S
GR
GS
[0.75 0 0 0.75 0 -0.25] CT
0.467 0.675 0.188 RC
1 LJ
2.667 LW
N
163.19 324.118 M
172.38 242.095 L
181.57 282.84 L
190.76 357.763 L
199.95 387.234 L
209.14 397.498 L
218.33 387.803 L
227.52 356.155 L
236.71 299.14 L
245.9 234 L
255.09 318.67 L
264.28 365.133 L
273.47 394.954 L
282.66 389.355 L
291.85 388.511 L
301.04 363.186 L
310.23 281.489 L
319.42 233.729 L
328.61 329.927 L
337.8 380.497 L
346.99 408.348 L
356.18 394.907 L
365.37 377.384 L
374.56 370.544 L
383.75 316.422 L
392.94 226.838 L
402.13 307.029 L
411.32 373.725 L
420.51 397.674 L
429.7 402.133 L
438.89 366.818 L
448.08 374.42 L
457.27 284.643 L
466.46 224.826 L
475.65 315.169 L
484.84 396.41 L
494.03 412.226 L
503.22 396.582 L
512.41 349.623 L
521.6 368.677 L
530.79 316.984 L
539.98 247.602 L
549.17 313.457 L
558.36 386.154 L
567.55 409.102 L
576.74 408.267 L
585.93 317.773 L
595.12 344.442 L
604.31 300.601 L
613.5 246.49 L
622.69 344.676 L
631.88 394.218 L
641.07 403.214 L
650.26 417.965 L
659.45 365.957 L
668.64 330.898 L
677.83 211.93 L
687.02 327.33 L
696.21 361.084 L
705.4 382.239 L
714.59 421.826 L
723.78 386.539 L
732.97 416.895 L
742.16 384.316 L
751.35 322.395 L
760.54 297.887 L
769.73 342.73 L
778.92 380.594 L
788.11 445.373 L
797.3 421.903 L
806.49 371.044 L
815.68 275.628 L
824.87 293.661 L
834.06 363.448 L
843.25 423.811 L
852.44 459.654 L
861.63 407.579 L
870.82 428.927 L
880.01 508.758 L
889.2 495.335 L
898.39 341.319 L
907.58 184.157 L
916.77 357.667 L
925.96 444.9 L
935.15 448.754 L
944.34 426.245 L
953.53 301.347 L
962.72 347.649 L
971.91 461.845 L
981.1 563.657 L
990.29 503.226 L
999.48 266.106 L
1008.67 319.576 L
1017.86 556.291 L
1027.05 630.861 L
1036.24 489.314 L
1045.43 284.099 L
1054.62 267.701 L
1063.81 524.62 L
1073 640.344 L
S
GR
GS
[0.75 0 0 0.75 0 -0.25] CT
0.302 0.745 0.933 RC
1 LJ
2.667 LW
N
163.19 325.68 M
172.38 239.82 L
181.57 285.18 L
190.76 354.84 L
199.95 372.66 L
209.14 375.09 L
218.33 372.66 L
227.52 358.08 L
236.71 294.9 L
245.9 231.72 L
255.09 319.2 L
264.28 365.37 L
273.47 374.28 L
282.66 375.9 L
291.85 371.85 L
301.04 347.55 L
310.23 261.69 L
319.42 247.11 L
328.61 341.07 L
337.8 369.42 L
346.99 374.28 L
356.18 376.71 L
365.37 370.23 L
374.56 335.4 L
383.75 236.58 L
392.94 268.17 L
402.13 353.22 L
411.32 373.47 L
420.51 376.71 L
429.7 376.71 L
438.89 368.61 L
448.08 326.49 L
457.27 221.19 L
466.46 281.94 L
475.65 359.7 L
484.84 374.28 L
494.03 376.71 L
503.22 377.52 L
512.41 369.42 L
521.6 327.3 L
530.79 213.09 L
539.98 277.89 L
549.17 359.7 L
558.36 375.09 L
567.55 377.52 L
576.74 377.52 L
585.93 373.47 L
595.12 345.93 L
604.31 228.48 L
613.5 239.01 L
622.69 351.6 L
631.88 373.47 L
641.07 376.71 L
650.26 378.33 L
659.45 378.33 L
668.64 372.66 L
677.83 326.49 L
687.02 177.45 L
696.21 277.89 L
705.4 364.56 L
714.59 376.71 L
723.78 378.33 L
732.97 378.33 L
742.16 379.95 L
751.35 380.76 L
760.54 381.57 L
769.73 377.52 L
778.92 367.8 L
788.11 373.47 L
797.3 375.9 L
806.49 373.47 L
815.68 367.8 L
824.87 358.89 L
834.06 349.98 L
843.25 337.83 L
852.44 328.92 L
861.63 327.3 L
870.82 336.21 L
880.01 345.12 L
889.2 346.74 L
898.39 342.69 L
907.58 334.59 L
916.77 327.3 L
925.96 329.73 L
935.15 337.83 L
944.34 345.12 L
953.53 345.93 L
962.72 341.07 L
971.91 331.35 L
981.1 325.68 L
990.29 329.73 L
999.48 337.83 L
1008.67 345.93 L
1017.86 345.93 L
1027.05 340.26 L
1036.24 329.73 L
1045.43 324.87 L
1054.62 330.54 L
1063.81 340.26 L
1073 345.12 L
S
GR
GS
[0.75 0 0 0.75 0 -0.25] CT
1 GC
N
190 670 M
190 466 L
453 466 L
453 670 L
cp
f
GR
GS
[0.75 0 0 0.75 178.83553 363.27865] CT
/Helvetica 21.6 F
GS
[1 0 0 1 0 0] CT
0 9 moveto 
1 -1 scale
(Approximation1) t 
GR
GR
GS
[0.75 0 0 0.75 0 -0.25] CT
0 0.447 0.741 RC
1 LJ
2.667 LW
N
205.426 484.705 M
235.445 484.705 L
S
GR
GS
[0.75 0 0 0.75 178.83553 388.26717] CT
/Helvetica 21.6 F
GS
[1 0 0 1 0 0] CT
0 9 moveto 
1 -1 scale
(Approximation2) t 
GR
GR
GS
[0.75 0 0 0.75 0 -0.25] CT
0.851 0.325 0.098 RC
1 LJ
2.667 LW
N
205.426 518.023 M
235.445 518.023 L
S
GR
GS
[0.75 0 0 0.75 178.83553 413.25575] CT
/Helvetica 21.6 F
GS
[1 0 0 1 0 0] CT
0 9 moveto 
1 -1 scale
(Approximation3) t 
GR
GR
GS
[0.75 0 0 0.75 0 -0.25] CT
0.929 0.694 0.125 RC
1 LJ
2.667 LW
N
205.426 551.341 M
235.445 551.341 L
S
GR
GS
[0.75 0 0 0.75 178.83553 438.24425] CT
/Helvetica 21.6 F
GS
[1 0 0 1 0 0] CT
0 9 moveto 
1 -1 scale
(Approximation4) t 
GR
GR
GS
[0.75 0 0 0.75 0 -0.25] CT
0.494 0.184 0.557 RC
1 LJ
2.667 LW
N
205.426 584.659 M
235.445 584.659 L
S
GR
GS
[0.75 0 0 0.75 178.83553 463.23279] CT
/Helvetica 21.6 F
GS
[1 0 0 1 0 0] CT
0 9 moveto 
1 -1 scale
(Approximation5) t 
GR
GR
GS
[0.75 0 0 0.75 0 -0.25] CT
0.467 0.675 0.188 RC
1 LJ
2.667 LW
N
205.426 617.977 M
235.445 617.977 L
S
GR
GS
[0.75 0 0 0.75 178.83553 488.22133] CT
/Helvetica 21.6 F
GS
[1 0 0 1 0 0] CT
0 9 moveto 
1 -1 scale
(Laser Prediction Set) t 
GR
GR
GS
[0.75 0 0 0.75 0 -0.25] CT
0.302 0.745 0.933 RC
1 LJ
2.667 LW
N
205.426 651.295 M
235.445 651.295 L
S
GR
GS
[0.75 0 0 0.75 0 -0.25] CT
0.149 GC
10.0 ML
0.667 LW
N
190 670 M
190 466 L
453 466 L
453 670 L
cp
S
GR
%%Trailer
%%Pages: 1
%%EOF
