%!PS-Adobe-3.0 EPSF-3.0
%%Creator: (MATLAB, The Mathworks, Inc. Version 9.1.0.441655 \(R2016b\). Operating System: Windows 8)
%%Title: (C:/Users/Eigenaar/WIT/Data Mining/data-mining/Session 2/plots/p22h22.eps)
%%CreationDate: 2017-11-22T15:28:48
%%Pages: (atend)
%%BoundingBox: 0 0 800 581
%%LanguageLevel: 3
%%EndComments
%%BeginProlog
%%BeginResource: procset (Apache XML Graphics Std ProcSet) 1.2 0
%%Version: 1.2 0
%%Copyright: (Copyright 2001-2003,2010 The Apache Software Foundation. License terms: http://www.apache.org/licenses/LICENSE-2.0)
/bd{bind def}bind def
/ld{load def}bd
/GR/grestore ld
/M/moveto ld
/LJ/setlinejoin ld
/C/curveto ld
/f/fill ld
/LW/setlinewidth ld
/GC/setgray ld
/t/show ld
/N/newpath ld
/CT/concat ld
/cp/closepath ld
/S/stroke ld
/L/lineto ld
/CC/setcmykcolor ld
/A/ashow ld
/GS/gsave ld
/RC/setrgbcolor ld
/RM/rmoveto ld
/ML/setmiterlimit ld
/re {4 2 roll M
1 index 0 rlineto
0 exch rlineto
neg 0 rlineto
cp } bd
/_ctm matrix def
/_tm matrix def
/BT { _ctm currentmatrix pop matrix _tm copy pop 0 0 moveto } bd
/ET { _ctm setmatrix } bd
/iTm { _ctm setmatrix _tm concat } bd
/Tm { _tm astore pop iTm 0 0 moveto } bd
/ux 0.0 def
/uy 0.0 def
/F {
  /Tp exch def
  /Tf exch def
  Tf findfont Tp scalefont setfont
  /cf Tf def  /cs Tp def
} bd
/ULS {currentpoint /uy exch def /ux exch def} bd
/ULE {
  /Tcx currentpoint pop def
  gsave
  newpath
  cf findfont cs scalefont dup
  /FontMatrix get 0 get /Ts exch def /FontInfo get dup
  /UnderlinePosition get Ts mul /To exch def
  /UnderlineThickness get Ts mul /Tt exch def
  ux uy To add moveto  Tcx uy To add lineto
  Tt setlinewidth stroke
  grestore
} bd
/OLE {
  /Tcx currentpoint pop def
  gsave
  newpath
  cf findfont cs scalefont dup
  /FontMatrix get 0 get /Ts exch def /FontInfo get dup
  /UnderlinePosition get Ts mul /To exch def
  /UnderlineThickness get Ts mul /Tt exch def
  ux uy To add cs add moveto Tcx uy To add cs add lineto
  Tt setlinewidth stroke
  grestore
} bd
/SOE {
  /Tcx currentpoint pop def
  gsave
  newpath
  cf findfont cs scalefont dup
  /FontMatrix get 0 get /Ts exch def /FontInfo get dup
  /UnderlinePosition get Ts mul /To exch def
  /UnderlineThickness get Ts mul /Tt exch def
  ux uy To add cs 10 mul 26 idiv add moveto Tcx uy To add cs 10 mul 26 idiv add lineto
  Tt setlinewidth stroke
  grestore
} bd
/QT {
/Y22 exch store
/X22 exch store
/Y21 exch store
/X21 exch store
currentpoint
/Y21 load 2 mul add 3 div exch
/X21 load 2 mul add 3 div exch
/X21 load 2 mul /X22 load add 3 div
/Y21 load 2 mul /Y22 load add 3 div
/X22 load /Y22 load curveto
} bd
/SSPD {
dup length /d exch dict def
{
/v exch def
/k exch def
currentpagedevice k known {
/cpdv currentpagedevice k get def
v cpdv ne {
/upd false def
/nullv v type /nulltype eq def
/nullcpdv cpdv type /nulltype eq def
nullv nullcpdv or
{
/upd true def
} {
/sametype v type cpdv type eq def
sametype {
v type /arraytype eq {
/vlen v length def
/cpdvlen cpdv length def
vlen cpdvlen eq {
0 1 vlen 1 sub {
/i exch def
/obj v i get def
/cpdobj cpdv i get def
obj cpdobj ne {
/upd true def
exit
} if
} for
} {
/upd true def
} ifelse
} {
v type /dicttype eq {
v {
/dv exch def
/dk exch def
/cpddv cpdv dk get def
dv cpddv ne {
/upd true def
exit
} if
} forall
} {
/upd true def
} ifelse
} ifelse
} if
} ifelse
upd true eq {
d k v put
} if
} if
} if
} forall
d length 0 gt {
d setpagedevice
} if
} bd
/RE { % /NewFontName [NewEncodingArray] /FontName RE -
  findfont dup length dict begin
  {
    1 index /FID ne
    {def} {pop pop} ifelse
  } forall
  /Encoding exch def
  /FontName 1 index def
  currentdict definefont pop
  end
} bind def
%%EndResource
%%BeginResource: procset (Apache XML Graphics EPS ProcSet) 1.0 0
%%Version: 1.0 0
%%Copyright: (Copyright 2002-2003 The Apache Software Foundation. License terms: http://www.apache.org/licenses/LICENSE-2.0)
/BeginEPSF { %def
/b4_Inc_state save def         % Save state for cleanup
/dict_count countdictstack def % Count objects on dict stack
/op_count count 1 sub def      % Count objects on operand stack
userdict begin                 % Push userdict on dict stack
/showpage { } def              % Redefine showpage, { } = null proc
0 setgray 0 setlinecap         % Prepare graphics state
1 setlinewidth 0 setlinejoin
10 setmiterlimit [ ] 0 setdash newpath
/languagelevel where           % If level not equal to 1 then
{pop languagelevel             % set strokeadjust and
1 ne                           % overprint to their defaults.
{false setstrokeadjust false setoverprint
} if
} if
} bd
/EndEPSF { %def
count op_count sub {pop} repeat            % Clean up stacks
countdictstack dict_count sub {end} repeat
b4_Inc_state restore
} bd
%%EndResource
%FOPBeginFontDict
%%IncludeResource: font Courier-Bold
%%IncludeResource: font Helvetica
%%IncludeResource: font Courier-BoldOblique
%%IncludeResource: font Courier-Oblique
%%IncludeResource: font Times-Roman
%%IncludeResource: font Helvetica-BoldOblique
%%IncludeResource: font Helvetica-Bold
%%IncludeResource: font Helvetica-Oblique
%%IncludeResource: font Times-BoldItalic
%%IncludeResource: font Courier
%%IncludeResource: font Times-Italic
%%IncludeResource: font Times-Bold
%%IncludeResource: font Symbol
%%IncludeResource: font ZapfDingbats
%FOPEndFontDict
%%BeginResource: encoding WinAnsiEncoding
/WinAnsiEncoding [
/.notdef /.notdef /.notdef /.notdef /.notdef
/.notdef /.notdef /.notdef /.notdef /.notdef
/.notdef /.notdef /.notdef /.notdef /.notdef
/.notdef /.notdef /.notdef /.notdef /.notdef
/.notdef /.notdef /.notdef /.notdef /.notdef
/.notdef /.notdef /.notdef /.notdef /.notdef
/.notdef /.notdef /space /exclam /quotedbl
/numbersign /dollar /percent /ampersand /quotesingle
/parenleft /parenright /asterisk /plus /comma
/hyphen /period /slash /zero /one
/two /three /four /five /six
/seven /eight /nine /colon /semicolon
/less /equal /greater /question /at
/A /B /C /D /E
/F /G /H /I /J
/K /L /M /N /O
/P /Q /R /S /T
/U /V /W /X /Y
/Z /bracketleft /backslash /bracketright /asciicircum
/underscore /quoteleft /a /b /c
/d /e /f /g /h
/i /j /k /l /m
/n /o /p /q /r
/s /t /u /v /w
/x /y /z /braceleft /bar
/braceright /asciitilde /bullet /Euro /bullet
/quotesinglbase /florin /quotedblbase /ellipsis /dagger
/daggerdbl /circumflex /perthousand /Scaron /guilsinglleft
/OE /bullet /Zcaron /bullet /bullet
/quoteleft /quoteright /quotedblleft /quotedblright /bullet
/endash /emdash /asciitilde /trademark /scaron
/guilsinglright /oe /bullet /zcaron /Ydieresis
/space /exclamdown /cent /sterling /currency
/yen /brokenbar /section /dieresis /copyright
/ordfeminine /guillemotleft /logicalnot /sfthyphen /registered
/macron /degree /plusminus /twosuperior /threesuperior
/acute /mu /paragraph /middot /cedilla
/onesuperior /ordmasculine /guillemotright /onequarter /onehalf
/threequarters /questiondown /Agrave /Aacute /Acircumflex
/Atilde /Adieresis /Aring /AE /Ccedilla
/Egrave /Eacute /Ecircumflex /Edieresis /Igrave
/Iacute /Icircumflex /Idieresis /Eth /Ntilde
/Ograve /Oacute /Ocircumflex /Otilde /Odieresis
/multiply /Oslash /Ugrave /Uacute /Ucircumflex
/Udieresis /Yacute /Thorn /germandbls /agrave
/aacute /acircumflex /atilde /adieresis /aring
/ae /ccedilla /egrave /eacute /ecircumflex
/edieresis /igrave /iacute /icircumflex /idieresis
/eth /ntilde /ograve /oacute /ocircumflex
/otilde /odieresis /divide /oslash /ugrave
/uacute /ucircumflex /udieresis /yacute /thorn
/ydieresis
] def
%%EndResource
%FOPBeginFontReencode
/Courier-Bold findfont
dup length dict begin
  {1 index /FID ne {def} {pop pop} ifelse} forall
  /Encoding WinAnsiEncoding def
  currentdict
end
/Courier-Bold exch definefont pop
/Helvetica findfont
dup length dict begin
  {1 index /FID ne {def} {pop pop} ifelse} forall
  /Encoding WinAnsiEncoding def
  currentdict
end
/Helvetica exch definefont pop
/Courier-BoldOblique findfont
dup length dict begin
  {1 index /FID ne {def} {pop pop} ifelse} forall
  /Encoding WinAnsiEncoding def
  currentdict
end
/Courier-BoldOblique exch definefont pop
/Courier-Oblique findfont
dup length dict begin
  {1 index /FID ne {def} {pop pop} ifelse} forall
  /Encoding WinAnsiEncoding def
  currentdict
end
/Courier-Oblique exch definefont pop
/Times-Roman findfont
dup length dict begin
  {1 index /FID ne {def} {pop pop} ifelse} forall
  /Encoding WinAnsiEncoding def
  currentdict
end
/Times-Roman exch definefont pop
/Helvetica-BoldOblique findfont
dup length dict begin
  {1 index /FID ne {def} {pop pop} ifelse} forall
  /Encoding WinAnsiEncoding def
  currentdict
end
/Helvetica-BoldOblique exch definefont pop
/Helvetica-Bold findfont
dup length dict begin
  {1 index /FID ne {def} {pop pop} ifelse} forall
  /Encoding WinAnsiEncoding def
  currentdict
end
/Helvetica-Bold exch definefont pop
/Helvetica-Oblique findfont
dup length dict begin
  {1 index /FID ne {def} {pop pop} ifelse} forall
  /Encoding WinAnsiEncoding def
  currentdict
end
/Helvetica-Oblique exch definefont pop
/Times-BoldItalic findfont
dup length dict begin
  {1 index /FID ne {def} {pop pop} ifelse} forall
  /Encoding WinAnsiEncoding def
  currentdict
end
/Times-BoldItalic exch definefont pop
/Courier findfont
dup length dict begin
  {1 index /FID ne {def} {pop pop} ifelse} forall
  /Encoding WinAnsiEncoding def
  currentdict
end
/Courier exch definefont pop
/Times-Italic findfont
dup length dict begin
  {1 index /FID ne {def} {pop pop} ifelse} forall
  /Encoding WinAnsiEncoding def
  currentdict
end
/Times-Italic exch definefont pop
/Times-Bold findfont
dup length dict begin
  {1 index /FID ne {def} {pop pop} ifelse} forall
  /Encoding WinAnsiEncoding def
  currentdict
end
/Times-Bold exch definefont pop
%FOPEndFontReencode
%%EndProlog
%%Page: 1 1
%%PageBoundingBox: 0 0 800 581
%%BeginPageSetup
[1 0 0 -1 0 581] CT
%%EndPageSetup
GS
[0.75 0 0 0.75 0 0.5] CT
1 GC
N
0 0 1067 774 re
f
GR
GS
[0.75 0 0 0.75 0 0.5] CT
1 GC
N
0 0 1067 774 re
f
GR
GS
[0.75 0 0 0.75 0 0.5] CT
1 GC
N
139 689 M
966 689 L
966 58 L
139 58 L
cp
f
GR
GS
[0.75 0 0 0.75 0 0.5] CT
0.149 GC
2 setlinecap
1 LJ
0.667 LW
N
139 689 M
966 689 L
S
GR
GS
[0.75 0 0 0.75 0 0.5] CT
0.149 GC
2 setlinecap
1 LJ
0.667 LW
N
139 58 M
966 58 L
S
GR
GS
[0.75 0 0 0.75 0 0.5] CT
0.149 GC
2 setlinecap
1 LJ
0.667 LW
N
139 689 M
139 680.73 L
S
GR
GS
[0.75 0 0 0.75 0 0.5] CT
0.149 GC
2 setlinecap
1 LJ
0.667 LW
N
221.7 689 M
221.7 680.73 L
S
GR
GS
[0.75 0 0 0.75 0 0.5] CT
0.149 GC
2 setlinecap
1 LJ
0.667 LW
N
304.4 689 M
304.4 680.73 L
S
GR
GS
[0.75 0 0 0.75 0 0.5] CT
0.149 GC
2 setlinecap
1 LJ
0.667 LW
N
387.1 689 M
387.1 680.73 L
S
GR
GS
[0.75 0 0 0.75 0 0.5] CT
0.149 GC
2 setlinecap
1 LJ
0.667 LW
N
469.8 689 M
469.8 680.73 L
S
GR
GS
[0.75 0 0 0.75 0 0.5] CT
0.149 GC
2 setlinecap
1 LJ
0.667 LW
N
552.5 689 M
552.5 680.73 L
S
GR
GS
[0.75 0 0 0.75 0 0.5] CT
0.149 GC
2 setlinecap
1 LJ
0.667 LW
N
635.2 689 M
635.2 680.73 L
S
GR
GS
[0.75 0 0 0.75 0 0.5] CT
0.149 GC
2 setlinecap
1 LJ
0.667 LW
N
717.9 689 M
717.9 680.73 L
S
GR
GS
[0.75 0 0 0.75 0 0.5] CT
0.149 GC
2 setlinecap
1 LJ
0.667 LW
N
800.6 689 M
800.6 680.73 L
S
GR
GS
[0.75 0 0 0.75 0 0.5] CT
0.149 GC
2 setlinecap
1 LJ
0.667 LW
N
883.3 689 M
883.3 680.73 L
S
GR
GS
[0.75 0 0 0.75 0 0.5] CT
0.149 GC
2 setlinecap
1 LJ
0.667 LW
N
966 689 M
966 680.73 L
S
GR
GS
[0.75 0 0 0.75 0 0.5] CT
0.149 GC
2 setlinecap
1 LJ
0.667 LW
N
139 58 M
139 66.27 L
S
GR
GS
[0.75 0 0 0.75 0 0.5] CT
0.149 GC
2 setlinecap
1 LJ
0.667 LW
N
221.7 58 M
221.7 66.27 L
S
GR
GS
[0.75 0 0 0.75 0 0.5] CT
0.149 GC
2 setlinecap
1 LJ
0.667 LW
N
304.4 58 M
304.4 66.27 L
S
GR
GS
[0.75 0 0 0.75 0 0.5] CT
0.149 GC
2 setlinecap
1 LJ
0.667 LW
N
387.1 58 M
387.1 66.27 L
S
GR
GS
[0.75 0 0 0.75 0 0.5] CT
0.149 GC
2 setlinecap
1 LJ
0.667 LW
N
469.8 58 M
469.8 66.27 L
S
GR
GS
[0.75 0 0 0.75 0 0.5] CT
0.149 GC
2 setlinecap
1 LJ
0.667 LW
N
552.5 58 M
552.5 66.27 L
S
GR
GS
[0.75 0 0 0.75 0 0.5] CT
0.149 GC
2 setlinecap
1 LJ
0.667 LW
N
635.2 58 M
635.2 66.27 L
S
GR
GS
[0.75 0 0 0.75 0 0.5] CT
0.149 GC
2 setlinecap
1 LJ
0.667 LW
N
717.9 58 M
717.9 66.27 L
S
GR
GS
[0.75 0 0 0.75 0 0.5] CT
0.149 GC
2 setlinecap
1 LJ
0.667 LW
N
800.6 58 M
800.6 66.27 L
S
GR
GS
[0.75 0 0 0.75 0 0.5] CT
0.149 GC
2 setlinecap
1 LJ
0.667 LW
N
883.3 58 M
883.3 66.27 L
S
GR
GS
[0.75 0 0 0.75 0 0.5] CT
0.149 GC
2 setlinecap
1 LJ
0.667 LW
N
966 58 M
966 66.27 L
S
GR
GS
[0.75 0 0 0.75 104.25 522.85001] CT
0.149 GC
/Helvetica 24 F
GS
[1 0 0 1 0 0] CT
-7 25 moveto 
1 -1 scale
(0) t 
GR
GR
GS
[0.75 0 0 0.75 166.275 522.85001] CT
0.149 GC
/Helvetica 24 F
GS
[1 0 0 1 0 0] CT
-13.5 25 moveto 
1 -1 scale
(10) t 
GR
GR
GS
[0.75 0 0 0.75 228.3 522.85001] CT
0.149 GC
/Helvetica 24 F
GS
[1 0 0 1 0 0] CT
-13.5 25 moveto 
1 -1 scale
(20) t 
GR
GR
GS
[0.75 0 0 0.75 290.325 522.85001] CT
0.149 GC
/Helvetica 24 F
GS
[1 0 0 1 0 0] CT
-13.5 25 moveto 
1 -1 scale
(30) t 
GR
GR
GS
[0.75 0 0 0.75 352.34999 522.85001] CT
0.149 GC
/Helvetica 24 F
GS
[1 0 0 1 0 0] CT
-13.5 25 moveto 
1 -1 scale
(40) t 
GR
GR
GS
[0.75 0 0 0.75 414.375 522.85001] CT
0.149 GC
/Helvetica 24 F
GS
[1 0 0 1 0 0] CT
-13.5 25 moveto 
1 -1 scale
(50) t 
GR
GR
GS
[0.75 0 0 0.75 476.40001 522.85001] CT
0.149 GC
/Helvetica 24 F
GS
[1 0 0 1 0 0] CT
-13.5 25 moveto 
1 -1 scale
(60) t 
GR
GR
GS
[0.75 0 0 0.75 538.42502 522.85001] CT
0.149 GC
/Helvetica 24 F
GS
[1 0 0 1 0 0] CT
-13.5 25 moveto 
1 -1 scale
(70) t 
GR
GR
GS
[0.75 0 0 0.75 600.44998 522.85001] CT
0.149 GC
/Helvetica 24 F
GS
[1 0 0 1 0 0] CT
-13.5 25 moveto 
1 -1 scale
(80) t 
GR
GR
GS
[0.75 0 0 0.75 662.47499 522.85001] CT
0.149 GC
/Helvetica 24 F
GS
[1 0 0 1 0 0] CT
-13.5 25 moveto 
1 -1 scale
(90) t 
GR
GR
GS
[0.75 0 0 0.75 724.5 522.85001] CT
0.149 GC
/Helvetica 24 F
GS
[1 0 0 1 0 0] CT
-20.5 25 moveto 
1 -1 scale
(100) t 
GR
GR
GS
[0.75 0 0 0.75 414.37532 547.09999] CT
0.149 GC
/Helvetica 26.4 F
GS
[1 0 0 1 0 0] CT
-46.5 27 moveto 
1 -1 scale
(Time [s]) t 
GR
GR
GS
[0.75 0 0 0.75 0 0.5] CT
0.149 GC
2 setlinecap
1 LJ
0.667 LW
N
139 689 M
139 58 L
S
GR
GS
[0.75 0 0 0.75 0 0.5] CT
0.149 GC
2 setlinecap
1 LJ
0.667 LW
N
966 689 M
966 58 L
S
GR
GS
[0.75 0 0 0.75 0 0.5] CT
0.149 GC
2 setlinecap
1 LJ
0.667 LW
N
139 689 M
147.27 689 L
S
GR
GS
[0.75 0 0 0.75 0 0.5] CT
0.149 GC
2 setlinecap
1 LJ
0.667 LW
N
139 583.833 M
147.27 583.833 L
S
GR
GS
[0.75 0 0 0.75 0 0.5] CT
0.149 GC
2 setlinecap
1 LJ
0.667 LW
N
139 478.667 M
147.27 478.667 L
S
GR
GS
[0.75 0 0 0.75 0 0.5] CT
0.149 GC
2 setlinecap
1 LJ
0.667 LW
N
139 373.5 M
147.27 373.5 L
S
GR
GS
[0.75 0 0 0.75 0 0.5] CT
0.149 GC
2 setlinecap
1 LJ
0.667 LW
N
139 268.333 M
147.27 268.333 L
S
GR
GS
[0.75 0 0 0.75 0 0.5] CT
0.149 GC
2 setlinecap
1 LJ
0.667 LW
N
139 163.167 M
147.27 163.167 L
S
GR
GS
[0.75 0 0 0.75 0 0.5] CT
0.149 GC
2 setlinecap
1 LJ
0.667 LW
N
139 58 M
147.27 58 L
S
GR
GS
[0.75 0 0 0.75 0 0.5] CT
0.149 GC
2 setlinecap
1 LJ
0.667 LW
N
966 689 M
957.73 689 L
S
GR
GS
[0.75 0 0 0.75 0 0.5] CT
0.149 GC
2 setlinecap
1 LJ
0.667 LW
N
966 583.833 M
957.73 583.833 L
S
GR
GS
[0.75 0 0 0.75 0 0.5] CT
0.149 GC
2 setlinecap
1 LJ
0.667 LW
N
966 478.667 M
957.73 478.667 L
S
GR
GS
[0.75 0 0 0.75 0 0.5] CT
0.149 GC
2 setlinecap
1 LJ
0.667 LW
N
966 373.5 M
957.73 373.5 L
S
GR
GS
[0.75 0 0 0.75 0 0.5] CT
0.149 GC
2 setlinecap
1 LJ
0.667 LW
N
966 268.333 M
957.73 268.333 L
S
GR
GS
[0.75 0 0 0.75 0 0.5] CT
0.149 GC
2 setlinecap
1 LJ
0.667 LW
N
966 163.167 M
957.73 163.167 L
S
GR
GS
[0.75 0 0 0.75 0 0.5] CT
0.149 GC
2 setlinecap
1 LJ
0.667 LW
N
966 58 M
957.73 58 L
S
GR
GS
[0.75 0 0 0.75 98.65001 517.25] CT
0.149 GC
/Helvetica 24 F
GS
[1 0 0 1 0 0] CT
-49 9.5 moveto 
1 -1 scale
(-400) t 
GR
GR
GS
[0.75 0 0 0.75 98.65001 438.37498] CT
0.149 GC
/Helvetica 24 F
GS
[1 0 0 1 0 0] CT
-49 9.5 moveto 
1 -1 scale
(-200) t 
GR
GR
GS
[0.75 0 0 0.75 98.65001 359.49999] CT
0.149 GC
/Helvetica 24 F
GS
[1 0 0 1 0 0] CT
-14 9.5 moveto 
1 -1 scale
(0) t 
GR
GR
GS
[0.75 0 0 0.75 98.65001 280.625] CT
0.149 GC
/Helvetica 24 F
GS
[1 0 0 1 0 0] CT
-41 9.5 moveto 
1 -1 scale
(200) t 
GR
GR
GS
[0.75 0 0 0.75 98.65001 201.75001] CT
0.149 GC
/Helvetica 24 F
GS
[1 0 0 1 0 0] CT
-41 9.5 moveto 
1 -1 scale
(400) t 
GR
GR
GS
[0.75 0 0 0.75 98.65001 122.875] CT
0.149 GC
/Helvetica 24 F
GS
[1 0 0 1 0 0] CT
-41 9.5 moveto 
1 -1 scale
(600) t 
GR
GR
GS
[0.75 0 0 0.75 98.65001 44] CT
0.149 GC
/Helvetica 24 F
GS
[1 0 0 1 0 0] CT
-41 9.5 moveto 
1 -1 scale
(800) t 
GR
GR
GS
[0.75 0 0 0.75 0 0.5] CT
0 0.447 0.741 RC
1 LJ
2.667 LW
N
147.27 436.194 M
155.54 388.911 L
163.81 425.51 L
172.08 455.818 L
180.35 464.97 L
188.62 458.486 L
196.89 452.504 L
205.16 449.246 L
213.43 430.223 L
221.7 390.069 L
229.97 434.083 L
238.24 460.789 L
246.51 458.198 L
254.78 443.993 L
263.05 429.177 L
271.32 440.907 L
279.59 437.409 L
287.86 417.648 L
296.13 424.459 L
304.4 453.418 L
312.67 460.352 L
320.94 450.78 L
329.21 386.908 L
337.48 435.767 L
345.75 453.89 L
354.02 441.681 L
362.29 401.911 L
370.56 438.807 L
378.83 457.678 L
387.1 463.341 L
395.37 388.688 L
403.64 370.274 L
411.91 449.234 L
420.18 463.398 L
428.45 420.695 L
436.72 361.307 L
444.99 459.361 L
453.26 484.58 L
461.53 441.997 L
469.8 341.529 L
478.07 422.408 L
486.34 459.427 L
494.61 477.286 L
502.88 430.144 L
511.15 370.02 L
519.42 423.124 L
527.69 451.925 L
535.96 410.045 L
544.23 369.908 L
552.5 454.041 L
560.77 500.9 L
569.04 537.905 L
577.31 454.639 L
585.58 379.409 L
593.85 381.159 L
602.12 480.818 L
610.39 434.583 L
618.66 373.586 L
626.93 386.386 L
635.2 439.187 L
643.47 391.976 L
651.74 357.098 L
660.01 352.054 L
668.28 415.118 L
676.55 488.967 L
684.82 460.592 L
693.09 455.082 L
701.36 428.499 L
709.63 394.624 L
717.9 391.698 L
726.17 383.489 L
734.44 260.43 L
742.71 390.499 L
750.98 229.967 L
759.25 417.943 L
767.52 211.488 L
775.79 350.33 L
784.06 475.961 L
792.33 318.85 L
800.6 268.199 L
808.87 416.448 L
817.14 229.385 L
825.41 403.83 L
833.68 191.545 L
841.95 174.262 L
850.22 282.279 L
858.49 245.543 L
866.76 221.536 L
875.03 155.702 L
883.3 216.417 L
891.57 242.908 L
899.84 139.483 L
908.11 111.558 L
916.38 190.987 L
924.65 182.86 L
932.92 188.115 L
941.19 176.333 L
949.46 201.62 L
957.73 190.341 L
966 193.069 L
S
GR
GS
[0.75 0 0 0.75 0 0.5] CT
0.851 0.325 0.098 RC
1 LJ
2.667 LW
N
147.27 437.877 M
155.54 382.456 L
163.81 418.265 L
172.08 460.543 L
180.35 469.774 L
188.62 472.715 L
196.89 471.308 L
205.16 461.06 L
213.43 415.863 L
221.7 379.253 L
229.97 441.26 L
238.24 466.978 L
246.51 472.374 L
254.78 474.712 L
263.05 473.895 L
271.32 462.458 L
279.59 412.583 L
287.86 371.67 L
296.13 444.208 L
304.4 467.294 L
312.67 472.781 L
320.94 474.003 L
329.21 473.111 L
337.48 464.087 L
345.75 415.399 L
354.02 366.095 L
362.29 441.968 L
370.56 468.535 L
378.83 473.16 L
387.1 473.701 L
395.37 472.079 L
403.64 458.735 L
411.91 401.044 L
420.18 376.294 L
428.45 448.498 L
436.72 471.574 L
444.99 474.719 L
453.26 476.756 L
461.53 476.103 L
469.8 464.626 L
478.07 412.954 L
486.34 358.225 L
494.61 441.056 L
502.88 468.581 L
511.15 474.032 L
519.42 475.322 L
527.69 474.945 L
535.96 472.204 L
544.23 442.126 L
552.5 351.306 L
560.77 410.236 L
569.04 465.771 L
577.31 471.734 L
585.58 473.81 L
593.85 472.251 L
602.12 467.101 L
610.39 436.919 L
618.66 356.972 L
626.93 410.819 L
635.2 464.231 L
643.47 472.682 L
651.74 476.784 L
660.01 473.633 L
668.28 465.505 L
676.55 424.157 L
684.82 354.182 L
693.09 423.025 L
701.36 465.924 L
709.63 473.14 L
717.9 477.264 L
726.17 476.211 L
734.44 476.205 L
742.71 463.144 L
750.98 404.659 L
759.25 348.514 L
767.52 450.36 L
775.79 469.299 L
784.06 470.265 L
792.33 475.487 L
800.6 479.261 L
808.87 493.033 L
817.14 527.724 L
825.41 527.513 L
833.68 521.178 L
841.95 522.212 L
850.22 539.941 L
858.49 525.928 L
866.76 548.009 L
875.03 576.434 L
883.3 567.294 L
891.57 546.101 L
899.84 548.858 L
908.11 586.37 L
916.38 630.019 L
924.65 574.767 L
932.92 551.401 L
941.19 631.012 L
949.46 655.029 L
957.73 583.442 L
966 595.228 L
S
GR
GS
[0.75 0 0 0.75 0 0.5] CT
0.929 0.694 0.125 RC
1 LJ
2.667 LW
N
147.27 439.771 M
155.54 384.065 L
163.81 414.397 L
172.08 459.364 L
180.35 470.942 L
188.62 472.569 L
196.89 470.751 L
205.16 460.953 L
213.43 420.391 L
221.7 379.391 L
229.97 437.288 L
238.24 465.892 L
246.51 471.952 L
254.78 472.047 L
263.05 469.191 L
271.32 451.208 L
279.59 394.222 L
287.86 394.106 L
296.13 452.384 L
304.4 469.721 L
312.67 472.941 L
320.94 472.787 L
329.21 468.13 L
337.48 442.4 L
345.75 378.768 L
354.02 411.346 L
362.29 459.034 L
370.56 471.309 L
378.83 472.626 L
387.1 471.934 L
395.37 466.102 L
403.64 434.587 L
411.91 370.242 L
420.18 421.718 L
428.45 463.186 L
436.72 472.677 L
444.99 473.494 L
453.26 473.606 L
461.53 466.353 L
469.8 431.306 L
478.07 364.027 L
486.34 424.077 L
494.61 465.846 L
502.88 473.4 L
511.15 475.307 L
519.42 475.868 L
527.69 472.671 L
535.96 451.054 L
544.23 365.335 L
552.5 395.775 L
560.77 463.265 L
569.04 476.108 L
577.31 477.775 L
585.58 480.421 L
593.85 481.45 L
602.12 494.586 L
610.39 520.554 L
618.66 539.701 L
626.93 507.865 L
635.2 509.145 L
643.47 547.146 L
651.74 566.465 L
660.01 547.044 L
668.28 506.836 L
676.55 535.311 L
684.82 603.077 L
693.09 577.367 L
701.36 559.003 L
709.63 535.76 L
717.9 512.008 L
726.17 448.793 L
734.44 464.196 L
742.71 465.585 L
750.98 474.588 L
759.25 479.868 L
767.52 482.788 L
775.79 487.745 L
784.06 440.301 L
792.33 453.036 L
800.6 466.808 L
808.87 459.872 L
817.14 436.653 L
825.41 435.505 L
833.68 436.024 L
841.95 443.071 L
850.22 460.56 L
858.49 447.327 L
866.76 464.198 L
875.03 457.473 L
883.3 437.633 L
891.57 450.363 L
899.84 440.308 L
908.11 449.421 L
916.38 450.248 L
924.65 455.079 L
932.92 443.297 L
941.19 438.826 L
949.46 449.65 L
957.73 439.695 L
966 441.457 L
S
GR
GS
[0.75 0 0 0.75 0 0.5] CT
0.494 0.184 0.557 RC
1 LJ
2.667 LW
N
147.27 436.231 M
155.54 403.338 L
163.81 407.294 L
172.08 453.302 L
180.35 471.1 L
188.62 470.913 L
196.89 470.321 L
205.16 459.267 L
213.43 426.444 L
221.7 403.408 L
229.97 413.753 L
238.24 454.877 L
246.51 472.111 L
254.78 472.55 L
263.05 474.414 L
271.32 450.105 L
279.59 410.449 L
287.86 399.774 L
296.13 424.852 L
304.4 456.745 L
312.67 479.71 L
320.94 470.63 L
329.21 481.4 L
337.48 432.83 L
345.75 409.312 L
354.02 413.651 L
362.29 431.669 L
370.56 459.767 L
378.83 481.158 L
387.1 475.188 L
395.37 465.942 L
403.64 419.192 L
411.91 402.878 L
420.18 436.109 L
428.45 451.61 L
436.72 467.232 L
444.99 473.636 L
453.26 463.759 L
461.53 460.737 L
469.8 421.09 L
478.07 404.862 L
486.34 451.476 L
494.61 470.805 L
502.88 475.705 L
511.15 465.865 L
519.42 435.04 L
527.69 464.818 L
535.96 441.957 L
544.23 407.209 L
552.5 456.786 L
560.77 472.87 L
569.04 473.924 L
577.31 459.17 L
585.58 420.969 L
593.85 462.478 L
602.12 454.867 L
610.39 403.062 L
618.66 446.337 L
626.93 473.261 L
635.2 475.054 L
643.47 472.758 L
651.74 424.392 L
660.01 450.613 L
668.28 447.646 L
676.55 411.047 L
684.82 448.669 L
693.09 475.594 L
701.36 471.378 L
709.63 470.474 L
717.9 416.924 L
726.17 436.946 L
734.44 456.973 L
742.71 412.757 L
750.98 452.959 L
759.25 477.754 L
767.52 474.856 L
775.79 467.371 L
784.06 415.103 L
792.33 434.664 L
800.6 459.612 L
808.87 406.15 L
817.14 450.956 L
825.41 480.818 L
833.68 477.025 L
841.95 472.191 L
850.22 414.568 L
858.49 416.302 L
866.76 458.481 L
875.03 414.312 L
883.3 448.206 L
891.57 476.761 L
899.84 473.378 L
908.11 467.76 L
916.38 412.222 L
924.65 410.918 L
932.92 459.995 L
941.19 410.898 L
949.46 451.688 L
957.73 475.194 L
966 466.563 L
S
GR
GS
[0.75 0 0 0.75 0 0.5] CT
0.467 0.675 0.188 RC
1 LJ
2.667 LW
N
147.27 440.135 M
155.54 382.337 L
163.81 417.208 L
172.08 459.663 L
180.35 470.053 L
188.62 472.132 L
196.89 469.381 L
205.16 458.178 L
213.43 412.595 L
221.7 387.679 L
229.97 439.277 L
238.24 465.163 L
246.51 471.476 L
254.78 470.713 L
263.05 465.938 L
271.32 444.415 L
279.59 392.77 L
287.86 402.483 L
296.13 461.436 L
304.4 487.369 L
312.67 499.509 L
320.94 457.399 L
329.21 398.435 L
337.48 422.356 L
345.75 435.962 L
354.02 422.144 L
362.29 437.86 L
370.56 466.609 L
378.83 470.738 L
387.1 471.16 L
395.37 436.786 L
403.64 383.564 L
411.91 403.597 L
420.18 442.608 L
428.45 448.051 L
436.72 426.997 L
444.99 422.013 L
453.26 453.398 L
461.53 444.058 L
469.8 431.254 L
478.07 398.891 L
486.34 403.032 L
494.61 436.26 L
502.88 447.437 L
511.15 417.969 L
519.42 419.624 L
527.69 446.548 L
535.96 446.33 L
544.23 435.71 L
552.5 392.894 L
560.77 400.359 L
569.04 454.532 L
577.31 456.96 L
585.58 420.662 L
593.85 402.727 L
602.12 452.097 L
610.39 449.216 L
618.66 432.18 L
626.93 383.782 L
635.2 405.773 L
643.47 457.346 L
651.74 448.215 L
660.01 413.386 L
668.28 403.136 L
676.55 455.597 L
684.82 445.941 L
693.09 430.064 L
701.36 385.219 L
709.63 401.477 L
717.9 452.379 L
726.17 443.674 L
734.44 423.217 L
742.71 402.367 L
750.98 444.188 L
759.25 429.696 L
767.52 439.618 L
775.79 409.296 L
784.06 402.033 L
792.33 452.309 L
800.6 444.623 L
808.87 411.507 L
817.14 401.894 L
825.41 432.844 L
833.68 428.666 L
841.95 439.341 L
850.22 428.461 L
858.49 402.528 L
866.76 442.63 L
875.03 439.881 L
883.3 415.872 L
891.57 398.804 L
899.84 419.531 L
908.11 446.128 L
916.38 453.696 L
924.65 428.606 L
932.92 402.872 L
941.19 412.105 L
949.46 441.432 L
957.73 437.266 L
966 403.686 L
S
GR
GS
[0.75 0 0 0.75 0 0.5] CT
0.302 0.745 0.933 RC
1 LJ
2.667 LW
N
147.27 440.807 M
155.54 385.068 L
163.81 414.515 L
172.08 459.737 L
180.35 471.305 L
188.62 472.883 L
196.89 471.305 L
205.16 461.84 L
213.43 420.825 L
221.7 379.81 L
229.97 436.6 L
238.24 466.573 L
246.51 472.357 L
254.78 473.408 L
263.05 470.779 L
271.32 455.004 L
279.59 399.266 L
287.86 389.801 L
296.13 450.797 L
304.4 469.202 L
312.67 472.357 L
320.94 473.934 L
329.21 469.728 L
337.48 447.117 L
345.75 382.965 L
354.02 403.473 L
362.29 458.685 L
370.56 471.831 L
378.83 473.934 L
387.1 473.934 L
395.37 468.676 L
403.64 441.332 L
411.91 372.974 L
420.18 412.412 L
428.45 462.892 L
436.72 472.357 L
444.99 473.934 L
453.26 474.46 L
461.53 469.202 L
469.8 441.858 L
478.07 367.716 L
486.34 409.783 L
494.61 462.892 L
502.88 472.883 L
511.15 474.46 L
519.42 474.46 L
527.69 471.831 L
535.96 453.953 L
544.23 377.707 L
552.5 384.543 L
560.77 457.633 L
569.04 471.831 L
577.31 473.934 L
585.58 474.986 L
593.85 474.986 L
602.12 471.305 L
610.39 441.332 L
618.66 344.579 L
626.93 409.783 L
635.2 466.047 L
643.47 473.934 L
651.74 474.986 L
660.01 474.986 L
668.28 476.038 L
676.55 476.563 L
684.82 477.089 L
693.09 474.46 L
701.36 468.15 L
709.63 471.831 L
717.9 473.408 L
726.17 471.831 L
734.44 468.15 L
742.71 462.366 L
750.98 456.582 L
759.25 448.694 L
767.52 442.91 L
775.79 441.858 L
784.06 447.642 L
792.33 453.427 L
800.6 454.478 L
808.87 451.849 L
817.14 446.591 L
825.41 441.858 L
833.68 443.436 L
841.95 448.694 L
850.22 453.427 L
858.49 453.953 L
866.76 450.797 L
875.03 444.487 L
883.3 440.807 L
891.57 443.436 L
899.84 448.694 L
908.11 453.953 L
916.38 453.953 L
924.65 450.272 L
932.92 443.436 L
941.19 440.281 L
949.46 443.962 L
957.73 450.272 L
966 453.427 L
S
GR
GS
[0.75 0 0 0.75 0 0.5] CT
1 GC
N
179 280 M
179 105 L
419 105 L
419 280 L
cp
f
GR
GS
[0.75 0 0 0.75 162 91.28438] CT
/Helvetica 21.6 F
GS
[1 0 0 1 0 0] CT
0 9 moveto 
1 -1 scale
(Approximation1) t 
GR
GR
GS
[0.75 0 0 0.75 0 0.5] CT
0 0.447 0.741 RC
1 LJ
2.667 LW
N
183 121.046 M
213 121.046 L
S
GR
GS
[0.75 0 0 0.75 162 112.72063] CT
/Helvetica 21.6 F
GS
[1 0 0 1 0 0] CT
0 9 moveto 
1 -1 scale
(Approximation2) t 
GR
GR
GS
[0.75 0 0 0.75 0 0.5] CT
0.851 0.325 0.098 RC
1 LJ
2.667 LW
N
183 149.628 M
213 149.628 L
S
GR
GS
[0.75 0 0 0.75 162 134.15688] CT
/Helvetica 21.6 F
GS
[1 0 0 1 0 0] CT
0 9 moveto 
1 -1 scale
(Approximation3) t 
GR
GR
GS
[0.75 0 0 0.75 0 0.5] CT
0.929 0.694 0.125 RC
1 LJ
2.667 LW
N
183 178.209 M
213 178.209 L
S
GR
GS
[0.75 0 0 0.75 162 155.59312] CT
/Helvetica 21.6 F
GS
[1 0 0 1 0 0] CT
0 9 moveto 
1 -1 scale
(Approximation4) t 
GR
GR
GS
[0.75 0 0 0.75 0 0.5] CT
0.494 0.184 0.557 RC
1 LJ
2.667 LW
N
183 206.791 M
213 206.791 L
S
GR
GS
[0.75 0 0 0.75 162 177.02937] CT
/Helvetica 21.6 F
GS
[1 0 0 1 0 0] CT
0 9 moveto 
1 -1 scale
(Approximation5) t 
GR
GR
GS
[0.75 0 0 0.75 0 0.5] CT
0.467 0.675 0.188 RC
1 LJ
2.667 LW
N
183 235.372 M
213 235.372 L
S
GR
GS
[0.75 0 0 0.75 162 198.46562] CT
/Helvetica 21.6 F
GS
[1 0 0 1 0 0] CT
0 9 moveto 
1 -1 scale
(Laser Prediction Set) t 
GR
GR
GS
[0.75 0 0 0.75 0 0.5] CT
0.302 0.745 0.933 RC
1 LJ
2.667 LW
N
183 263.954 M
213 263.954 L
S
GR
GS
[0.75 0 0 0.75 0 0.5] CT
0.149 GC
10.0 ML
0.667 LW
N
179 280 M
179 105 L
419 105 L
419 280 L
cp
S
GR
%%Trailer
%%Pages: 1
%%EOF
