%!PS-Adobe-3.0 EPSF-3.0
%%Creator: (MATLAB, The Mathworks, Inc. Version 9.1.0.441655 \(R2016b\). Operating System: Windows 8)
%%Title: (C:/Users/Eigenaar/WIT/Data Mining/data-mining/Session 2/plots/p22h16.eps)
%%CreationDate: 2017-11-22T16:02:02
%%Pages: (atend)
%%BoundingBox: 0 0 747 595
%%LanguageLevel: 3
%%EndComments
%%BeginProlog
%%BeginResource: procset (Apache XML Graphics Std ProcSet) 1.2 0
%%Version: 1.2 0
%%Copyright: (Copyright 2001-2003,2010 The Apache Software Foundation. License terms: http://www.apache.org/licenses/LICENSE-2.0)
/bd{bind def}bind def
/ld{load def}bd
/GR/grestore ld
/M/moveto ld
/LJ/setlinejoin ld
/C/curveto ld
/f/fill ld
/LW/setlinewidth ld
/GC/setgray ld
/t/show ld
/N/newpath ld
/CT/concat ld
/cp/closepath ld
/S/stroke ld
/L/lineto ld
/CC/setcmykcolor ld
/A/ashow ld
/GS/gsave ld
/RC/setrgbcolor ld
/RM/rmoveto ld
/ML/setmiterlimit ld
/re {4 2 roll M
1 index 0 rlineto
0 exch rlineto
neg 0 rlineto
cp } bd
/_ctm matrix def
/_tm matrix def
/BT { _ctm currentmatrix pop matrix _tm copy pop 0 0 moveto } bd
/ET { _ctm setmatrix } bd
/iTm { _ctm setmatrix _tm concat } bd
/Tm { _tm astore pop iTm 0 0 moveto } bd
/ux 0.0 def
/uy 0.0 def
/F {
  /Tp exch def
  /Tf exch def
  Tf findfont Tp scalefont setfont
  /cf Tf def  /cs Tp def
} bd
/ULS {currentpoint /uy exch def /ux exch def} bd
/ULE {
  /Tcx currentpoint pop def
  gsave
  newpath
  cf findfont cs scalefont dup
  /FontMatrix get 0 get /Ts exch def /FontInfo get dup
  /UnderlinePosition get Ts mul /To exch def
  /UnderlineThickness get Ts mul /Tt exch def
  ux uy To add moveto  Tcx uy To add lineto
  Tt setlinewidth stroke
  grestore
} bd
/OLE {
  /Tcx currentpoint pop def
  gsave
  newpath
  cf findfont cs scalefont dup
  /FontMatrix get 0 get /Ts exch def /FontInfo get dup
  /UnderlinePosition get Ts mul /To exch def
  /UnderlineThickness get Ts mul /Tt exch def
  ux uy To add cs add moveto Tcx uy To add cs add lineto
  Tt setlinewidth stroke
  grestore
} bd
/SOE {
  /Tcx currentpoint pop def
  gsave
  newpath
  cf findfont cs scalefont dup
  /FontMatrix get 0 get /Ts exch def /FontInfo get dup
  /UnderlinePosition get Ts mul /To exch def
  /UnderlineThickness get Ts mul /Tt exch def
  ux uy To add cs 10 mul 26 idiv add moveto Tcx uy To add cs 10 mul 26 idiv add lineto
  Tt setlinewidth stroke
  grestore
} bd
/QT {
/Y22 exch store
/X22 exch store
/Y21 exch store
/X21 exch store
currentpoint
/Y21 load 2 mul add 3 div exch
/X21 load 2 mul add 3 div exch
/X21 load 2 mul /X22 load add 3 div
/Y21 load 2 mul /Y22 load add 3 div
/X22 load /Y22 load curveto
} bd
/SSPD {
dup length /d exch dict def
{
/v exch def
/k exch def
currentpagedevice k known {
/cpdv currentpagedevice k get def
v cpdv ne {
/upd false def
/nullv v type /nulltype eq def
/nullcpdv cpdv type /nulltype eq def
nullv nullcpdv or
{
/upd true def
} {
/sametype v type cpdv type eq def
sametype {
v type /arraytype eq {
/vlen v length def
/cpdvlen cpdv length def
vlen cpdvlen eq {
0 1 vlen 1 sub {
/i exch def
/obj v i get def
/cpdobj cpdv i get def
obj cpdobj ne {
/upd true def
exit
} if
} for
} {
/upd true def
} ifelse
} {
v type /dicttype eq {
v {
/dv exch def
/dk exch def
/cpddv cpdv dk get def
dv cpddv ne {
/upd true def
exit
} if
} forall
} {
/upd true def
} ifelse
} ifelse
} if
} ifelse
upd true eq {
d k v put
} if
} if
} if
} forall
d length 0 gt {
d setpagedevice
} if
} bd
/RE { % /NewFontName [NewEncodingArray] /FontName RE -
  findfont dup length dict begin
  {
    1 index /FID ne
    {def} {pop pop} ifelse
  } forall
  /Encoding exch def
  /FontName 1 index def
  currentdict definefont pop
  end
} bind def
%%EndResource
%%BeginResource: procset (Apache XML Graphics EPS ProcSet) 1.0 0
%%Version: 1.0 0
%%Copyright: (Copyright 2002-2003 The Apache Software Foundation. License terms: http://www.apache.org/licenses/LICENSE-2.0)
/BeginEPSF { %def
/b4_Inc_state save def         % Save state for cleanup
/dict_count countdictstack def % Count objects on dict stack
/op_count count 1 sub def      % Count objects on operand stack
userdict begin                 % Push userdict on dict stack
/showpage { } def              % Redefine showpage, { } = null proc
0 setgray 0 setlinecap         % Prepare graphics state
1 setlinewidth 0 setlinejoin
10 setmiterlimit [ ] 0 setdash newpath
/languagelevel where           % If level not equal to 1 then
{pop languagelevel             % set strokeadjust and
1 ne                           % overprint to their defaults.
{false setstrokeadjust false setoverprint
} if
} if
} bd
/EndEPSF { %def
count op_count sub {pop} repeat            % Clean up stacks
countdictstack dict_count sub {end} repeat
b4_Inc_state restore
} bd
%%EndResource
%FOPBeginFontDict
%%IncludeResource: font Courier-Bold
%%IncludeResource: font Helvetica
%%IncludeResource: font Courier-BoldOblique
%%IncludeResource: font Courier-Oblique
%%IncludeResource: font Times-Roman
%%IncludeResource: font Helvetica-BoldOblique
%%IncludeResource: font Helvetica-Bold
%%IncludeResource: font Helvetica-Oblique
%%IncludeResource: font Times-BoldItalic
%%IncludeResource: font Courier
%%IncludeResource: font Times-Italic
%%IncludeResource: font Times-Bold
%%IncludeResource: font Symbol
%%IncludeResource: font ZapfDingbats
%FOPEndFontDict
%%BeginResource: encoding WinAnsiEncoding
/WinAnsiEncoding [
/.notdef /.notdef /.notdef /.notdef /.notdef
/.notdef /.notdef /.notdef /.notdef /.notdef
/.notdef /.notdef /.notdef /.notdef /.notdef
/.notdef /.notdef /.notdef /.notdef /.notdef
/.notdef /.notdef /.notdef /.notdef /.notdef
/.notdef /.notdef /.notdef /.notdef /.notdef
/.notdef /.notdef /space /exclam /quotedbl
/numbersign /dollar /percent /ampersand /quotesingle
/parenleft /parenright /asterisk /plus /comma
/hyphen /period /slash /zero /one
/two /three /four /five /six
/seven /eight /nine /colon /semicolon
/less /equal /greater /question /at
/A /B /C /D /E
/F /G /H /I /J
/K /L /M /N /O
/P /Q /R /S /T
/U /V /W /X /Y
/Z /bracketleft /backslash /bracketright /asciicircum
/underscore /quoteleft /a /b /c
/d /e /f /g /h
/i /j /k /l /m
/n /o /p /q /r
/s /t /u /v /w
/x /y /z /braceleft /bar
/braceright /asciitilde /bullet /Euro /bullet
/quotesinglbase /florin /quotedblbase /ellipsis /dagger
/daggerdbl /circumflex /perthousand /Scaron /guilsinglleft
/OE /bullet /Zcaron /bullet /bullet
/quoteleft /quoteright /quotedblleft /quotedblright /bullet
/endash /emdash /asciitilde /trademark /scaron
/guilsinglright /oe /bullet /zcaron /Ydieresis
/space /exclamdown /cent /sterling /currency
/yen /brokenbar /section /dieresis /copyright
/ordfeminine /guillemotleft /logicalnot /sfthyphen /registered
/macron /degree /plusminus /twosuperior /threesuperior
/acute /mu /paragraph /middot /cedilla
/onesuperior /ordmasculine /guillemotright /onequarter /onehalf
/threequarters /questiondown /Agrave /Aacute /Acircumflex
/Atilde /Adieresis /Aring /AE /Ccedilla
/Egrave /Eacute /Ecircumflex /Edieresis /Igrave
/Iacute /Icircumflex /Idieresis /Eth /Ntilde
/Ograve /Oacute /Ocircumflex /Otilde /Odieresis
/multiply /Oslash /Ugrave /Uacute /Ucircumflex
/Udieresis /Yacute /Thorn /germandbls /agrave
/aacute /acircumflex /atilde /adieresis /aring
/ae /ccedilla /egrave /eacute /ecircumflex
/edieresis /igrave /iacute /icircumflex /idieresis
/eth /ntilde /ograve /oacute /ocircumflex
/otilde /odieresis /divide /oslash /ugrave
/uacute /ucircumflex /udieresis /yacute /thorn
/ydieresis
] def
%%EndResource
%FOPBeginFontReencode
/Courier-Bold findfont
dup length dict begin
  {1 index /FID ne {def} {pop pop} ifelse} forall
  /Encoding WinAnsiEncoding def
  currentdict
end
/Courier-Bold exch definefont pop
/Helvetica findfont
dup length dict begin
  {1 index /FID ne {def} {pop pop} ifelse} forall
  /Encoding WinAnsiEncoding def
  currentdict
end
/Helvetica exch definefont pop
/Courier-BoldOblique findfont
dup length dict begin
  {1 index /FID ne {def} {pop pop} ifelse} forall
  /Encoding WinAnsiEncoding def
  currentdict
end
/Courier-BoldOblique exch definefont pop
/Courier-Oblique findfont
dup length dict begin
  {1 index /FID ne {def} {pop pop} ifelse} forall
  /Encoding WinAnsiEncoding def
  currentdict
end
/Courier-Oblique exch definefont pop
/Times-Roman findfont
dup length dict begin
  {1 index /FID ne {def} {pop pop} ifelse} forall
  /Encoding WinAnsiEncoding def
  currentdict
end
/Times-Roman exch definefont pop
/Helvetica-BoldOblique findfont
dup length dict begin
  {1 index /FID ne {def} {pop pop} ifelse} forall
  /Encoding WinAnsiEncoding def
  currentdict
end
/Helvetica-BoldOblique exch definefont pop
/Helvetica-Bold findfont
dup length dict begin
  {1 index /FID ne {def} {pop pop} ifelse} forall
  /Encoding WinAnsiEncoding def
  currentdict
end
/Helvetica-Bold exch definefont pop
/Helvetica-Oblique findfont
dup length dict begin
  {1 index /FID ne {def} {pop pop} ifelse} forall
  /Encoding WinAnsiEncoding def
  currentdict
end
/Helvetica-Oblique exch definefont pop
/Times-BoldItalic findfont
dup length dict begin
  {1 index /FID ne {def} {pop pop} ifelse} forall
  /Encoding WinAnsiEncoding def
  currentdict
end
/Times-BoldItalic exch definefont pop
/Courier findfont
dup length dict begin
  {1 index /FID ne {def} {pop pop} ifelse} forall
  /Encoding WinAnsiEncoding def
  currentdict
end
/Courier exch definefont pop
/Times-Italic findfont
dup length dict begin
  {1 index /FID ne {def} {pop pop} ifelse} forall
  /Encoding WinAnsiEncoding def
  currentdict
end
/Times-Italic exch definefont pop
/Times-Bold findfont
dup length dict begin
  {1 index /FID ne {def} {pop pop} ifelse} forall
  /Encoding WinAnsiEncoding def
  currentdict
end
/Times-Bold exch definefont pop
%FOPEndFontReencode
%%EndProlog
%%Page: 1 1
%%PageBoundingBox: 0 0 747 595
%%BeginPageSetup
[1 0 0 -1 0 595] CT
%%EndPageSetup
GS
[0.75 0 0 0.75 0 0.25] CT
N
0 0 M
996 0 L
996 793 L
0 793 L
0 0 L
cp
clip
1 GC
N
0 0 996 793 re
f
GR
GS
[0.75 0 0 0.75 0 0.25] CT
1 GC
N
0 0 996 793 re
f
GR
GS
[0.75 0 0 0.75 0 0.25] CT
1 GC
N
129 706 M
901 706 L
901 59 L
129 59 L
cp
f
GR
GS
[0.75 0 0 0.75 0 0.25] CT
0.149 GC
2 setlinecap
1 LJ
0.667 LW
N
129 706 M
901 706 L
S
GR
GS
[0.75 0 0 0.75 0 0.25] CT
0.149 GC
2 setlinecap
1 LJ
0.667 LW
N
129 59 M
901 59 L
S
GR
GS
[0.75 0 0 0.75 0 0.25] CT
0.149 GC
2 setlinecap
1 LJ
0.667 LW
N
129 706 M
129 698.28 L
S
GR
GS
[0.75 0 0 0.75 0 0.25] CT
0.149 GC
2 setlinecap
1 LJ
0.667 LW
N
283.4 706 M
283.4 698.28 L
S
GR
GS
[0.75 0 0 0.75 0 0.25] CT
0.149 GC
2 setlinecap
1 LJ
0.667 LW
N
437.8 706 M
437.8 698.28 L
S
GR
GS
[0.75 0 0 0.75 0 0.25] CT
0.149 GC
2 setlinecap
1 LJ
0.667 LW
N
592.2 706 M
592.2 698.28 L
S
GR
GS
[0.75 0 0 0.75 0 0.25] CT
0.149 GC
2 setlinecap
1 LJ
0.667 LW
N
746.6 706 M
746.6 698.28 L
S
GR
GS
[0.75 0 0 0.75 0 0.25] CT
0.149 GC
2 setlinecap
1 LJ
0.667 LW
N
901 706 M
901 698.28 L
S
GR
GS
[0.75 0 0 0.75 0 0.25] CT
0.149 GC
2 setlinecap
1 LJ
0.667 LW
N
129 59 M
129 66.72 L
S
GR
GS
[0.75 0 0 0.75 0 0.25] CT
0.149 GC
2 setlinecap
1 LJ
0.667 LW
N
283.4 59 M
283.4 66.72 L
S
GR
GS
[0.75 0 0 0.75 0 0.25] CT
0.149 GC
2 setlinecap
1 LJ
0.667 LW
N
437.8 59 M
437.8 66.72 L
S
GR
GS
[0.75 0 0 0.75 0 0.25] CT
0.149 GC
2 setlinecap
1 LJ
0.667 LW
N
592.2 59 M
592.2 66.72 L
S
GR
GS
[0.75 0 0 0.75 0 0.25] CT
0.149 GC
2 setlinecap
1 LJ
0.667 LW
N
746.6 59 M
746.6 66.72 L
S
GR
GS
[0.75 0 0 0.75 0 0.25] CT
0.149 GC
2 setlinecap
1 LJ
0.667 LW
N
901 59 M
901 66.72 L
S
GR
GS
[0.75 0 0 0.75 96.75 535.35001] CT
0.149 GC
/Helvetica 24 F
GS
[1 0 0 1 0 0] CT
-7 25 moveto 
1 -1 scale
(0) t 
GR
GR
GS
[0.75 0 0 0.75 212.55 535.35001] CT
0.149 GC
/Helvetica 24 F
GS
[1 0 0 1 0 0] CT
-13.5 25 moveto 
1 -1 scale
(20) t 
GR
GR
GS
[0.75 0 0 0.75 328.34999 535.35001] CT
0.149 GC
/Helvetica 24 F
GS
[1 0 0 1 0 0] CT
-13.5 25 moveto 
1 -1 scale
(40) t 
GR
GR
GS
[0.75 0 0 0.75 444.15001 535.35001] CT
0.149 GC
/Helvetica 24 F
GS
[1 0 0 1 0 0] CT
-13.5 25 moveto 
1 -1 scale
(60) t 
GR
GR
GS
[0.75 0 0 0.75 559.94998 535.35001] CT
0.149 GC
/Helvetica 24 F
GS
[1 0 0 1 0 0] CT
-13.5 25 moveto 
1 -1 scale
(80) t 
GR
GR
GS
[0.75 0 0 0.75 675.75 535.35001] CT
0.149 GC
/Helvetica 24 F
GS
[1 0 0 1 0 0] CT
-20.5 25 moveto 
1 -1 scale
(100) t 
GR
GR
GS
[0.75 0 0 0.75 386.25027 559.60004] CT
0.149 GC
/Helvetica 26.4 F
GS
[1 0 0 1 0 0] CT
-46.5 27 moveto 
1 -1 scale
(Time [s]) t 
GR
GR
GS
[0.75 0 0 0.75 0 0.25] CT
0.149 GC
2 setlinecap
1 LJ
0.667 LW
N
129 706 M
129 59 L
S
GR
GS
[0.75 0 0 0.75 0 0.25] CT
0.149 GC
2 setlinecap
1 LJ
0.667 LW
N
901 706 M
901 59 L
S
GR
GS
[0.75 0 0 0.75 0 0.25] CT
0.149 GC
2 setlinecap
1 LJ
0.667 LW
N
129 706 M
136.72 706 L
S
GR
GS
[0.75 0 0 0.75 0 0.25] CT
0.149 GC
2 setlinecap
1 LJ
0.667 LW
N
129 613.571 M
136.72 613.571 L
S
GR
GS
[0.75 0 0 0.75 0 0.25] CT
0.149 GC
2 setlinecap
1 LJ
0.667 LW
N
129 521.143 M
136.72 521.143 L
S
GR
GS
[0.75 0 0 0.75 0 0.25] CT
0.149 GC
2 setlinecap
1 LJ
0.667 LW
N
129 428.714 M
136.72 428.714 L
S
GR
GS
[0.75 0 0 0.75 0 0.25] CT
0.149 GC
2 setlinecap
1 LJ
0.667 LW
N
129 336.286 M
136.72 336.286 L
S
GR
GS
[0.75 0 0 0.75 0 0.25] CT
0.149 GC
2 setlinecap
1 LJ
0.667 LW
N
129 243.857 M
136.72 243.857 L
S
GR
GS
[0.75 0 0 0.75 0 0.25] CT
0.149 GC
2 setlinecap
1 LJ
0.667 LW
N
129 151.429 M
136.72 151.429 L
S
GR
GS
[0.75 0 0 0.75 0 0.25] CT
0.149 GC
2 setlinecap
1 LJ
0.667 LW
N
129 59 M
136.72 59 L
S
GR
GS
[0.75 0 0 0.75 0 0.25] CT
0.149 GC
2 setlinecap
1 LJ
0.667 LW
N
901 706 M
893.28 706 L
S
GR
GS
[0.75 0 0 0.75 0 0.25] CT
0.149 GC
2 setlinecap
1 LJ
0.667 LW
N
901 613.571 M
893.28 613.571 L
S
GR
GS
[0.75 0 0 0.75 0 0.25] CT
0.149 GC
2 setlinecap
1 LJ
0.667 LW
N
901 521.143 M
893.28 521.143 L
S
GR
GS
[0.75 0 0 0.75 0 0.25] CT
0.149 GC
2 setlinecap
1 LJ
0.667 LW
N
901 428.714 M
893.28 428.714 L
S
GR
GS
[0.75 0 0 0.75 0 0.25] CT
0.149 GC
2 setlinecap
1 LJ
0.667 LW
N
901 336.286 M
893.28 336.286 L
S
GR
GS
[0.75 0 0 0.75 0 0.25] CT
0.149 GC
2 setlinecap
1 LJ
0.667 LW
N
901 243.857 M
893.28 243.857 L
S
GR
GS
[0.75 0 0 0.75 0 0.25] CT
0.149 GC
2 setlinecap
1 LJ
0.667 LW
N
901 151.429 M
893.28 151.429 L
S
GR
GS
[0.75 0 0 0.75 0 0.25] CT
0.149 GC
2 setlinecap
1 LJ
0.667 LW
N
901 59 M
893.28 59 L
S
GR
GS
[0.75 0 0 0.75 91.15 529.75] CT
0.149 GC
/Helvetica 24 F
GS
[1 0 0 1 0 0] CT
-62 9.5 moveto 
1 -1 scale
(-1000) t 
GR
GR
GS
[0.75 0 0 0.75 91.15 460.42856] CT
0.149 GC
/Helvetica 24 F
GS
[1 0 0 1 0 0] CT
-49 9.5 moveto 
1 -1 scale
(-800) t 
GR
GR
GS
[0.75 0 0 0.75 91.15 391.10716] CT
0.149 GC
/Helvetica 24 F
GS
[1 0 0 1 0 0] CT
-49 9.5 moveto 
1 -1 scale
(-600) t 
GR
GR
GS
[0.75 0 0 0.75 91.15 321.78572] CT
0.149 GC
/Helvetica 24 F
GS
[1 0 0 1 0 0] CT
-49 9.5 moveto 
1 -1 scale
(-400) t 
GR
GR
GS
[0.75 0 0 0.75 91.15 252.46428] CT
0.149 GC
/Helvetica 24 F
GS
[1 0 0 1 0 0] CT
-49 9.5 moveto 
1 -1 scale
(-200) t 
GR
GR
GS
[0.75 0 0 0.75 91.15 183.14286] CT
0.149 GC
/Helvetica 24 F
GS
[1 0 0 1 0 0] CT
-14 9.5 moveto 
1 -1 scale
(0) t 
GR
GR
GS
[0.75 0 0 0.75 91.15 113.82143] CT
0.149 GC
/Helvetica 24 F
GS
[1 0 0 1 0 0] CT
-41 9.5 moveto 
1 -1 scale
(200) t 
GR
GR
GS
[0.75 0 0 0.75 91.15 44.5] CT
0.149 GC
/Helvetica 24 F
GS
[1 0 0 1 0 0] CT
-41 9.5 moveto 
1 -1 scale
(400) t 
GR
GR
GS
[0.75 0 0 0.75 0 0.25] CT
0 0.447 0.741 RC
1 LJ
2.667 LW
N
136.72 210.568 M
144.44 161.77 L
152.16 187.321 L
159.88 226.691 L
167.6 237.056 L
175.32 238.816 L
183.04 237.368 L
190.76 228.843 L
198.48 193.362 L
206.2 157.695 L
213.92 206.2 L
221.64 233.049 L
229.36 238.335 L
237.08 238.965 L
244.8 236.285 L
252.52 222.325 L
260.24 174.672 L
267.96 167.046 L
275.68 219.247 L
283.4 235.96 L
291.12 239.31 L
298.84 238.848 L
306.56 234.978 L
314.28 214.475 L
322 159.595 L
329.72 181.279 L
337.44 226.607 L
345.16 237.605 L
352.88 239.532 L
360.6 238.728 L
368.32 233.564 L
376.04 206.61 L
383.76 151.217 L
391.48 193.402 L
399.2 231.117 L
406.92 238.524 L
414.64 239.611 L
422.36 238.617 L
430.08 231.724 L
437.8 198.375 L
445.52 148.244 L
453.24 202.496 L
460.96 233.396 L
468.68 238.531 L
476.4 239.848 L
484.12 238.806 L
491.84 230.743 L
499.56 191.266 L
507.28 147.109 L
515 207.955 L
522.72 234.402 L
530.44 238.364 L
538.16 239.853 L
545.88 239.341 L
553.6 231.372 L
561.32 189.06 L
569.04 143.225 L
576.76 208.628 L
584.48 234.855 L
592.2 238.587 L
599.92 239.993 L
607.64 240.145 L
615.36 234.34 L
623.08 197.86 L
630.8 135.167 L
638.52 199.953 L
646.24 234.038 L
653.96 239.478 L
661.68 240.391 L
669.4 241.162 L
677.12 239.262 L
684.84 222.484 L
692.56 145.918 L
700.28 157.12 L
708 220.586 L
715.72 240.15 L
723.44 239.569 L
731.16 242.528 L
738.88 242.22 L
746.6 246.952 L
754.32 265.341 L
762.04 258.17 L
769.76 284.983 L
777.48 358.313 L
785.2 362.899 L
792.92 314.837 L
800.64 255.276 L
808.36 248.72 L
816.08 191.701 L
823.8 176.822 L
831.52 203.404 L
839.24 227.226 L
846.96 214.156 L
854.68 207.639 L
862.4 228.223 L
870.12 219.772 L
877.84 195.428 L
885.56 205.629 L
893.28 231.219 L
901 230.084 L
S
GR
GS
[0.75 0 0 0.75 0 0.25] CT
0.851 0.325 0.098 RC
1 LJ
2.667 LW
N
136.72 207.232 M
144.44 170.508 L
152.16 188.343 L
159.88 223.089 L
167.6 237.173 L
175.32 236.878 L
183.04 237.921 L
190.76 226.054 L
198.48 198.655 L
206.2 172.883 L
213.92 193.087 L
221.64 225.705 L
229.36 242.087 L
237.08 239.695 L
244.8 235.199 L
252.52 218.69 L
260.24 191.193 L
267.96 174.616 L
275.68 197.675 L
283.4 232.677 L
291.12 256.617 L
298.84 238.907 L
306.56 220.979 L
314.28 213.493 L
322 184.828 L
329.72 177.349 L
337.44 199.51 L
345.16 237.644 L
352.88 262.675 L
360.6 259.658 L
368.32 209.576 L
376.04 194.345 L
383.76 189.214 L
391.48 187.008 L
399.2 204.846 L
406.92 241.131 L
414.64 258.665 L
422.36 247.911 L
430.08 207.622 L
437.8 189.936 L
445.52 181.146 L
453.24 194.532 L
460.96 205.425 L
468.68 231.948 L
476.4 257.662 L
484.12 257.19 L
491.84 218.522 L
499.56 166.456 L
507.28 175.558 L
515 194.206 L
522.72 207.933 L
530.44 236.245 L
538.16 263.429 L
545.88 275.989 L
553.6 223.171 L
561.32 154.551 L
569.04 166.259 L
576.76 210.375 L
584.48 214.518 L
592.2 208.949 L
599.92 250.976 L
607.64 272.21 L
615.36 239.125 L
623.08 164.912 L
630.8 153.104 L
638.52 181.112 L
646.24 214.653 L
653.96 210.166 L
661.68 257.121 L
669.4 366.943 L
677.12 211.183 L
684.84 173.368 L
692.56 170.806 L
700.28 174.53 L
708 223.999 L
715.72 215.242 L
723.44 222.371 L
731.16 318.42 L
738.88 223.499 L
746.6 177.467 L
754.32 187.034 L
762.04 186.535 L
769.76 202.856 L
777.48 178.174 L
785.2 227.311 L
792.92 336.531 L
800.64 256.632 L
808.36 188.533 L
816.08 190.991 L
823.8 214.963 L
831.52 210.081 L
839.24 209.777 L
846.96 172.552 L
854.68 272.517 L
862.4 239.621 L
870.12 222.474 L
877.84 218.855 L
885.56 201.866 L
893.28 190.468 L
901 199.894 L
S
GR
GS
[0.75 0 0 0.75 0 0.25] CT
0.929 0.694 0.125 RC
1 LJ
2.667 LW
N
136.72 209.696 M
144.44 169.489 L
152.16 182.512 L
159.88 228.308 L
167.6 243.168 L
175.32 246.174 L
183.04 226.16 L
190.76 213.362 L
198.48 184.101 L
206.2 179.189 L
213.92 201.493 L
221.64 241.533 L
229.36 282.539 L
237.08 306.009 L
244.8 283.673 L
252.52 199.519 L
260.24 162.025 L
267.96 150.117 L
275.68 194.513 L
283.4 255.298 L
291.12 253.732 L
298.84 239.275 L
306.56 246.899 L
314.28 217.431 L
322 178.782 L
329.72 165.982 L
337.44 189.383 L
345.16 237.878 L
352.88 233.792 L
360.6 218.536 L
368.32 238.462 L
376.04 226.149 L
383.76 208.476 L
391.48 233.371 L
399.2 264.063 L
406.92 271.521 L
414.64 247.234 L
422.36 182.519 L
430.08 193.484 L
437.8 216.641 L
445.52 216.875 L
453.24 218.936 L
460.96 250.206 L
468.68 276.717 L
476.4 287.338 L
484.12 240.821 L
491.84 168.643 L
499.56 180.613 L
507.28 197.693 L
515 225.649 L
522.72 234.793 L
530.44 267.051 L
538.16 257.023 L
545.88 224.98 L
553.6 203.411 L
561.32 176.586 L
569.04 187.564 L
576.76 220.489 L
584.48 250.984 L
592.2 245.673 L
599.92 246.714 L
607.64 217.16 L
615.36 207.229 L
623.08 212.965 L
630.8 200.361 L
638.52 194.977 L
646.24 221.019 L
653.96 257.561 L
661.68 249.946 L
669.4 219.774 L
677.12 187.033 L
684.84 230.507 L
692.56 230.983 L
700.28 206.275 L
708 179.168 L
715.72 214.663 L
723.44 250.817 L
731.16 228.781 L
738.88 218.731 L
746.6 201.058 L
754.32 227.855 L
762.04 225.799 L
769.76 194.729 L
777.48 175.576 L
785.2 224.314 L
792.92 253.55 L
800.64 233.967 L
808.36 210.736 L
816.08 175.621 L
823.8 213.33 L
831.52 218.854 L
839.24 196.356 L
846.96 181.541 L
854.68 221.665 L
862.4 242.7 L
870.12 229.851 L
877.84 191.63 L
885.56 177.596 L
893.28 218.041 L
901 212.731 L
S
GR
GS
[0.75 0 0 0.75 0 0.25] CT
0.494 0.184 0.557 RC
1 LJ
2.667 LW
N
136.72 206.848 M
144.44 158.821 L
152.16 191.852 L
159.88 228.524 L
167.6 236.14 L
175.32 235.767 L
183.04 232.246 L
190.76 219.904 L
198.48 178.555 L
206.2 174.362 L
213.92 217.67 L
221.64 234.283 L
229.36 237.185 L
237.08 235.099 L
244.8 223.46 L
252.52 188.89 L
260.24 170.349 L
267.96 210.298 L
275.68 231.908 L
283.4 236.5 L
291.12 233.577 L
298.84 221.681 L
306.56 196.699 L
314.28 177.592 L
322 203.051 L
329.72 226.955 L
337.44 234.057 L
345.16 231.827 L
352.88 223.754 L
360.6 200.874 L
368.32 180.318 L
376.04 204.563 L
383.76 225.863 L
391.48 231.321 L
399.2 225.616 L
406.92 216.553 L
414.64 203.986 L
422.36 198.152 L
430.08 205.93 L
437.8 218.273 L
445.52 222.132 L
453.24 217.43 L
460.96 214.911 L
468.68 215.227 L
476.4 208.5 L
484.12 202.262 L
491.84 208.074 L
499.56 218.876 L
507.28 219.861 L
515 219.508 L
522.72 215.144 L
530.44 211.107 L
538.16 205.107 L
545.88 206.192 L
553.6 213.749 L
561.32 220.451 L
569.04 220 L
576.76 215.736 L
584.48 213.995 L
592.2 211.071 L
599.92 205.348 L
607.64 208.014 L
615.36 216.966 L
623.08 222.298 L
630.8 220.591 L
638.52 215.213 L
646.24 209.061 L
653.96 207.698 L
661.68 208.565 L
669.4 212.952 L
677.12 219.845 L
684.84 222.775 L
692.56 218.833 L
700.28 211.04 L
708 205.928 L
715.72 208.925 L
723.44 213.523 L
731.16 217.529 L
738.88 220.969 L
746.6 221.762 L
754.32 215.455 L
762.04 205.547 L
769.76 204.823 L
777.48 214.248 L
785.2 218.71 L
792.92 218.966 L
800.64 219.493 L
808.36 218.366 L
816.08 211.323 L
823.8 203.128 L
831.52 208.1 L
839.24 219.334 L
846.96 222.289 L
854.68 218.746 L
862.4 215.966 L
870.12 214.443 L
877.84 208.629 L
885.56 204.652 L
893.28 213.272 L
901 222.53 L
S
GR
GS
[0.75 0 0 0.75 0 0.25] CT
0.467 0.675 0.188 RC
1 LJ
2.667 LW
N
136.72 210.399 M
144.44 159.96 L
152.16 187.303 L
159.88 227.589 L
167.6 237.466 L
175.32 239.302 L
183.04 239.043 L
190.76 234.24 L
198.48 204.496 L
206.2 147.573 L
213.92 195.151 L
221.64 231.656 L
229.36 238.469 L
237.08 241.221 L
244.8 243.361 L
252.52 244.142 L
260.24 246.255 L
267.96 266.151 L
275.68 401.378 L
283.4 475.263 L
291.12 470.322 L
298.84 468.357 L
306.56 468.191 L
314.28 470.255 L
322 464.063 L
329.72 463.687 L
337.44 466.883 L
345.16 549.499 L
352.88 632.67 L
360.6 627.233 L
368.32 473.737 L
376.04 568.807 L
383.76 631.39 L
391.48 630.472 L
399.2 583.162 L
406.92 630.022 L
414.64 631.396 L
422.36 629.494 L
430.08 629.358 L
437.8 631.154 L
445.52 631.154 L
453.24 631.79 L
460.96 629.418 L
468.68 633.433 L
476.4 629.518 L
484.12 629.591 L
491.84 629.094 L
499.56 629.221 L
507.28 632.697 L
515 633.131 L
522.72 633.255 L
530.44 630.07 L
538.16 628.691 L
545.88 632.694 L
553.6 633.515 L
561.32 634.883 L
569.04 633.177 L
576.76 635.609 L
584.48 634.871 L
592.2 636.606 L
599.92 634.767 L
607.64 634.127 L
615.36 634.508 L
623.08 635.298 L
630.8 636.127 L
638.52 634.947 L
646.24 633.825 L
653.96 633.744 L
661.68 635.339 L
669.4 635.143 L
677.12 635.161 L
684.84 634.387 L
692.56 634.451 L
700.28 635.974 L
708 636.277 L
715.72 635.739 L
723.44 635.441 L
731.16 635.847 L
738.88 636.459 L
746.6 637.461 L
754.32 635.836 L
762.04 635.286 L
769.76 635.806 L
777.48 636.213 L
785.2 636.637 L
792.92 636.018 L
800.64 634.87 L
808.36 635.432 L
816.08 636.484 L
823.8 636.038 L
831.52 636.13 L
839.24 635.334 L
846.96 635.516 L
854.68 637.099 L
862.4 636.878 L
870.12 635.952 L
877.84 636.077 L
885.56 635.996 L
893.28 636.798 L
901 637.524 L
S
GR
GS
[0.75 0 0 0.75 0 0.25] CT
0.302 0.745 0.933 RC
1 LJ
2.667 LW
N
136.72 210.583 M
144.44 161.596 L
152.16 187.476 L
159.88 227.22 L
167.6 237.387 L
175.32 238.774 L
183.04 237.387 L
190.76 229.069 L
198.48 193.021 L
206.2 156.974 L
213.92 206.886 L
221.64 233.228 L
229.36 238.311 L
237.08 239.236 L
244.8 236.925 L
252.52 223.061 L
260.24 174.074 L
267.96 165.755 L
275.68 219.364 L
283.4 235.539 L
291.12 238.311 L
298.84 239.698 L
306.56 236.001 L
314.28 216.129 L
322 159.747 L
329.72 177.771 L
337.44 226.296 L
345.16 237.849 L
352.88 239.698 L
360.6 239.698 L
368.32 235.076 L
376.04 211.045 L
383.76 150.966 L
391.48 185.627 L
399.2 229.993 L
406.92 238.311 L
414.64 239.698 L
422.36 240.16 L
430.08 235.539 L
437.8 211.507 L
445.52 146.345 L
453.24 183.316 L
460.96 229.993 L
468.68 238.774 L
476.4 240.16 L
484.12 240.16 L
491.84 237.849 L
499.56 222.136 L
507.28 155.126 L
515 161.134 L
522.72 225.371 L
530.44 237.849 L
538.16 239.698 L
545.88 240.622 L
553.6 240.622 L
561.32 237.387 L
569.04 211.045 L
576.76 126.011 L
584.48 183.316 L
592.2 232.766 L
599.92 239.698 L
607.64 240.622 L
615.36 240.622 L
623.08 241.546 L
630.8 242.009 L
638.52 242.471 L
646.24 240.16 L
653.96 234.614 L
661.68 237.849 L
669.4 239.236 L
677.12 237.849 L
684.84 234.614 L
692.56 229.531 L
700.28 224.447 L
708 217.515 L
715.72 212.431 L
723.44 211.507 L
731.16 216.591 L
738.88 221.674 L
746.6 222.599 L
754.32 220.288 L
762.04 215.666 L
769.76 211.507 L
777.48 212.894 L
785.2 217.515 L
792.92 221.674 L
800.64 222.136 L
808.36 219.364 L
816.08 213.818 L
823.8 210.583 L
831.52 212.894 L
839.24 217.515 L
846.96 222.136 L
854.68 222.136 L
862.4 218.901 L
870.12 212.894 L
877.84 210.121 L
885.56 213.356 L
893.28 218.901 L
901 221.674 L
S
GR
GS
[0.75 0 0 0.75 0 0.25] CT
1 GC
N
608 579 M
608 404 L
848 404 L
848 579 L
cp
f
GR
GS
[0.75 0 0 0.75 483.75 315.28438] CT
/Helvetica 21.6 F
GS
[1 0 0 1 0 0] CT
0 9 moveto 
1 -1 scale
(Approximation1) t 
GR
GR
GS
[0.75 0 0 0.75 0 0.25] CT
0 0.447 0.741 RC
1 LJ
2.667 LW
N
612 420.046 M
642 420.046 L
S
GR
GS
[0.75 0 0 0.75 483.75 336.72063] CT
/Helvetica 21.6 F
GS
[1 0 0 1 0 0] CT
0 9 moveto 
1 -1 scale
(Approximation2) t 
GR
GR
GS
[0.75 0 0 0.75 0 0.25] CT
0.851 0.325 0.098 RC
1 LJ
2.667 LW
N
612 448.628 M
642 448.628 L
S
GR
GS
[0.75 0 0 0.75 483.75 358.15688] CT
/Helvetica 21.6 F
GS
[1 0 0 1 0 0] CT
0 9 moveto 
1 -1 scale
(Approximation3) t 
GR
GR
GS
[0.75 0 0 0.75 0 0.25] CT
0.929 0.694 0.125 RC
1 LJ
2.667 LW
N
612 477.209 M
642 477.209 L
S
GR
GS
[0.75 0 0 0.75 483.75 379.59312] CT
/Helvetica 21.6 F
GS
[1 0 0 1 0 0] CT
0 9 moveto 
1 -1 scale
(Approximation4) t 
GR
GR
GS
[0.75 0 0 0.75 0 0.25] CT
0.494 0.184 0.557 RC
1 LJ
2.667 LW
N
612 505.791 M
642 505.791 L
S
GR
GS
[0.75 0 0 0.75 483.75 401.02937] CT
/Helvetica 21.6 F
GS
[1 0 0 1 0 0] CT
0 9 moveto 
1 -1 scale
(Approximation5) t 
GR
GR
GS
[0.75 0 0 0.75 0 0.25] CT
0.467 0.675 0.188 RC
1 LJ
2.667 LW
N
612 534.372 M
642 534.372 L
S
GR
GS
[0.75 0 0 0.75 483.75 422.46562] CT
/Helvetica 21.6 F
GS
[1 0 0 1 0 0] CT
0 9 moveto 
1 -1 scale
(Laser Prediction Set) t 
GR
GR
GS
[0.75 0 0 0.75 0 0.25] CT
0.302 0.745 0.933 RC
1 LJ
2.667 LW
N
612 562.954 M
642 562.954 L
S
GR
GS
[0.75 0 0 0.75 0 0.25] CT
0.149 GC
10.0 ML
0.667 LW
N
608 579 M
608 404 L
848 404 L
848 579 L
cp
S
GR
%%Trailer
%%Pages: 1
%%EOF
