%!PS-Adobe-3.0 EPSF-3.0
%%Creator: (MATLAB, The Mathworks, Inc. Version 9.1.0.441655 \(R2016b\). Operating System: Windows 8)
%%Title: (C:/Users/Eigenaar/WIT/Data Mining/data-mining/Session 2/plots/p22h27.eps)
%%CreationDate: 2017-11-22T15:31:41
%%Pages: (atend)
%%BoundingBox: 0 0 950 614
%%LanguageLevel: 3
%%EndComments
%%BeginProlog
%%BeginResource: procset (Apache XML Graphics Std ProcSet) 1.2 0
%%Version: 1.2 0
%%Copyright: (Copyright 2001-2003,2010 The Apache Software Foundation. License terms: http://www.apache.org/licenses/LICENSE-2.0)
/bd{bind def}bind def
/ld{load def}bd
/GR/grestore ld
/M/moveto ld
/LJ/setlinejoin ld
/C/curveto ld
/f/fill ld
/LW/setlinewidth ld
/GC/setgray ld
/t/show ld
/N/newpath ld
/CT/concat ld
/cp/closepath ld
/S/stroke ld
/L/lineto ld
/CC/setcmykcolor ld
/A/ashow ld
/GS/gsave ld
/RC/setrgbcolor ld
/RM/rmoveto ld
/ML/setmiterlimit ld
/re {4 2 roll M
1 index 0 rlineto
0 exch rlineto
neg 0 rlineto
cp } bd
/_ctm matrix def
/_tm matrix def
/BT { _ctm currentmatrix pop matrix _tm copy pop 0 0 moveto } bd
/ET { _ctm setmatrix } bd
/iTm { _ctm setmatrix _tm concat } bd
/Tm { _tm astore pop iTm 0 0 moveto } bd
/ux 0.0 def
/uy 0.0 def
/F {
  /Tp exch def
  /Tf exch def
  Tf findfont Tp scalefont setfont
  /cf Tf def  /cs Tp def
} bd
/ULS {currentpoint /uy exch def /ux exch def} bd
/ULE {
  /Tcx currentpoint pop def
  gsave
  newpath
  cf findfont cs scalefont dup
  /FontMatrix get 0 get /Ts exch def /FontInfo get dup
  /UnderlinePosition get Ts mul /To exch def
  /UnderlineThickness get Ts mul /Tt exch def
  ux uy To add moveto  Tcx uy To add lineto
  Tt setlinewidth stroke
  grestore
} bd
/OLE {
  /Tcx currentpoint pop def
  gsave
  newpath
  cf findfont cs scalefont dup
  /FontMatrix get 0 get /Ts exch def /FontInfo get dup
  /UnderlinePosition get Ts mul /To exch def
  /UnderlineThickness get Ts mul /Tt exch def
  ux uy To add cs add moveto Tcx uy To add cs add lineto
  Tt setlinewidth stroke
  grestore
} bd
/SOE {
  /Tcx currentpoint pop def
  gsave
  newpath
  cf findfont cs scalefont dup
  /FontMatrix get 0 get /Ts exch def /FontInfo get dup
  /UnderlinePosition get Ts mul /To exch def
  /UnderlineThickness get Ts mul /Tt exch def
  ux uy To add cs 10 mul 26 idiv add moveto Tcx uy To add cs 10 mul 26 idiv add lineto
  Tt setlinewidth stroke
  grestore
} bd
/QT {
/Y22 exch store
/X22 exch store
/Y21 exch store
/X21 exch store
currentpoint
/Y21 load 2 mul add 3 div exch
/X21 load 2 mul add 3 div exch
/X21 load 2 mul /X22 load add 3 div
/Y21 load 2 mul /Y22 load add 3 div
/X22 load /Y22 load curveto
} bd
/SSPD {
dup length /d exch dict def
{
/v exch def
/k exch def
currentpagedevice k known {
/cpdv currentpagedevice k get def
v cpdv ne {
/upd false def
/nullv v type /nulltype eq def
/nullcpdv cpdv type /nulltype eq def
nullv nullcpdv or
{
/upd true def
} {
/sametype v type cpdv type eq def
sametype {
v type /arraytype eq {
/vlen v length def
/cpdvlen cpdv length def
vlen cpdvlen eq {
0 1 vlen 1 sub {
/i exch def
/obj v i get def
/cpdobj cpdv i get def
obj cpdobj ne {
/upd true def
exit
} if
} for
} {
/upd true def
} ifelse
} {
v type /dicttype eq {
v {
/dv exch def
/dk exch def
/cpddv cpdv dk get def
dv cpddv ne {
/upd true def
exit
} if
} forall
} {
/upd true def
} ifelse
} ifelse
} if
} ifelse
upd true eq {
d k v put
} if
} if
} if
} forall
d length 0 gt {
d setpagedevice
} if
} bd
/RE { % /NewFontName [NewEncodingArray] /FontName RE -
  findfont dup length dict begin
  {
    1 index /FID ne
    {def} {pop pop} ifelse
  } forall
  /Encoding exch def
  /FontName 1 index def
  currentdict definefont pop
  end
} bind def
%%EndResource
%%BeginResource: procset (Apache XML Graphics EPS ProcSet) 1.0 0
%%Version: 1.0 0
%%Copyright: (Copyright 2002-2003 The Apache Software Foundation. License terms: http://www.apache.org/licenses/LICENSE-2.0)
/BeginEPSF { %def
/b4_Inc_state save def         % Save state for cleanup
/dict_count countdictstack def % Count objects on dict stack
/op_count count 1 sub def      % Count objects on operand stack
userdict begin                 % Push userdict on dict stack
/showpage { } def              % Redefine showpage, { } = null proc
0 setgray 0 setlinecap         % Prepare graphics state
1 setlinewidth 0 setlinejoin
10 setmiterlimit [ ] 0 setdash newpath
/languagelevel where           % If level not equal to 1 then
{pop languagelevel             % set strokeadjust and
1 ne                           % overprint to their defaults.
{false setstrokeadjust false setoverprint
} if
} if
} bd
/EndEPSF { %def
count op_count sub {pop} repeat            % Clean up stacks
countdictstack dict_count sub {end} repeat
b4_Inc_state restore
} bd
%%EndResource
%FOPBeginFontDict
%%IncludeResource: font Courier-Bold
%%IncludeResource: font Helvetica
%%IncludeResource: font Courier-BoldOblique
%%IncludeResource: font Courier-Oblique
%%IncludeResource: font Times-Roman
%%IncludeResource: font Helvetica-BoldOblique
%%IncludeResource: font Helvetica-Bold
%%IncludeResource: font Helvetica-Oblique
%%IncludeResource: font Times-BoldItalic
%%IncludeResource: font Courier
%%IncludeResource: font Times-Italic
%%IncludeResource: font Times-Bold
%%IncludeResource: font Symbol
%%IncludeResource: font ZapfDingbats
%FOPEndFontDict
%%BeginResource: encoding WinAnsiEncoding
/WinAnsiEncoding [
/.notdef /.notdef /.notdef /.notdef /.notdef
/.notdef /.notdef /.notdef /.notdef /.notdef
/.notdef /.notdef /.notdef /.notdef /.notdef
/.notdef /.notdef /.notdef /.notdef /.notdef
/.notdef /.notdef /.notdef /.notdef /.notdef
/.notdef /.notdef /.notdef /.notdef /.notdef
/.notdef /.notdef /space /exclam /quotedbl
/numbersign /dollar /percent /ampersand /quotesingle
/parenleft /parenright /asterisk /plus /comma
/hyphen /period /slash /zero /one
/two /three /four /five /six
/seven /eight /nine /colon /semicolon
/less /equal /greater /question /at
/A /B /C /D /E
/F /G /H /I /J
/K /L /M /N /O
/P /Q /R /S /T
/U /V /W /X /Y
/Z /bracketleft /backslash /bracketright /asciicircum
/underscore /quoteleft /a /b /c
/d /e /f /g /h
/i /j /k /l /m
/n /o /p /q /r
/s /t /u /v /w
/x /y /z /braceleft /bar
/braceright /asciitilde /bullet /Euro /bullet
/quotesinglbase /florin /quotedblbase /ellipsis /dagger
/daggerdbl /circumflex /perthousand /Scaron /guilsinglleft
/OE /bullet /Zcaron /bullet /bullet
/quoteleft /quoteright /quotedblleft /quotedblright /bullet
/endash /emdash /asciitilde /trademark /scaron
/guilsinglright /oe /bullet /zcaron /Ydieresis
/space /exclamdown /cent /sterling /currency
/yen /brokenbar /section /dieresis /copyright
/ordfeminine /guillemotleft /logicalnot /sfthyphen /registered
/macron /degree /plusminus /twosuperior /threesuperior
/acute /mu /paragraph /middot /cedilla
/onesuperior /ordmasculine /guillemotright /onequarter /onehalf
/threequarters /questiondown /Agrave /Aacute /Acircumflex
/Atilde /Adieresis /Aring /AE /Ccedilla
/Egrave /Eacute /Ecircumflex /Edieresis /Igrave
/Iacute /Icircumflex /Idieresis /Eth /Ntilde
/Ograve /Oacute /Ocircumflex /Otilde /Odieresis
/multiply /Oslash /Ugrave /Uacute /Ucircumflex
/Udieresis /Yacute /Thorn /germandbls /agrave
/aacute /acircumflex /atilde /adieresis /aring
/ae /ccedilla /egrave /eacute /ecircumflex
/edieresis /igrave /iacute /icircumflex /idieresis
/eth /ntilde /ograve /oacute /ocircumflex
/otilde /odieresis /divide /oslash /ugrave
/uacute /ucircumflex /udieresis /yacute /thorn
/ydieresis
] def
%%EndResource
%FOPBeginFontReencode
/Courier-Bold findfont
dup length dict begin
  {1 index /FID ne {def} {pop pop} ifelse} forall
  /Encoding WinAnsiEncoding def
  currentdict
end
/Courier-Bold exch definefont pop
/Helvetica findfont
dup length dict begin
  {1 index /FID ne {def} {pop pop} ifelse} forall
  /Encoding WinAnsiEncoding def
  currentdict
end
/Helvetica exch definefont pop
/Courier-BoldOblique findfont
dup length dict begin
  {1 index /FID ne {def} {pop pop} ifelse} forall
  /Encoding WinAnsiEncoding def
  currentdict
end
/Courier-BoldOblique exch definefont pop
/Courier-Oblique findfont
dup length dict begin
  {1 index /FID ne {def} {pop pop} ifelse} forall
  /Encoding WinAnsiEncoding def
  currentdict
end
/Courier-Oblique exch definefont pop
/Times-Roman findfont
dup length dict begin
  {1 index /FID ne {def} {pop pop} ifelse} forall
  /Encoding WinAnsiEncoding def
  currentdict
end
/Times-Roman exch definefont pop
/Helvetica-BoldOblique findfont
dup length dict begin
  {1 index /FID ne {def} {pop pop} ifelse} forall
  /Encoding WinAnsiEncoding def
  currentdict
end
/Helvetica-BoldOblique exch definefont pop
/Helvetica-Bold findfont
dup length dict begin
  {1 index /FID ne {def} {pop pop} ifelse} forall
  /Encoding WinAnsiEncoding def
  currentdict
end
/Helvetica-Bold exch definefont pop
/Helvetica-Oblique findfont
dup length dict begin
  {1 index /FID ne {def} {pop pop} ifelse} forall
  /Encoding WinAnsiEncoding def
  currentdict
end
/Helvetica-Oblique exch definefont pop
/Times-BoldItalic findfont
dup length dict begin
  {1 index /FID ne {def} {pop pop} ifelse} forall
  /Encoding WinAnsiEncoding def
  currentdict
end
/Times-BoldItalic exch definefont pop
/Courier findfont
dup length dict begin
  {1 index /FID ne {def} {pop pop} ifelse} forall
  /Encoding WinAnsiEncoding def
  currentdict
end
/Courier exch definefont pop
/Times-Italic findfont
dup length dict begin
  {1 index /FID ne {def} {pop pop} ifelse} forall
  /Encoding WinAnsiEncoding def
  currentdict
end
/Times-Italic exch definefont pop
/Times-Bold findfont
dup length dict begin
  {1 index /FID ne {def} {pop pop} ifelse} forall
  /Encoding WinAnsiEncoding def
  currentdict
end
/Times-Bold exch definefont pop
%FOPEndFontReencode
%%EndProlog
%%Page: 1 1
%%PageBoundingBox: 0 0 950 614
%%BeginPageSetup
[1 0 0 -1 0 614] CT
%%EndPageSetup
GS
[0.75 0 0 0.75 0 -0.25] CT
1 GC
N
0 0 1267 819 re
f
GR
GS
[0.75 0 0 0.75 0 -0.25] CT
1 GC
N
0 0 1267 819 re
f
GR
GS
[0.75 0 0 0.75 0 -0.25] CT
1 GC
N
165 729 M
1147 729 L
1147 61 L
165 61 L
cp
f
GR
GS
[0.75 0 0 0.75 0 -0.25] CT
0.149 GC
2 setlinecap
1 LJ
0.667 LW
N
165 729 M
1147 729 L
S
GR
GS
[0.75 0 0 0.75 0 -0.25] CT
0.149 GC
2 setlinecap
1 LJ
0.667 LW
N
165 61 M
1147 61 L
S
GR
GS
[0.75 0 0 0.75 0 -0.25] CT
0.149 GC
2 setlinecap
1 LJ
0.667 LW
N
165 729 M
165 719.18 L
S
GR
GS
[0.75 0 0 0.75 0 -0.25] CT
0.149 GC
2 setlinecap
1 LJ
0.667 LW
N
263.2 729 M
263.2 719.18 L
S
GR
GS
[0.75 0 0 0.75 0 -0.25] CT
0.149 GC
2 setlinecap
1 LJ
0.667 LW
N
361.4 729 M
361.4 719.18 L
S
GR
GS
[0.75 0 0 0.75 0 -0.25] CT
0.149 GC
2 setlinecap
1 LJ
0.667 LW
N
459.6 729 M
459.6 719.18 L
S
GR
GS
[0.75 0 0 0.75 0 -0.25] CT
0.149 GC
2 setlinecap
1 LJ
0.667 LW
N
557.8 729 M
557.8 719.18 L
S
GR
GS
[0.75 0 0 0.75 0 -0.25] CT
0.149 GC
2 setlinecap
1 LJ
0.667 LW
N
656 729 M
656 719.18 L
S
GR
GS
[0.75 0 0 0.75 0 -0.25] CT
0.149 GC
2 setlinecap
1 LJ
0.667 LW
N
754.2 729 M
754.2 719.18 L
S
GR
GS
[0.75 0 0 0.75 0 -0.25] CT
0.149 GC
2 setlinecap
1 LJ
0.667 LW
N
852.4 729 M
852.4 719.18 L
S
GR
GS
[0.75 0 0 0.75 0 -0.25] CT
0.149 GC
2 setlinecap
1 LJ
0.667 LW
N
950.6 729 M
950.6 719.18 L
S
GR
GS
[0.75 0 0 0.75 0 -0.25] CT
0.149 GC
2 setlinecap
1 LJ
0.667 LW
N
1048.8 729 M
1048.8 719.18 L
S
GR
GS
[0.75 0 0 0.75 0 -0.25] CT
0.149 GC
2 setlinecap
1 LJ
0.667 LW
N
1147 729 M
1147 719.18 L
S
GR
GS
[0.75 0 0 0.75 0 -0.25] CT
0.149 GC
2 setlinecap
1 LJ
0.667 LW
N
165 61 M
165 70.82 L
S
GR
GS
[0.75 0 0 0.75 0 -0.25] CT
0.149 GC
2 setlinecap
1 LJ
0.667 LW
N
263.2 61 M
263.2 70.82 L
S
GR
GS
[0.75 0 0 0.75 0 -0.25] CT
0.149 GC
2 setlinecap
1 LJ
0.667 LW
N
361.4 61 M
361.4 70.82 L
S
GR
GS
[0.75 0 0 0.75 0 -0.25] CT
0.149 GC
2 setlinecap
1 LJ
0.667 LW
N
459.6 61 M
459.6 70.82 L
S
GR
GS
[0.75 0 0 0.75 0 -0.25] CT
0.149 GC
2 setlinecap
1 LJ
0.667 LW
N
557.8 61 M
557.8 70.82 L
S
GR
GS
[0.75 0 0 0.75 0 -0.25] CT
0.149 GC
2 setlinecap
1 LJ
0.667 LW
N
656 61 M
656 70.82 L
S
GR
GS
[0.75 0 0 0.75 0 -0.25] CT
0.149 GC
2 setlinecap
1 LJ
0.667 LW
N
754.2 61 M
754.2 70.82 L
S
GR
GS
[0.75 0 0 0.75 0 -0.25] CT
0.149 GC
2 setlinecap
1 LJ
0.667 LW
N
852.4 61 M
852.4 70.82 L
S
GR
GS
[0.75 0 0 0.75 0 -0.25] CT
0.149 GC
2 setlinecap
1 LJ
0.667 LW
N
950.6 61 M
950.6 70.82 L
S
GR
GS
[0.75 0 0 0.75 0 -0.25] CT
0.149 GC
2 setlinecap
1 LJ
0.667 LW
N
1048.8 61 M
1048.8 70.82 L
S
GR
GS
[0.75 0 0 0.75 0 -0.25] CT
0.149 GC
2 setlinecap
1 LJ
0.667 LW
N
1147 61 M
1147 70.82 L
S
GR
GS
[0.75 0 0 0.75 123.75 552.10001] CT
0.149 GC
/Helvetica 24 F
GS
[1 0 0 1 0 0] CT
-7 25 moveto 
1 -1 scale
(0) t 
GR
GR
GS
[0.75 0 0 0.75 197.40001 552.10001] CT
0.149 GC
/Helvetica 24 F
GS
[1 0 0 1 0 0] CT
-13.5 25 moveto 
1 -1 scale
(10) t 
GR
GR
GS
[0.75 0 0 0.75 271.05 552.10001] CT
0.149 GC
/Helvetica 24 F
GS
[1 0 0 1 0 0] CT
-13.5 25 moveto 
1 -1 scale
(20) t 
GR
GR
GS
[0.75 0 0 0.75 344.7 552.10001] CT
0.149 GC
/Helvetica 24 F
GS
[1 0 0 1 0 0] CT
-13.5 25 moveto 
1 -1 scale
(30) t 
GR
GR
GS
[0.75 0 0 0.75 418.34999 552.10001] CT
0.149 GC
/Helvetica 24 F
GS
[1 0 0 1 0 0] CT
-13.5 25 moveto 
1 -1 scale
(40) t 
GR
GR
GS
[0.75 0 0 0.75 492 552.10001] CT
0.149 GC
/Helvetica 24 F
GS
[1 0 0 1 0 0] CT
-13.5 25 moveto 
1 -1 scale
(50) t 
GR
GR
GS
[0.75 0 0 0.75 565.65001 552.10001] CT
0.149 GC
/Helvetica 24 F
GS
[1 0 0 1 0 0] CT
-13.5 25 moveto 
1 -1 scale
(60) t 
GR
GR
GS
[0.75 0 0 0.75 639.30002 552.10001] CT
0.149 GC
/Helvetica 24 F
GS
[1 0 0 1 0 0] CT
-13.5 25 moveto 
1 -1 scale
(70) t 
GR
GR
GS
[0.75 0 0 0.75 712.94998 552.10001] CT
0.149 GC
/Helvetica 24 F
GS
[1 0 0 1 0 0] CT
-13.5 25 moveto 
1 -1 scale
(80) t 
GR
GR
GS
[0.75 0 0 0.75 786.60004 552.10001] CT
0.149 GC
/Helvetica 24 F
GS
[1 0 0 1 0 0] CT
-13.5 25 moveto 
1 -1 scale
(90) t 
GR
GR
GS
[0.75 0 0 0.75 860.25 552.10001] CT
0.149 GC
/Helvetica 24 F
GS
[1 0 0 1 0 0] CT
-20.5 25 moveto 
1 -1 scale
(100) t 
GR
GR
GS
[0.75 0 0 0.75 492.00032 576.34999] CT
0.149 GC
/Helvetica 26.4 F
GS
[1 0 0 1 0 0] CT
-46.5 27 moveto 
1 -1 scale
(Time [s]) t 
GR
GR
GS
[0.75 0 0 0.75 0 -0.25] CT
0.149 GC
2 setlinecap
1 LJ
0.667 LW
N
165 729 M
165 61 L
S
GR
GS
[0.75 0 0 0.75 0 -0.25] CT
0.149 GC
2 setlinecap
1 LJ
0.667 LW
N
1147 729 M
1147 61 L
S
GR
GS
[0.75 0 0 0.75 0 -0.25] CT
0.149 GC
2 setlinecap
1 LJ
0.667 LW
N
165 729 M
174.82 729 L
S
GR
GS
[0.75 0 0 0.75 0 -0.25] CT
0.149 GC
2 setlinecap
1 LJ
0.667 LW
N
165 633.571 M
174.82 633.571 L
S
GR
GS
[0.75 0 0 0.75 0 -0.25] CT
0.149 GC
2 setlinecap
1 LJ
0.667 LW
N
165 538.143 M
174.82 538.143 L
S
GR
GS
[0.75 0 0 0.75 0 -0.25] CT
0.149 GC
2 setlinecap
1 LJ
0.667 LW
N
165 442.714 M
174.82 442.714 L
S
GR
GS
[0.75 0 0 0.75 0 -0.25] CT
0.149 GC
2 setlinecap
1 LJ
0.667 LW
N
165 347.286 M
174.82 347.286 L
S
GR
GS
[0.75 0 0 0.75 0 -0.25] CT
0.149 GC
2 setlinecap
1 LJ
0.667 LW
N
165 251.857 M
174.82 251.857 L
S
GR
GS
[0.75 0 0 0.75 0 -0.25] CT
0.149 GC
2 setlinecap
1 LJ
0.667 LW
N
165 156.429 M
174.82 156.429 L
S
GR
GS
[0.75 0 0 0.75 0 -0.25] CT
0.149 GC
2 setlinecap
1 LJ
0.667 LW
N
165 61 M
174.82 61 L
S
GR
GS
[0.75 0 0 0.75 0 -0.25] CT
0.149 GC
2 setlinecap
1 LJ
0.667 LW
N
1147 729 M
1137.18 729 L
S
GR
GS
[0.75 0 0 0.75 0 -0.25] CT
0.149 GC
2 setlinecap
1 LJ
0.667 LW
N
1147 633.571 M
1137.18 633.571 L
S
GR
GS
[0.75 0 0 0.75 0 -0.25] CT
0.149 GC
2 setlinecap
1 LJ
0.667 LW
N
1147 538.143 M
1137.18 538.143 L
S
GR
GS
[0.75 0 0 0.75 0 -0.25] CT
0.149 GC
2 setlinecap
1 LJ
0.667 LW
N
1147 442.714 M
1137.18 442.714 L
S
GR
GS
[0.75 0 0 0.75 0 -0.25] CT
0.149 GC
2 setlinecap
1 LJ
0.667 LW
N
1147 347.286 M
1137.18 347.286 L
S
GR
GS
[0.75 0 0 0.75 0 -0.25] CT
0.149 GC
2 setlinecap
1 LJ
0.667 LW
N
1147 251.857 M
1137.18 251.857 L
S
GR
GS
[0.75 0 0 0.75 0 -0.25] CT
0.149 GC
2 setlinecap
1 LJ
0.667 LW
N
1147 156.429 M
1137.18 156.429 L
S
GR
GS
[0.75 0 0 0.75 0 -0.25] CT
0.149 GC
2 setlinecap
1 LJ
0.667 LW
N
1147 61 M
1137.18 61 L
S
GR
GS
[0.75 0 0 0.75 118.15001 546.5] CT
0.149 GC
/Helvetica 24 F
GS
[1 0 0 1 0 0] CT
-49 9.5 moveto 
1 -1 scale
(-600) t 
GR
GR
GS
[0.75 0 0 0.75 118.15001 474.92856] CT
0.149 GC
/Helvetica 24 F
GS
[1 0 0 1 0 0] CT
-49 9.5 moveto 
1 -1 scale
(-400) t 
GR
GR
GS
[0.75 0 0 0.75 118.15001 403.35716] CT
0.149 GC
/Helvetica 24 F
GS
[1 0 0 1 0 0] CT
-49 9.5 moveto 
1 -1 scale
(-200) t 
GR
GR
GS
[0.75 0 0 0.75 118.15001 331.78572] CT
0.149 GC
/Helvetica 24 F
GS
[1 0 0 1 0 0] CT
-14 9.5 moveto 
1 -1 scale
(0) t 
GR
GR
GS
[0.75 0 0 0.75 118.15001 260.21428] CT
0.149 GC
/Helvetica 24 F
GS
[1 0 0 1 0 0] CT
-41 9.5 moveto 
1 -1 scale
(200) t 
GR
GR
GS
[0.75 0 0 0.75 118.15001 188.64286] CT
0.149 GC
/Helvetica 24 F
GS
[1 0 0 1 0 0] CT
-41 9.5 moveto 
1 -1 scale
(400) t 
GR
GR
GS
[0.75 0 0 0.75 118.15001 117.07143] CT
0.149 GC
/Helvetica 24 F
GS
[1 0 0 1 0 0] CT
-41 9.5 moveto 
1 -1 scale
(600) t 
GR
GR
GS
[0.75 0 0 0.75 118.15001 45.5] CT
0.149 GC
/Helvetica 24 F
GS
[1 0 0 1 0 0] CT
-41 9.5 moveto 
1 -1 scale
(800) t 
GR
GR
GS
[0.75 0 0 0.75 0 -0.25] CT
0 0.447 0.741 RC
1 LJ
2.667 LW
N
174.82 408.047 M
184.64 356.967 L
194.46 383.599 L
204.28 424.83 L
214.1 435.54 L
223.92 437.974 L
233.74 436.463 L
243.56 428.175 L
253.38 391.321 L
263.2 350.598 L
273.02 402.015 L
282.84 430.817 L
292.66 437.607 L
302.48 438.582 L
312.3 436.856 L
322.12 425.719 L
331.94 378.066 L
341.76 350.446 L
351.58 411.041 L
361.4 433.327 L
371.22 438.319 L
381.04 439.483 L
390.86 437.88 L
400.68 427.134 L
410.5 378.835 L
420.32 344.462 L
430.14 411.948 L
439.96 434.662 L
449.78 438.465 L
459.6 439.566 L
469.42 439.093 L
479.24 433.826 L
489.06 401.986 L
498.88 331.718 L
508.7 393.05 L
518.52 427.621 L
528.34 437.319 L
538.16 438.556 L
547.98 439.151 L
557.8 439.705 L
567.62 434.493 L
577.44 401.238 L
587.26 331.041 L
597.08 321.113 L
606.9 415.06 L
616.72 435.837 L
626.54 445.279 L
636.36 451.002 L
646.18 484.676 L
656 588.84 L
665.82 495.988 L
675.64 397.505 L
685.46 204.537 L
695.28 140.053 L
705.1 248.674 L
714.92 292.612 L
724.74 383.189 L
734.56 379.446 L
744.38 427.417 L
754.2 496.391 L
764.02 693.754 L
773.84 589.937 L
783.66 350.583 L
793.48 166.706 L
803.3 236.764 L
813.12 164.596 L
822.94 270.76 L
832.76 430.663 L
842.58 298.481 L
852.4 257.296 L
862.22 492.745 L
872.04 709.317 L
881.86 501.054 L
891.68 371.826 L
901.5 390.243 L
911.32 130.376 L
921.14 239.297 L
930.96 325.284 L
940.78 312.377 L
950.6 203.87 L
960.42 288.609 L
970.24 506.173 L
980.06 592.054 L
989.88 603.251 L
999.7 489.741 L
1009.52 220.914 L
1019.34 226.528 L
1029.16 289.932 L
1038.98 179.378 L
1048.8 102.986 L
1058.62 294.582 L
1068.44 395.243 L
1078.26 249.427 L
1088.08 393.46 L
1097.9 485.275 L
1107.72 449.529 L
1117.54 373.84 L
1127.36 336.867 L
1137.18 215.649 L
1147 226.993 L
S
GR
GS
[0.75 0 0 0.75 0 -0.25] CT
0.851 0.325 0.098 RC
1 LJ
2.667 LW
N
174.82 409.376 M
184.64 365.564 L
194.46 377.946 L
204.28 422.04 L
214.1 437.24 L
223.92 434.273 L
233.74 427.447 L
243.56 425.195 L
253.38 403.438 L
263.2 374.387 L
273.02 385.788 L
282.84 422.791 L
292.66 434.594 L
302.48 435.907 L
312.3 440.755 L
322.12 417.823 L
331.94 391.253 L
341.76 397.727 L
351.58 398.671 L
361.4 398.645 L
371.22 431.031 L
381.04 440.55 L
390.86 429.445 L
400.68 414.372 L
410.5 384.798 L
420.32 420.816 L
430.14 427.875 L
439.96 377.754 L
449.78 412.03 L
459.6 424.561 L
469.42 413.286 L
479.24 434.21 L
489.06 416.02 L
498.88 419.392 L
508.7 429.422 L
518.52 385.936 L
528.34 384.602 L
538.16 420.241 L
547.98 428.167 L
557.8 427.211 L
567.62 436.942 L
577.44 396.964 L
587.26 414.651 L
597.08 431.183 L
606.9 370.589 L
616.72 415.428 L
626.54 422.385 L
636.36 383.24 L
646.18 432.81 L
656 383.654 L
665.82 379.578 L
675.64 420.313 L
685.46 395.273 L
695.28 431.986 L
705.1 429.41 L
714.92 368.262 L
724.74 425.573 L
734.56 394.093 L
744.38 377.688 L
754.2 425.756 L
764.02 432.525 L
773.84 425.364 L
783.66 425.582 L
793.48 378.004 L
803.3 394.272 L
813.12 423.977 L
822.94 398.612 L
832.76 409.806 L
842.58 428.801 L
852.4 394.799 L
862.22 430.72 L
872.04 422.316 L
881.86 353.732 L
891.68 423.003 L
901.5 429.35 L
911.32 363.095 L
921.14 420.696 L
930.96 379.659 L
940.78 419.763 L
950.6 430.238 L
960.42 385.13 L
970.24 415.814 L
980.06 431.747 L
989.88 380.035 L
999.7 415.855 L
1009.52 372.93 L
1019.34 384.628 L
1029.16 425.38 L
1038.98 440.2 L
1048.8 380.451 L
1058.62 420.822 L
1068.44 417.662 L
1078.26 374.794 L
1088.08 397.007 L
1097.9 371.767 L
1107.72 389.479 L
1117.54 427.427 L
1127.36 394.442 L
1137.18 423.814 L
1147 416.858 L
S
GR
GS
[0.75 0 0 0.75 0 -0.25] CT
0.929 0.694 0.125 RC
1 LJ
2.667 LW
N
174.82 407.659 M
184.64 357.546 L
194.46 384.614 L
204.28 424.194 L
214.1 436.587 L
223.92 437.295 L
233.74 435.848 L
243.56 426.906 L
253.38 391.328 L
263.2 354.612 L
273.02 402.371 L
282.84 430.323 L
292.66 437.755 L
302.48 437.902 L
312.3 435.339 L
322.12 420.458 L
331.94 373.537 L
341.76 361.85 L
351.58 415.427 L
361.4 435.604 L
371.22 440.897 L
381.04 438.565 L
390.86 434.449 L
400.68 414.665 L
410.5 360.169 L
420.32 372.372 L
430.14 421.837 L
439.96 437.401 L
449.78 440.219 L
459.6 438.487 L
469.42 434.29 L
479.24 412.132 L
489.06 350.498 L
498.88 376.689 L
508.7 425.365 L
518.52 437.746 L
528.34 439.833 L
538.16 439.467 L
547.98 437.329 L
557.8 417.073 L
567.62 342.817 L
577.44 368.635 L
587.26 427.32 L
597.08 438.564 L
606.9 439.602 L
616.72 438.75 L
626.54 440.119 L
636.36 435.96 L
646.18 389.075 L
656 319.459 L
665.82 399.844 L
675.64 435.22 L
685.46 442.233 L
695.28 441 L
705.1 444.285 L
714.92 451.952 L
724.74 445.434 L
734.56 445.199 L
744.38 420.528 L
754.2 395.002 L
764.02 427.835 L
773.84 431.649 L
783.66 448.01 L
793.48 444.551 L
803.3 434.133 L
813.12 412.223 L
822.94 439.965 L
832.76 414.543 L
842.58 426.037 L
852.4 424.288 L
862.22 419.124 L
872.04 415.724 L
881.86 405.318 L
891.68 400.091 L
901.5 441.15 L
911.32 404.424 L
921.14 415.967 L
930.96 421.505 L
940.78 414.547 L
950.6 401.938 L
960.42 405.96 L
970.24 416.559 L
980.06 431.244 L
989.88 416.736 L
999.7 415.046 L
1009.52 402.078 L
1019.34 414.2 L
1029.16 414.133 L
1038.98 413.235 L
1048.8 425.764 L
1058.62 428.585 L
1068.44 418.612 L
1078.26 399.183 L
1088.08 391.517 L
1097.9 416.483 L
1107.72 422.32 L
1117.54 420.487 L
1127.36 421.413 L
1137.18 418.011 L
1147 404.325 L
S
GR
GS
[0.75 0 0 0.75 0 -0.25] CT
0.494 0.184 0.557 RC
1 LJ
2.667 LW
N
174.82 408.314 M
184.64 361.572 L
194.46 385.173 L
204.28 426.455 L
214.1 434.429 L
223.92 433.921 L
233.74 436.482 L
243.56 428.655 L
253.38 391.125 L
263.2 350.797 L
273.02 410.705 L
282.84 437.553 L
292.66 438.541 L
302.48 423.877 L
312.3 430.954 L
322.12 421.339 L
331.94 373.932 L
341.76 364.207 L
351.58 423.643 L
361.4 442.781 L
371.22 440.629 L
381.04 430.897 L
390.86 434.338 L
400.68 407.264 L
410.5 357.08 L
420.32 391.013 L
430.14 426.079 L
439.96 430.517 L
449.78 449.901 L
459.6 457.648 L
469.42 457.679 L
479.24 416.74 L
489.06 353.997 L
498.88 382.81 L
508.7 410.357 L
518.52 417.672 L
528.34 461.657 L
538.16 448.139 L
547.98 447.243 L
557.8 439.189 L
567.62 384.739 L
577.44 360.169 L
587.26 398.649 L
597.08 401.921 L
606.9 445.575 L
616.72 456.99 L
626.54 467.903 L
636.36 429.51 L
646.18 398.212 L
656 410.684 L
665.82 349.937 L
675.64 362.677 L
685.46 420.878 L
695.28 459.432 L
705.1 456.189 L
714.92 452.139 L
724.74 448.943 L
734.56 440.206 L
744.38 405.532 L
754.2 339.692 L
764.02 371.654 L
773.84 430.13 L
783.66 453.167 L
793.48 442.156 L
803.3 403.727 L
813.12 419.199 L
822.94 458.866 L
832.76 414.563 L
842.58 423.615 L
852.4 413.343 L
862.22 438.43 L
872.04 414.905 L
881.86 393.595 L
891.68 437.821 L
901.5 437.018 L
911.32 418.757 L
921.14 438.168 L
930.96 405.186 L
940.78 389.705 L
950.6 406.305 L
960.42 392.72 L
970.24 457.904 L
980.06 415.481 L
989.88 394.069 L
999.7 420.761 L
1009.52 438.145 L
1019.34 400.112 L
1029.16 383.899 L
1038.98 420.756 L
1048.8 465.063 L
1058.62 405.315 L
1068.44 372.74 L
1078.26 410.324 L
1088.08 437.427 L
1097.9 405.68 L
1107.72 389.565 L
1117.54 394.716 L
1127.36 437.622 L
1137.18 412.85 L
1147 362.745 L
S
GR
GS
[0.75 0 0 0.75 0 -0.25] CT
0.467 0.675 0.188 RC
1 LJ
2.667 LW
N
174.82 407.592 M
184.64 363.033 L
194.46 386.281 L
204.28 427.862 L
214.1 437.633 L
223.92 440.342 L
233.74 439.537 L
243.56 430.535 L
253.38 398.304 L
263.2 350.039 L
273.02 405.522 L
282.84 433.729 L
292.66 441.21 L
302.48 444.195 L
312.3 444.071 L
322.12 440.973 L
331.94 428.637 L
341.76 345.199 L
351.58 372.878 L
361.4 425.918 L
371.22 439.631 L
381.04 445.756 L
390.86 440.571 L
400.68 433.395 L
410.5 401.566 L
420.32 373.367 L
430.14 380.043 L
439.96 421.804 L
449.78 434.132 L
459.6 437.75 L
469.42 432.644 L
479.24 419.656 L
489.06 379.53 L
498.88 390.347 L
508.7 419.349 L
518.52 433.047 L
528.34 434.766 L
538.16 430.898 L
547.98 431.318 L
557.8 407.4 L
567.62 375.751 L
577.44 387.922 L
587.26 422.039 L
597.08 433.542 L
606.9 438.829 L
616.72 435.034 L
626.54 419.643 L
636.36 387.472 L
646.18 391.081 L
656 417.368 L
665.82 431.527 L
675.64 434.9 L
685.46 433.185 L
695.28 424.156 L
705.1 398.105 L
714.92 381.172 L
724.74 409.965 L
734.56 428.38 L
744.38 434.875 L
754.2 435.115 L
764.02 428.781 L
773.84 410.285 L
783.66 386.902 L
793.48 399.605 L
803.3 424.922 L
813.12 433.59 L
822.94 434.431 L
832.76 430.15 L
842.58 414.53 L
852.4 391.74 L
862.22 396.886 L
872.04 419.907 L
881.86 432.771 L
891.68 434.289 L
901.5 431.215 L
911.32 419.426 L
921.14 398.823 L
930.96 395.574 L
940.78 414.993 L
950.6 428.595 L
960.42 433.372 L
970.24 431.429 L
980.06 422.047 L
989.88 402.86 L
999.7 397.41 L
1009.52 411.667 L
1019.34 425.964 L
1029.16 431.733 L
1038.98 431.384 L
1048.8 423.892 L
1058.62 407.799 L
1068.44 399.399 L
1078.26 409.905 L
1088.08 423.244 L
1097.9 430.091 L
1107.72 430.446 L
1117.54 424.797 L
1127.36 411.295 L
1137.18 401.986 L
1147 409.053 L
S
GR
GS
[0.75 0 0 0.75 0 -0.25] CT
0.302 0.745 0.933 RC
1 LJ
2.667 LW
N
174.82 408.36 M
184.64 357.783 L
194.46 384.503 L
204.28 425.537 L
214.1 436.034 L
223.92 437.466 L
233.74 436.034 L
243.56 427.446 L
253.38 390.229 L
263.2 353.011 L
273.02 404.543 L
282.84 431.74 L
292.66 436.989 L
302.48 437.943 L
312.3 435.557 L
322.12 421.243 L
331.94 370.666 L
341.76 362.077 L
351.58 417.426 L
361.4 434.126 L
371.22 436.989 L
381.04 438.42 L
390.86 434.603 L
400.68 414.086 L
410.5 355.874 L
420.32 374.483 L
430.14 424.583 L
439.96 436.511 L
449.78 438.42 L
459.6 438.42 L
469.42 433.649 L
479.24 408.837 L
489.06 346.809 L
498.88 382.594 L
508.7 428.4 L
518.52 436.989 L
528.34 438.42 L
538.16 438.897 L
547.98 434.126 L
557.8 409.314 L
567.62 342.037 L
577.44 380.209 L
587.26 428.4 L
597.08 437.466 L
606.9 438.897 L
616.72 438.897 L
626.54 436.511 L
636.36 420.289 L
646.18 351.103 L
656 357.306 L
665.82 423.629 L
675.64 436.511 L
685.46 438.42 L
695.28 439.374 L
705.1 439.374 L
714.92 436.034 L
724.74 408.837 L
734.56 321.043 L
744.38 380.209 L
754.2 431.263 L
764.02 438.42 L
773.84 439.374 L
783.66 439.374 L
793.48 440.329 L
803.3 440.806 L
813.12 441.283 L
822.94 438.897 L
832.76 433.171 L
842.58 436.511 L
852.4 437.943 L
862.22 436.511 L
872.04 433.171 L
881.86 427.923 L
891.68 422.674 L
901.5 415.517 L
911.32 410.269 L
921.14 409.314 L
930.96 414.563 L
940.78 419.811 L
950.6 420.766 L
960.42 418.38 L
970.24 413.609 L
980.06 409.314 L
989.88 410.746 L
999.7 415.517 L
1009.52 419.811 L
1019.34 420.289 L
1029.16 417.426 L
1038.98 411.7 L
1048.8 408.36 L
1058.62 410.746 L
1068.44 415.517 L
1078.26 420.289 L
1088.08 420.289 L
1097.9 416.949 L
1107.72 410.746 L
1117.54 407.883 L
1127.36 411.223 L
1137.18 416.949 L
1147 419.811 L
S
GR
GS
[0.75 0 0 0.75 0 -0.25] CT
1 GC
N
210 273 M
210 98 L
450 98 L
450 273 L
cp
f
GR
GS
[0.75 0 0 0.75 185.25 85.28438] CT
/Helvetica 21.6 F
GS
[1 0 0 1 0 0] CT
0 9 moveto 
1 -1 scale
(Approximation1) t 
GR
GR
GS
[0.75 0 0 0.75 0 -0.25] CT
0 0.447 0.741 RC
1 LJ
2.667 LW
N
214 114.046 M
244 114.046 L
S
GR
GS
[0.75 0 0 0.75 185.25 106.72063] CT
/Helvetica 21.6 F
GS
[1 0 0 1 0 0] CT
0 9 moveto 
1 -1 scale
(Approximation2) t 
GR
GR
GS
[0.75 0 0 0.75 0 -0.25] CT
0.851 0.325 0.098 RC
1 LJ
2.667 LW
N
214 142.628 M
244 142.628 L
S
GR
GS
[0.75 0 0 0.75 185.25 128.15688] CT
/Helvetica 21.6 F
GS
[1 0 0 1 0 0] CT
0 9 moveto 
1 -1 scale
(Approximation3) t 
GR
GR
GS
[0.75 0 0 0.75 0 -0.25] CT
0.929 0.694 0.125 RC
1 LJ
2.667 LW
N
214 171.209 M
244 171.209 L
S
GR
GS
[0.75 0 0 0.75 185.25 149.59312] CT
/Helvetica 21.6 F
GS
[1 0 0 1 0 0] CT
0 9 moveto 
1 -1 scale
(Approximation4) t 
GR
GR
GS
[0.75 0 0 0.75 0 -0.25] CT
0.494 0.184 0.557 RC
1 LJ
2.667 LW
N
214 199.791 M
244 199.791 L
S
GR
GS
[0.75 0 0 0.75 185.25 171.02937] CT
/Helvetica 21.6 F
GS
[1 0 0 1 0 0] CT
0 9 moveto 
1 -1 scale
(Approximation5) t 
GR
GR
GS
[0.75 0 0 0.75 0 -0.25] CT
0.467 0.675 0.188 RC
1 LJ
2.667 LW
N
214 228.372 M
244 228.372 L
S
GR
GS
[0.75 0 0 0.75 185.25 192.46562] CT
/Helvetica 21.6 F
GS
[1 0 0 1 0 0] CT
0 9 moveto 
1 -1 scale
(Laser Prediction Set) t 
GR
GR
GS
[0.75 0 0 0.75 0 -0.25] CT
0.302 0.745 0.933 RC
1 LJ
2.667 LW
N
214 256.954 M
244 256.954 L
S
GR
GS
[0.75 0 0 0.75 0 -0.25] CT
0.149 GC
10.0 ML
0.667 LW
N
210 273 M
210 98 L
450 98 L
450 273 L
cp
S
GR
%%Trailer
%%Pages: 1
%%EOF
