%!PS-Adobe-3.0 EPSF-3.0
%%Creator: (MATLAB, The Mathworks, Inc. Version 9.1.0.441655 \(R2016b\). Operating System: Windows 8)
%%Title: (C:/Users/Eigenaar/WIT/Data Mining/data-mining/Session 2/plots/p22h66.eps)
%%CreationDate: 2017-11-22T15:41:35
%%Pages: (atend)
%%BoundingBox: 0 0 824 610
%%LanguageLevel: 3
%%EndComments
%%BeginProlog
%%BeginResource: procset (Apache XML Graphics Std ProcSet) 1.2 0
%%Version: 1.2 0
%%Copyright: (Copyright 2001-2003,2010 The Apache Software Foundation. License terms: http://www.apache.org/licenses/LICENSE-2.0)
/bd{bind def}bind def
/ld{load def}bd
/GR/grestore ld
/M/moveto ld
/LJ/setlinejoin ld
/C/curveto ld
/f/fill ld
/LW/setlinewidth ld
/GC/setgray ld
/t/show ld
/N/newpath ld
/CT/concat ld
/cp/closepath ld
/S/stroke ld
/L/lineto ld
/CC/setcmykcolor ld
/A/ashow ld
/GS/gsave ld
/RC/setrgbcolor ld
/RM/rmoveto ld
/ML/setmiterlimit ld
/re {4 2 roll M
1 index 0 rlineto
0 exch rlineto
neg 0 rlineto
cp } bd
/_ctm matrix def
/_tm matrix def
/BT { _ctm currentmatrix pop matrix _tm copy pop 0 0 moveto } bd
/ET { _ctm setmatrix } bd
/iTm { _ctm setmatrix _tm concat } bd
/Tm { _tm astore pop iTm 0 0 moveto } bd
/ux 0.0 def
/uy 0.0 def
/F {
  /Tp exch def
  /Tf exch def
  Tf findfont Tp scalefont setfont
  /cf Tf def  /cs Tp def
} bd
/ULS {currentpoint /uy exch def /ux exch def} bd
/ULE {
  /Tcx currentpoint pop def
  gsave
  newpath
  cf findfont cs scalefont dup
  /FontMatrix get 0 get /Ts exch def /FontInfo get dup
  /UnderlinePosition get Ts mul /To exch def
  /UnderlineThickness get Ts mul /Tt exch def
  ux uy To add moveto  Tcx uy To add lineto
  Tt setlinewidth stroke
  grestore
} bd
/OLE {
  /Tcx currentpoint pop def
  gsave
  newpath
  cf findfont cs scalefont dup
  /FontMatrix get 0 get /Ts exch def /FontInfo get dup
  /UnderlinePosition get Ts mul /To exch def
  /UnderlineThickness get Ts mul /Tt exch def
  ux uy To add cs add moveto Tcx uy To add cs add lineto
  Tt setlinewidth stroke
  grestore
} bd
/SOE {
  /Tcx currentpoint pop def
  gsave
  newpath
  cf findfont cs scalefont dup
  /FontMatrix get 0 get /Ts exch def /FontInfo get dup
  /UnderlinePosition get Ts mul /To exch def
  /UnderlineThickness get Ts mul /Tt exch def
  ux uy To add cs 10 mul 26 idiv add moveto Tcx uy To add cs 10 mul 26 idiv add lineto
  Tt setlinewidth stroke
  grestore
} bd
/QT {
/Y22 exch store
/X22 exch store
/Y21 exch store
/X21 exch store
currentpoint
/Y21 load 2 mul add 3 div exch
/X21 load 2 mul add 3 div exch
/X21 load 2 mul /X22 load add 3 div
/Y21 load 2 mul /Y22 load add 3 div
/X22 load /Y22 load curveto
} bd
/SSPD {
dup length /d exch dict def
{
/v exch def
/k exch def
currentpagedevice k known {
/cpdv currentpagedevice k get def
v cpdv ne {
/upd false def
/nullv v type /nulltype eq def
/nullcpdv cpdv type /nulltype eq def
nullv nullcpdv or
{
/upd true def
} {
/sametype v type cpdv type eq def
sametype {
v type /arraytype eq {
/vlen v length def
/cpdvlen cpdv length def
vlen cpdvlen eq {
0 1 vlen 1 sub {
/i exch def
/obj v i get def
/cpdobj cpdv i get def
obj cpdobj ne {
/upd true def
exit
} if
} for
} {
/upd true def
} ifelse
} {
v type /dicttype eq {
v {
/dv exch def
/dk exch def
/cpddv cpdv dk get def
dv cpddv ne {
/upd true def
exit
} if
} forall
} {
/upd true def
} ifelse
} ifelse
} if
} ifelse
upd true eq {
d k v put
} if
} if
} if
} forall
d length 0 gt {
d setpagedevice
} if
} bd
/RE { % /NewFontName [NewEncodingArray] /FontName RE -
  findfont dup length dict begin
  {
    1 index /FID ne
    {def} {pop pop} ifelse
  } forall
  /Encoding exch def
  /FontName 1 index def
  currentdict definefont pop
  end
} bind def
%%EndResource
%%BeginResource: procset (Apache XML Graphics EPS ProcSet) 1.0 0
%%Version: 1.0 0
%%Copyright: (Copyright 2002-2003 The Apache Software Foundation. License terms: http://www.apache.org/licenses/LICENSE-2.0)
/BeginEPSF { %def
/b4_Inc_state save def         % Save state for cleanup
/dict_count countdictstack def % Count objects on dict stack
/op_count count 1 sub def      % Count objects on operand stack
userdict begin                 % Push userdict on dict stack
/showpage { } def              % Redefine showpage, { } = null proc
0 setgray 0 setlinecap         % Prepare graphics state
1 setlinewidth 0 setlinejoin
10 setmiterlimit [ ] 0 setdash newpath
/languagelevel where           % If level not equal to 1 then
{pop languagelevel             % set strokeadjust and
1 ne                           % overprint to their defaults.
{false setstrokeadjust false setoverprint
} if
} if
} bd
/EndEPSF { %def
count op_count sub {pop} repeat            % Clean up stacks
countdictstack dict_count sub {end} repeat
b4_Inc_state restore
} bd
%%EndResource
%FOPBeginFontDict
%%IncludeResource: font Courier-Bold
%%IncludeResource: font Helvetica
%%IncludeResource: font Courier-BoldOblique
%%IncludeResource: font Courier-Oblique
%%IncludeResource: font Times-Roman
%%IncludeResource: font Helvetica-BoldOblique
%%IncludeResource: font Helvetica-Bold
%%IncludeResource: font Helvetica-Oblique
%%IncludeResource: font Times-BoldItalic
%%IncludeResource: font Courier
%%IncludeResource: font Times-Italic
%%IncludeResource: font Times-Bold
%%IncludeResource: font Symbol
%%IncludeResource: font ZapfDingbats
%FOPEndFontDict
%%BeginResource: encoding WinAnsiEncoding
/WinAnsiEncoding [
/.notdef /.notdef /.notdef /.notdef /.notdef
/.notdef /.notdef /.notdef /.notdef /.notdef
/.notdef /.notdef /.notdef /.notdef /.notdef
/.notdef /.notdef /.notdef /.notdef /.notdef
/.notdef /.notdef /.notdef /.notdef /.notdef
/.notdef /.notdef /.notdef /.notdef /.notdef
/.notdef /.notdef /space /exclam /quotedbl
/numbersign /dollar /percent /ampersand /quotesingle
/parenleft /parenright /asterisk /plus /comma
/hyphen /period /slash /zero /one
/two /three /four /five /six
/seven /eight /nine /colon /semicolon
/less /equal /greater /question /at
/A /B /C /D /E
/F /G /H /I /J
/K /L /M /N /O
/P /Q /R /S /T
/U /V /W /X /Y
/Z /bracketleft /backslash /bracketright /asciicircum
/underscore /quoteleft /a /b /c
/d /e /f /g /h
/i /j /k /l /m
/n /o /p /q /r
/s /t /u /v /w
/x /y /z /braceleft /bar
/braceright /asciitilde /bullet /Euro /bullet
/quotesinglbase /florin /quotedblbase /ellipsis /dagger
/daggerdbl /circumflex /perthousand /Scaron /guilsinglleft
/OE /bullet /Zcaron /bullet /bullet
/quoteleft /quoteright /quotedblleft /quotedblright /bullet
/endash /emdash /asciitilde /trademark /scaron
/guilsinglright /oe /bullet /zcaron /Ydieresis
/space /exclamdown /cent /sterling /currency
/yen /brokenbar /section /dieresis /copyright
/ordfeminine /guillemotleft /logicalnot /sfthyphen /registered
/macron /degree /plusminus /twosuperior /threesuperior
/acute /mu /paragraph /middot /cedilla
/onesuperior /ordmasculine /guillemotright /onequarter /onehalf
/threequarters /questiondown /Agrave /Aacute /Acircumflex
/Atilde /Adieresis /Aring /AE /Ccedilla
/Egrave /Eacute /Ecircumflex /Edieresis /Igrave
/Iacute /Icircumflex /Idieresis /Eth /Ntilde
/Ograve /Oacute /Ocircumflex /Otilde /Odieresis
/multiply /Oslash /Ugrave /Uacute /Ucircumflex
/Udieresis /Yacute /Thorn /germandbls /agrave
/aacute /acircumflex /atilde /adieresis /aring
/ae /ccedilla /egrave /eacute /ecircumflex
/edieresis /igrave /iacute /icircumflex /idieresis
/eth /ntilde /ograve /oacute /ocircumflex
/otilde /odieresis /divide /oslash /ugrave
/uacute /ucircumflex /udieresis /yacute /thorn
/ydieresis
] def
%%EndResource
%FOPBeginFontReencode
/Courier-Bold findfont
dup length dict begin
  {1 index /FID ne {def} {pop pop} ifelse} forall
  /Encoding WinAnsiEncoding def
  currentdict
end
/Courier-Bold exch definefont pop
/Helvetica findfont
dup length dict begin
  {1 index /FID ne {def} {pop pop} ifelse} forall
  /Encoding WinAnsiEncoding def
  currentdict
end
/Helvetica exch definefont pop
/Courier-BoldOblique findfont
dup length dict begin
  {1 index /FID ne {def} {pop pop} ifelse} forall
  /Encoding WinAnsiEncoding def
  currentdict
end
/Courier-BoldOblique exch definefont pop
/Courier-Oblique findfont
dup length dict begin
  {1 index /FID ne {def} {pop pop} ifelse} forall
  /Encoding WinAnsiEncoding def
  currentdict
end
/Courier-Oblique exch definefont pop
/Times-Roman findfont
dup length dict begin
  {1 index /FID ne {def} {pop pop} ifelse} forall
  /Encoding WinAnsiEncoding def
  currentdict
end
/Times-Roman exch definefont pop
/Helvetica-BoldOblique findfont
dup length dict begin
  {1 index /FID ne {def} {pop pop} ifelse} forall
  /Encoding WinAnsiEncoding def
  currentdict
end
/Helvetica-BoldOblique exch definefont pop
/Helvetica-Bold findfont
dup length dict begin
  {1 index /FID ne {def} {pop pop} ifelse} forall
  /Encoding WinAnsiEncoding def
  currentdict
end
/Helvetica-Bold exch definefont pop
/Helvetica-Oblique findfont
dup length dict begin
  {1 index /FID ne {def} {pop pop} ifelse} forall
  /Encoding WinAnsiEncoding def
  currentdict
end
/Helvetica-Oblique exch definefont pop
/Times-BoldItalic findfont
dup length dict begin
  {1 index /FID ne {def} {pop pop} ifelse} forall
  /Encoding WinAnsiEncoding def
  currentdict
end
/Times-BoldItalic exch definefont pop
/Courier findfont
dup length dict begin
  {1 index /FID ne {def} {pop pop} ifelse} forall
  /Encoding WinAnsiEncoding def
  currentdict
end
/Courier exch definefont pop
/Times-Italic findfont
dup length dict begin
  {1 index /FID ne {def} {pop pop} ifelse} forall
  /Encoding WinAnsiEncoding def
  currentdict
end
/Times-Italic exch definefont pop
/Times-Bold findfont
dup length dict begin
  {1 index /FID ne {def} {pop pop} ifelse} forall
  /Encoding WinAnsiEncoding def
  currentdict
end
/Times-Bold exch definefont pop
%FOPEndFontReencode
%%EndProlog
%%Page: 1 1
%%PageBoundingBox: 0 0 824 610
%%BeginPageSetup
[1 0 0 -1 0 610] CT
%%EndPageSetup
GS
[0.75 0 0 0.75 0 0.25] CT
N
0 0 M
1099 0 L
1099 813 L
0 813 L
0 0 L
cp
clip
1 GC
N
0 0 1099 813 re
f
GR
GS
[0.75 0 0 0.75 0 0.25] CT
1 GC
N
0 0 1099 813 re
f
GR
GS
[0.75 0 0 0.75 0 0.25] CT
1 GC
N
143 724 M
995 724 L
995 61 L
143 61 L
cp
f
GR
GS
[0.75 0 0 0.75 0 0.25] CT
0.149 GC
2 setlinecap
1 LJ
0.667 LW
N
143 724 M
995 724 L
S
GR
GS
[0.75 0 0 0.75 0 0.25] CT
0.149 GC
2 setlinecap
1 LJ
0.667 LW
N
143 61 M
995 61 L
S
GR
GS
[0.75 0 0 0.75 0 0.25] CT
0.149 GC
2 setlinecap
1 LJ
0.667 LW
N
143 724 M
143 715.48 L
S
GR
GS
[0.75 0 0 0.75 0 0.25] CT
0.149 GC
2 setlinecap
1 LJ
0.667 LW
N
228.2 724 M
228.2 715.48 L
S
GR
GS
[0.75 0 0 0.75 0 0.25] CT
0.149 GC
2 setlinecap
1 LJ
0.667 LW
N
313.4 724 M
313.4 715.48 L
S
GR
GS
[0.75 0 0 0.75 0 0.25] CT
0.149 GC
2 setlinecap
1 LJ
0.667 LW
N
398.6 724 M
398.6 715.48 L
S
GR
GS
[0.75 0 0 0.75 0 0.25] CT
0.149 GC
2 setlinecap
1 LJ
0.667 LW
N
483.8 724 M
483.8 715.48 L
S
GR
GS
[0.75 0 0 0.75 0 0.25] CT
0.149 GC
2 setlinecap
1 LJ
0.667 LW
N
569 724 M
569 715.48 L
S
GR
GS
[0.75 0 0 0.75 0 0.25] CT
0.149 GC
2 setlinecap
1 LJ
0.667 LW
N
654.2 724 M
654.2 715.48 L
S
GR
GS
[0.75 0 0 0.75 0 0.25] CT
0.149 GC
2 setlinecap
1 LJ
0.667 LW
N
739.4 724 M
739.4 715.48 L
S
GR
GS
[0.75 0 0 0.75 0 0.25] CT
0.149 GC
2 setlinecap
1 LJ
0.667 LW
N
824.6 724 M
824.6 715.48 L
S
GR
GS
[0.75 0 0 0.75 0 0.25] CT
0.149 GC
2 setlinecap
1 LJ
0.667 LW
N
909.8 724 M
909.8 715.48 L
S
GR
GS
[0.75 0 0 0.75 0 0.25] CT
0.149 GC
2 setlinecap
1 LJ
0.667 LW
N
995 724 M
995 715.48 L
S
GR
GS
[0.75 0 0 0.75 0 0.25] CT
0.149 GC
2 setlinecap
1 LJ
0.667 LW
N
143 61 M
143 69.52 L
S
GR
GS
[0.75 0 0 0.75 0 0.25] CT
0.149 GC
2 setlinecap
1 LJ
0.667 LW
N
228.2 61 M
228.2 69.52 L
S
GR
GS
[0.75 0 0 0.75 0 0.25] CT
0.149 GC
2 setlinecap
1 LJ
0.667 LW
N
313.4 61 M
313.4 69.52 L
S
GR
GS
[0.75 0 0 0.75 0 0.25] CT
0.149 GC
2 setlinecap
1 LJ
0.667 LW
N
398.6 61 M
398.6 69.52 L
S
GR
GS
[0.75 0 0 0.75 0 0.25] CT
0.149 GC
2 setlinecap
1 LJ
0.667 LW
N
483.8 61 M
483.8 69.52 L
S
GR
GS
[0.75 0 0 0.75 0 0.25] CT
0.149 GC
2 setlinecap
1 LJ
0.667 LW
N
569 61 M
569 69.52 L
S
GR
GS
[0.75 0 0 0.75 0 0.25] CT
0.149 GC
2 setlinecap
1 LJ
0.667 LW
N
654.2 61 M
654.2 69.52 L
S
GR
GS
[0.75 0 0 0.75 0 0.25] CT
0.149 GC
2 setlinecap
1 LJ
0.667 LW
N
739.4 61 M
739.4 69.52 L
S
GR
GS
[0.75 0 0 0.75 0 0.25] CT
0.149 GC
2 setlinecap
1 LJ
0.667 LW
N
824.6 61 M
824.6 69.52 L
S
GR
GS
[0.75 0 0 0.75 0 0.25] CT
0.149 GC
2 setlinecap
1 LJ
0.667 LW
N
909.8 61 M
909.8 69.52 L
S
GR
GS
[0.75 0 0 0.75 0 0.25] CT
0.149 GC
2 setlinecap
1 LJ
0.667 LW
N
995 61 M
995 69.52 L
S
GR
GS
[0.75 0 0 0.75 107.25 548.85001] CT
0.149 GC
/Helvetica 24 F
GS
[1 0 0 1 0 0] CT
-7 25 moveto 
1 -1 scale
(0) t 
GR
GR
GS
[0.75 0 0 0.75 171.15 548.85001] CT
0.149 GC
/Helvetica 24 F
GS
[1 0 0 1 0 0] CT
-13.5 25 moveto 
1 -1 scale
(10) t 
GR
GR
GS
[0.75 0 0 0.75 235.05 548.85001] CT
0.149 GC
/Helvetica 24 F
GS
[1 0 0 1 0 0] CT
-13.5 25 moveto 
1 -1 scale
(20) t 
GR
GR
GS
[0.75 0 0 0.75 298.95 548.85001] CT
0.149 GC
/Helvetica 24 F
GS
[1 0 0 1 0 0] CT
-13.5 25 moveto 
1 -1 scale
(30) t 
GR
GR
GS
[0.75 0 0 0.75 362.84999 548.85001] CT
0.149 GC
/Helvetica 24 F
GS
[1 0 0 1 0 0] CT
-13.5 25 moveto 
1 -1 scale
(40) t 
GR
GR
GS
[0.75 0 0 0.75 426.75 548.85001] CT
0.149 GC
/Helvetica 24 F
GS
[1 0 0 1 0 0] CT
-13.5 25 moveto 
1 -1 scale
(50) t 
GR
GR
GS
[0.75 0 0 0.75 490.65001 548.85001] CT
0.149 GC
/Helvetica 24 F
GS
[1 0 0 1 0 0] CT
-13.5 25 moveto 
1 -1 scale
(60) t 
GR
GR
GS
[0.75 0 0 0.75 554.55002 548.85001] CT
0.149 GC
/Helvetica 24 F
GS
[1 0 0 1 0 0] CT
-13.5 25 moveto 
1 -1 scale
(70) t 
GR
GR
GS
[0.75 0 0 0.75 618.44998 548.85001] CT
0.149 GC
/Helvetica 24 F
GS
[1 0 0 1 0 0] CT
-13.5 25 moveto 
1 -1 scale
(80) t 
GR
GR
GS
[0.75 0 0 0.75 682.34999 548.85001] CT
0.149 GC
/Helvetica 24 F
GS
[1 0 0 1 0 0] CT
-13.5 25 moveto 
1 -1 scale
(90) t 
GR
GR
GS
[0.75 0 0 0.75 746.25 548.85001] CT
0.149 GC
/Helvetica 24 F
GS
[1 0 0 1 0 0] CT
-20.5 25 moveto 
1 -1 scale
(100) t 
GR
GR
GS
[0.75 0 0 0.75 426.75027 573.09999] CT
0.149 GC
/Helvetica 26.4 F
GS
[1 0 0 1 0 0] CT
-46.5 27 moveto 
1 -1 scale
(Time [s]) t 
GR
GR
GS
[0.75 0 0 0.75 0 0.25] CT
0.149 GC
2 setlinecap
1 LJ
0.667 LW
N
143 724 M
143 61 L
S
GR
GS
[0.75 0 0 0.75 0 0.25] CT
0.149 GC
2 setlinecap
1 LJ
0.667 LW
N
995 724 M
995 61 L
S
GR
GS
[0.75 0 0 0.75 0 0.25] CT
0.149 GC
2 setlinecap
1 LJ
0.667 LW
N
143 724 M
151.52 724 L
S
GR
GS
[0.75 0 0 0.75 0 0.25] CT
0.149 GC
2 setlinecap
1 LJ
0.667 LW
N
143 641.125 M
151.52 641.125 L
S
GR
GS
[0.75 0 0 0.75 0 0.25] CT
0.149 GC
2 setlinecap
1 LJ
0.667 LW
N
143 558.25 M
151.52 558.25 L
S
GR
GS
[0.75 0 0 0.75 0 0.25] CT
0.149 GC
2 setlinecap
1 LJ
0.667 LW
N
143 475.375 M
151.52 475.375 L
S
GR
GS
[0.75 0 0 0.75 0 0.25] CT
0.149 GC
2 setlinecap
1 LJ
0.667 LW
N
143 392.5 M
151.52 392.5 L
S
GR
GS
[0.75 0 0 0.75 0 0.25] CT
0.149 GC
2 setlinecap
1 LJ
0.667 LW
N
143 309.625 M
151.52 309.625 L
S
GR
GS
[0.75 0 0 0.75 0 0.25] CT
0.149 GC
2 setlinecap
1 LJ
0.667 LW
N
143 226.75 M
151.52 226.75 L
S
GR
GS
[0.75 0 0 0.75 0 0.25] CT
0.149 GC
2 setlinecap
1 LJ
0.667 LW
N
143 143.875 M
151.52 143.875 L
S
GR
GS
[0.75 0 0 0.75 0 0.25] CT
0.149 GC
2 setlinecap
1 LJ
0.667 LW
N
143 61 M
151.52 61 L
S
GR
GS
[0.75 0 0 0.75 0 0.25] CT
0.149 GC
2 setlinecap
1 LJ
0.667 LW
N
995 724 M
986.48 724 L
S
GR
GS
[0.75 0 0 0.75 0 0.25] CT
0.149 GC
2 setlinecap
1 LJ
0.667 LW
N
995 641.125 M
986.48 641.125 L
S
GR
GS
[0.75 0 0 0.75 0 0.25] CT
0.149 GC
2 setlinecap
1 LJ
0.667 LW
N
995 558.25 M
986.48 558.25 L
S
GR
GS
[0.75 0 0 0.75 0 0.25] CT
0.149 GC
2 setlinecap
1 LJ
0.667 LW
N
995 475.375 M
986.48 475.375 L
S
GR
GS
[0.75 0 0 0.75 0 0.25] CT
0.149 GC
2 setlinecap
1 LJ
0.667 LW
N
995 392.5 M
986.48 392.5 L
S
GR
GS
[0.75 0 0 0.75 0 0.25] CT
0.149 GC
2 setlinecap
1 LJ
0.667 LW
N
995 309.625 M
986.48 309.625 L
S
GR
GS
[0.75 0 0 0.75 0 0.25] CT
0.149 GC
2 setlinecap
1 LJ
0.667 LW
N
995 226.75 M
986.48 226.75 L
S
GR
GS
[0.75 0 0 0.75 0 0.25] CT
0.149 GC
2 setlinecap
1 LJ
0.667 LW
N
995 143.875 M
986.48 143.875 L
S
GR
GS
[0.75 0 0 0.75 0 0.25] CT
0.149 GC
2 setlinecap
1 LJ
0.667 LW
N
995 61 M
986.48 61 L
S
GR
GS
[0.75 0 0 0.75 101.65001 543.25] CT
0.149 GC
/Helvetica 24 F
GS
[1 0 0 1 0 0] CT
-49 9.5 moveto 
1 -1 scale
(-800) t 
GR
GR
GS
[0.75 0 0 0.75 101.65001 481.09375] CT
0.149 GC
/Helvetica 24 F
GS
[1 0 0 1 0 0] CT
-49 9.5 moveto 
1 -1 scale
(-600) t 
GR
GR
GS
[0.75 0 0 0.75 101.65001 418.9375] CT
0.149 GC
/Helvetica 24 F
GS
[1 0 0 1 0 0] CT
-49 9.5 moveto 
1 -1 scale
(-400) t 
GR
GR
GS
[0.75 0 0 0.75 101.65001 356.78125] CT
0.149 GC
/Helvetica 24 F
GS
[1 0 0 1 0 0] CT
-49 9.5 moveto 
1 -1 scale
(-200) t 
GR
GR
GS
[0.75 0 0 0.75 101.65001 294.625] CT
0.149 GC
/Helvetica 24 F
GS
[1 0 0 1 0 0] CT
-14 9.5 moveto 
1 -1 scale
(0) t 
GR
GR
GS
[0.75 0 0 0.75 101.65001 232.46875] CT
0.149 GC
/Helvetica 24 F
GS
[1 0 0 1 0 0] CT
-41 9.5 moveto 
1 -1 scale
(200) t 
GR
GR
GS
[0.75 0 0 0.75 101.65001 170.3125] CT
0.149 GC
/Helvetica 24 F
GS
[1 0 0 1 0 0] CT
-41 9.5 moveto 
1 -1 scale
(400) t 
GR
GR
GS
[0.75 0 0 0.75 101.65001 108.15625] CT
0.149 GC
/Helvetica 24 F
GS
[1 0 0 1 0 0] CT
-41 9.5 moveto 
1 -1 scale
(600) t 
GR
GR
GS
[0.75 0 0 0.75 101.65001 46] CT
0.149 GC
/Helvetica 24 F
GS
[1 0 0 1 0 0] CT
-41 9.5 moveto 
1 -1 scale
(800) t 
GR
GR
GS
[0.75 0 0 0.75 0 0.25] CT
0 0.447 0.741 RC
1 LJ
2.667 LW
N
151.52 362.345 M
160.04 319.006 L
168.56 342.895 L
177.08 376.248 L
185.6 387.702 L
194.12 391.002 L
202.64 388.49 L
211.16 378.382 L
219.68 347.945 L
228.2 314.752 L
236.72 357.174 L
245.24 375.556 L
253.76 386.769 L
262.28 387.461 L
270.8 386.085 L
279.32 378.223 L
287.84 335.292 L
296.36 318.849 L
304.88 369.925 L
313.4 381.509 L
321.92 390.94 L
330.44 392.338 L
338.96 379.266 L
347.48 364.629 L
356 316.057 L
364.52 337.729 L
373.04 377.492 L
381.56 390.518 L
390.08 387.053 L
398.6 395.052 L
407.12 380.451 L
415.64 362.2 L
424.16 293.992 L
432.68 341.789 L
441.2 379.421 L
449.72 394.99 L
458.24 393.951 L
466.76 404.481 L
475.28 412.02 L
483.8 421.203 L
492.32 381.728 L
500.84 255.135 L
509.36 322.792 L
517.88 357.01 L
526.4 406.484 L
534.92 366.308 L
543.44 328.434 L
551.96 338.588 L
560.48 355.926 L
569 415.754 L
577.52 490.699 L
586.04 538.255 L
594.56 513.906 L
603.08 292.045 L
611.6 92.216 L
620.12 295.489 L
628.64 515.244 L
637.16 477.121 L
645.68 263.968 L
654.2 447.934 L
662.72 300.257 L
671.24 553.353 L
679.76 379.024 L
688.28 521.236 L
696.8 361.058 L
705.32 441.466 L
713.84 500.303 L
722.36 413.647 L
730.88 221.467 L
739.4 389.605 L
747.92 593.878 L
756.44 471.641 L
764.96 483.024 L
773.48 276.525 L
782 377.039 L
790.52 513.296 L
799.04 279.411 L
807.56 426.364 L
816.08 376.145 L
824.6 372.669 L
833.12 415.753 L
841.64 260.323 L
850.16 463.924 L
858.68 352.634 L
867.2 466.527 L
875.72 312.602 L
884.24 369.52 L
892.76 468.348 L
901.28 375.925 L
909.8 271.223 L
918.32 365.301 L
926.84 430.303 L
935.36 455.622 L
943.88 427.6 L
952.4 384.082 L
960.92 395.756 L
969.44 340.587 L
977.96 335.71 L
986.48 504.901 L
995 513.979 L
S
GR
GS
[0.75 0 0 0.75 0 0.25] CT
0.851 0.325 0.098 RC
1 LJ
2.667 LW
N
151.52 363.726 M
160.04 318.267 L
168.56 337.789 L
177.08 375.225 L
185.6 381.321 L
194.12 389.921 L
202.64 387.155 L
211.16 384.997 L
219.68 350.559 L
228.2 316.957 L
236.72 344.858 L
245.24 381.225 L
253.76 378.89 L
262.28 394.816 L
270.8 377.739 L
279.32 377.245 L
287.84 332.218 L
296.36 324.144 L
304.88 351.999 L
313.4 374.459 L
321.92 390.492 L
330.44 384.084 L
338.96 386.742 L
347.48 389.269 L
356 347.474 L
364.52 307.862 L
373.04 364.165 L
381.56 360.396 L
390.08 381.694 L
398.6 361.938 L
407.12 385.396 L
415.64 363.31 L
424.16 352.963 L
432.68 321.358 L
441.2 363.592 L
449.72 404.781 L
458.24 398.816 L
466.76 370.474 L
475.28 384.096 L
483.8 359.109 L
492.32 344.659 L
500.84 317.257 L
509.36 350.642 L
517.88 386.355 L
526.4 356.021 L
534.92 438.745 L
543.44 432.266 L
551.96 403.527 L
560.48 373.062 L
569 426.865 L
577.52 429.639 L
586.04 356.464 L
594.56 278.027 L
603.08 410.617 L
611.6 424.41 L
620.12 351.586 L
628.64 361.352 L
637.16 321.613 L
645.68 439.507 L
654.2 444.541 L
662.72 472.055 L
671.24 318.604 L
679.76 333.096 L
688.28 337.773 L
696.8 423.437 L
705.32 333.754 L
713.84 405.677 L
722.36 405.782 L
730.88 349.736 L
739.4 319.472 L
747.92 426.331 L
756.44 413.23 L
764.96 352.911 L
773.48 461.56 L
782 435.177 L
790.52 441.643 L
799.04 310.57 L
807.56 350.978 L
816.08 487.114 L
824.6 306.212 L
833.12 316.853 L
841.64 334.909 L
850.16 459.495 L
858.68 462.665 L
867.2 407.823 L
875.72 457.088 L
884.24 547.822 L
892.76 529.763 L
901.28 466.139 L
909.8 381.539 L
918.32 339.008 L
926.84 302.115 L
935.36 452.25 L
943.88 354.562 L
952.4 501.37 L
960.92 426.374 L
969.44 439.583 L
977.96 519.32 L
986.48 495.191 L
995 379.338 L
S
GR
GS
[0.75 0 0 0.75 0 0.25] CT
0.929 0.694 0.125 RC
1 LJ
2.667 LW
N
151.52 362.48 M
160.04 317.247 L
168.56 343.126 L
177.08 379.114 L
185.6 386.827 L
194.12 389.389 L
202.64 386.951 L
211.16 379.231 L
219.68 345.955 L
228.2 314.815 L
236.72 361.327 L
245.24 384.076 L
253.76 388.959 L
262.28 390.113 L
270.8 387.566 L
279.32 373.298 L
287.84 326.609 L
296.36 323.284 L
304.88 373.292 L
313.4 387.964 L
321.92 390.406 L
330.44 391.767 L
338.96 389.021 L
347.48 373.865 L
356 316.985 L
364.52 321.482 L
373.04 380.3 L
381.56 387.356 L
390.08 389.709 L
398.6 395.678 L
407.12 388.751 L
415.64 380.018 L
424.16 327.265 L
432.68 295.239 L
441.2 378.057 L
449.72 377.91 L
458.24 393.168 L
466.76 397.806 L
475.28 400.205 L
483.8 412.11 L
492.32 428.652 L
500.84 263.327 L
509.36 273.647 L
517.88 383.062 L
526.4 437.978 L
534.92 497.519 L
543.44 421.62 L
551.96 348.655 L
560.48 343.839 L
569 486.604 L
577.52 385.204 L
586.04 297.317 L
594.56 308.489 L
603.08 554.701 L
611.6 524.366 L
620.12 651.267 L
628.64 458.674 L
637.16 433.359 L
645.68 355.044 L
654.2 417.785 L
662.72 369.995 L
671.24 392.293 L
679.76 366.461 L
688.28 584.631 L
696.8 612.322 L
705.32 630.629 L
713.84 290.961 L
722.36 448.935 L
730.88 415.411 L
739.4 583.797 L
747.92 490.043 L
756.44 416.403 L
764.96 389.512 L
773.48 397.168 L
782 575.833 L
790.52 636.594 L
799.04 274.811 L
807.56 322.057 L
816.08 405.647 L
824.6 335.512 L
833.12 370.144 L
841.64 389.285 L
850.16 447.246 L
858.68 438.187 L
867.2 563.448 L
875.72 389.048 L
884.24 503.057 L
892.76 307.919 L
901.28 451.038 L
909.8 608.526 L
918.32 332.398 L
926.84 281.125 L
935.36 306.029 L
943.88 229.868 L
952.4 409.867 L
960.92 390.737 L
969.44 286.101 L
977.96 311.09 L
986.48 457.901 L
995 374.491 L
S
GR
GS
[0.75 0 0 0.75 0 0.25] CT
0.494 0.184 0.557 RC
1 LJ
2.667 LW
N
151.52 361.475 M
160.04 323.977 L
168.56 348.532 L
177.08 386.73 L
185.6 394.363 L
194.12 395.245 L
202.64 387.913 L
211.16 375.194 L
219.68 341.472 L
228.2 334.818 L
236.72 378.302 L
245.24 390.246 L
253.76 394.434 L
262.28 396.128 L
270.8 395.36 L
279.32 355.437 L
287.84 333.877 L
296.36 365.366 L
304.88 397.829 L
313.4 407.203 L
321.92 404.382 L
330.44 399.11 L
338.96 381.438 L
347.48 346.145 L
356 351.068 L
364.52 392.084 L
373.04 408.023 L
381.56 400.358 L
390.08 404.329 L
398.6 406.147 L
407.12 357.769 L
415.64 342.444 L
424.16 372.226 L
432.68 419.42 L
441.2 421.359 L
449.72 421.424 L
458.24 408.237 L
466.76 378.49 L
475.28 348.41 L
483.8 358.279 L
492.32 406.749 L
500.84 414.716 L
509.36 402.992 L
517.88 407.652 L
526.4 408.655 L
534.92 358.996 L
543.44 336.565 L
551.96 387.475 L
560.48 435.314 L
569 438.14 L
577.52 436.818 L
586.04 432.517 L
594.56 396.954 L
603.08 369.591 L
611.6 354.241 L
620.12 429.684 L
628.64 432.727 L
637.16 405.855 L
645.68 414.794 L
654.2 410.262 L
662.72 387.521 L
671.24 314.117 L
679.76 349.624 L
688.28 455.89 L
696.8 439.05 L
705.32 422.361 L
713.84 435.166 L
722.36 383.322 L
730.88 352.214 L
739.4 306.856 L
747.92 428.491 L
756.44 458.756 L
764.96 441.566 L
773.48 414.16 L
782 471.049 L
790.52 404.302 L
799.04 366.604 L
807.56 364.569 L
816.08 448.4 L
824.6 449.315 L
833.12 407.045 L
841.64 457.399 L
850.16 373.92 L
858.68 404.714 L
867.2 348.834 L
875.72 391.464 L
884.24 419.363 L
892.76 450.774 L
901.28 385.988 L
909.8 372.657 L
918.32 343.752 L
926.84 330.312 L
935.36 415.387 L
943.88 377.858 L
952.4 410.254 L
960.92 372.487 L
969.44 440.437 L
977.96 346.027 L
986.48 366.083 L
995 414.009 L
S
GR
GS
[0.75 0 0 0.75 0 0.25] CT
0.467 0.675 0.188 RC
1 LJ
2.667 LW
N
151.52 360.818 M
160.04 318.304 L
168.56 342.353 L
177.08 377.398 L
185.6 386.715 L
194.12 388.643 L
202.64 385.786 L
211.16 377.095 L
219.68 343.002 L
228.2 317.346 L
236.72 360.312 L
245.24 383.616 L
253.76 388.21 L
262.28 387.837 L
270.8 385.676 L
279.32 368.831 L
287.84 323.129 L
296.36 328.712 L
304.88 373.063 L
313.4 385.414 L
321.92 389.154 L
330.44 386.77 L
338.96 383.584 L
347.48 357.514 L
356 312.172 L
364.52 344.605 L
373.04 379.246 L
381.56 387.608 L
390.08 389.56 L
398.6 386.334 L
407.12 380.549 L
415.64 346.155 L
424.16 309.025 L
432.68 355.917 L
441.2 383.813 L
449.72 389.353 L
458.24 387.631 L
466.76 389.091 L
475.28 376.207 L
483.8 336.391 L
492.32 308.339 L
500.84 365.328 L
509.36 385.41 L
517.88 389.92 L
526.4 387.996 L
534.92 389.475 L
543.44 378.139 L
551.96 335.691 L
560.48 304.777 L
569 362.873 L
577.52 387.154 L
586.04 386.562 L
594.56 390.553 L
603.08 386.019 L
611.6 381.618 L
620.12 348.276 L
628.64 295.212 L
637.16 351.629 L
645.68 383.696 L
654.2 388.064 L
662.72 385.68 L
671.24 386.054 L
679.76 385.35 L
688.28 364.939 L
696.8 305.032 L
705.32 332.363 L
713.84 378.257 L
722.36 394.543 L
730.88 382.63 L
739.4 386.044 L
747.92 384.818 L
756.44 369.214 L
764.96 313.958 L
773.48 324.994 L
782 371.669 L
790.52 390.112 L
799.04 387.944 L
807.56 378.45 L
816.08 382.373 L
824.6 362.229 L
833.12 319.153 L
841.64 332.4 L
850.16 368.274 L
858.68 394.818 L
867.2 374.206 L
875.72 390.57 L
884.24 370.541 L
892.76 352.801 L
901.28 319.02 L
909.8 355.831 L
918.32 376.34 L
926.84 379.48 L
935.36 375.839 L
943.88 385.982 L
952.4 362.051 L
960.92 319.944 L
969.44 350.224 L
977.96 381.847 L
986.48 370.396 L
995 385.004 L
S
GR
GS
[0.75 0 0 0.75 0 0.25] CT
0.302 0.745 0.933 RC
1 LJ
2.667 LW
N
151.52 362.665 M
160.04 318.741 L
168.56 341.946 L
177.08 377.582 L
185.6 386.699 L
194.12 387.942 L
202.64 386.699 L
211.16 379.24 L
219.68 346.919 L
228.2 314.598 L
236.72 359.35 L
245.24 382.969 L
253.76 387.527 L
262.28 388.356 L
270.8 386.284 L
279.32 373.853 L
287.84 329.929 L
296.36 322.471 L
304.88 370.538 L
313.4 385.041 L
321.92 387.527 L
330.44 388.771 L
338.96 385.456 L
347.48 367.638 L
356 317.084 L
364.52 333.244 L
373.04 376.754 L
381.56 387.113 L
390.08 388.771 L
398.6 388.771 L
407.12 384.627 L
415.64 363.079 L
424.16 309.211 L
432.68 340.289 L
441.2 380.069 L
449.72 387.527 L
458.24 388.771 L
466.76 389.185 L
475.28 385.041 L
483.8 363.494 L
492.32 305.067 L
500.84 338.217 L
509.36 380.069 L
517.88 387.942 L
526.4 389.185 L
534.92 389.185 L
543.44 387.113 L
551.96 373.024 L
560.48 312.94 L
569 318.327 L
577.52 375.925 L
586.04 387.113 L
594.56 388.771 L
603.08 389.599 L
611.6 389.599 L
620.12 386.699 L
628.64 363.079 L
637.16 286.834 L
645.68 338.217 L
654.2 382.555 L
662.72 388.771 L
671.24 389.599 L
679.76 389.599 L
688.28 390.428 L
696.8 390.842 L
705.32 391.257 L
713.84 389.185 L
722.36 384.212 L
730.88 387.113 L
739.4 388.356 L
747.92 387.113 L
756.44 384.212 L
764.96 379.654 L
773.48 375.096 L
782 368.881 L
790.52 364.323 L
799.04 363.494 L
807.56 368.052 L
816.08 372.61 L
824.6 373.439 L
833.12 371.367 L
841.64 367.223 L
850.16 363.494 L
858.68 364.737 L
867.2 368.881 L
875.72 372.61 L
884.24 373.024 L
892.76 370.538 L
901.28 365.566 L
909.8 362.665 L
918.32 364.737 L
926.84 368.881 L
935.36 373.024 L
943.88 373.024 L
952.4 370.124 L
960.92 364.737 L
969.44 362.251 L
977.96 365.151 L
986.48 370.124 L
995 372.61 L
S
GR
GS
[0.75 0 0 0.75 0 0.25] CT
1 GC
N
193 269 M
193 95 L
434 95 L
434 269 L
cp
f
GR
GS
[0.75 0 0 0.75 172.68122 83.46562] CT
/Helvetica 21.6 F
GS
[1 0 0 1 0 0] CT
0 9 moveto 
1 -1 scale
(Approximation1) t 
GR
GR
GS
[0.75 0 0 0.75 0 0.25] CT
0 0.447 0.741 RC
1 LJ
2.667 LW
N
197.139 110.954 M
227.232 110.954 L
S
GR
GS
[0.75 0 0 0.75 172.68122 104.77936] CT
/Helvetica 21.6 F
GS
[1 0 0 1 0 0] CT
0 9 moveto 
1 -1 scale
(Approximation2) t 
GR
GR
GS
[0.75 0 0 0.75 0 0.25] CT
0.851 0.325 0.098 RC
1 LJ
2.667 LW
N
197.139 139.372 M
227.232 139.372 L
S
GR
GS
[0.75 0 0 0.75 172.68122 126.09312] CT
/Helvetica 21.6 F
GS
[1 0 0 1 0 0] CT
0 9 moveto 
1 -1 scale
(Approximation3) t 
GR
GR
GS
[0.75 0 0 0.75 0 0.25] CT
0.929 0.694 0.125 RC
1 LJ
2.667 LW
N
197.139 167.791 M
227.232 167.791 L
S
GR
GS
[0.75 0 0 0.75 172.68122 147.40688] CT
/Helvetica 21.6 F
GS
[1 0 0 1 0 0] CT
0 9 moveto 
1 -1 scale
(Approximation4) t 
GR
GR
GS
[0.75 0 0 0.75 0 0.25] CT
0.494 0.184 0.557 RC
1 LJ
2.667 LW
N
197.139 196.209 M
227.232 196.209 L
S
GR
GS
[0.75 0 0 0.75 172.68122 168.72063] CT
/Helvetica 21.6 F
GS
[1 0 0 1 0 0] CT
0 9 moveto 
1 -1 scale
(Approximation5) t 
GR
GR
GS
[0.75 0 0 0.75 0 0.25] CT
0.467 0.675 0.188 RC
1 LJ
2.667 LW
N
197.139 224.628 M
227.232 224.628 L
S
GR
GS
[0.75 0 0 0.75 172.68122 190.03438] CT
/Helvetica 21.6 F
GS
[1 0 0 1 0 0] CT
0 9 moveto 
1 -1 scale
(Laser Prediction Set) t 
GR
GR
GS
[0.75 0 0 0.75 0 0.25] CT
0.302 0.745 0.933 RC
1 LJ
2.667 LW
N
197.139 253.046 M
227.232 253.046 L
S
GR
GS
[0.75 0 0 0.75 0 0.25] CT
0.149 GC
10.0 ML
0.667 LW
N
193 269 M
193 95 L
434 95 L
434 269 L
cp
S
GR
%%Trailer
%%Pages: 1
%%EOF
