%!PS-Adobe-3.0 EPSF-3.0
%%Creator: (MATLAB, The Mathworks, Inc. Version 9.1.0.441655 \(R2016b\). Operating System: Windows 8)
%%Title: (C:/Users/Eigenaar/WIT/Data Mining/data-mining/Session 2/plots/p22h11.eps)
%%CreationDate: 2017-11-22T15:23:20
%%Pages: (atend)
%%BoundingBox: 0 0 820 648
%%LanguageLevel: 3
%%EndComments
%%BeginProlog
%%BeginResource: procset (Apache XML Graphics Std ProcSet) 1.2 0
%%Version: 1.2 0
%%Copyright: (Copyright 2001-2003,2010 The Apache Software Foundation. License terms: http://www.apache.org/licenses/LICENSE-2.0)
/bd{bind def}bind def
/ld{load def}bd
/GR/grestore ld
/M/moveto ld
/LJ/setlinejoin ld
/C/curveto ld
/f/fill ld
/LW/setlinewidth ld
/GC/setgray ld
/t/show ld
/N/newpath ld
/CT/concat ld
/cp/closepath ld
/S/stroke ld
/L/lineto ld
/CC/setcmykcolor ld
/A/ashow ld
/GS/gsave ld
/RC/setrgbcolor ld
/RM/rmoveto ld
/ML/setmiterlimit ld
/re {4 2 roll M
1 index 0 rlineto
0 exch rlineto
neg 0 rlineto
cp } bd
/_ctm matrix def
/_tm matrix def
/BT { _ctm currentmatrix pop matrix _tm copy pop 0 0 moveto } bd
/ET { _ctm setmatrix } bd
/iTm { _ctm setmatrix _tm concat } bd
/Tm { _tm astore pop iTm 0 0 moveto } bd
/ux 0.0 def
/uy 0.0 def
/F {
  /Tp exch def
  /Tf exch def
  Tf findfont Tp scalefont setfont
  /cf Tf def  /cs Tp def
} bd
/ULS {currentpoint /uy exch def /ux exch def} bd
/ULE {
  /Tcx currentpoint pop def
  gsave
  newpath
  cf findfont cs scalefont dup
  /FontMatrix get 0 get /Ts exch def /FontInfo get dup
  /UnderlinePosition get Ts mul /To exch def
  /UnderlineThickness get Ts mul /Tt exch def
  ux uy To add moveto  Tcx uy To add lineto
  Tt setlinewidth stroke
  grestore
} bd
/OLE {
  /Tcx currentpoint pop def
  gsave
  newpath
  cf findfont cs scalefont dup
  /FontMatrix get 0 get /Ts exch def /FontInfo get dup
  /UnderlinePosition get Ts mul /To exch def
  /UnderlineThickness get Ts mul /Tt exch def
  ux uy To add cs add moveto Tcx uy To add cs add lineto
  Tt setlinewidth stroke
  grestore
} bd
/SOE {
  /Tcx currentpoint pop def
  gsave
  newpath
  cf findfont cs scalefont dup
  /FontMatrix get 0 get /Ts exch def /FontInfo get dup
  /UnderlinePosition get Ts mul /To exch def
  /UnderlineThickness get Ts mul /Tt exch def
  ux uy To add cs 10 mul 26 idiv add moveto Tcx uy To add cs 10 mul 26 idiv add lineto
  Tt setlinewidth stroke
  grestore
} bd
/QT {
/Y22 exch store
/X22 exch store
/Y21 exch store
/X21 exch store
currentpoint
/Y21 load 2 mul add 3 div exch
/X21 load 2 mul add 3 div exch
/X21 load 2 mul /X22 load add 3 div
/Y21 load 2 mul /Y22 load add 3 div
/X22 load /Y22 load curveto
} bd
/SSPD {
dup length /d exch dict def
{
/v exch def
/k exch def
currentpagedevice k known {
/cpdv currentpagedevice k get def
v cpdv ne {
/upd false def
/nullv v type /nulltype eq def
/nullcpdv cpdv type /nulltype eq def
nullv nullcpdv or
{
/upd true def
} {
/sametype v type cpdv type eq def
sametype {
v type /arraytype eq {
/vlen v length def
/cpdvlen cpdv length def
vlen cpdvlen eq {
0 1 vlen 1 sub {
/i exch def
/obj v i get def
/cpdobj cpdv i get def
obj cpdobj ne {
/upd true def
exit
} if
} for
} {
/upd true def
} ifelse
} {
v type /dicttype eq {
v {
/dv exch def
/dk exch def
/cpddv cpdv dk get def
dv cpddv ne {
/upd true def
exit
} if
} forall
} {
/upd true def
} ifelse
} ifelse
} if
} ifelse
upd true eq {
d k v put
} if
} if
} if
} forall
d length 0 gt {
d setpagedevice
} if
} bd
/RE { % /NewFontName [NewEncodingArray] /FontName RE -
  findfont dup length dict begin
  {
    1 index /FID ne
    {def} {pop pop} ifelse
  } forall
  /Encoding exch def
  /FontName 1 index def
  currentdict definefont pop
  end
} bind def
%%EndResource
%%BeginResource: procset (Apache XML Graphics EPS ProcSet) 1.0 0
%%Version: 1.0 0
%%Copyright: (Copyright 2002-2003 The Apache Software Foundation. License terms: http://www.apache.org/licenses/LICENSE-2.0)
/BeginEPSF { %def
/b4_Inc_state save def         % Save state for cleanup
/dict_count countdictstack def % Count objects on dict stack
/op_count count 1 sub def      % Count objects on operand stack
userdict begin                 % Push userdict on dict stack
/showpage { } def              % Redefine showpage, { } = null proc
0 setgray 0 setlinecap         % Prepare graphics state
1 setlinewidth 0 setlinejoin
10 setmiterlimit [ ] 0 setdash newpath
/languagelevel where           % If level not equal to 1 then
{pop languagelevel             % set strokeadjust and
1 ne                           % overprint to their defaults.
{false setstrokeadjust false setoverprint
} if
} if
} bd
/EndEPSF { %def
count op_count sub {pop} repeat            % Clean up stacks
countdictstack dict_count sub {end} repeat
b4_Inc_state restore
} bd
%%EndResource
%FOPBeginFontDict
%%IncludeResource: font Courier-Bold
%%IncludeResource: font Helvetica
%%IncludeResource: font Courier-BoldOblique
%%IncludeResource: font Courier-Oblique
%%IncludeResource: font Times-Roman
%%IncludeResource: font Helvetica-BoldOblique
%%IncludeResource: font Helvetica-Bold
%%IncludeResource: font Helvetica-Oblique
%%IncludeResource: font Times-BoldItalic
%%IncludeResource: font Courier
%%IncludeResource: font Times-Italic
%%IncludeResource: font Times-Bold
%%IncludeResource: font Symbol
%%IncludeResource: font ZapfDingbats
%FOPEndFontDict
%%BeginResource: encoding WinAnsiEncoding
/WinAnsiEncoding [
/.notdef /.notdef /.notdef /.notdef /.notdef
/.notdef /.notdef /.notdef /.notdef /.notdef
/.notdef /.notdef /.notdef /.notdef /.notdef
/.notdef /.notdef /.notdef /.notdef /.notdef
/.notdef /.notdef /.notdef /.notdef /.notdef
/.notdef /.notdef /.notdef /.notdef /.notdef
/.notdef /.notdef /space /exclam /quotedbl
/numbersign /dollar /percent /ampersand /quotesingle
/parenleft /parenright /asterisk /plus /comma
/hyphen /period /slash /zero /one
/two /three /four /five /six
/seven /eight /nine /colon /semicolon
/less /equal /greater /question /at
/A /B /C /D /E
/F /G /H /I /J
/K /L /M /N /O
/P /Q /R /S /T
/U /V /W /X /Y
/Z /bracketleft /backslash /bracketright /asciicircum
/underscore /quoteleft /a /b /c
/d /e /f /g /h
/i /j /k /l /m
/n /o /p /q /r
/s /t /u /v /w
/x /y /z /braceleft /bar
/braceright /asciitilde /bullet /Euro /bullet
/quotesinglbase /florin /quotedblbase /ellipsis /dagger
/daggerdbl /circumflex /perthousand /Scaron /guilsinglleft
/OE /bullet /Zcaron /bullet /bullet
/quoteleft /quoteright /quotedblleft /quotedblright /bullet
/endash /emdash /asciitilde /trademark /scaron
/guilsinglright /oe /bullet /zcaron /Ydieresis
/space /exclamdown /cent /sterling /currency
/yen /brokenbar /section /dieresis /copyright
/ordfeminine /guillemotleft /logicalnot /sfthyphen /registered
/macron /degree /plusminus /twosuperior /threesuperior
/acute /mu /paragraph /middot /cedilla
/onesuperior /ordmasculine /guillemotright /onequarter /onehalf
/threequarters /questiondown /Agrave /Aacute /Acircumflex
/Atilde /Adieresis /Aring /AE /Ccedilla
/Egrave /Eacute /Ecircumflex /Edieresis /Igrave
/Iacute /Icircumflex /Idieresis /Eth /Ntilde
/Ograve /Oacute /Ocircumflex /Otilde /Odieresis
/multiply /Oslash /Ugrave /Uacute /Ucircumflex
/Udieresis /Yacute /Thorn /germandbls /agrave
/aacute /acircumflex /atilde /adieresis /aring
/ae /ccedilla /egrave /eacute /ecircumflex
/edieresis /igrave /iacute /icircumflex /idieresis
/eth /ntilde /ograve /oacute /ocircumflex
/otilde /odieresis /divide /oslash /ugrave
/uacute /ucircumflex /udieresis /yacute /thorn
/ydieresis
] def
%%EndResource
%FOPBeginFontReencode
/Courier-Bold findfont
dup length dict begin
  {1 index /FID ne {def} {pop pop} ifelse} forall
  /Encoding WinAnsiEncoding def
  currentdict
end
/Courier-Bold exch definefont pop
/Helvetica findfont
dup length dict begin
  {1 index /FID ne {def} {pop pop} ifelse} forall
  /Encoding WinAnsiEncoding def
  currentdict
end
/Helvetica exch definefont pop
/Courier-BoldOblique findfont
dup length dict begin
  {1 index /FID ne {def} {pop pop} ifelse} forall
  /Encoding WinAnsiEncoding def
  currentdict
end
/Courier-BoldOblique exch definefont pop
/Courier-Oblique findfont
dup length dict begin
  {1 index /FID ne {def} {pop pop} ifelse} forall
  /Encoding WinAnsiEncoding def
  currentdict
end
/Courier-Oblique exch definefont pop
/Times-Roman findfont
dup length dict begin
  {1 index /FID ne {def} {pop pop} ifelse} forall
  /Encoding WinAnsiEncoding def
  currentdict
end
/Times-Roman exch definefont pop
/Helvetica-BoldOblique findfont
dup length dict begin
  {1 index /FID ne {def} {pop pop} ifelse} forall
  /Encoding WinAnsiEncoding def
  currentdict
end
/Helvetica-BoldOblique exch definefont pop
/Helvetica-Bold findfont
dup length dict begin
  {1 index /FID ne {def} {pop pop} ifelse} forall
  /Encoding WinAnsiEncoding def
  currentdict
end
/Helvetica-Bold exch definefont pop
/Helvetica-Oblique findfont
dup length dict begin
  {1 index /FID ne {def} {pop pop} ifelse} forall
  /Encoding WinAnsiEncoding def
  currentdict
end
/Helvetica-Oblique exch definefont pop
/Times-BoldItalic findfont
dup length dict begin
  {1 index /FID ne {def} {pop pop} ifelse} forall
  /Encoding WinAnsiEncoding def
  currentdict
end
/Times-BoldItalic exch definefont pop
/Courier findfont
dup length dict begin
  {1 index /FID ne {def} {pop pop} ifelse} forall
  /Encoding WinAnsiEncoding def
  currentdict
end
/Courier exch definefont pop
/Times-Italic findfont
dup length dict begin
  {1 index /FID ne {def} {pop pop} ifelse} forall
  /Encoding WinAnsiEncoding def
  currentdict
end
/Times-Italic exch definefont pop
/Times-Bold findfont
dup length dict begin
  {1 index /FID ne {def} {pop pop} ifelse} forall
  /Encoding WinAnsiEncoding def
  currentdict
end
/Times-Bold exch definefont pop
%FOPEndFontReencode
%%EndProlog
%%Page: 1 1
%%PageBoundingBox: 0 0 820 648
%%BeginPageSetup
[1 0 0 -1 0 648] CT
%%EndPageSetup
GS
[0.75 0 0 0.75 0 0] CT
1 GC
N
0 0 1093 864 re
f
GR
GS
[0.75 0 0 0.75 0 0] CT
1 GC
N
0 0 1093 864 re
f
GR
GS
[0.75 0 0 0.75 0 0] CT
1 GC
N
142 769 M
989 769 L
989 65 L
142 65 L
cp
f
GR
GS
[0.75 0 0 0.75 0 0] CT
0.149 GC
2 setlinecap
1 LJ
0.667 LW
N
142 769 M
989 769 L
S
GR
GS
[0.75 0 0 0.75 0 0] CT
0.149 GC
2 setlinecap
1 LJ
0.667 LW
N
142 65 M
989 65 L
S
GR
GS
[0.75 0 0 0.75 0 0] CT
0.149 GC
2 setlinecap
1 LJ
0.667 LW
N
142 769 M
142 760.53 L
S
GR
GS
[0.75 0 0 0.75 0 0] CT
0.149 GC
2 setlinecap
1 LJ
0.667 LW
N
226.7 769 M
226.7 760.53 L
S
GR
GS
[0.75 0 0 0.75 0 0] CT
0.149 GC
2 setlinecap
1 LJ
0.667 LW
N
311.4 769 M
311.4 760.53 L
S
GR
GS
[0.75 0 0 0.75 0 0] CT
0.149 GC
2 setlinecap
1 LJ
0.667 LW
N
396.1 769 M
396.1 760.53 L
S
GR
GS
[0.75 0 0 0.75 0 0] CT
0.149 GC
2 setlinecap
1 LJ
0.667 LW
N
480.8 769 M
480.8 760.53 L
S
GR
GS
[0.75 0 0 0.75 0 0] CT
0.149 GC
2 setlinecap
1 LJ
0.667 LW
N
565.5 769 M
565.5 760.53 L
S
GR
GS
[0.75 0 0 0.75 0 0] CT
0.149 GC
2 setlinecap
1 LJ
0.667 LW
N
650.2 769 M
650.2 760.53 L
S
GR
GS
[0.75 0 0 0.75 0 0] CT
0.149 GC
2 setlinecap
1 LJ
0.667 LW
N
734.9 769 M
734.9 760.53 L
S
GR
GS
[0.75 0 0 0.75 0 0] CT
0.149 GC
2 setlinecap
1 LJ
0.667 LW
N
819.6 769 M
819.6 760.53 L
S
GR
GS
[0.75 0 0 0.75 0 0] CT
0.149 GC
2 setlinecap
1 LJ
0.667 LW
N
904.3 769 M
904.3 760.53 L
S
GR
GS
[0.75 0 0 0.75 0 0] CT
0.149 GC
2 setlinecap
1 LJ
0.667 LW
N
989 769 M
989 760.53 L
S
GR
GS
[0.75 0 0 0.75 0 0] CT
0.149 GC
2 setlinecap
1 LJ
0.667 LW
N
142 65 M
142 73.47 L
S
GR
GS
[0.75 0 0 0.75 0 0] CT
0.149 GC
2 setlinecap
1 LJ
0.667 LW
N
226.7 65 M
226.7 73.47 L
S
GR
GS
[0.75 0 0 0.75 0 0] CT
0.149 GC
2 setlinecap
1 LJ
0.667 LW
N
311.4 65 M
311.4 73.47 L
S
GR
GS
[0.75 0 0 0.75 0 0] CT
0.149 GC
2 setlinecap
1 LJ
0.667 LW
N
396.1 65 M
396.1 73.47 L
S
GR
GS
[0.75 0 0 0.75 0 0] CT
0.149 GC
2 setlinecap
1 LJ
0.667 LW
N
480.8 65 M
480.8 73.47 L
S
GR
GS
[0.75 0 0 0.75 0 0] CT
0.149 GC
2 setlinecap
1 LJ
0.667 LW
N
565.5 65 M
565.5 73.47 L
S
GR
GS
[0.75 0 0 0.75 0 0] CT
0.149 GC
2 setlinecap
1 LJ
0.667 LW
N
650.2 65 M
650.2 73.47 L
S
GR
GS
[0.75 0 0 0.75 0 0] CT
0.149 GC
2 setlinecap
1 LJ
0.667 LW
N
734.9 65 M
734.9 73.47 L
S
GR
GS
[0.75 0 0 0.75 0 0] CT
0.149 GC
2 setlinecap
1 LJ
0.667 LW
N
819.6 65 M
819.6 73.47 L
S
GR
GS
[0.75 0 0 0.75 0 0] CT
0.149 GC
2 setlinecap
1 LJ
0.667 LW
N
904.3 65 M
904.3 73.47 L
S
GR
GS
[0.75 0 0 0.75 0 0] CT
0.149 GC
2 setlinecap
1 LJ
0.667 LW
N
989 65 M
989 73.47 L
S
GR
GS
[0.75 0 0 0.75 106.5 582.35001] CT
0.149 GC
/Helvetica 24 F
GS
[1 0 0 1 0 0] CT
-7 25 moveto 
1 -1 scale
(0) t 
GR
GR
GS
[0.75 0 0 0.75 170.025 582.35001] CT
0.149 GC
/Helvetica 24 F
GS
[1 0 0 1 0 0] CT
-13.5 25 moveto 
1 -1 scale
(10) t 
GR
GR
GS
[0.75 0 0 0.75 233.55 582.35001] CT
0.149 GC
/Helvetica 24 F
GS
[1 0 0 1 0 0] CT
-13.5 25 moveto 
1 -1 scale
(20) t 
GR
GR
GS
[0.75 0 0 0.75 297.075 582.35001] CT
0.149 GC
/Helvetica 24 F
GS
[1 0 0 1 0 0] CT
-13.5 25 moveto 
1 -1 scale
(30) t 
GR
GR
GS
[0.75 0 0 0.75 360.59999 582.35001] CT
0.149 GC
/Helvetica 24 F
GS
[1 0 0 1 0 0] CT
-13.5 25 moveto 
1 -1 scale
(40) t 
GR
GR
GS
[0.75 0 0 0.75 424.125 582.35001] CT
0.149 GC
/Helvetica 24 F
GS
[1 0 0 1 0 0] CT
-13.5 25 moveto 
1 -1 scale
(50) t 
GR
GR
GS
[0.75 0 0 0.75 487.65001 582.35001] CT
0.149 GC
/Helvetica 24 F
GS
[1 0 0 1 0 0] CT
-13.5 25 moveto 
1 -1 scale
(60) t 
GR
GR
GS
[0.75 0 0 0.75 551.17502 582.35001] CT
0.149 GC
/Helvetica 24 F
GS
[1 0 0 1 0 0] CT
-13.5 25 moveto 
1 -1 scale
(70) t 
GR
GR
GS
[0.75 0 0 0.75 614.69998 582.35001] CT
0.149 GC
/Helvetica 24 F
GS
[1 0 0 1 0 0] CT
-13.5 25 moveto 
1 -1 scale
(80) t 
GR
GR
GS
[0.75 0 0 0.75 678.22499 582.35001] CT
0.149 GC
/Helvetica 24 F
GS
[1 0 0 1 0 0] CT
-13.5 25 moveto 
1 -1 scale
(90) t 
GR
GR
GS
[0.75 0 0 0.75 741.75 582.35001] CT
0.149 GC
/Helvetica 24 F
GS
[1 0 0 1 0 0] CT
-20.5 25 moveto 
1 -1 scale
(100) t 
GR
GR
GS
[0.75 0 0 0.75 424.12527 606.60004] CT
0.149 GC
/Helvetica 26.4 F
GS
[1 0 0 1 0 0] CT
-46.5 27 moveto 
1 -1 scale
(Time [s]) t 
GR
GR
GS
[0.75 0 0 0.75 0 0] CT
0.149 GC
2 setlinecap
1 LJ
0.667 LW
N
142 769 M
142 65 L
S
GR
GS
[0.75 0 0 0.75 0 0] CT
0.149 GC
2 setlinecap
1 LJ
0.667 LW
N
989 769 M
989 65 L
S
GR
GS
[0.75 0 0 0.75 0 0] CT
0.149 GC
2 setlinecap
1 LJ
0.667 LW
N
142 769 M
150.47 769 L
S
GR
GS
[0.75 0 0 0.75 0 0] CT
0.149 GC
2 setlinecap
1 LJ
0.667 LW
N
142 698.6 M
150.47 698.6 L
S
GR
GS
[0.75 0 0 0.75 0 0] CT
0.149 GC
2 setlinecap
1 LJ
0.667 LW
N
142 628.2 M
150.47 628.2 L
S
GR
GS
[0.75 0 0 0.75 0 0] CT
0.149 GC
2 setlinecap
1 LJ
0.667 LW
N
142 557.8 M
150.47 557.8 L
S
GR
GS
[0.75 0 0 0.75 0 0] CT
0.149 GC
2 setlinecap
1 LJ
0.667 LW
N
142 487.4 M
150.47 487.4 L
S
GR
GS
[0.75 0 0 0.75 0 0] CT
0.149 GC
2 setlinecap
1 LJ
0.667 LW
N
142 417 M
150.47 417 L
S
GR
GS
[0.75 0 0 0.75 0 0] CT
0.149 GC
2 setlinecap
1 LJ
0.667 LW
N
142 346.6 M
150.47 346.6 L
S
GR
GS
[0.75 0 0 0.75 0 0] CT
0.149 GC
2 setlinecap
1 LJ
0.667 LW
N
142 276.2 M
150.47 276.2 L
S
GR
GS
[0.75 0 0 0.75 0 0] CT
0.149 GC
2 setlinecap
1 LJ
0.667 LW
N
142 205.8 M
150.47 205.8 L
S
GR
GS
[0.75 0 0 0.75 0 0] CT
0.149 GC
2 setlinecap
1 LJ
0.667 LW
N
142 135.4 M
150.47 135.4 L
S
GR
GS
[0.75 0 0 0.75 0 0] CT
0.149 GC
2 setlinecap
1 LJ
0.667 LW
N
142 65 M
150.47 65 L
S
GR
GS
[0.75 0 0 0.75 0 0] CT
0.149 GC
2 setlinecap
1 LJ
0.667 LW
N
989 769 M
980.53 769 L
S
GR
GS
[0.75 0 0 0.75 0 0] CT
0.149 GC
2 setlinecap
1 LJ
0.667 LW
N
989 698.6 M
980.53 698.6 L
S
GR
GS
[0.75 0 0 0.75 0 0] CT
0.149 GC
2 setlinecap
1 LJ
0.667 LW
N
989 628.2 M
980.53 628.2 L
S
GR
GS
[0.75 0 0 0.75 0 0] CT
0.149 GC
2 setlinecap
1 LJ
0.667 LW
N
989 557.8 M
980.53 557.8 L
S
GR
GS
[0.75 0 0 0.75 0 0] CT
0.149 GC
2 setlinecap
1 LJ
0.667 LW
N
989 487.4 M
980.53 487.4 L
S
GR
GS
[0.75 0 0 0.75 0 0] CT
0.149 GC
2 setlinecap
1 LJ
0.667 LW
N
989 417 M
980.53 417 L
S
GR
GS
[0.75 0 0 0.75 0 0] CT
0.149 GC
2 setlinecap
1 LJ
0.667 LW
N
989 346.6 M
980.53 346.6 L
S
GR
GS
[0.75 0 0 0.75 0 0] CT
0.149 GC
2 setlinecap
1 LJ
0.667 LW
N
989 276.2 M
980.53 276.2 L
S
GR
GS
[0.75 0 0 0.75 0 0] CT
0.149 GC
2 setlinecap
1 LJ
0.667 LW
N
989 205.8 M
980.53 205.8 L
S
GR
GS
[0.75 0 0 0.75 0 0] CT
0.149 GC
2 setlinecap
1 LJ
0.667 LW
N
989 135.4 M
980.53 135.4 L
S
GR
GS
[0.75 0 0 0.75 0 0] CT
0.149 GC
2 setlinecap
1 LJ
0.667 LW
N
989 65 M
980.53 65 L
S
GR
GS
[0.75 0 0 0.75 100.90001 576.75] CT
0.149 GC
/Helvetica 24 F
GS
[1 0 0 1 0 0] CT
-49 9.5 moveto 
1 -1 scale
(-500) t 
GR
GR
GS
[0.75 0 0 0.75 100.90001 523.94998] CT
0.149 GC
/Helvetica 24 F
GS
[1 0 0 1 0 0] CT
-49 9.5 moveto 
1 -1 scale
(-400) t 
GR
GR
GS
[0.75 0 0 0.75 100.90001 471.15001] CT
0.149 GC
/Helvetica 24 F
GS
[1 0 0 1 0 0] CT
-49 9.5 moveto 
1 -1 scale
(-300) t 
GR
GR
GS
[0.75 0 0 0.75 100.90001 418.34999] CT
0.149 GC
/Helvetica 24 F
GS
[1 0 0 1 0 0] CT
-49 9.5 moveto 
1 -1 scale
(-200) t 
GR
GR
GS
[0.75 0 0 0.75 100.90001 365.55] CT
0.149 GC
/Helvetica 24 F
GS
[1 0 0 1 0 0] CT
-49 9.5 moveto 
1 -1 scale
(-100) t 
GR
GR
GS
[0.75 0 0 0.75 100.90001 312.75] CT
0.149 GC
/Helvetica 24 F
GS
[1 0 0 1 0 0] CT
-14 9.5 moveto 
1 -1 scale
(0) t 
GR
GR
GS
[0.75 0 0 0.75 100.90001 259.95] CT
0.149 GC
/Helvetica 24 F
GS
[1 0 0 1 0 0] CT
-41 9.5 moveto 
1 -1 scale
(100) t 
GR
GR
GS
[0.75 0 0 0.75 100.90001 207.15001] CT
0.149 GC
/Helvetica 24 F
GS
[1 0 0 1 0 0] CT
-41 9.5 moveto 
1 -1 scale
(200) t 
GR
GR
GS
[0.75 0 0 0.75 100.90001 154.35] CT
0.149 GC
/Helvetica 24 F
GS
[1 0 0 1 0 0] CT
-41 9.5 moveto 
1 -1 scale
(300) t 
GR
GR
GS
[0.75 0 0 0.75 100.90001 101.55] CT
0.149 GC
/Helvetica 24 F
GS
[1 0 0 1 0 0] CT
-41 9.5 moveto 
1 -1 scale
(400) t 
GR
GR
GS
[0.75 0 0 0.75 100.90001 48.75] CT
0.149 GC
/Helvetica 24 F
GS
[1 0 0 1 0 0] CT
-41 9.5 moveto 
1 -1 scale
(500) t 
GR
GR
GS
[0.75 0 0 0.75 0 0] CT
0 0.447 0.741 RC
1 LJ
2.667 LW
N
150.47 365.46 M
158.94 292.625 L
167.41 332.63 L
175.88 391.723 L
184.35 406.107 L
192.82 408.444 L
201.29 407.205 L
209.76 393.878 L
218.23 336.429 L
226.7 286.441 L
235.17 362.105 L
243.64 400.127 L
252.11 408.213 L
260.58 409.133 L
269.05 406.094 L
277.52 384.991 L
285.99 309.893 L
294.46 298.029 L
302.93 378.432 L
311.4 403.778 L
319.87 409.198 L
328.34 409.969 L
336.81 404.916 L
345.28 375.941 L
353.75 289.25 L
362.22 309.324 L
370.69 384.03 L
379.16 405.555 L
387.63 410.781 L
396.1 411.998 L
404.57 410.195 L
413.04 384.929 L
421.51 282.796 L
429.98 279.733 L
438.45 372.211 L
446.92 409.122 L
455.39 410.77 L
463.86 414.557 L
472.33 431.106 L
480.8 446.799 L
489.27 491.252 L
497.74 511.143 L
506.21 411.664 L
514.68 290.482 L
523.15 269.714 L
531.62 394.403 L
540.09 410.889 L
548.56 393.756 L
557.03 406.591 L
565.5 368.964 L
573.97 316.714 L
582.44 349.002 L
590.91 362.31 L
599.38 363.077 L
607.85 359.168 L
616.32 335.277 L
624.79 390.147 L
633.26 459.969 L
641.73 672.932 L
650.2 680.202 L
658.67 567.308 L
667.14 557.954 L
675.61 347.591 L
684.08 253.277 L
692.55 357.646 L
701.02 427.645 L
709.49 392.62 L
717.96 398.078 L
726.43 367.665 L
734.9 370.098 L
743.37 351.544 L
751.84 368.875 L
760.31 340.85 L
768.78 346.765 L
777.25 318.995 L
785.72 394.577 L
794.19 489.559 L
802.66 628.238 L
811.13 703.299 L
819.6 555.273 L
828.07 380.623 L
836.54 257.62 L
845.01 264.194 L
853.48 429.007 L
861.95 423.018 L
870.42 407.658 L
878.89 398.807 L
887.36 331.401 L
895.83 329.123 L
904.3 366.915 L
912.77 349.586 L
921.24 351.545 L
929.71 338.591 L
938.18 326.204 L
946.65 446.87 L
955.12 501.955 L
963.59 701.858 L
972.06 701.249 L
980.53 559.335 L
989 343.822 L
S
GR
GS
[0.75 0 0 0.75 0 0] CT
0.851 0.325 0.098 RC
1 LJ
2.667 LW
N
150.47 364.69 M
158.94 291.609 L
167.41 330.806 L
175.88 393.465 L
184.35 407.379 L
192.82 409.235 L
201.29 407.6 L
209.76 393.449 L
218.23 337.43 L
226.7 285.557 L
235.17 362.101 L
243.64 401.22 L
252.11 410.239 L
260.58 410.628 L
269.05 406.69 L
277.52 386.951 L
285.99 310.328 L
294.46 295.386 L
302.93 377.066 L
311.4 406.07 L
319.87 410.797 L
328.34 411.276 L
336.81 409.012 L
345.28 388.744 L
353.75 300.019 L
362.22 295.407 L
370.69 379.555 L
379.16 407.113 L
387.63 412.75 L
396.1 413.605 L
404.57 416.798 L
413.04 416.158 L
421.51 373.682 L
429.98 249.756 L
438.45 299.173 L
446.92 401.316 L
455.39 419.853 L
463.86 421.955 L
472.33 419.889 L
480.8 418.428 L
489.27 440.442 L
497.74 398.553 L
506.21 302.197 L
514.68 226.604 L
523.15 374.045 L
531.62 422.006 L
540.09 408.592 L
548.56 409.444 L
557.03 403.464 L
565.5 387.308 L
573.97 334.056 L
582.44 289.994 L
590.91 372.264 L
599.38 451.479 L
607.85 461.716 L
616.32 498.796 L
624.79 429.755 L
633.26 377.24 L
641.73 339.292 L
650.2 215.678 L
658.67 286.883 L
667.14 411.819 L
675.61 424.81 L
684.08 411.689 L
692.55 381.301 L
701.02 348.035 L
709.49 364.531 L
717.96 318.6 L
726.43 379.834 L
734.9 394.764 L
743.37 392.511 L
751.84 374.494 L
760.31 351.449 L
768.78 316.188 L
777.25 367.364 L
785.72 186.669 L
794.19 376.16 L
802.66 236.024 L
811.13 378.917 L
819.6 393.045 L
828.07 375.971 L
836.54 395.968 L
845.01 364.212 L
853.48 134.727 L
861.95 356.585 L
870.42 138.408 L
878.89 409.811 L
887.36 477.761 L
895.83 266.835 L
904.3 344.816 L
912.77 156.243 L
921.24 124.62 L
929.71 183.725 L
938.18 206.736 L
946.65 232.603 L
955.12 362.665 L
963.59 198.242 L
972.06 339.617 L
980.53 183.591 L
989 139.599 L
S
GR
GS
[0.75 0 0 0.75 0 0] CT
0.929 0.694 0.125 RC
1 LJ
2.667 LW
N
150.47 360.865 M
158.94 306.857 L
167.41 342.187 L
175.88 385.782 L
184.35 387.615 L
192.82 394.921 L
201.29 414.116 L
209.76 397.935 L
218.23 327.261 L
226.7 324.847 L
235.17 364.204 L
243.64 362.729 L
252.11 388.325 L
260.58 418.096 L
269.05 414.34 L
277.52 365.057 L
285.99 314.585 L
294.46 370.908 L
302.93 397.448 L
311.4 348.518 L
319.87 392.566 L
328.34 418.402 L
336.81 377.619 L
345.28 352.611 L
353.75 374.881 L
362.22 409.515 L
370.69 366.038 L
379.16 332.031 L
387.63 398.155 L
396.1 405.153 L
404.57 348.379 L
413.04 372.254 L
421.51 385.68 L
429.98 339.226 L
438.45 337.702 L
446.92 390.946 L
455.39 397.807 L
463.86 339.665 L
472.33 337.935 L
480.8 412.56 L
489.27 393.128 L
497.74 337.516 L
506.21 374.515 L
514.68 407.115 L
523.15 354.348 L
531.62 326.996 L
540.09 377.971 L
548.56 392.094 L
557.03 354.886 L
565.5 387.87 L
573.97 410.944 L
582.44 353.837 L
590.91 310.482 L
599.38 374.847 L
607.85 398.577 L
616.32 348.548 L
624.79 392.083 L
633.26 408.729 L
641.73 330.196 L
650.2 337.553 L
658.67 404.701 L
667.14 409.537 L
675.61 324.516 L
684.08 324.972 L
692.55 376.274 L
701.02 356.934 L
709.49 336.246 L
717.96 375.654 L
726.43 407.213 L
734.9 351.82 L
743.37 322.202 L
751.84 363.232 L
760.31 370.598 L
768.78 358.892 L
777.25 375.738 L
785.72 392.079 L
794.19 358.564 L
802.66 339.479 L
811.13 375.737 L
819.6 408.104 L
828.07 372.298 L
836.54 376.092 L
845.01 393.396 L
853.48 351.815 L
861.95 332.708 L
870.42 376.2 L
878.89 391.647 L
887.36 382.667 L
895.83 395.099 L
904.3 381.12 L
912.77 355.805 L
921.24 324.068 L
929.71 373.04 L
938.18 383.644 L
946.65 340.776 L
955.12 398.775 L
963.59 418.289 L
972.06 343.853 L
980.53 319.015 L
989 383.74 L
S
GR
GS
[0.75 0 0 0.75 0 0] CT
0.494 0.184 0.557 RC
1 LJ
2.667 LW
N
150.47 366.987 M
158.94 294.551 L
167.41 322.873 L
175.88 386.195 L
184.35 411.25 L
192.82 411.149 L
201.29 400.545 L
209.76 392.514 L
218.23 351.616 L
226.7 284.299 L
235.17 343.284 L
243.64 398.891 L
252.11 422.714 L
260.58 411.494 L
269.05 373.302 L
277.52 386.01 L
285.99 385.154 L
294.46 311.33 L
302.93 290.493 L
311.4 388.122 L
319.87 431.796 L
328.34 415.073 L
336.81 322.398 L
345.28 372.086 L
353.75 452.983 L
362.22 368.787 L
370.69 263.971 L
379.16 343.985 L
387.63 450.886 L
396.1 446.238 L
404.57 302.974 L
413.04 370.453 L
421.51 409.761 L
429.98 366.304 L
438.45 336.548 L
446.92 377.103 L
455.39 390.309 L
463.86 457.619 L
472.33 367.108 L
480.8 352.694 L
489.27 368.013 L
497.74 394.941 L
506.21 378.161 L
514.68 378.095 L
523.15 346.465 L
531.62 432.73 L
540.09 389.975 L
548.56 328.463 L
557.03 315.288 L
565.5 429.636 L
573.97 419.195 L
582.44 396.03 L
590.91 295.792 L
599.38 392.183 L
607.85 452.372 L
616.32 381.82 L
624.79 284.488 L
633.26 369.876 L
641.73 450.522 L
650.2 395.64 L
658.67 292.344 L
667.14 371.211 L
675.61 404.539 L
684.08 379.956 L
692.55 355.418 L
701.02 378.431 L
709.49 356.636 L
717.96 410.752 L
726.43 395.139 L
734.9 336.643 L
743.37 330.135 L
751.84 419.155 L
760.31 401.44 L
768.78 375.133 L
777.25 300.755 L
785.72 356.016 L
794.19 397.364 L
802.66 394.902 L
811.13 286.192 L
819.6 385.282 L
828.07 452.474 L
836.54 422.148 L
845.01 269.673 L
853.48 350.863 L
861.95 428.679 L
870.42 428.852 L
878.89 314.987 L
887.36 344.911 L
895.83 441.783 L
904.3 450.787 L
912.77 288.417 L
921.24 349.013 L
929.71 414.22 L
938.18 444.63 L
946.65 376.757 L
955.12 286.866 L
963.59 380.361 L
972.06 393.941 L
980.53 368.362 L
989 342.579 L
S
GR
GS
[0.75 0 0 0.75 0 0] CT
0.467 0.675 0.188 RC
1 LJ
2.667 LW
N
150.47 368.924 M
158.94 296.111 L
167.41 326.888 L
175.88 386.964 L
184.35 405.452 L
192.82 409.418 L
201.29 407.227 L
209.76 396.78 L
218.23 352.518 L
226.7 277.461 L
235.17 341.963 L
243.64 400.591 L
252.11 406.937 L
260.58 406.296 L
269.05 403.788 L
277.52 394.486 L
285.99 340.578 L
294.46 264.837 L
302.93 354.185 L
311.4 403.163 L
319.87 408.25 L
328.34 409.945 L
336.81 410.882 L
345.28 400.38 L
353.75 345.338 L
362.22 251.534 L
370.69 349.431 L
379.16 403.997 L
387.63 408.717 L
396.1 415.024 L
404.57 428.322 L
413.04 411.148 L
421.51 375.454 L
429.98 256.321 L
438.45 323.718 L
446.92 402.35 L
455.39 408.237 L
463.86 408.954 L
472.33 405.441 L
480.8 419.421 L
489.27 413.002 L
497.74 351.842 L
506.21 251.18 L
514.68 347.191 L
523.15 405.964 L
531.62 406.355 L
540.09 386.368 L
548.56 411.784 L
557.03 444.798 L
565.5 451.591 L
573.97 390.196 L
582.44 244.606 L
590.91 338.128 L
599.38 407.652 L
607.85 399.662 L
616.32 304.456 L
624.79 354.495 L
633.26 432.595 L
641.73 447.45 L
650.2 404.125 L
658.67 243.291 L
667.14 313.929 L
675.61 405.786 L
684.08 419.814 L
692.55 289.429 L
701.02 331.691 L
709.49 451.635 L
717.96 451.637 L
726.43 455.944 L
734.9 311.927 L
743.37 244.639 L
751.84 395.18 L
760.31 441.479 L
768.78 328.021 L
777.25 246.675 L
785.72 441.93 L
794.19 483.029 L
802.66 482.714 L
811.13 335.744 L
819.6 257.351 L
828.07 415.087 L
836.54 449.181 L
845.01 363.716 L
853.48 219.674 L
861.95 429.178 L
870.42 449.181 L
878.89 451.355 L
887.36 351.732 L
895.83 280.355 L
904.3 359.663 L
912.77 450.532 L
921.24 397.561 L
929.71 165.092 L
938.18 344.685 L
946.65 415.132 L
955.12 452.642 L
963.59 322.464 L
972.06 297.864 L
980.53 329.138 L
989 449.384 L
S
GR
GS
[0.75 0 0 0.75 0 0] CT
0.302 0.745 0.933 RC
1 LJ
2.667 LW
N
150.47 366.312 M
158.94 291.688 L
167.41 331.112 L
175.88 391.656 L
184.35 407.144 L
192.82 409.256 L
201.29 407.144 L
209.76 394.472 L
218.23 339.56 L
226.7 284.648 L
235.17 360.68 L
243.64 400.808 L
252.11 408.552 L
260.58 409.96 L
269.05 406.44 L
277.52 385.32 L
285.99 310.696 L
294.46 298.024 L
302.93 379.688 L
311.4 404.328 L
319.87 408.552 L
328.34 410.664 L
336.81 405.032 L
345.28 374.76 L
353.75 288.872 L
362.22 316.328 L
370.69 390.248 L
379.16 407.848 L
387.63 410.664 L
396.1 410.664 L
404.57 403.624 L
413.04 367.016 L
421.51 275.496 L
429.98 328.296 L
438.45 395.88 L
446.92 408.552 L
455.39 410.664 L
463.86 411.368 L
472.33 404.328 L
480.8 367.72 L
489.27 268.456 L
497.74 324.776 L
506.21 395.88 L
514.68 409.256 L
523.15 411.368 L
531.62 411.368 L
540.09 407.848 L
548.56 383.912 L
557.03 281.832 L
565.5 290.984 L
573.97 388.84 L
582.44 407.848 L
590.91 410.664 L
599.38 412.072 L
607.85 412.072 L
616.32 407.144 L
624.79 367.016 L
633.26 237.48 L
641.73 324.776 L
650.2 400.104 L
658.67 410.664 L
667.14 412.072 L
675.61 412.072 L
684.08 413.48 L
692.55 414.184 L
701.02 414.888 L
709.49 411.368 L
717.96 402.92 L
726.43 407.848 L
734.9 409.96 L
743.37 407.848 L
751.84 402.92 L
760.31 395.176 L
768.78 387.432 L
777.25 376.872 L
785.72 369.128 L
794.19 367.72 L
802.66 375.464 L
811.13 383.208 L
819.6 384.616 L
828.07 381.096 L
836.54 374.056 L
845.01 367.72 L
853.48 369.832 L
861.95 376.872 L
870.42 383.208 L
878.89 383.912 L
887.36 379.688 L
895.83 371.24 L
904.3 366.312 L
912.77 369.832 L
921.24 376.872 L
929.71 383.912 L
938.18 383.912 L
946.65 378.984 L
955.12 369.832 L
963.59 365.608 L
972.06 370.536 L
980.53 378.984 L
989 383.208 L
S
GR
GS
[0.75 0 0 0.75 0 0] CT
1 GC
N
180 701 M
180 526 L
420 526 L
420 701 L
cp
f
GR
GS
[0.75 0 0 0.75 162.75 406.53438] CT
/Helvetica 21.6 F
GS
[1 0 0 1 0 0] CT
0 9 moveto 
1 -1 scale
(Approximation1) t 
GR
GR
GS
[0.75 0 0 0.75 0 0] CT
0 0.447 0.741 RC
1 LJ
2.667 LW
N
184 542.046 M
214 542.046 L
S
GR
GS
[0.75 0 0 0.75 162.75 427.97063] CT
/Helvetica 21.6 F
GS
[1 0 0 1 0 0] CT
0 9 moveto 
1 -1 scale
(Approximation2) t 
GR
GR
GS
[0.75 0 0 0.75 0 0] CT
0.851 0.325 0.098 RC
1 LJ
2.667 LW
N
184 570.628 M
214 570.628 L
S
GR
GS
[0.75 0 0 0.75 162.75 449.40688] CT
/Helvetica 21.6 F
GS
[1 0 0 1 0 0] CT
0 9 moveto 
1 -1 scale
(Approximation3) t 
GR
GR
GS
[0.75 0 0 0.75 0 0] CT
0.929 0.694 0.125 RC
1 LJ
2.667 LW
N
184 599.209 M
214 599.209 L
S
GR
GS
[0.75 0 0 0.75 162.75 470.84312] CT
/Helvetica 21.6 F
GS
[1 0 0 1 0 0] CT
0 9 moveto 
1 -1 scale
(Approximation4) t 
GR
GR
GS
[0.75 0 0 0.75 0 0] CT
0.494 0.184 0.557 RC
1 LJ
2.667 LW
N
184 627.791 M
214 627.791 L
S
GR
GS
[0.75 0 0 0.75 162.75 492.27937] CT
/Helvetica 21.6 F
GS
[1 0 0 1 0 0] CT
0 9 moveto 
1 -1 scale
(Approximation5) t 
GR
GR
GS
[0.75 0 0 0.75 0 0] CT
0.467 0.675 0.188 RC
1 LJ
2.667 LW
N
184 656.372 M
214 656.372 L
S
GR
GS
[0.75 0 0 0.75 162.75 513.71562] CT
/Helvetica 21.6 F
GS
[1 0 0 1 0 0] CT
0 9 moveto 
1 -1 scale
(Laser Prediction Set) t 
GR
GR
GS
[0.75 0 0 0.75 0 0] CT
0.302 0.745 0.933 RC
1 LJ
2.667 LW
N
184 684.954 M
214 684.954 L
S
GR
GS
[0.75 0 0 0.75 0 0] CT
0.149 GC
10.0 ML
0.667 LW
N
180 701 M
180 526 L
420 526 L
420 701 L
cp
S
GR
%%Trailer
%%Pages: 1
%%EOF
