%!PS-Adobe-3.0 EPSF-3.0
%%Creator: (MATLAB, The Mathworks, Inc. Version 9.1.0.441655 \(R2016b\). Operating System: Windows 8)
%%Title: (C:/Users/Eigenaar/WIT/Data Mining/data-mining/Session 2/plots/p22h44.eps)
%%CreationDate: 2017-11-22T15:35:12
%%Pages: (atend)
%%BoundingBox: 0 0 857 587
%%LanguageLevel: 3
%%EndComments
%%BeginProlog
%%BeginResource: procset (Apache XML Graphics Std ProcSet) 1.2 0
%%Version: 1.2 0
%%Copyright: (Copyright 2001-2003,2010 The Apache Software Foundation. License terms: http://www.apache.org/licenses/LICENSE-2.0)
/bd{bind def}bind def
/ld{load def}bd
/GR/grestore ld
/M/moveto ld
/LJ/setlinejoin ld
/C/curveto ld
/f/fill ld
/LW/setlinewidth ld
/GC/setgray ld
/t/show ld
/N/newpath ld
/CT/concat ld
/cp/closepath ld
/S/stroke ld
/L/lineto ld
/CC/setcmykcolor ld
/A/ashow ld
/GS/gsave ld
/RC/setrgbcolor ld
/RM/rmoveto ld
/ML/setmiterlimit ld
/re {4 2 roll M
1 index 0 rlineto
0 exch rlineto
neg 0 rlineto
cp } bd
/_ctm matrix def
/_tm matrix def
/BT { _ctm currentmatrix pop matrix _tm copy pop 0 0 moveto } bd
/ET { _ctm setmatrix } bd
/iTm { _ctm setmatrix _tm concat } bd
/Tm { _tm astore pop iTm 0 0 moveto } bd
/ux 0.0 def
/uy 0.0 def
/F {
  /Tp exch def
  /Tf exch def
  Tf findfont Tp scalefont setfont
  /cf Tf def  /cs Tp def
} bd
/ULS {currentpoint /uy exch def /ux exch def} bd
/ULE {
  /Tcx currentpoint pop def
  gsave
  newpath
  cf findfont cs scalefont dup
  /FontMatrix get 0 get /Ts exch def /FontInfo get dup
  /UnderlinePosition get Ts mul /To exch def
  /UnderlineThickness get Ts mul /Tt exch def
  ux uy To add moveto  Tcx uy To add lineto
  Tt setlinewidth stroke
  grestore
} bd
/OLE {
  /Tcx currentpoint pop def
  gsave
  newpath
  cf findfont cs scalefont dup
  /FontMatrix get 0 get /Ts exch def /FontInfo get dup
  /UnderlinePosition get Ts mul /To exch def
  /UnderlineThickness get Ts mul /Tt exch def
  ux uy To add cs add moveto Tcx uy To add cs add lineto
  Tt setlinewidth stroke
  grestore
} bd
/SOE {
  /Tcx currentpoint pop def
  gsave
  newpath
  cf findfont cs scalefont dup
  /FontMatrix get 0 get /Ts exch def /FontInfo get dup
  /UnderlinePosition get Ts mul /To exch def
  /UnderlineThickness get Ts mul /Tt exch def
  ux uy To add cs 10 mul 26 idiv add moveto Tcx uy To add cs 10 mul 26 idiv add lineto
  Tt setlinewidth stroke
  grestore
} bd
/QT {
/Y22 exch store
/X22 exch store
/Y21 exch store
/X21 exch store
currentpoint
/Y21 load 2 mul add 3 div exch
/X21 load 2 mul add 3 div exch
/X21 load 2 mul /X22 load add 3 div
/Y21 load 2 mul /Y22 load add 3 div
/X22 load /Y22 load curveto
} bd
/SSPD {
dup length /d exch dict def
{
/v exch def
/k exch def
currentpagedevice k known {
/cpdv currentpagedevice k get def
v cpdv ne {
/upd false def
/nullv v type /nulltype eq def
/nullcpdv cpdv type /nulltype eq def
nullv nullcpdv or
{
/upd true def
} {
/sametype v type cpdv type eq def
sametype {
v type /arraytype eq {
/vlen v length def
/cpdvlen cpdv length def
vlen cpdvlen eq {
0 1 vlen 1 sub {
/i exch def
/obj v i get def
/cpdobj cpdv i get def
obj cpdobj ne {
/upd true def
exit
} if
} for
} {
/upd true def
} ifelse
} {
v type /dicttype eq {
v {
/dv exch def
/dk exch def
/cpddv cpdv dk get def
dv cpddv ne {
/upd true def
exit
} if
} forall
} {
/upd true def
} ifelse
} ifelse
} if
} ifelse
upd true eq {
d k v put
} if
} if
} if
} forall
d length 0 gt {
d setpagedevice
} if
} bd
/RE { % /NewFontName [NewEncodingArray] /FontName RE -
  findfont dup length dict begin
  {
    1 index /FID ne
    {def} {pop pop} ifelse
  } forall
  /Encoding exch def
  /FontName 1 index def
  currentdict definefont pop
  end
} bind def
%%EndResource
%%BeginResource: procset (Apache XML Graphics EPS ProcSet) 1.0 0
%%Version: 1.0 0
%%Copyright: (Copyright 2002-2003 The Apache Software Foundation. License terms: http://www.apache.org/licenses/LICENSE-2.0)
/BeginEPSF { %def
/b4_Inc_state save def         % Save state for cleanup
/dict_count countdictstack def % Count objects on dict stack
/op_count count 1 sub def      % Count objects on operand stack
userdict begin                 % Push userdict on dict stack
/showpage { } def              % Redefine showpage, { } = null proc
0 setgray 0 setlinecap         % Prepare graphics state
1 setlinewidth 0 setlinejoin
10 setmiterlimit [ ] 0 setdash newpath
/languagelevel where           % If level not equal to 1 then
{pop languagelevel             % set strokeadjust and
1 ne                           % overprint to their defaults.
{false setstrokeadjust false setoverprint
} if
} if
} bd
/EndEPSF { %def
count op_count sub {pop} repeat            % Clean up stacks
countdictstack dict_count sub {end} repeat
b4_Inc_state restore
} bd
%%EndResource
%FOPBeginFontDict
%%IncludeResource: font Courier-Bold
%%IncludeResource: font Helvetica
%%IncludeResource: font Courier-BoldOblique
%%IncludeResource: font Courier-Oblique
%%IncludeResource: font Times-Roman
%%IncludeResource: font Helvetica-BoldOblique
%%IncludeResource: font Helvetica-Bold
%%IncludeResource: font Helvetica-Oblique
%%IncludeResource: font Times-BoldItalic
%%IncludeResource: font Courier
%%IncludeResource: font Times-Italic
%%IncludeResource: font Times-Bold
%%IncludeResource: font Symbol
%%IncludeResource: font ZapfDingbats
%FOPEndFontDict
%%BeginResource: encoding WinAnsiEncoding
/WinAnsiEncoding [
/.notdef /.notdef /.notdef /.notdef /.notdef
/.notdef /.notdef /.notdef /.notdef /.notdef
/.notdef /.notdef /.notdef /.notdef /.notdef
/.notdef /.notdef /.notdef /.notdef /.notdef
/.notdef /.notdef /.notdef /.notdef /.notdef
/.notdef /.notdef /.notdef /.notdef /.notdef
/.notdef /.notdef /space /exclam /quotedbl
/numbersign /dollar /percent /ampersand /quotesingle
/parenleft /parenright /asterisk /plus /comma
/hyphen /period /slash /zero /one
/two /three /four /five /six
/seven /eight /nine /colon /semicolon
/less /equal /greater /question /at
/A /B /C /D /E
/F /G /H /I /J
/K /L /M /N /O
/P /Q /R /S /T
/U /V /W /X /Y
/Z /bracketleft /backslash /bracketright /asciicircum
/underscore /quoteleft /a /b /c
/d /e /f /g /h
/i /j /k /l /m
/n /o /p /q /r
/s /t /u /v /w
/x /y /z /braceleft /bar
/braceright /asciitilde /bullet /Euro /bullet
/quotesinglbase /florin /quotedblbase /ellipsis /dagger
/daggerdbl /circumflex /perthousand /Scaron /guilsinglleft
/OE /bullet /Zcaron /bullet /bullet
/quoteleft /quoteright /quotedblleft /quotedblright /bullet
/endash /emdash /asciitilde /trademark /scaron
/guilsinglright /oe /bullet /zcaron /Ydieresis
/space /exclamdown /cent /sterling /currency
/yen /brokenbar /section /dieresis /copyright
/ordfeminine /guillemotleft /logicalnot /sfthyphen /registered
/macron /degree /plusminus /twosuperior /threesuperior
/acute /mu /paragraph /middot /cedilla
/onesuperior /ordmasculine /guillemotright /onequarter /onehalf
/threequarters /questiondown /Agrave /Aacute /Acircumflex
/Atilde /Adieresis /Aring /AE /Ccedilla
/Egrave /Eacute /Ecircumflex /Edieresis /Igrave
/Iacute /Icircumflex /Idieresis /Eth /Ntilde
/Ograve /Oacute /Ocircumflex /Otilde /Odieresis
/multiply /Oslash /Ugrave /Uacute /Ucircumflex
/Udieresis /Yacute /Thorn /germandbls /agrave
/aacute /acircumflex /atilde /adieresis /aring
/ae /ccedilla /egrave /eacute /ecircumflex
/edieresis /igrave /iacute /icircumflex /idieresis
/eth /ntilde /ograve /oacute /ocircumflex
/otilde /odieresis /divide /oslash /ugrave
/uacute /ucircumflex /udieresis /yacute /thorn
/ydieresis
] def
%%EndResource
%FOPBeginFontReencode
/Courier-Bold findfont
dup length dict begin
  {1 index /FID ne {def} {pop pop} ifelse} forall
  /Encoding WinAnsiEncoding def
  currentdict
end
/Courier-Bold exch definefont pop
/Helvetica findfont
dup length dict begin
  {1 index /FID ne {def} {pop pop} ifelse} forall
  /Encoding WinAnsiEncoding def
  currentdict
end
/Helvetica exch definefont pop
/Courier-BoldOblique findfont
dup length dict begin
  {1 index /FID ne {def} {pop pop} ifelse} forall
  /Encoding WinAnsiEncoding def
  currentdict
end
/Courier-BoldOblique exch definefont pop
/Courier-Oblique findfont
dup length dict begin
  {1 index /FID ne {def} {pop pop} ifelse} forall
  /Encoding WinAnsiEncoding def
  currentdict
end
/Courier-Oblique exch definefont pop
/Times-Roman findfont
dup length dict begin
  {1 index /FID ne {def} {pop pop} ifelse} forall
  /Encoding WinAnsiEncoding def
  currentdict
end
/Times-Roman exch definefont pop
/Helvetica-BoldOblique findfont
dup length dict begin
  {1 index /FID ne {def} {pop pop} ifelse} forall
  /Encoding WinAnsiEncoding def
  currentdict
end
/Helvetica-BoldOblique exch definefont pop
/Helvetica-Bold findfont
dup length dict begin
  {1 index /FID ne {def} {pop pop} ifelse} forall
  /Encoding WinAnsiEncoding def
  currentdict
end
/Helvetica-Bold exch definefont pop
/Helvetica-Oblique findfont
dup length dict begin
  {1 index /FID ne {def} {pop pop} ifelse} forall
  /Encoding WinAnsiEncoding def
  currentdict
end
/Helvetica-Oblique exch definefont pop
/Times-BoldItalic findfont
dup length dict begin
  {1 index /FID ne {def} {pop pop} ifelse} forall
  /Encoding WinAnsiEncoding def
  currentdict
end
/Times-BoldItalic exch definefont pop
/Courier findfont
dup length dict begin
  {1 index /FID ne {def} {pop pop} ifelse} forall
  /Encoding WinAnsiEncoding def
  currentdict
end
/Courier exch definefont pop
/Times-Italic findfont
dup length dict begin
  {1 index /FID ne {def} {pop pop} ifelse} forall
  /Encoding WinAnsiEncoding def
  currentdict
end
/Times-Italic exch definefont pop
/Times-Bold findfont
dup length dict begin
  {1 index /FID ne {def} {pop pop} ifelse} forall
  /Encoding WinAnsiEncoding def
  currentdict
end
/Times-Bold exch definefont pop
%FOPEndFontReencode
%%EndProlog
%%Page: 1 1
%%PageBoundingBox: 0 0 857 587
%%BeginPageSetup
[1 0 0 -1 0 587] CT
%%EndPageSetup
GS
[0.75 0 0 0.75 0 -0.25] CT
1 GC
N
0 0 1143 783 re
f
GR
GS
[0.75 0 0 0.75 0 -0.25] CT
1 GC
N
0 0 1143 783 re
f
GR
GS
[0.75 0 0 0.75 0 -0.25] CT
1 GC
N
149 697 M
1034 697 L
1034 59 L
149 59 L
cp
f
GR
GS
[0.75 0 0 0.75 0 -0.25] CT
0.149 GC
2 setlinecap
1 LJ
0.667 LW
N
149 697 M
1034 697 L
S
GR
GS
[0.75 0 0 0.75 0 -0.25] CT
0.149 GC
2 setlinecap
1 LJ
0.667 LW
N
149 59 M
1034 59 L
S
GR
GS
[0.75 0 0 0.75 0 -0.25] CT
0.149 GC
2 setlinecap
1 LJ
0.667 LW
N
149 697 M
149 688.15 L
S
GR
GS
[0.75 0 0 0.75 0 -0.25] CT
0.149 GC
2 setlinecap
1 LJ
0.667 LW
N
237.5 697 M
237.5 688.15 L
S
GR
GS
[0.75 0 0 0.75 0 -0.25] CT
0.149 GC
2 setlinecap
1 LJ
0.667 LW
N
326 697 M
326 688.15 L
S
GR
GS
[0.75 0 0 0.75 0 -0.25] CT
0.149 GC
2 setlinecap
1 LJ
0.667 LW
N
414.5 697 M
414.5 688.15 L
S
GR
GS
[0.75 0 0 0.75 0 -0.25] CT
0.149 GC
2 setlinecap
1 LJ
0.667 LW
N
503 697 M
503 688.15 L
S
GR
GS
[0.75 0 0 0.75 0 -0.25] CT
0.149 GC
2 setlinecap
1 LJ
0.667 LW
N
591.5 697 M
591.5 688.15 L
S
GR
GS
[0.75 0 0 0.75 0 -0.25] CT
0.149 GC
2 setlinecap
1 LJ
0.667 LW
N
680 697 M
680 688.15 L
S
GR
GS
[0.75 0 0 0.75 0 -0.25] CT
0.149 GC
2 setlinecap
1 LJ
0.667 LW
N
768.5 697 M
768.5 688.15 L
S
GR
GS
[0.75 0 0 0.75 0 -0.25] CT
0.149 GC
2 setlinecap
1 LJ
0.667 LW
N
857 697 M
857 688.15 L
S
GR
GS
[0.75 0 0 0.75 0 -0.25] CT
0.149 GC
2 setlinecap
1 LJ
0.667 LW
N
945.5 697 M
945.5 688.15 L
S
GR
GS
[0.75 0 0 0.75 0 -0.25] CT
0.149 GC
2 setlinecap
1 LJ
0.667 LW
N
1034 697 M
1034 688.15 L
S
GR
GS
[0.75 0 0 0.75 0 -0.25] CT
0.149 GC
2 setlinecap
1 LJ
0.667 LW
N
149 59 M
149 67.85 L
S
GR
GS
[0.75 0 0 0.75 0 -0.25] CT
0.149 GC
2 setlinecap
1 LJ
0.667 LW
N
237.5 59 M
237.5 67.85 L
S
GR
GS
[0.75 0 0 0.75 0 -0.25] CT
0.149 GC
2 setlinecap
1 LJ
0.667 LW
N
326 59 M
326 67.85 L
S
GR
GS
[0.75 0 0 0.75 0 -0.25] CT
0.149 GC
2 setlinecap
1 LJ
0.667 LW
N
414.5 59 M
414.5 67.85 L
S
GR
GS
[0.75 0 0 0.75 0 -0.25] CT
0.149 GC
2 setlinecap
1 LJ
0.667 LW
N
503 59 M
503 67.85 L
S
GR
GS
[0.75 0 0 0.75 0 -0.25] CT
0.149 GC
2 setlinecap
1 LJ
0.667 LW
N
591.5 59 M
591.5 67.85 L
S
GR
GS
[0.75 0 0 0.75 0 -0.25] CT
0.149 GC
2 setlinecap
1 LJ
0.667 LW
N
680 59 M
680 67.85 L
S
GR
GS
[0.75 0 0 0.75 0 -0.25] CT
0.149 GC
2 setlinecap
1 LJ
0.667 LW
N
768.5 59 M
768.5 67.85 L
S
GR
GS
[0.75 0 0 0.75 0 -0.25] CT
0.149 GC
2 setlinecap
1 LJ
0.667 LW
N
857 59 M
857 67.85 L
S
GR
GS
[0.75 0 0 0.75 0 -0.25] CT
0.149 GC
2 setlinecap
1 LJ
0.667 LW
N
945.5 59 M
945.5 67.85 L
S
GR
GS
[0.75 0 0 0.75 0 -0.25] CT
0.149 GC
2 setlinecap
1 LJ
0.667 LW
N
1034 59 M
1034 67.85 L
S
GR
GS
[0.75 0 0 0.75 111.75 528.10001] CT
0.149 GC
/Helvetica 24 F
GS
[1 0 0 1 0 0] CT
-7 25 moveto 
1 -1 scale
(0) t 
GR
GR
GS
[0.75 0 0 0.75 178.125 528.10001] CT
0.149 GC
/Helvetica 24 F
GS
[1 0 0 1 0 0] CT
-13.5 25 moveto 
1 -1 scale
(10) t 
GR
GR
GS
[0.75 0 0 0.75 244.5 528.10001] CT
0.149 GC
/Helvetica 24 F
GS
[1 0 0 1 0 0] CT
-13.5 25 moveto 
1 -1 scale
(20) t 
GR
GR
GS
[0.75 0 0 0.75 310.875 528.10001] CT
0.149 GC
/Helvetica 24 F
GS
[1 0 0 1 0 0] CT
-13.5 25 moveto 
1 -1 scale
(30) t 
GR
GR
GS
[0.75 0 0 0.75 377.25 528.10001] CT
0.149 GC
/Helvetica 24 F
GS
[1 0 0 1 0 0] CT
-13.5 25 moveto 
1 -1 scale
(40) t 
GR
GR
GS
[0.75 0 0 0.75 443.625 528.10001] CT
0.149 GC
/Helvetica 24 F
GS
[1 0 0 1 0 0] CT
-13.5 25 moveto 
1 -1 scale
(50) t 
GR
GR
GS
[0.75 0 0 0.75 510 528.10001] CT
0.149 GC
/Helvetica 24 F
GS
[1 0 0 1 0 0] CT
-13.5 25 moveto 
1 -1 scale
(60) t 
GR
GR
GS
[0.75 0 0 0.75 576.375 528.10001] CT
0.149 GC
/Helvetica 24 F
GS
[1 0 0 1 0 0] CT
-13.5 25 moveto 
1 -1 scale
(70) t 
GR
GR
GS
[0.75 0 0 0.75 642.75 528.10001] CT
0.149 GC
/Helvetica 24 F
GS
[1 0 0 1 0 0] CT
-13.5 25 moveto 
1 -1 scale
(80) t 
GR
GR
GS
[0.75 0 0 0.75 709.125 528.10001] CT
0.149 GC
/Helvetica 24 F
GS
[1 0 0 1 0 0] CT
-13.5 25 moveto 
1 -1 scale
(90) t 
GR
GR
GS
[0.75 0 0 0.75 775.5 528.10001] CT
0.149 GC
/Helvetica 24 F
GS
[1 0 0 1 0 0] CT
-20.5 25 moveto 
1 -1 scale
(100) t 
GR
GR
GS
[0.75 0 0 0.75 443.62532 552.34999] CT
0.149 GC
/Helvetica 26.4 F
GS
[1 0 0 1 0 0] CT
-46.5 27 moveto 
1 -1 scale
(Time [s]) t 
GR
GR
GS
[0.75 0 0 0.75 0 -0.25] CT
0.149 GC
2 setlinecap
1 LJ
0.667 LW
N
149 697 M
149 59 L
S
GR
GS
[0.75 0 0 0.75 0 -0.25] CT
0.149 GC
2 setlinecap
1 LJ
0.667 LW
N
1034 697 M
1034 59 L
S
GR
GS
[0.75 0 0 0.75 0 -0.25] CT
0.149 GC
2 setlinecap
1 LJ
0.667 LW
N
149 697 M
157.85 697 L
S
GR
GS
[0.75 0 0 0.75 0 -0.25] CT
0.149 GC
2 setlinecap
1 LJ
0.667 LW
N
149 617.25 M
157.85 617.25 L
S
GR
GS
[0.75 0 0 0.75 0 -0.25] CT
0.149 GC
2 setlinecap
1 LJ
0.667 LW
N
149 537.5 M
157.85 537.5 L
S
GR
GS
[0.75 0 0 0.75 0 -0.25] CT
0.149 GC
2 setlinecap
1 LJ
0.667 LW
N
149 457.75 M
157.85 457.75 L
S
GR
GS
[0.75 0 0 0.75 0 -0.25] CT
0.149 GC
2 setlinecap
1 LJ
0.667 LW
N
149 378 M
157.85 378 L
S
GR
GS
[0.75 0 0 0.75 0 -0.25] CT
0.149 GC
2 setlinecap
1 LJ
0.667 LW
N
149 298.25 M
157.85 298.25 L
S
GR
GS
[0.75 0 0 0.75 0 -0.25] CT
0.149 GC
2 setlinecap
1 LJ
0.667 LW
N
149 218.5 M
157.85 218.5 L
S
GR
GS
[0.75 0 0 0.75 0 -0.25] CT
0.149 GC
2 setlinecap
1 LJ
0.667 LW
N
149 138.75 M
157.85 138.75 L
S
GR
GS
[0.75 0 0 0.75 0 -0.25] CT
0.149 GC
2 setlinecap
1 LJ
0.667 LW
N
149 59 M
157.85 59 L
S
GR
GS
[0.75 0 0 0.75 0 -0.25] CT
0.149 GC
2 setlinecap
1 LJ
0.667 LW
N
1034 697 M
1025.15 697 L
S
GR
GS
[0.75 0 0 0.75 0 -0.25] CT
0.149 GC
2 setlinecap
1 LJ
0.667 LW
N
1034 617.25 M
1025.15 617.25 L
S
GR
GS
[0.75 0 0 0.75 0 -0.25] CT
0.149 GC
2 setlinecap
1 LJ
0.667 LW
N
1034 537.5 M
1025.15 537.5 L
S
GR
GS
[0.75 0 0 0.75 0 -0.25] CT
0.149 GC
2 setlinecap
1 LJ
0.667 LW
N
1034 457.75 M
1025.15 457.75 L
S
GR
GS
[0.75 0 0 0.75 0 -0.25] CT
0.149 GC
2 setlinecap
1 LJ
0.667 LW
N
1034 378 M
1025.15 378 L
S
GR
GS
[0.75 0 0 0.75 0 -0.25] CT
0.149 GC
2 setlinecap
1 LJ
0.667 LW
N
1034 298.25 M
1025.15 298.25 L
S
GR
GS
[0.75 0 0 0.75 0 -0.25] CT
0.149 GC
2 setlinecap
1 LJ
0.667 LW
N
1034 218.5 M
1025.15 218.5 L
S
GR
GS
[0.75 0 0 0.75 0 -0.25] CT
0.149 GC
2 setlinecap
1 LJ
0.667 LW
N
1034 138.75 M
1025.15 138.75 L
S
GR
GS
[0.75 0 0 0.75 0 -0.25] CT
0.149 GC
2 setlinecap
1 LJ
0.667 LW
N
1034 59 M
1025.15 59 L
S
GR
GS
[0.75 0 0 0.75 106.15001 522.5] CT
0.149 GC
/Helvetica 24 F
GS
[1 0 0 1 0 0] CT
-35 9.5 moveto 
1 -1 scale
(-50) t 
GR
GR
GS
[0.75 0 0 0.75 106.15001 462.6875] CT
0.149 GC
/Helvetica 24 F
GS
[1 0 0 1 0 0] CT
-14 9.5 moveto 
1 -1 scale
(0) t 
GR
GR
GS
[0.75 0 0 0.75 106.15001 402.875] CT
0.149 GC
/Helvetica 24 F
GS
[1 0 0 1 0 0] CT
-27 9.5 moveto 
1 -1 scale
(50) t 
GR
GR
GS
[0.75 0 0 0.75 106.15001 343.0625] CT
0.149 GC
/Helvetica 24 F
GS
[1 0 0 1 0 0] CT
-41 9.5 moveto 
1 -1 scale
(100) t 
GR
GR
GS
[0.75 0 0 0.75 106.15001 283.25] CT
0.149 GC
/Helvetica 24 F
GS
[1 0 0 1 0 0] CT
-41 9.5 moveto 
1 -1 scale
(150) t 
GR
GR
GS
[0.75 0 0 0.75 106.15001 223.4375] CT
0.149 GC
/Helvetica 24 F
GS
[1 0 0 1 0 0] CT
-41 9.5 moveto 
1 -1 scale
(200) t 
GR
GR
GS
[0.75 0 0 0.75 106.15001 163.625] CT
0.149 GC
/Helvetica 24 F
GS
[1 0 0 1 0 0] CT
-41 9.5 moveto 
1 -1 scale
(250) t 
GR
GR
GS
[0.75 0 0 0.75 106.15001 103.8125] CT
0.149 GC
/Helvetica 24 F
GS
[1 0 0 1 0 0] CT
-41 9.5 moveto 
1 -1 scale
(300) t 
GR
GR
GS
[0.75 0 0 0.75 106.15001 44] CT
0.149 GC
/Helvetica 24 F
GS
[1 0 0 1 0 0] CT
-41 9.5 moveto 
1 -1 scale
(350) t 
GR
GR
GS
[0.75 0 0 0.75 0 -0.25] CT
0 0.447 0.741 RC
1 LJ
2.667 LW
N
157.85 497.841 M
166.7 329.819 L
175.55 429.888 L
184.4 559.744 L
193.25 591.418 L
202.1 595.801 L
210.95 591.517 L
219.8 559.166 L
228.65 424.925 L
237.5 331.852 L
246.35 497.501 L
255.2 579.054 L
264.05 593.651 L
272.9 591.727 L
281.75 583.062 L
290.6 519.82 L
299.45 349.474 L
308.3 392.453 L
317.15 544.414 L
326 591.732 L
334.85 595.618 L
343.7 592.169 L
352.55 568.307 L
361.4 461.734 L
370.25 316.177 L
379.1 463.931 L
387.95 572.805 L
396.8 590.751 L
405.65 589.967 L
414.5 587.262 L
423.35 545.254 L
432.2 388 L
441.05 349.153 L
449.9 519.411 L
458.75 586.445 L
467.6 591.892 L
476.45 590.554 L
485.3 576.171 L
494.15 502.666 L
503 329.774 L
511.85 413.18 L
520.7 557.359 L
529.55 589.563 L
538.4 591.021 L
547.25 588.023 L
556.1 562.404 L
564.95 441.875 L
573.8 317.282 L
582.65 480.75 L
591.5 577.57 L
600.35 588.448 L
609.2 587.668 L
618.05 581.618 L
626.9 535.321 L
635.75 374.148 L
644.6 361.288 L
653.45 529.115 L
662.3 588.043 L
671.15 591.641 L
680 588.273 L
688.85 571.231 L
697.7 489.806 L
706.55 324.194 L
715.4 428.823 L
724.25 563.004 L
733.1 587.136 L
741.95 587.841 L
750.8 583.737 L
759.65 554.259 L
768.5 423.823 L
777.35 328.027 L
786.2 496.117 L
795.05 579.385 L
803.9 587.216 L
812.75 584.654 L
821.6 575.292 L
830.45 517.358 L
839.3 355.069 L
848.15 388.007 L
857 543.759 L
865.85 588.037 L
874.7 591.222 L
883.55 584.106 L
892.4 560.524 L
901.25 457.954 L
910.1 324.292 L
918.95 466.645 L
927.8 571.174 L
936.65 585.877 L
945.5 583.714 L
954.35 578.127 L
963.2 530.51 L
972.05 377.777 L
980.9 368.579 L
989.75 528.844 L
998.6 582.708 L
1007.45 587.662 L
1016.3 580.131 L
1025.15 560.933 L
1034 469.225 L
S
GR
GS
[0.75 0 0 0.75 0 -0.25] CT
0.851 0.325 0.098 RC
1 LJ
2.667 LW
N
157.85 503.138 M
166.7 336.47 L
175.55 424.634 L
184.4 557.988 L
193.25 592.578 L
202.1 599.853 L
210.95 594.42 L
219.8 565.696 L
228.65 445.339 L
237.5 324.649 L
246.35 488.933 L
255.2 580.558 L
264.05 599.276 L
272.9 598.776 L
281.75 592.259 L
290.6 544.781 L
299.45 382.396 L
308.3 359.58 L
317.15 534.87 L
326 589.603 L
334.85 600.114 L
343.7 599.316 L
352.55 584.059 L
361.4 515.807 L
370.25 335.275 L
379.1 413.376 L
387.95 561.81 L
396.8 598.983 L
405.65 602.853 L
414.5 603.538 L
423.35 580.653 L
432.2 485.36 L
441.05 308.825 L
449.9 457.364 L
458.75 577.227 L
467.6 602.584 L
476.45 602.728 L
485.3 603.972 L
494.15 578.712 L
503 456.521 L
511.85 299.565 L
520.7 489.579 L
529.55 584.375 L
538.4 603.048 L
547.25 603.538 L
556.1 601.623 L
564.95 577.397 L
573.8 434.715 L
582.65 299.287 L
591.5 504.83 L
600.35 588.04 L
609.2 601.584 L
618.05 602.166 L
626.9 599.243 L
635.75 578.228 L
644.6 429.896 L
653.45 294.417 L
662.3 505.874 L
671.15 588.181 L
680 601.201 L
688.85 600.313 L
697.7 597.627 L
706.55 584.028 L
715.4 449.819 L
724.25 276.696 L
733.1 492.617 L
741.95 584.954 L
750.8 602.419 L
759.65 596.436 L
768.5 597.278 L
777.35 594.694 L
786.2 494.204 L
795.05 267.377 L
803.9 456.054 L
812.75 576.735 L
821.6 607.329 L
830.45 595.595 L
839.3 605.336 L
848.15 603.814 L
857 544.435 L
865.85 310.332 L
874.7 385.478 L
883.55 565.323 L
892.4 610.511 L
901.25 599.917 L
910.1 624.528 L
918.95 608.252 L
927.8 573.831 L
936.65 389.793 L
945.5 259.546 L
954.35 542.856 L
963.2 578.48 L
972.05 590.224 L
980.9 572.545 L
989.75 591.934 L
998.6 581.264 L
1007.45 440.891 L
1016.3 260.92 L
1025.15 484.61 L
1034 562.801 L
S
GR
GS
[0.75 0 0 0.75 0 -0.25] CT
0.929 0.694 0.125 RC
1 LJ
2.667 LW
N
157.85 500.871 M
166.7 331.8 L
175.55 425.832 L
184.4 561.064 L
193.25 594.185 L
202.1 600.814 L
210.95 593.985 L
219.8 565.567 L
228.65 440.466 L
237.5 319.568 L
246.35 492.969 L
255.2 579.921 L
264.05 599.406 L
272.9 598.277 L
281.75 590.177 L
290.6 540.386 L
299.45 372.583 L
308.3 360.133 L
317.15 535.624 L
326 592.429 L
334.85 601.439 L
343.7 599.6 L
352.55 586.148 L
361.4 510.091 L
370.25 321.195 L
379.1 412.476 L
387.95 561.855 L
396.8 597.129 L
405.65 602.579 L
414.5 599.286 L
423.35 581.213 L
432.2 480.148 L
441.05 300.718 L
449.9 454.46 L
458.75 573.772 L
467.6 602.801 L
476.45 602.163 L
485.3 598.303 L
494.15 576.964 L
503 465.255 L
511.85 294.607 L
520.7 473.38 L
529.55 583.567 L
538.4 603.11 L
547.25 601.767 L
556.1 600.407 L
564.95 575.026 L
573.8 460.558 L
582.65 296.263 L
591.5 476.899 L
600.35 591.019 L
609.2 605.588 L
618.05 600.951 L
626.9 607.87 L
635.75 576.082 L
644.6 456.525 L
653.45 294.922 L
662.3 481.101 L
671.15 593.547 L
680 607.364 L
688.85 602.854 L
697.7 617.107 L
706.55 581.12 L
715.4 461.84 L
724.25 277.831 L
733.1 476.23 L
741.95 591.581 L
750.8 608.294 L
759.65 606.682 L
768.5 620.642 L
777.35 592.331 L
786.2 497.386 L
795.05 248.856 L
803.9 421.458 L
812.75 590.621 L
821.6 607.666 L
830.45 608.624 L
839.3 622.271 L
848.15 608.208 L
857 560.025 L
865.85 324.153 L
874.7 337.688 L
883.55 547.487 L
892.4 611.134 L
901.25 616.208 L
910.1 624.917 L
918.95 634.622 L
927.8 678.432 L
936.65 613.183 L
945.5 270.079 L
954.35 270.68 L
963.2 492.148 L
972.05 535.674 L
980.9 615.925 L
989.75 664.195 L
998.6 644.108 L
1007.45 197.786 L
1016.3 107.229 L
1025.15 413.591 L
1034 524.611 L
S
GR
GS
[0.75 0 0 0.75 0 -0.25] CT
0.494 0.184 0.557 RC
1 LJ
2.667 LW
N
157.85 500.087 M
166.7 330.307 L
175.55 425.059 L
184.4 560.475 L
193.25 594.084 L
202.1 600.146 L
210.95 594.672 L
219.8 565.223 L
228.65 441.286 L
237.5 319.288 L
246.35 492.292 L
255.2 579.047 L
264.05 597.845 L
272.9 598.949 L
281.75 589.398 L
290.6 539.748 L
299.45 371.874 L
308.3 357.691 L
317.15 535.52 L
326 591.619 L
334.85 600.481 L
343.7 596.954 L
352.55 583.561 L
361.4 511.26 L
370.25 321.15 L
379.1 411.917 L
387.95 562.663 L
396.8 594.452 L
405.65 598.97 L
414.5 597.741 L
423.35 574.823 L
432.2 479.889 L
441.05 303.143 L
449.9 457.074 L
458.75 576.119 L
467.6 596.107 L
476.45 601.387 L
485.3 595.145 L
494.15 565.647 L
503 438.696 L
511.85 298.411 L
520.7 491.894 L
529.55 583.229 L
538.4 600.948 L
547.25 603.614 L
556.1 598.123 L
564.95 560.891 L
573.8 404.792 L
582.65 301.178 L
591.5 511.33 L
600.35 584.975 L
609.2 600.314 L
618.05 602.584 L
626.9 599.777 L
635.75 567.313 L
644.6 410.313 L
653.45 278.206 L
662.3 506.948 L
671.15 589.2 L
680 600.977 L
688.85 602.966 L
697.7 599.898 L
706.55 585.513 L
715.4 468.345 L
724.25 244.431 L
733.1 456.775 L
741.95 595.162 L
750.8 604.002 L
759.65 607.864 L
768.5 602.884 L
777.35 601.592 L
786.2 543.266 L
795.05 326.954 L
803.9 314.026 L
812.75 539.889 L
821.6 602.686 L
830.45 605.565 L
839.3 607.571 L
848.15 598.847 L
857 570.36 L
865.85 437.904 L
874.7 285.378 L
883.55 460.099 L
892.4 616.193 L
901.25 617.964 L
910.1 616.342 L
918.95 609.233 L
927.8 580.369 L
936.65 440.503 L
945.5 285.929 L
954.35 491.663 L
963.2 612.102 L
972.05 591.767 L
980.9 636.615 L
989.75 631.34 L
998.6 580.048 L
1007.45 418.955 L
1016.3 249.339 L
1025.15 496.593 L
1034 621.008 L
S
GR
GS
[0.75 0 0 0.75 0 -0.25] CT
0.467 0.675 0.188 RC
1 LJ
2.667 LW
N
157.85 499.17 M
166.7 333.044 L
175.55 425.949 L
184.4 568.389 L
193.25 590.994 L
202.1 599.717 L
210.95 592.436 L
219.8 550.416 L
228.65 428.054 L
237.5 336.822 L
246.35 498.963 L
255.2 583.257 L
264.05 593.519 L
272.9 595.662 L
281.75 582.412 L
290.6 512.139 L
299.45 359.369 L
308.3 414.63 L
317.15 556.168 L
326 592.16 L
334.85 599.495 L
343.7 596.411 L
352.55 554.51 L
361.4 444.344 L
370.25 353.487 L
379.1 495.855 L
387.95 584.149 L
396.8 602.048 L
405.65 590.088 L
414.5 578.177 L
423.35 500.089 L
432.2 376.221 L
441.05 440.252 L
449.9 564.97 L
458.75 595.541 L
467.6 598.211 L
476.45 587.88 L
485.3 539.386 L
494.15 412.304 L
503 403.859 L
511.85 541.367 L
520.7 588.382 L
529.55 593.298 L
538.4 590.85 L
547.25 558.179 L
556.1 445.864 L
564.95 383.824 L
573.8 522.034 L
582.65 581.945 L
591.5 589.617 L
600.35 604.935 L
609.2 569.644 L
618.05 471.965 L
626.9 374.971 L
635.75 498.437 L
644.6 565.525 L
653.45 577.743 L
662.3 605.366 L
671.15 574.495 L
680 487.269 L
688.85 377.19 L
697.7 465.601 L
706.55 552.861 L
715.4 569.338 L
724.25 604.756 L
733.1 580.22 L
741.95 496.868 L
750.8 390.936 L
759.65 432.951 L
768.5 547.817 L
777.35 564.303 L
786.2 604.317 L
795.05 580.036 L
803.9 514.367 L
812.75 405.298 L
821.6 414.295 L
830.45 544.941 L
839.3 566.942 L
848.15 607.24 L
857 597.297 L
865.85 540.205 L
874.7 414.908 L
883.55 389.1 L
892.4 538.167 L
901.25 566.865 L
910.1 609.956 L
918.95 610.654 L
927.8 550.424 L
936.65 434.473 L
945.5 374.464 L
954.35 519.839 L
963.2 572.327 L
972.05 612.23 L
980.9 603.468 L
989.75 567.923 L
998.6 456.856 L
1007.45 378.138 L
1016.3 495.431 L
1025.15 569.491 L
1034 604.597 L
S
GR
GS
[0.75 0 0 0.75 0 -0.25] CT
0.302 0.745 0.933 RC
1 LJ
2.667 LW
N
157.85 502.41 M
166.7 333.34 L
175.55 422.66 L
184.4 559.83 L
193.25 594.92 L
202.1 599.705 L
210.95 594.92 L
219.8 566.21 L
228.65 441.8 L
237.5 317.39 L
246.35 489.65 L
255.2 580.565 L
264.05 598.11 L
272.9 601.3 L
281.75 593.325 L
290.6 545.475 L
299.45 376.405 L
308.3 347.695 L
317.15 532.715 L
326 588.54 L
334.85 598.11 L
343.7 602.895 L
352.55 590.135 L
361.4 521.55 L
370.25 326.96 L
379.1 389.165 L
387.95 556.64 L
396.8 596.515 L
405.65 602.895 L
414.5 602.895 L
423.35 586.945 L
432.2 504.005 L
441.05 296.655 L
449.9 416.28 L
458.75 569.4 L
467.6 598.11 L
476.45 602.895 L
485.3 604.49 L
494.15 588.54 L
503 505.6 L
511.85 280.705 L
520.7 408.305 L
529.55 569.4 L
538.4 599.705 L
547.25 604.49 L
556.1 604.49 L
564.95 596.515 L
573.8 542.285 L
582.65 311.01 L
591.5 331.745 L
600.35 553.45 L
609.2 596.515 L
618.05 602.895 L
626.9 606.085 L
635.75 606.085 L
644.6 594.92 L
653.45 504.005 L
662.3 210.525 L
671.15 408.305 L
680 578.97 L
688.85 602.895 L
697.7 606.085 L
706.55 606.085 L
715.4 609.275 L
724.25 610.87 L
733.1 612.465 L
741.95 604.49 L
750.8 585.35 L
759.65 596.515 L
768.5 601.3 L
777.35 596.515 L
786.2 585.35 L
795.05 567.805 L
803.9 550.26 L
812.75 526.335 L
821.6 508.79 L
830.45 505.6 L
839.3 523.145 L
848.15 540.69 L
857 543.88 L
865.85 535.905 L
874.7 519.955 L
883.55 505.6 L
892.4 510.385 L
901.25 526.335 L
910.1 540.69 L
918.95 542.285 L
927.8 532.715 L
936.65 513.575 L
945.5 502.41 L
954.35 510.385 L
963.2 526.335 L
972.05 542.285 L
980.9 542.285 L
989.75 531.12 L
998.6 510.385 L
1007.45 500.815 L
1016.3 511.98 L
1025.15 531.12 L
1034 540.69 L
S
GR
GS
[0.75 0 0 0.75 0 -0.25] CT
1 GC
N
205 262 M
205 87 L
445 87 L
445 262 L
cp
f
GR
GS
[0.75 0 0 0.75 181.5 77.03438] CT
/Helvetica 21.6 F
GS
[1 0 0 1 0 0] CT
0 9 moveto 
1 -1 scale
(Approximation1) t 
GR
GR
GS
[0.75 0 0 0.75 0 -0.25] CT
0 0.447 0.741 RC
1 LJ
2.667 LW
N
209 103.046 M
239 103.046 L
S
GR
GS
[0.75 0 0 0.75 181.5 98.47063] CT
/Helvetica 21.6 F
GS
[1 0 0 1 0 0] CT
0 9 moveto 
1 -1 scale
(Approximation2) t 
GR
GR
GS
[0.75 0 0 0.75 0 -0.25] CT
0.851 0.325 0.098 RC
1 LJ
2.667 LW
N
209 131.628 M
239 131.628 L
S
GR
GS
[0.75 0 0 0.75 181.5 119.90688] CT
/Helvetica 21.6 F
GS
[1 0 0 1 0 0] CT
0 9 moveto 
1 -1 scale
(Approximation3) t 
GR
GR
GS
[0.75 0 0 0.75 0 -0.25] CT
0.929 0.694 0.125 RC
1 LJ
2.667 LW
N
209 160.209 M
239 160.209 L
S
GR
GS
[0.75 0 0 0.75 181.5 141.34312] CT
/Helvetica 21.6 F
GS
[1 0 0 1 0 0] CT
0 9 moveto 
1 -1 scale
(Approximation4) t 
GR
GR
GS
[0.75 0 0 0.75 0 -0.25] CT
0.494 0.184 0.557 RC
1 LJ
2.667 LW
N
209 188.791 M
239 188.791 L
S
GR
GS
[0.75 0 0 0.75 181.5 162.77937] CT
/Helvetica 21.6 F
GS
[1 0 0 1 0 0] CT
0 9 moveto 
1 -1 scale
(Approximation5) t 
GR
GR
GS
[0.75 0 0 0.75 0 -0.25] CT
0.467 0.675 0.188 RC
1 LJ
2.667 LW
N
209 217.372 M
239 217.372 L
S
GR
GS
[0.75 0 0 0.75 181.5 184.21561] CT
/Helvetica 21.6 F
GS
[1 0 0 1 0 0] CT
0 9 moveto 
1 -1 scale
(Laser Prediction Set) t 
GR
GR
GS
[0.75 0 0 0.75 0 -0.25] CT
0.302 0.745 0.933 RC
1 LJ
2.667 LW
N
209 245.954 M
239 245.954 L
S
GR
GS
[0.75 0 0 0.75 0 -0.25] CT
0.149 GC
10.0 ML
0.667 LW
N
205 262 M
205 87 L
445 87 L
445 262 L
cp
S
GR
%%Trailer
%%Pages: 1
%%EOF
