%!PS-Adobe-3.0 EPSF-3.0
%%Creator: (MATLAB, The Mathworks, Inc. Version 9.1.0.441655 \(R2016b\). Operating System: Windows 8)
%%Title: (C:/Users/Eigenaar/WIT/Data Mining/data-mining/Session 2/plots/p30.eps)
%%CreationDate: 2017-11-22T15:01:57
%%Pages: (atend)
%%BoundingBox: 0 0 701 611
%%LanguageLevel: 3
%%EndComments
%%BeginProlog
%%BeginResource: procset (Apache XML Graphics Std ProcSet) 1.2 0
%%Version: 1.2 0
%%Copyright: (Copyright 2001-2003,2010 The Apache Software Foundation. License terms: http://www.apache.org/licenses/LICENSE-2.0)
/bd{bind def}bind def
/ld{load def}bd
/GR/grestore ld
/M/moveto ld
/LJ/setlinejoin ld
/C/curveto ld
/f/fill ld
/LW/setlinewidth ld
/GC/setgray ld
/t/show ld
/N/newpath ld
/CT/concat ld
/cp/closepath ld
/S/stroke ld
/L/lineto ld
/CC/setcmykcolor ld
/A/ashow ld
/GS/gsave ld
/RC/setrgbcolor ld
/RM/rmoveto ld
/ML/setmiterlimit ld
/re {4 2 roll M
1 index 0 rlineto
0 exch rlineto
neg 0 rlineto
cp } bd
/_ctm matrix def
/_tm matrix def
/BT { _ctm currentmatrix pop matrix _tm copy pop 0 0 moveto } bd
/ET { _ctm setmatrix } bd
/iTm { _ctm setmatrix _tm concat } bd
/Tm { _tm astore pop iTm 0 0 moveto } bd
/ux 0.0 def
/uy 0.0 def
/F {
  /Tp exch def
  /Tf exch def
  Tf findfont Tp scalefont setfont
  /cf Tf def  /cs Tp def
} bd
/ULS {currentpoint /uy exch def /ux exch def} bd
/ULE {
  /Tcx currentpoint pop def
  gsave
  newpath
  cf findfont cs scalefont dup
  /FontMatrix get 0 get /Ts exch def /FontInfo get dup
  /UnderlinePosition get Ts mul /To exch def
  /UnderlineThickness get Ts mul /Tt exch def
  ux uy To add moveto  Tcx uy To add lineto
  Tt setlinewidth stroke
  grestore
} bd
/OLE {
  /Tcx currentpoint pop def
  gsave
  newpath
  cf findfont cs scalefont dup
  /FontMatrix get 0 get /Ts exch def /FontInfo get dup
  /UnderlinePosition get Ts mul /To exch def
  /UnderlineThickness get Ts mul /Tt exch def
  ux uy To add cs add moveto Tcx uy To add cs add lineto
  Tt setlinewidth stroke
  grestore
} bd
/SOE {
  /Tcx currentpoint pop def
  gsave
  newpath
  cf findfont cs scalefont dup
  /FontMatrix get 0 get /Ts exch def /FontInfo get dup
  /UnderlinePosition get Ts mul /To exch def
  /UnderlineThickness get Ts mul /Tt exch def
  ux uy To add cs 10 mul 26 idiv add moveto Tcx uy To add cs 10 mul 26 idiv add lineto
  Tt setlinewidth stroke
  grestore
} bd
/QT {
/Y22 exch store
/X22 exch store
/Y21 exch store
/X21 exch store
currentpoint
/Y21 load 2 mul add 3 div exch
/X21 load 2 mul add 3 div exch
/X21 load 2 mul /X22 load add 3 div
/Y21 load 2 mul /Y22 load add 3 div
/X22 load /Y22 load curveto
} bd
/SSPD {
dup length /d exch dict def
{
/v exch def
/k exch def
currentpagedevice k known {
/cpdv currentpagedevice k get def
v cpdv ne {
/upd false def
/nullv v type /nulltype eq def
/nullcpdv cpdv type /nulltype eq def
nullv nullcpdv or
{
/upd true def
} {
/sametype v type cpdv type eq def
sametype {
v type /arraytype eq {
/vlen v length def
/cpdvlen cpdv length def
vlen cpdvlen eq {
0 1 vlen 1 sub {
/i exch def
/obj v i get def
/cpdobj cpdv i get def
obj cpdobj ne {
/upd true def
exit
} if
} for
} {
/upd true def
} ifelse
} {
v type /dicttype eq {
v {
/dv exch def
/dk exch def
/cpddv cpdv dk get def
dv cpddv ne {
/upd true def
exit
} if
} forall
} {
/upd true def
} ifelse
} ifelse
} if
} ifelse
upd true eq {
d k v put
} if
} if
} if
} forall
d length 0 gt {
d setpagedevice
} if
} bd
/RE { % /NewFontName [NewEncodingArray] /FontName RE -
  findfont dup length dict begin
  {
    1 index /FID ne
    {def} {pop pop} ifelse
  } forall
  /Encoding exch def
  /FontName 1 index def
  currentdict definefont pop
  end
} bind def
%%EndResource
%%BeginResource: procset (Apache XML Graphics EPS ProcSet) 1.0 0
%%Version: 1.0 0
%%Copyright: (Copyright 2002-2003 The Apache Software Foundation. License terms: http://www.apache.org/licenses/LICENSE-2.0)
/BeginEPSF { %def
/b4_Inc_state save def         % Save state for cleanup
/dict_count countdictstack def % Count objects on dict stack
/op_count count 1 sub def      % Count objects on operand stack
userdict begin                 % Push userdict on dict stack
/showpage { } def              % Redefine showpage, { } = null proc
0 setgray 0 setlinecap         % Prepare graphics state
1 setlinewidth 0 setlinejoin
10 setmiterlimit [ ] 0 setdash newpath
/languagelevel where           % If level not equal to 1 then
{pop languagelevel             % set strokeadjust and
1 ne                           % overprint to their defaults.
{false setstrokeadjust false setoverprint
} if
} if
} bd
/EndEPSF { %def
count op_count sub {pop} repeat            % Clean up stacks
countdictstack dict_count sub {end} repeat
b4_Inc_state restore
} bd
%%EndResource
%FOPBeginFontDict
%%IncludeResource: font Courier-Bold
%%IncludeResource: font Helvetica
%%IncludeResource: font Courier-BoldOblique
%%IncludeResource: font Courier-Oblique
%%IncludeResource: font Times-Roman
%%IncludeResource: font Helvetica-BoldOblique
%%IncludeResource: font Helvetica-Bold
%%IncludeResource: font Helvetica-Oblique
%%IncludeResource: font Times-BoldItalic
%%IncludeResource: font Courier
%%IncludeResource: font Times-Italic
%%IncludeResource: font Times-Bold
%%IncludeResource: font Symbol
%%IncludeResource: font ZapfDingbats
%FOPEndFontDict
%%BeginResource: encoding WinAnsiEncoding
/WinAnsiEncoding [
/.notdef /.notdef /.notdef /.notdef /.notdef
/.notdef /.notdef /.notdef /.notdef /.notdef
/.notdef /.notdef /.notdef /.notdef /.notdef
/.notdef /.notdef /.notdef /.notdef /.notdef
/.notdef /.notdef /.notdef /.notdef /.notdef
/.notdef /.notdef /.notdef /.notdef /.notdef
/.notdef /.notdef /space /exclam /quotedbl
/numbersign /dollar /percent /ampersand /quotesingle
/parenleft /parenright /asterisk /plus /comma
/hyphen /period /slash /zero /one
/two /three /four /five /six
/seven /eight /nine /colon /semicolon
/less /equal /greater /question /at
/A /B /C /D /E
/F /G /H /I /J
/K /L /M /N /O
/P /Q /R /S /T
/U /V /W /X /Y
/Z /bracketleft /backslash /bracketright /asciicircum
/underscore /quoteleft /a /b /c
/d /e /f /g /h
/i /j /k /l /m
/n /o /p /q /r
/s /t /u /v /w
/x /y /z /braceleft /bar
/braceright /asciitilde /bullet /Euro /bullet
/quotesinglbase /florin /quotedblbase /ellipsis /dagger
/daggerdbl /circumflex /perthousand /Scaron /guilsinglleft
/OE /bullet /Zcaron /bullet /bullet
/quoteleft /quoteright /quotedblleft /quotedblright /bullet
/endash /emdash /asciitilde /trademark /scaron
/guilsinglright /oe /bullet /zcaron /Ydieresis
/space /exclamdown /cent /sterling /currency
/yen /brokenbar /section /dieresis /copyright
/ordfeminine /guillemotleft /logicalnot /sfthyphen /registered
/macron /degree /plusminus /twosuperior /threesuperior
/acute /mu /paragraph /middot /cedilla
/onesuperior /ordmasculine /guillemotright /onequarter /onehalf
/threequarters /questiondown /Agrave /Aacute /Acircumflex
/Atilde /Adieresis /Aring /AE /Ccedilla
/Egrave /Eacute /Ecircumflex /Edieresis /Igrave
/Iacute /Icircumflex /Idieresis /Eth /Ntilde
/Ograve /Oacute /Ocircumflex /Otilde /Odieresis
/multiply /Oslash /Ugrave /Uacute /Ucircumflex
/Udieresis /Yacute /Thorn /germandbls /agrave
/aacute /acircumflex /atilde /adieresis /aring
/ae /ccedilla /egrave /eacute /ecircumflex
/edieresis /igrave /iacute /icircumflex /idieresis
/eth /ntilde /ograve /oacute /ocircumflex
/otilde /odieresis /divide /oslash /ugrave
/uacute /ucircumflex /udieresis /yacute /thorn
/ydieresis
] def
%%EndResource
%FOPBeginFontReencode
/Courier-Bold findfont
dup length dict begin
  {1 index /FID ne {def} {pop pop} ifelse} forall
  /Encoding WinAnsiEncoding def
  currentdict
end
/Courier-Bold exch definefont pop
/Helvetica findfont
dup length dict begin
  {1 index /FID ne {def} {pop pop} ifelse} forall
  /Encoding WinAnsiEncoding def
  currentdict
end
/Helvetica exch definefont pop
/Courier-BoldOblique findfont
dup length dict begin
  {1 index /FID ne {def} {pop pop} ifelse} forall
  /Encoding WinAnsiEncoding def
  currentdict
end
/Courier-BoldOblique exch definefont pop
/Courier-Oblique findfont
dup length dict begin
  {1 index /FID ne {def} {pop pop} ifelse} forall
  /Encoding WinAnsiEncoding def
  currentdict
end
/Courier-Oblique exch definefont pop
/Times-Roman findfont
dup length dict begin
  {1 index /FID ne {def} {pop pop} ifelse} forall
  /Encoding WinAnsiEncoding def
  currentdict
end
/Times-Roman exch definefont pop
/Helvetica-BoldOblique findfont
dup length dict begin
  {1 index /FID ne {def} {pop pop} ifelse} forall
  /Encoding WinAnsiEncoding def
  currentdict
end
/Helvetica-BoldOblique exch definefont pop
/Helvetica-Bold findfont
dup length dict begin
  {1 index /FID ne {def} {pop pop} ifelse} forall
  /Encoding WinAnsiEncoding def
  currentdict
end
/Helvetica-Bold exch definefont pop
/Helvetica-Oblique findfont
dup length dict begin
  {1 index /FID ne {def} {pop pop} ifelse} forall
  /Encoding WinAnsiEncoding def
  currentdict
end
/Helvetica-Oblique exch definefont pop
/Times-BoldItalic findfont
dup length dict begin
  {1 index /FID ne {def} {pop pop} ifelse} forall
  /Encoding WinAnsiEncoding def
  currentdict
end
/Times-BoldItalic exch definefont pop
/Courier findfont
dup length dict begin
  {1 index /FID ne {def} {pop pop} ifelse} forall
  /Encoding WinAnsiEncoding def
  currentdict
end
/Courier exch definefont pop
/Times-Italic findfont
dup length dict begin
  {1 index /FID ne {def} {pop pop} ifelse} forall
  /Encoding WinAnsiEncoding def
  currentdict
end
/Times-Italic exch definefont pop
/Times-Bold findfont
dup length dict begin
  {1 index /FID ne {def} {pop pop} ifelse} forall
  /Encoding WinAnsiEncoding def
  currentdict
end
/Times-Bold exch definefont pop
%FOPEndFontReencode
%%EndProlog
%%Page: 1 1
%%PageBoundingBox: 0 0 701 611
%%BeginPageSetup
[1 0 0 -1 0 611] CT
%%EndPageSetup
GS
[0.75 0 0 0.75 0 0.5] CT
1 GC
N
0 0 935 814 re
f
GR
GS
[0.75 0 0 0.75 0 0.5] CT
1 GC
N
0 0 935 814 re
f
GR
GS
[0.75 0 0 0.75 0 0.5] CT
1 GC
N
122 724 M
846 724 L
846 61 L
122 61 L
cp
f
GR
GS
[0.75 0 0 0.75 0 0.5] CT
0.149 GC
2 setlinecap
1 LJ
0.667 LW
N
122 724 M
846 724 L
S
GR
GS
[0.75 0 0 0.75 0 0.5] CT
0.149 GC
2 setlinecap
1 LJ
0.667 LW
N
122 61 M
846 61 L
S
GR
GS
[0.75 0 0 0.75 0 0.5] CT
0.149 GC
2 setlinecap
1 LJ
0.667 LW
N
122 724 M
122 716.76 L
S
GR
GS
[0.75 0 0 0.75 0 0.5] CT
0.149 GC
2 setlinecap
1 LJ
0.667 LW
N
266.8 724 M
266.8 716.76 L
S
GR
GS
[0.75 0 0 0.75 0 0.5] CT
0.149 GC
2 setlinecap
1 LJ
0.667 LW
N
411.6 724 M
411.6 716.76 L
S
GR
GS
[0.75 0 0 0.75 0 0.5] CT
0.149 GC
2 setlinecap
1 LJ
0.667 LW
N
556.4 724 M
556.4 716.76 L
S
GR
GS
[0.75 0 0 0.75 0 0.5] CT
0.149 GC
2 setlinecap
1 LJ
0.667 LW
N
701.2 724 M
701.2 716.76 L
S
GR
GS
[0.75 0 0 0.75 0 0.5] CT
0.149 GC
2 setlinecap
1 LJ
0.667 LW
N
846 724 M
846 716.76 L
S
GR
GS
[0.75 0 0 0.75 0 0.5] CT
0.149 GC
2 setlinecap
1 LJ
0.667 LW
N
122 61 M
122 68.24 L
S
GR
GS
[0.75 0 0 0.75 0 0.5] CT
0.149 GC
2 setlinecap
1 LJ
0.667 LW
N
266.8 61 M
266.8 68.24 L
S
GR
GS
[0.75 0 0 0.75 0 0.5] CT
0.149 GC
2 setlinecap
1 LJ
0.667 LW
N
411.6 61 M
411.6 68.24 L
S
GR
GS
[0.75 0 0 0.75 0 0.5] CT
0.149 GC
2 setlinecap
1 LJ
0.667 LW
N
556.4 61 M
556.4 68.24 L
S
GR
GS
[0.75 0 0 0.75 0 0.5] CT
0.149 GC
2 setlinecap
1 LJ
0.667 LW
N
701.2 61 M
701.2 68.24 L
S
GR
GS
[0.75 0 0 0.75 0 0.5] CT
0.149 GC
2 setlinecap
1 LJ
0.667 LW
N
846 61 M
846 68.24 L
S
GR
GS
[0.75 0 0 0.75 91.5 549.10001] CT
0.149 GC
/Helvetica 24 F
GS
[1 0 0 1 0 0] CT
-7 25 moveto 
1 -1 scale
(0) t 
GR
GR
GS
[0.75 0 0 0.75 200.09999 549.10001] CT
0.149 GC
/Helvetica 24 F
GS
[1 0 0 1 0 0] CT
-13.5 25 moveto 
1 -1 scale
(20) t 
GR
GR
GS
[0.75 0 0 0.75 308.7 549.10001] CT
0.149 GC
/Helvetica 24 F
GS
[1 0 0 1 0 0] CT
-13.5 25 moveto 
1 -1 scale
(40) t 
GR
GR
GS
[0.75 0 0 0.75 417.30002 549.10001] CT
0.149 GC
/Helvetica 24 F
GS
[1 0 0 1 0 0] CT
-13.5 25 moveto 
1 -1 scale
(60) t 
GR
GR
GS
[0.75 0 0 0.75 525.90001 549.10001] CT
0.149 GC
/Helvetica 24 F
GS
[1 0 0 1 0 0] CT
-13.5 25 moveto 
1 -1 scale
(80) t 
GR
GR
GS
[0.75 0 0 0.75 634.5 549.10001] CT
0.149 GC
/Helvetica 24 F
GS
[1 0 0 1 0 0] CT
-20.5 25 moveto 
1 -1 scale
(100) t 
GR
GR
GS
[0.75 0 0 0.75 363.00025 573.34999] CT
0.149 GC
/Helvetica 26.4 F
GS
[1 0 0 1 0 0] CT
-46.5 27 moveto 
1 -1 scale
(Time [s]) t 
GR
GR
GS
[0.75 0 0 0.75 0 0.5] CT
0.149 GC
2 setlinecap
1 LJ
0.667 LW
N
122 724 M
122 61 L
S
GR
GS
[0.75 0 0 0.75 0 0.5] CT
0.149 GC
2 setlinecap
1 LJ
0.667 LW
N
846 724 M
846 61 L
S
GR
GS
[0.75 0 0 0.75 0 0.5] CT
0.149 GC
2 setlinecap
1 LJ
0.667 LW
N
122 724 M
129.24 724 L
S
GR
GS
[0.75 0 0 0.75 0 0.5] CT
0.149 GC
2 setlinecap
1 LJ
0.667 LW
N
122 591.4 M
129.24 591.4 L
S
GR
GS
[0.75 0 0 0.75 0 0.5] CT
0.149 GC
2 setlinecap
1 LJ
0.667 LW
N
122 458.8 M
129.24 458.8 L
S
GR
GS
[0.75 0 0 0.75 0 0.5] CT
0.149 GC
2 setlinecap
1 LJ
0.667 LW
N
122 326.2 M
129.24 326.2 L
S
GR
GS
[0.75 0 0 0.75 0 0.5] CT
0.149 GC
2 setlinecap
1 LJ
0.667 LW
N
122 193.6 M
129.24 193.6 L
S
GR
GS
[0.75 0 0 0.75 0 0.5] CT
0.149 GC
2 setlinecap
1 LJ
0.667 LW
N
122 61 M
129.24 61 L
S
GR
GS
[0.75 0 0 0.75 0 0.5] CT
0.149 GC
2 setlinecap
1 LJ
0.667 LW
N
846 724 M
838.76 724 L
S
GR
GS
[0.75 0 0 0.75 0 0.5] CT
0.149 GC
2 setlinecap
1 LJ
0.667 LW
N
846 591.4 M
838.76 591.4 L
S
GR
GS
[0.75 0 0 0.75 0 0.5] CT
0.149 GC
2 setlinecap
1 LJ
0.667 LW
N
846 458.8 M
838.76 458.8 L
S
GR
GS
[0.75 0 0 0.75 0 0.5] CT
0.149 GC
2 setlinecap
1 LJ
0.667 LW
N
846 326.2 M
838.76 326.2 L
S
GR
GS
[0.75 0 0 0.75 0 0.5] CT
0.149 GC
2 setlinecap
1 LJ
0.667 LW
N
846 193.6 M
838.76 193.6 L
S
GR
GS
[0.75 0 0 0.75 0 0.5] CT
0.149 GC
2 setlinecap
1 LJ
0.667 LW
N
846 61 M
838.76 61 L
S
GR
GS
[0.75 0 0 0.75 85.9 543.5] CT
0.149 GC
/Helvetica 24 F
GS
[1 0 0 1 0 0] CT
-62 9.5 moveto 
1 -1 scale
(-1000) t 
GR
GR
GS
[0.75 0 0 0.75 85.9 444.05002] CT
0.149 GC
/Helvetica 24 F
GS
[1 0 0 1 0 0] CT
-49 9.5 moveto 
1 -1 scale
(-500) t 
GR
GR
GS
[0.75 0 0 0.75 85.9 344.59999] CT
0.149 GC
/Helvetica 24 F
GS
[1 0 0 1 0 0] CT
-14 9.5 moveto 
1 -1 scale
(0) t 
GR
GR
GS
[0.75 0 0 0.75 85.9 245.15001] CT
0.149 GC
/Helvetica 24 F
GS
[1 0 0 1 0 0] CT
-41 9.5 moveto 
1 -1 scale
(500) t 
GR
GR
GS
[0.75 0 0 0.75 85.9 145.7] CT
0.149 GC
/Helvetica 24 F
GS
[1 0 0 1 0 0] CT
-54 9.5 moveto 
1 -1 scale
(1000) t 
GR
GR
GS
[0.75 0 0 0.75 85.9 46.25] CT
0.149 GC
/Helvetica 24 F
GS
[1 0 0 1 0 0] CT
-54 9.5 moveto 
1 -1 scale
(1500) t 
GR
GR
GS
[0.75 0 0 0.75 0 0.5] CT
0 0.447 0.741 RC
1 LJ
2.667 LW
N
129.24 439.142 M
136.48 410.563 L
143.72 426.66 L
150.96 447.793 L
158.2 455.053 L
165.44 457.197 L
172.68 455.988 L
179.92 451.049 L
187.16 428.541 L
194.4 410.51 L
201.64 434.064 L
208.88 451.938 L
216.12 456.15 L
223.36 456.53 L
230.6 453.653 L
237.84 448.862 L
245.08 420.102 L
252.32 412.257 L
259.56 440.038 L
266.8 456.001 L
274.04 454.61 L
281.28 455.423 L
288.52 456.378 L
295.76 444.035 L
303 411.087 L
310.24 417.262 L
317.48 443.665 L
324.72 454.655 L
331.96 457.612 L
339.2 454.204 L
346.44 460.105 L
353.68 439.062 L
360.92 401.983 L
368.16 420.554 L
375.4 448.049 L
382.64 457.077 L
389.88 460.037 L
397.12 456.336 L
404.36 461.226 L
411.6 448.431 L
418.84 409.712 L
426.08 401.823 L
433.32 450.492 L
440.56 462.807 L
447.8 466.14 L
455.04 471.083 L
462.28 460.902 L
469.52 470.593 L
476.76 478.388 L
484 448.294 L
491.24 393.413 L
498.48 439.774 L
505.72 475.951 L
512.96 441.825 L
520.2 477.165 L
527.44 442.493 L
534.68 462.439 L
541.92 470.196 L
549.16 492.411 L
556.4 496.089 L
563.64 530.896 L
570.88 499.245 L
578.12 464.145 L
585.36 423.309 L
592.6 469.506 L
599.84 475.72 L
607.08 446.542 L
614.32 490.134 L
621.56 520.157 L
628.8 564.471 L
636.04 537.925 L
643.28 530.746 L
650.52 469.245 L
657.76 403.299 L
665 447.015 L
672.24 534.638 L
679.48 415.985 L
686.72 508.452 L
693.96 473.64 L
701.2 523.666 L
708.44 577.643 L
715.68 539.623 L
722.92 501.55 L
730.16 494.953 L
737.4 455.115 L
744.64 450.016 L
751.88 463.515 L
759.12 471.86 L
766.36 512.485 L
773.6 400.825 L
780.84 546.788 L
788.08 618.254 L
795.32 604.448 L
802.56 499.229 L
809.8 415.85 L
817.04 477.989 L
824.28 365.348 L
831.52 498.552 L
838.76 538.172 L
846 418.213 L
S
GR
GS
[0.75 0 0 0.75 0 0.5] CT
0.851 0.325 0.098 RC
1 LJ
2.667 LW
N
129.24 437.996 M
136.48 411.457 L
143.72 426.954 L
150.96 448.174 L
158.2 453.289 L
165.44 454.919 L
172.68 452.407 L
179.92 448.684 L
187.16 425.289 L
194.4 409.285 L
201.64 437.142 L
208.88 452.021 L
216.12 452.779 L
223.36 455.038 L
230.6 449.532 L
237.84 441.392 L
245.08 410.159 L
252.32 418.15 L
259.56 443.108 L
266.8 453.877 L
274.04 453.157 L
281.28 455.605 L
288.52 448.906 L
295.76 430.678 L
303 399.647 L
310.24 426.765 L
317.48 445.605 L
324.72 452.161 L
331.96 451.692 L
339.2 451.648 L
346.44 446.368 L
353.68 418.095 L
360.92 405.548 L
368.16 439.776 L
375.4 444.271 L
382.64 451.46 L
389.88 452.977 L
397.12 452.712 L
404.36 439.454 L
411.6 409.518 L
418.84 423.002 L
426.08 436.764 L
433.32 439.397 L
440.56 450.471 L
447.8 437.238 L
455.04 440.159 L
462.28 427.278 L
469.52 410.337 L
476.76 420.573 L
484 433.723 L
491.24 440.693 L
498.48 451.019 L
505.72 437.873 L
512.96 434.362 L
520.2 405.459 L
527.44 403.174 L
534.68 417.308 L
541.92 422.216 L
549.16 416.902 L
556.4 426.485 L
563.64 405.437 L
570.88 406.503 L
578.12 367.425 L
585.36 394.382 L
592.6 369.871 L
599.84 361.28 L
607.08 357.728 L
614.32 348.434 L
621.56 287.77 L
628.8 259.497 L
636.04 200.371 L
643.28 216.07 L
650.52 215.091 L
657.76 228.546 L
665 227.667 L
672.24 250.605 L
679.48 342.682 L
686.72 352.491 L
693.96 319.889 L
701.2 320.976 L
708.44 382.207 L
715.68 388.133 L
722.92 407.419 L
730.16 413.957 L
737.4 400.266 L
744.64 441.302 L
751.88 455.612 L
759.12 369.993 L
766.36 376.383 L
773.6 329.692 L
780.84 377.858 L
788.08 293.326 L
795.32 136.603 L
802.56 314.752 L
809.8 450.437 L
817.04 434.996 L
824.28 409.893 L
831.52 357.906 L
838.76 354.19 L
846 543.122 L
S
GR
GS
[0.75 0 0 0.75 0 0.5] CT
0.929 0.694 0.125 RC
1 LJ
2.667 LW
N
129.24 437.916 M
136.48 411.245 L
143.72 427.649 L
150.96 449.788 L
158.2 456.062 L
165.44 457.32 L
172.68 454.955 L
179.92 448.061 L
187.16 424.966 L
194.4 409.419 L
201.64 439.806 L
208.88 454.735 L
216.12 455.892 L
223.36 456.091 L
230.6 456.298 L
237.84 443.255 L
245.08 412.881 L
252.32 421.166 L
259.56 445.415 L
266.8 454.809 L
274.04 455.187 L
281.28 453.43 L
288.52 453.35 L
295.76 437.987 L
303 407.93 L
310.24 425.136 L
317.48 450.486 L
324.72 456.061 L
331.96 457.362 L
339.2 452.476 L
346.44 446.319 L
353.68 430.553 L
360.92 403.085 L
368.16 438.297 L
375.4 455.241 L
382.64 456.404 L
389.88 458.351 L
397.12 459.007 L
404.36 442.404 L
411.6 423.945 L
418.84 414.585 L
426.08 439.798 L
433.32 449.651 L
440.56 452.104 L
447.8 449.167 L
455.04 455.272 L
462.28 441.001 L
469.52 414.455 L
476.76 408.56 L
484 454.474 L
491.24 457.782 L
498.48 457.793 L
505.72 456.868 L
512.96 442.381 L
520.2 441.887 L
527.44 424.054 L
534.68 420.68 L
541.92 449.763 L
549.16 454.141 L
556.4 448.937 L
563.64 461.157 L
570.88 440.031 L
578.12 442.835 L
585.36 429.459 L
592.6 439.895 L
599.84 458.307 L
607.08 465.173 L
614.32 448.303 L
621.56 437.493 L
628.8 424.692 L
636.04 432.821 L
643.28 424.682 L
650.52 444.842 L
657.76 471.03 L
665 468.185 L
672.24 460.177 L
679.48 436.308 L
686.72 402.946 L
693.96 434.43 L
701.2 467.568 L
708.44 467.722 L
715.68 457.096 L
722.92 466.195 L
730.16 475.807 L
737.4 456.079 L
744.64 378.479 L
751.88 407.086 L
759.12 477.304 L
766.36 461.573 L
773.6 430.049 L
780.84 415.725 L
788.08 457.013 L
795.32 451.847 L
802.56 483.124 L
809.8 483.525 L
817.04 468.111 L
824.28 461.796 L
831.52 425.681 L
838.76 368.94 L
846 428.215 L
S
GR
GS
[0.75 0 0 0.75 0 0.5] CT
0.494 0.184 0.557 RC
1 LJ
2.667 LW
N
129.24 439.123 M
136.48 413.027 L
143.72 428.933 L
150.96 450.396 L
158.2 456.93 L
165.44 458.182 L
172.68 455.88 L
179.92 451.371 L
187.16 427.716 L
194.4 413.403 L
201.64 439.89 L
208.88 456.636 L
216.12 458.144 L
223.36 457.236 L
230.6 455.234 L
237.84 444.633 L
245.08 417.2 L
252.32 426.088 L
259.56 448.782 L
266.8 458.138 L
274.04 459.352 L
281.28 458.205 L
288.52 455.26 L
295.76 435.818 L
303 415.285 L
310.24 436.659 L
317.48 456.309 L
324.72 458.508 L
331.96 457.864 L
339.2 457.464 L
346.44 449.367 L
353.68 422.63 L
360.92 429.481 L
368.16 448.089 L
375.4 461.194 L
382.64 463.075 L
389.88 462.152 L
397.12 460.823 L
404.36 439.511 L
411.6 414.415 L
418.84 442.422 L
426.08 460.757 L
433.32 464.115 L
440.56 461.293 L
447.8 462.701 L
455.04 454.182 L
462.28 419.817 L
469.52 427.376 L
476.76 446.693 L
484 464.127 L
491.24 461.267 L
498.48 461.501 L
505.72 457.132 L
512.96 433.747 L
520.2 412 L
527.44 441.419 L
534.68 453.887 L
541.92 455.882 L
549.16 452.351 L
556.4 457.023 L
563.64 444.191 L
570.88 416.855 L
578.12 428.081 L
585.36 447.605 L
592.6 453.921 L
599.84 454.253 L
607.08 454.875 L
614.32 455.025 L
621.56 424.636 L
628.8 413.483 L
636.04 447.363 L
643.28 456.372 L
650.52 459.757 L
657.76 454.004 L
665 456.998 L
672.24 440.699 L
679.48 406.226 L
686.72 426.779 L
693.96 452.01 L
701.2 459.225 L
708.44 455.875 L
715.68 456.661 L
722.92 451.024 L
730.16 414.846 L
737.4 409.185 L
744.64 437.343 L
751.88 456.481 L
759.12 448.255 L
766.36 451.726 L
773.6 445.832 L
780.84 437.667 L
788.08 403.828 L
795.32 422.276 L
802.56 440.664 L
809.8 444.675 L
817.04 441.665 L
824.28 444.958 L
831.52 432.216 L
838.76 425.006 L
846 407.836 L
S
GR
GS
[0.75 0 0 0.75 0 0.5] CT
0.467 0.675 0.188 RC
1 LJ
2.667 LW
N
129.24 444.467 M
136.48 414.243 L
143.72 427.489 L
150.96 445.183 L
158.2 449.736 L
165.44 460.003 L
172.68 462.862 L
179.92 455.923 L
187.16 447.46 L
194.4 423.758 L
201.64 423.257 L
208.88 441.049 L
216.12 459.724 L
223.36 465.753 L
230.6 465.106 L
237.84 462.91 L
245.08 443.483 L
252.32 423.617 L
259.56 421.092 L
266.8 432.182 L
274.04 458.137 L
281.28 463.3 L
288.52 437.048 L
295.76 486.137 L
303 457.589 L
310.24 425.423 L
317.48 415.152 L
324.72 453.451 L
331.96 468.473 L
339.2 476.949 L
346.44 433.262 L
353.68 470.295 L
360.92 438.727 L
368.16 375.134 L
375.4 389.325 L
382.64 435.065 L
389.88 454.084 L
397.12 424.652 L
404.36 453.946 L
411.6 490.187 L
418.84 476.201 L
426.08 448.967 L
433.32 370.857 L
440.56 444.464 L
447.8 439.313 L
455.04 443.049 L
462.28 505.069 L
469.52 464.64 L
476.76 436.232 L
484 382.27 L
491.24 369.09 L
498.48 413.455 L
505.72 517.885 L
512.96 481.532 L
520.2 421.161 L
527.44 387.126 L
534.68 380.247 L
541.92 437.308 L
549.16 476.274 L
556.4 536.484 L
563.64 543.364 L
570.88 494.608 L
578.12 410.409 L
585.36 371.915 L
592.6 325.865 L
599.84 506.868 L
607.08 508.96 L
614.32 532.373 L
621.56 518.042 L
628.8 496.564 L
636.04 458.306 L
643.28 356.386 L
650.52 423.432 L
657.76 474.349 L
665 471.787 L
672.24 527.84 L
679.48 554.833 L
686.72 423.768 L
693.96 565.673 L
701.2 507.446 L
708.44 459.914 L
715.68 576.726 L
722.92 640.573 L
730.16 491.129 L
737.4 493.418 L
744.64 450.661 L
751.88 314.894 L
759.12 455.337 L
766.36 515.746 L
773.6 489.778 L
780.84 509.343 L
788.08 480.255 L
795.32 505.106 L
802.56 441.337 L
809.8 474.493 L
817.04 462.368 L
824.28 562.185 L
831.52 607.045 L
838.76 438.205 L
846 484.38 L
S
GR
GS
[0.75 0 0 0.75 0 0.5] CT
0.302 0.745 0.933 RC
1 LJ
2.667 LW
N
129.24 439.706 M
136.48 411.594 L
143.72 426.446 L
150.96 449.253 L
158.2 455.087 L
165.44 455.883 L
172.68 455.087 L
179.92 450.314 L
187.16 429.628 L
194.4 408.942 L
201.64 437.584 L
208.88 452.7 L
216.12 455.618 L
223.36 456.148 L
230.6 454.822 L
237.84 446.866 L
245.08 418.755 L
252.32 413.981 L
259.56 444.744 L
266.8 454.026 L
274.04 455.618 L
281.28 456.413 L
288.52 454.292 L
295.76 442.888 L
303 410.534 L
310.24 420.876 L
317.48 448.722 L
324.72 455.352 L
331.96 456.413 L
339.2 456.413 L
346.44 453.761 L
353.68 439.971 L
360.92 405.495 L
368.16 425.385 L
375.4 450.844 L
382.64 455.618 L
389.88 456.413 L
397.12 456.678 L
404.36 454.026 L
411.6 440.236 L
418.84 402.843 L
426.08 424.059 L
433.32 450.844 L
440.56 455.883 L
447.8 456.678 L
455.04 456.678 L
462.28 455.352 L
469.52 446.336 L
476.76 407.882 L
484 411.329 L
491.24 448.192 L
498.48 455.352 L
505.72 456.413 L
512.96 456.944 L
520.2 456.944 L
527.44 455.087 L
534.68 439.971 L
541.92 391.174 L
549.16 424.059 L
556.4 452.435 L
563.64 456.413 L
570.88 456.944 L
578.12 456.944 L
585.36 457.474 L
592.6 457.739 L
599.84 458.004 L
607.08 456.678 L
614.32 453.496 L
621.56 455.352 L
628.8 456.148 L
636.04 455.352 L
643.28 453.496 L
650.52 450.579 L
657.76 447.662 L
665 443.684 L
672.24 440.766 L
679.48 440.236 L
686.72 443.153 L
693.96 446.07 L
701.2 446.601 L
708.44 445.275 L
715.68 442.623 L
722.92 440.236 L
730.16 441.032 L
737.4 443.684 L
744.64 446.07 L
751.88 446.336 L
759.12 444.744 L
766.36 441.562 L
773.6 439.706 L
780.84 441.032 L
788.08 443.684 L
795.32 446.336 L
802.56 446.336 L
809.8 444.479 L
817.04 441.032 L
824.28 439.44 L
831.52 441.297 L
838.76 444.479 L
846 446.07 L
S
GR
GS
[0.75 0 0 0.75 0 0.5] CT
1 GC
N
164 264 M
164 89 L
404 89 L
404 264 L
cp
f
GR
GS
[0.75 0 0 0.75 150.75 79.28438] CT
/Helvetica 21.6 F
GS
[1 0 0 1 0 0] CT
0 9 moveto 
1 -1 scale
(Approximation1) t 
GR
GR
GS
[0.75 0 0 0.75 0 0.5] CT
0 0.447 0.741 RC
1 LJ
2.667 LW
N
168 105.046 M
198 105.046 L
S
GR
GS
[0.75 0 0 0.75 150.75 100.72063] CT
/Helvetica 21.6 F
GS
[1 0 0 1 0 0] CT
0 9 moveto 
1 -1 scale
(Approximation2) t 
GR
GR
GS
[0.75 0 0 0.75 0 0.5] CT
0.851 0.325 0.098 RC
1 LJ
2.667 LW
N
168 133.628 M
198 133.628 L
S
GR
GS
[0.75 0 0 0.75 150.75 122.15688] CT
/Helvetica 21.6 F
GS
[1 0 0 1 0 0] CT
0 9 moveto 
1 -1 scale
(Approximation3) t 
GR
GR
GS
[0.75 0 0 0.75 0 0.5] CT
0.929 0.694 0.125 RC
1 LJ
2.667 LW
N
168 162.209 M
198 162.209 L
S
GR
GS
[0.75 0 0 0.75 150.75 143.59312] CT
/Helvetica 21.6 F
GS
[1 0 0 1 0 0] CT
0 9 moveto 
1 -1 scale
(Approximation4) t 
GR
GR
GS
[0.75 0 0 0.75 0 0.5] CT
0.494 0.184 0.557 RC
1 LJ
2.667 LW
N
168 190.791 M
198 190.791 L
S
GR
GS
[0.75 0 0 0.75 150.75 165.02937] CT
/Helvetica 21.6 F
GS
[1 0 0 1 0 0] CT
0 9 moveto 
1 -1 scale
(Approximation5) t 
GR
GR
GS
[0.75 0 0 0.75 0 0.5] CT
0.467 0.675 0.188 RC
1 LJ
2.667 LW
N
168 219.372 M
198 219.372 L
S
GR
GS
[0.75 0 0 0.75 150.75 186.46561] CT
/Helvetica 21.6 F
GS
[1 0 0 1 0 0] CT
0 9 moveto 
1 -1 scale
(Laser Prediction Set) t 
GR
GR
GS
[0.75 0 0 0.75 0 0.5] CT
0.302 0.745 0.933 RC
1 LJ
2.667 LW
N
168 247.954 M
198 247.954 L
S
GR
GS
[0.75 0 0 0.75 0 0.5] CT
0.149 GC
10.0 ML
0.667 LW
N
164 264 M
164 89 L
404 89 L
404 264 L
cp
S
GR
%%Trailer
%%Pages: 1
%%EOF
