%!PS-Adobe-3.0 EPSF-3.0
%%Creator: (MATLAB, The Mathworks, Inc. Version 9.1.0.441655 \(R2016b\). Operating System: Windows 8)
%%Title: (C:/Users/Eigenaar/WIT/Data Mining/data-mining/Session 2/plots/scg.eps)
%%CreationDate: 2017-11-22T17:11:17
%%Pages: (atend)
%%BoundingBox: 0 0 896 642
%%LanguageLevel: 3
%%EndComments
%%BeginProlog
%%BeginResource: procset (Apache XML Graphics Std ProcSet) 1.2 0
%%Version: 1.2 0
%%Copyright: (Copyright 2001-2003,2010 The Apache Software Foundation. License terms: http://www.apache.org/licenses/LICENSE-2.0)
/bd{bind def}bind def
/ld{load def}bd
/GR/grestore ld
/M/moveto ld
/LJ/setlinejoin ld
/C/curveto ld
/f/fill ld
/LW/setlinewidth ld
/GC/setgray ld
/t/show ld
/N/newpath ld
/CT/concat ld
/cp/closepath ld
/S/stroke ld
/L/lineto ld
/CC/setcmykcolor ld
/A/ashow ld
/GS/gsave ld
/RC/setrgbcolor ld
/RM/rmoveto ld
/ML/setmiterlimit ld
/re {4 2 roll M
1 index 0 rlineto
0 exch rlineto
neg 0 rlineto
cp } bd
/_ctm matrix def
/_tm matrix def
/BT { _ctm currentmatrix pop matrix _tm copy pop 0 0 moveto } bd
/ET { _ctm setmatrix } bd
/iTm { _ctm setmatrix _tm concat } bd
/Tm { _tm astore pop iTm 0 0 moveto } bd
/ux 0.0 def
/uy 0.0 def
/F {
  /Tp exch def
  /Tf exch def
  Tf findfont Tp scalefont setfont
  /cf Tf def  /cs Tp def
} bd
/ULS {currentpoint /uy exch def /ux exch def} bd
/ULE {
  /Tcx currentpoint pop def
  gsave
  newpath
  cf findfont cs scalefont dup
  /FontMatrix get 0 get /Ts exch def /FontInfo get dup
  /UnderlinePosition get Ts mul /To exch def
  /UnderlineThickness get Ts mul /Tt exch def
  ux uy To add moveto  Tcx uy To add lineto
  Tt setlinewidth stroke
  grestore
} bd
/OLE {
  /Tcx currentpoint pop def
  gsave
  newpath
  cf findfont cs scalefont dup
  /FontMatrix get 0 get /Ts exch def /FontInfo get dup
  /UnderlinePosition get Ts mul /To exch def
  /UnderlineThickness get Ts mul /Tt exch def
  ux uy To add cs add moveto Tcx uy To add cs add lineto
  Tt setlinewidth stroke
  grestore
} bd
/SOE {
  /Tcx currentpoint pop def
  gsave
  newpath
  cf findfont cs scalefont dup
  /FontMatrix get 0 get /Ts exch def /FontInfo get dup
  /UnderlinePosition get Ts mul /To exch def
  /UnderlineThickness get Ts mul /Tt exch def
  ux uy To add cs 10 mul 26 idiv add moveto Tcx uy To add cs 10 mul 26 idiv add lineto
  Tt setlinewidth stroke
  grestore
} bd
/QT {
/Y22 exch store
/X22 exch store
/Y21 exch store
/X21 exch store
currentpoint
/Y21 load 2 mul add 3 div exch
/X21 load 2 mul add 3 div exch
/X21 load 2 mul /X22 load add 3 div
/Y21 load 2 mul /Y22 load add 3 div
/X22 load /Y22 load curveto
} bd
/SSPD {
dup length /d exch dict def
{
/v exch def
/k exch def
currentpagedevice k known {
/cpdv currentpagedevice k get def
v cpdv ne {
/upd false def
/nullv v type /nulltype eq def
/nullcpdv cpdv type /nulltype eq def
nullv nullcpdv or
{
/upd true def
} {
/sametype v type cpdv type eq def
sametype {
v type /arraytype eq {
/vlen v length def
/cpdvlen cpdv length def
vlen cpdvlen eq {
0 1 vlen 1 sub {
/i exch def
/obj v i get def
/cpdobj cpdv i get def
obj cpdobj ne {
/upd true def
exit
} if
} for
} {
/upd true def
} ifelse
} {
v type /dicttype eq {
v {
/dv exch def
/dk exch def
/cpddv cpdv dk get def
dv cpddv ne {
/upd true def
exit
} if
} forall
} {
/upd true def
} ifelse
} ifelse
} if
} ifelse
upd true eq {
d k v put
} if
} if
} if
} forall
d length 0 gt {
d setpagedevice
} if
} bd
/RE { % /NewFontName [NewEncodingArray] /FontName RE -
  findfont dup length dict begin
  {
    1 index /FID ne
    {def} {pop pop} ifelse
  } forall
  /Encoding exch def
  /FontName 1 index def
  currentdict definefont pop
  end
} bind def
%%EndResource
%%BeginResource: procset (Apache XML Graphics EPS ProcSet) 1.0 0
%%Version: 1.0 0
%%Copyright: (Copyright 2002-2003 The Apache Software Foundation. License terms: http://www.apache.org/licenses/LICENSE-2.0)
/BeginEPSF { %def
/b4_Inc_state save def         % Save state for cleanup
/dict_count countdictstack def % Count objects on dict stack
/op_count count 1 sub def      % Count objects on operand stack
userdict begin                 % Push userdict on dict stack
/showpage { } def              % Redefine showpage, { } = null proc
0 setgray 0 setlinecap         % Prepare graphics state
1 setlinewidth 0 setlinejoin
10 setmiterlimit [ ] 0 setdash newpath
/languagelevel where           % If level not equal to 1 then
{pop languagelevel             % set strokeadjust and
1 ne                           % overprint to their defaults.
{false setstrokeadjust false setoverprint
} if
} if
} bd
/EndEPSF { %def
count op_count sub {pop} repeat            % Clean up stacks
countdictstack dict_count sub {end} repeat
b4_Inc_state restore
} bd
%%EndResource
%FOPBeginFontDict
%%IncludeResource: font Courier-Bold
%%IncludeResource: font Helvetica
%%IncludeResource: font Courier-BoldOblique
%%IncludeResource: font Courier-Oblique
%%IncludeResource: font Times-Roman
%%IncludeResource: font Helvetica-BoldOblique
%%IncludeResource: font Helvetica-Bold
%%IncludeResource: font Helvetica-Oblique
%%IncludeResource: font Times-BoldItalic
%%IncludeResource: font Courier
%%IncludeResource: font Times-Italic
%%IncludeResource: font Times-Bold
%%IncludeResource: font Symbol
%%IncludeResource: font ZapfDingbats
%FOPEndFontDict
%%BeginResource: encoding WinAnsiEncoding
/WinAnsiEncoding [
/.notdef /.notdef /.notdef /.notdef /.notdef
/.notdef /.notdef /.notdef /.notdef /.notdef
/.notdef /.notdef /.notdef /.notdef /.notdef
/.notdef /.notdef /.notdef /.notdef /.notdef
/.notdef /.notdef /.notdef /.notdef /.notdef
/.notdef /.notdef /.notdef /.notdef /.notdef
/.notdef /.notdef /space /exclam /quotedbl
/numbersign /dollar /percent /ampersand /quotesingle
/parenleft /parenright /asterisk /plus /comma
/hyphen /period /slash /zero /one
/two /three /four /five /six
/seven /eight /nine /colon /semicolon
/less /equal /greater /question /at
/A /B /C /D /E
/F /G /H /I /J
/K /L /M /N /O
/P /Q /R /S /T
/U /V /W /X /Y
/Z /bracketleft /backslash /bracketright /asciicircum
/underscore /quoteleft /a /b /c
/d /e /f /g /h
/i /j /k /l /m
/n /o /p /q /r
/s /t /u /v /w
/x /y /z /braceleft /bar
/braceright /asciitilde /bullet /Euro /bullet
/quotesinglbase /florin /quotedblbase /ellipsis /dagger
/daggerdbl /circumflex /perthousand /Scaron /guilsinglleft
/OE /bullet /Zcaron /bullet /bullet
/quoteleft /quoteright /quotedblleft /quotedblright /bullet
/endash /emdash /asciitilde /trademark /scaron
/guilsinglright /oe /bullet /zcaron /Ydieresis
/space /exclamdown /cent /sterling /currency
/yen /brokenbar /section /dieresis /copyright
/ordfeminine /guillemotleft /logicalnot /sfthyphen /registered
/macron /degree /plusminus /twosuperior /threesuperior
/acute /mu /paragraph /middot /cedilla
/onesuperior /ordmasculine /guillemotright /onequarter /onehalf
/threequarters /questiondown /Agrave /Aacute /Acircumflex
/Atilde /Adieresis /Aring /AE /Ccedilla
/Egrave /Eacute /Ecircumflex /Edieresis /Igrave
/Iacute /Icircumflex /Idieresis /Eth /Ntilde
/Ograve /Oacute /Ocircumflex /Otilde /Odieresis
/multiply /Oslash /Ugrave /Uacute /Ucircumflex
/Udieresis /Yacute /Thorn /germandbls /agrave
/aacute /acircumflex /atilde /adieresis /aring
/ae /ccedilla /egrave /eacute /ecircumflex
/edieresis /igrave /iacute /icircumflex /idieresis
/eth /ntilde /ograve /oacute /ocircumflex
/otilde /odieresis /divide /oslash /ugrave
/uacute /ucircumflex /udieresis /yacute /thorn
/ydieresis
] def
%%EndResource
%FOPBeginFontReencode
/Courier-Bold findfont
dup length dict begin
  {1 index /FID ne {def} {pop pop} ifelse} forall
  /Encoding WinAnsiEncoding def
  currentdict
end
/Courier-Bold exch definefont pop
/Helvetica findfont
dup length dict begin
  {1 index /FID ne {def} {pop pop} ifelse} forall
  /Encoding WinAnsiEncoding def
  currentdict
end
/Helvetica exch definefont pop
/Courier-BoldOblique findfont
dup length dict begin
  {1 index /FID ne {def} {pop pop} ifelse} forall
  /Encoding WinAnsiEncoding def
  currentdict
end
/Courier-BoldOblique exch definefont pop
/Courier-Oblique findfont
dup length dict begin
  {1 index /FID ne {def} {pop pop} ifelse} forall
  /Encoding WinAnsiEncoding def
  currentdict
end
/Courier-Oblique exch definefont pop
/Times-Roman findfont
dup length dict begin
  {1 index /FID ne {def} {pop pop} ifelse} forall
  /Encoding WinAnsiEncoding def
  currentdict
end
/Times-Roman exch definefont pop
/Helvetica-BoldOblique findfont
dup length dict begin
  {1 index /FID ne {def} {pop pop} ifelse} forall
  /Encoding WinAnsiEncoding def
  currentdict
end
/Helvetica-BoldOblique exch definefont pop
/Helvetica-Bold findfont
dup length dict begin
  {1 index /FID ne {def} {pop pop} ifelse} forall
  /Encoding WinAnsiEncoding def
  currentdict
end
/Helvetica-Bold exch definefont pop
/Helvetica-Oblique findfont
dup length dict begin
  {1 index /FID ne {def} {pop pop} ifelse} forall
  /Encoding WinAnsiEncoding def
  currentdict
end
/Helvetica-Oblique exch definefont pop
/Times-BoldItalic findfont
dup length dict begin
  {1 index /FID ne {def} {pop pop} ifelse} forall
  /Encoding WinAnsiEncoding def
  currentdict
end
/Times-BoldItalic exch definefont pop
/Courier findfont
dup length dict begin
  {1 index /FID ne {def} {pop pop} ifelse} forall
  /Encoding WinAnsiEncoding def
  currentdict
end
/Courier exch definefont pop
/Times-Italic findfont
dup length dict begin
  {1 index /FID ne {def} {pop pop} ifelse} forall
  /Encoding WinAnsiEncoding def
  currentdict
end
/Times-Italic exch definefont pop
/Times-Bold findfont
dup length dict begin
  {1 index /FID ne {def} {pop pop} ifelse} forall
  /Encoding WinAnsiEncoding def
  currentdict
end
/Times-Bold exch definefont pop
%FOPEndFontReencode
%%EndProlog
%%Page: 1 1
%%PageBoundingBox: 0 0 896 642
%%BeginPageSetup
[1 0 0 -1 0 642] CT
%%EndPageSetup
GS
[0.75 0 0 0.75 0 0] CT
1 GC
N
0 0 1194 856 re
f
GR
GS
[0.75 0 0 0.75 0 0] CT
1 GC
N
0 0 1194 856 re
f
GR
GS
[0.75 0 0 0.75 0 0] CT
1 GC
N
155 762 M
1081 762 L
1081 64 L
155 64 L
cp
f
GR
GS
[0.75 0 0 0.75 0 0] CT
0.149 GC
2 setlinecap
1 LJ
0.667 LW
N
155 762 M
1081 762 L
S
GR
GS
[0.75 0 0 0.75 0 0] CT
0.149 GC
2 setlinecap
1 LJ
0.667 LW
N
155 64 M
1081 64 L
S
GR
GS
[0.75 0 0 0.75 0 0] CT
0.149 GC
2 setlinecap
1 LJ
0.667 LW
N
155 762 M
155 752.74 L
S
GR
GS
[0.75 0 0 0.75 0 0] CT
0.149 GC
2 setlinecap
1 LJ
0.667 LW
N
247.6 762 M
247.6 752.74 L
S
GR
GS
[0.75 0 0 0.75 0 0] CT
0.149 GC
2 setlinecap
1 LJ
0.667 LW
N
340.2 762 M
340.2 752.74 L
S
GR
GS
[0.75 0 0 0.75 0 0] CT
0.149 GC
2 setlinecap
1 LJ
0.667 LW
N
432.8 762 M
432.8 752.74 L
S
GR
GS
[0.75 0 0 0.75 0 0] CT
0.149 GC
2 setlinecap
1 LJ
0.667 LW
N
525.4 762 M
525.4 752.74 L
S
GR
GS
[0.75 0 0 0.75 0 0] CT
0.149 GC
2 setlinecap
1 LJ
0.667 LW
N
618 762 M
618 752.74 L
S
GR
GS
[0.75 0 0 0.75 0 0] CT
0.149 GC
2 setlinecap
1 LJ
0.667 LW
N
710.6 762 M
710.6 752.74 L
S
GR
GS
[0.75 0 0 0.75 0 0] CT
0.149 GC
2 setlinecap
1 LJ
0.667 LW
N
803.2 762 M
803.2 752.74 L
S
GR
GS
[0.75 0 0 0.75 0 0] CT
0.149 GC
2 setlinecap
1 LJ
0.667 LW
N
895.8 762 M
895.8 752.74 L
S
GR
GS
[0.75 0 0 0.75 0 0] CT
0.149 GC
2 setlinecap
1 LJ
0.667 LW
N
988.4 762 M
988.4 752.74 L
S
GR
GS
[0.75 0 0 0.75 0 0] CT
0.149 GC
2 setlinecap
1 LJ
0.667 LW
N
1081 762 M
1081 752.74 L
S
GR
GS
[0.75 0 0 0.75 0 0] CT
0.149 GC
2 setlinecap
1 LJ
0.667 LW
N
155 64 M
155 73.26 L
S
GR
GS
[0.75 0 0 0.75 0 0] CT
0.149 GC
2 setlinecap
1 LJ
0.667 LW
N
247.6 64 M
247.6 73.26 L
S
GR
GS
[0.75 0 0 0.75 0 0] CT
0.149 GC
2 setlinecap
1 LJ
0.667 LW
N
340.2 64 M
340.2 73.26 L
S
GR
GS
[0.75 0 0 0.75 0 0] CT
0.149 GC
2 setlinecap
1 LJ
0.667 LW
N
432.8 64 M
432.8 73.26 L
S
GR
GS
[0.75 0 0 0.75 0 0] CT
0.149 GC
2 setlinecap
1 LJ
0.667 LW
N
525.4 64 M
525.4 73.26 L
S
GR
GS
[0.75 0 0 0.75 0 0] CT
0.149 GC
2 setlinecap
1 LJ
0.667 LW
N
618 64 M
618 73.26 L
S
GR
GS
[0.75 0 0 0.75 0 0] CT
0.149 GC
2 setlinecap
1 LJ
0.667 LW
N
710.6 64 M
710.6 73.26 L
S
GR
GS
[0.75 0 0 0.75 0 0] CT
0.149 GC
2 setlinecap
1 LJ
0.667 LW
N
803.2 64 M
803.2 73.26 L
S
GR
GS
[0.75 0 0 0.75 0 0] CT
0.149 GC
2 setlinecap
1 LJ
0.667 LW
N
895.8 64 M
895.8 73.26 L
S
GR
GS
[0.75 0 0 0.75 0 0] CT
0.149 GC
2 setlinecap
1 LJ
0.667 LW
N
988.4 64 M
988.4 73.26 L
S
GR
GS
[0.75 0 0 0.75 0 0] CT
0.149 GC
2 setlinecap
1 LJ
0.667 LW
N
1081 64 M
1081 73.26 L
S
GR
GS
[0.75 0 0 0.75 116.25 577.10001] CT
0.149 GC
/Helvetica 24 F
GS
[1 0 0 1 0 0] CT
-7 25 moveto 
1 -1 scale
(0) t 
GR
GR
GS
[0.75 0 0 0.75 185.7 577.10001] CT
0.149 GC
/Helvetica 24 F
GS
[1 0 0 1 0 0] CT
-13.5 25 moveto 
1 -1 scale
(10) t 
GR
GR
GS
[0.75 0 0 0.75 255.15001 577.10001] CT
0.149 GC
/Helvetica 24 F
GS
[1 0 0 1 0 0] CT
-13.5 25 moveto 
1 -1 scale
(20) t 
GR
GR
GS
[0.75 0 0 0.75 324.59999 577.10001] CT
0.149 GC
/Helvetica 24 F
GS
[1 0 0 1 0 0] CT
-13.5 25 moveto 
1 -1 scale
(30) t 
GR
GR
GS
[0.75 0 0 0.75 394.05002 577.10001] CT
0.149 GC
/Helvetica 24 F
GS
[1 0 0 1 0 0] CT
-13.5 25 moveto 
1 -1 scale
(40) t 
GR
GR
GS
[0.75 0 0 0.75 463.5 577.10001] CT
0.149 GC
/Helvetica 24 F
GS
[1 0 0 1 0 0] CT
-13.5 25 moveto 
1 -1 scale
(50) t 
GR
GR
GS
[0.75 0 0 0.75 532.94998 577.10001] CT
0.149 GC
/Helvetica 24 F
GS
[1 0 0 1 0 0] CT
-13.5 25 moveto 
1 -1 scale
(60) t 
GR
GR
GS
[0.75 0 0 0.75 602.40001 577.10001] CT
0.149 GC
/Helvetica 24 F
GS
[1 0 0 1 0 0] CT
-13.5 25 moveto 
1 -1 scale
(70) t 
GR
GR
GS
[0.75 0 0 0.75 671.84999 577.10001] CT
0.149 GC
/Helvetica 24 F
GS
[1 0 0 1 0 0] CT
-13.5 25 moveto 
1 -1 scale
(80) t 
GR
GR
GS
[0.75 0 0 0.75 741.30002 577.10001] CT
0.149 GC
/Helvetica 24 F
GS
[1 0 0 1 0 0] CT
-13.5 25 moveto 
1 -1 scale
(90) t 
GR
GR
GS
[0.75 0 0 0.75 810.75 577.10001] CT
0.149 GC
/Helvetica 24 F
GS
[1 0 0 1 0 0] CT
-20.5 25 moveto 
1 -1 scale
(100) t 
GR
GR
GS
[0.75 0 0 0.75 463.50032 601.34999] CT
0.149 GC
/Helvetica 26.4 F
GS
[1 0 0 1 0 0] CT
-46.5 27 moveto 
1 -1 scale
(Time [s]) t 
GR
GR
GS
[0.75 0 0 0.75 0 0] CT
0.149 GC
2 setlinecap
1 LJ
0.667 LW
N
155 762 M
155 64 L
S
GR
GS
[0.75 0 0 0.75 0 0] CT
0.149 GC
2 setlinecap
1 LJ
0.667 LW
N
1081 762 M
1081 64 L
S
GR
GS
[0.75 0 0 0.75 0 0] CT
0.149 GC
2 setlinecap
1 LJ
0.667 LW
N
155 762 M
164.26 762 L
S
GR
GS
[0.75 0 0 0.75 0 0] CT
0.149 GC
2 setlinecap
1 LJ
0.667 LW
N
155 692.2 M
164.26 692.2 L
S
GR
GS
[0.75 0 0 0.75 0 0] CT
0.149 GC
2 setlinecap
1 LJ
0.667 LW
N
155 622.4 M
164.26 622.4 L
S
GR
GS
[0.75 0 0 0.75 0 0] CT
0.149 GC
2 setlinecap
1 LJ
0.667 LW
N
155 552.6 M
164.26 552.6 L
S
GR
GS
[0.75 0 0 0.75 0 0] CT
0.149 GC
2 setlinecap
1 LJ
0.667 LW
N
155 482.8 M
164.26 482.8 L
S
GR
GS
[0.75 0 0 0.75 0 0] CT
0.149 GC
2 setlinecap
1 LJ
0.667 LW
N
155 413 M
164.26 413 L
S
GR
GS
[0.75 0 0 0.75 0 0] CT
0.149 GC
2 setlinecap
1 LJ
0.667 LW
N
155 343.2 M
164.26 343.2 L
S
GR
GS
[0.75 0 0 0.75 0 0] CT
0.149 GC
2 setlinecap
1 LJ
0.667 LW
N
155 273.4 M
164.26 273.4 L
S
GR
GS
[0.75 0 0 0.75 0 0] CT
0.149 GC
2 setlinecap
1 LJ
0.667 LW
N
155 203.6 M
164.26 203.6 L
S
GR
GS
[0.75 0 0 0.75 0 0] CT
0.149 GC
2 setlinecap
1 LJ
0.667 LW
N
155 133.8 M
164.26 133.8 L
S
GR
GS
[0.75 0 0 0.75 0 0] CT
0.149 GC
2 setlinecap
1 LJ
0.667 LW
N
155 64 M
164.26 64 L
S
GR
GS
[0.75 0 0 0.75 0 0] CT
0.149 GC
2 setlinecap
1 LJ
0.667 LW
N
1081 762 M
1071.74 762 L
S
GR
GS
[0.75 0 0 0.75 0 0] CT
0.149 GC
2 setlinecap
1 LJ
0.667 LW
N
1081 692.2 M
1071.74 692.2 L
S
GR
GS
[0.75 0 0 0.75 0 0] CT
0.149 GC
2 setlinecap
1 LJ
0.667 LW
N
1081 622.4 M
1071.74 622.4 L
S
GR
GS
[0.75 0 0 0.75 0 0] CT
0.149 GC
2 setlinecap
1 LJ
0.667 LW
N
1081 552.6 M
1071.74 552.6 L
S
GR
GS
[0.75 0 0 0.75 0 0] CT
0.149 GC
2 setlinecap
1 LJ
0.667 LW
N
1081 482.8 M
1071.74 482.8 L
S
GR
GS
[0.75 0 0 0.75 0 0] CT
0.149 GC
2 setlinecap
1 LJ
0.667 LW
N
1081 413 M
1071.74 413 L
S
GR
GS
[0.75 0 0 0.75 0 0] CT
0.149 GC
2 setlinecap
1 LJ
0.667 LW
N
1081 343.2 M
1071.74 343.2 L
S
GR
GS
[0.75 0 0 0.75 0 0] CT
0.149 GC
2 setlinecap
1 LJ
0.667 LW
N
1081 273.4 M
1071.74 273.4 L
S
GR
GS
[0.75 0 0 0.75 0 0] CT
0.149 GC
2 setlinecap
1 LJ
0.667 LW
N
1081 203.6 M
1071.74 203.6 L
S
GR
GS
[0.75 0 0 0.75 0 0] CT
0.149 GC
2 setlinecap
1 LJ
0.667 LW
N
1081 133.8 M
1071.74 133.8 L
S
GR
GS
[0.75 0 0 0.75 0 0] CT
0.149 GC
2 setlinecap
1 LJ
0.667 LW
N
1081 64 M
1071.74 64 L
S
GR
GS
[0.75 0 0 0.75 110.65001 571.5] CT
0.149 GC
/Helvetica 24 F
GS
[1 0 0 1 0 0] CT
-49 9.5 moveto 
1 -1 scale
(-800) t 
GR
GR
GS
[0.75 0 0 0.75 110.65001 519.15001] CT
0.149 GC
/Helvetica 24 F
GS
[1 0 0 1 0 0] CT
-49 9.5 moveto 
1 -1 scale
(-600) t 
GR
GR
GS
[0.75 0 0 0.75 110.65001 466.80002] CT
0.149 GC
/Helvetica 24 F
GS
[1 0 0 1 0 0] CT
-49 9.5 moveto 
1 -1 scale
(-400) t 
GR
GR
GS
[0.75 0 0 0.75 110.65001 414.44998] CT
0.149 GC
/Helvetica 24 F
GS
[1 0 0 1 0 0] CT
-49 9.5 moveto 
1 -1 scale
(-200) t 
GR
GR
GS
[0.75 0 0 0.75 110.65001 362.09999] CT
0.149 GC
/Helvetica 24 F
GS
[1 0 0 1 0 0] CT
-14 9.5 moveto 
1 -1 scale
(0) t 
GR
GR
GS
[0.75 0 0 0.75 110.65001 309.75] CT
0.149 GC
/Helvetica 24 F
GS
[1 0 0 1 0 0] CT
-41 9.5 moveto 
1 -1 scale
(200) t 
GR
GR
GS
[0.75 0 0 0.75 110.65001 257.40001] CT
0.149 GC
/Helvetica 24 F
GS
[1 0 0 1 0 0] CT
-41 9.5 moveto 
1 -1 scale
(400) t 
GR
GR
GS
[0.75 0 0 0.75 110.65001 205.05] CT
0.149 GC
/Helvetica 24 F
GS
[1 0 0 1 0 0] CT
-41 9.5 moveto 
1 -1 scale
(600) t 
GR
GR
GS
[0.75 0 0 0.75 110.65001 152.7] CT
0.149 GC
/Helvetica 24 F
GS
[1 0 0 1 0 0] CT
-41 9.5 moveto 
1 -1 scale
(800) t 
GR
GR
GS
[0.75 0 0 0.75 110.65001 100.35] CT
0.149 GC
/Helvetica 24 F
GS
[1 0 0 1 0 0] CT
-54 9.5 moveto 
1 -1 scale
(1000) t 
GR
GR
GS
[0.75 0 0 0.75 110.65001 48] CT
0.149 GC
/Helvetica 24 F
GS
[1 0 0 1 0 0] CT
-54 9.5 moveto 
1 -1 scale
(1200) t 
GR
GR
GS
[0.75 0 0 0.75 0 0] CT
0 0.447 0.741 RC
1 LJ
2.667 LW
N
164.26 457.032 M
173.52 427.829 L
182.78 439.863 L
192.04 467.742 L
201.3 475.054 L
210.56 472.336 L
219.82 473.346 L
229.08 469.233 L
238.34 445.667 L
247.6 427.72 L
256.86 450.049 L
266.12 472.037 L
275.38 484.198 L
284.64 475.813 L
293.9 468.186 L
303.16 465.912 L
312.42 448.796 L
321.68 447.302 L
330.94 455.652 L
340.2 452.634 L
349.46 480.3 L
358.72 476.636 L
367.98 455.744 L
377.24 458.346 L
386.5 452.973 L
395.76 465.503 L
405.02 484.119 L
414.28 458.878 L
423.54 475.566 L
432.8 468.944 L
442.06 430.42 L
451.32 458.757 L
460.58 469.077 L
469.84 475.323 L
479.1 486.804 L
488.36 461.836 L
497.62 467.474 L
506.88 463.341 L
516.14 419.827 L
525.4 443.273 L
534.66 465.982 L
543.92 478.794 L
553.18 502.064 L
562.44 465.843 L
571.7 419.827 L
580.96 444.147 L
590.22 481.576 L
599.48 512.464 L
608.74 485.254 L
618 459.757 L
627.26 499.33 L
636.52 460.79 L
645.78 357.656 L
655.04 362.002 L
664.3 423.84 L
673.56 474.277 L
682.82 481.363 L
692.08 337.446 L
701.34 349.373 L
710.6 466.198 L
719.86 458.308 L
729.12 313.168 L
738.38 281.289 L
747.64 434.733 L
756.9 590.182 L
766.16 390.86 L
775.42 218.857 L
784.68 332.007 L
793.94 470.201 L
803.2 358.07 L
812.46 190.974 L
821.72 288.028 L
830.98 549.548 L
840.24 492.583 L
849.5 185.358 L
858.76 181.511 L
868.02 398.664 L
877.28 437.832 L
886.54 322.772 L
895.8 367.952 L
905.06 440.541 L
914.32 599.672 L
923.58 362.441 L
932.84 216.852 L
942.1 418.944 L
951.36 609.763 L
960.62 596.844 L
969.88 253.59 L
979.14 276.144 L
988.4 587.726 L
997.66 613.515 L
1006.92 231.248 L
1016.18 295.036 L
1025.44 737.448 L
1034.7 608.265 L
1043.96 509.845 L
1053.22 316.992 L
1062.48 318.092 L
1071.74 623.55 L
1081 520.284 L
S
GR
GS
[0.75 0 0 0.75 0 0] CT
0.851 0.325 0.098 RC
1 LJ
2.667 LW
N
164.26 457.8 M
173.52 424.483 L
182.78 436.902 L
192.04 465.42 L
201.3 474.28 L
210.56 478.603 L
219.82 474.833 L
229.08 473.304 L
238.34 449.522 L
247.6 426.475 L
256.86 442.89 L
266.12 461.062 L
275.38 467.088 L
284.64 472.74 L
293.9 472.406 L
303.16 476.687 L
312.42 450.606 L
321.68 439.721 L
330.94 439.301 L
340.2 446.029 L
349.46 460.382 L
358.72 478.146 L
367.98 471.743 L
377.24 494.136 L
386.5 447.011 L
395.76 450.522 L
405.02 442.078 L
414.28 440.656 L
423.54 454.364 L
432.8 488.294 L
442.06 466.591 L
451.32 503.307 L
460.58 418.05 L
469.84 471.204 L
479.1 479.022 L
488.36 483.147 L
497.62 446.763 L
506.88 484.926 L
516.14 454.005 L
525.4 469.574 L
534.66 400.706 L
543.92 517.304 L
553.18 505.005 L
562.44 518.786 L
571.7 457.759 L
580.96 448.554 L
590.22 435.973 L
599.48 435.666 L
608.74 426.596 L
618 578.841 L
627.26 510.646 L
636.52 434.625 L
645.78 441.793 L
655.04 371.856 L
664.3 411.888 L
673.56 477.653 L
682.82 452.385 L
692.08 541.21 L
701.34 434.492 L
710.6 399.337 L
719.86 492.697 L
729.12 427.005 L
738.38 563.695 L
747.64 511.735 L
756.9 389.586 L
766.16 509.312 L
775.42 342.929 L
784.68 320.633 L
793.94 560.393 L
803.2 433.589 L
812.46 476.072 L
821.72 475.927 L
830.98 303.831 L
840.24 494.938 L
849.5 485.491 L
858.76 413.55 L
868.02 522.808 L
877.28 364.434 L
886.54 440.466 L
895.8 462.259 L
905.06 286.399 L
914.32 513.875 L
923.58 543.824 L
932.84 286.609 L
942.1 508.715 L
951.36 261.874 L
960.62 321.148 L
969.88 617.587 L
979.14 324.769 L
988.4 556.755 L
997.66 467.126 L
1006.92 371.22 L
1016.18 676.103 L
1025.44 366.744 L
1034.7 505.44 L
1043.96 663.579 L
1053.22 337.772 L
1062.48 552.519 L
1071.74 516.509 L
1081 248.473 L
S
GR
GS
[0.75 0 0 0.75 0 0] CT
0.929 0.694 0.125 RC
1 LJ
2.667 LW
N
164.26 456.181 M
173.52 421.797 L
182.78 439.644 L
192.04 473.021 L
201.3 478.388 L
210.56 480.888 L
219.82 479.338 L
229.08 470.737 L
238.34 444.027 L
247.6 422.154 L
256.86 450.46 L
266.12 473.089 L
275.38 472.095 L
284.64 473.959 L
293.9 468.84 L
303.16 459.776 L
312.42 431.591 L
321.68 434.839 L
330.94 463.741 L
340.2 475.454 L
349.46 476.693 L
358.72 480.907 L
367.98 478.06 L
377.24 463.273 L
386.5 434.321 L
395.76 432.755 L
405.02 453.011 L
414.28 453.343 L
423.54 444.27 L
432.8 446.757 L
442.06 463.535 L
451.32 477.534 L
460.58 458.969 L
469.84 445.242 L
479.1 458.157 L
488.36 478.829 L
497.62 477.379 L
506.88 478.925 L
516.14 511.251 L
525.4 535.405 L
534.66 582.446 L
543.92 633.145 L
553.18 642.205 L
562.44 673.888 L
571.7 706.701 L
580.96 684.942 L
590.22 654.964 L
599.48 597.649 L
608.74 602.54 L
618 616.948 L
627.26 583.19 L
636.52 535.561 L
645.78 454.287 L
655.04 496.788 L
664.3 499.282 L
673.56 466.204 L
682.82 444.851 L
692.08 482.826 L
701.34 492.801 L
710.6 500.176 L
719.86 475.174 L
729.12 504.51 L
738.38 502.251 L
747.64 533.049 L
756.9 514.604 L
766.16 488.703 L
775.42 540.669 L
784.68 572.619 L
793.94 522.11 L
803.2 492.453 L
812.46 480.939 L
821.72 521.279 L
830.98 545.274 L
840.24 508.764 L
849.5 452.932 L
858.76 485.984 L
868.02 535.186 L
877.28 521.668 L
886.54 436.486 L
895.8 490.628 L
905.06 546.628 L
914.32 557.55 L
923.58 503.784 L
932.84 463.528 L
942.1 499.979 L
951.36 528.817 L
960.62 543.247 L
969.88 467.999 L
979.14 461.842 L
988.4 528.047 L
997.66 536.789 L
1006.92 459.459 L
1016.18 386.114 L
1025.44 555.332 L
1034.7 589.465 L
1043.96 576.796 L
1053.22 463.891 L
1062.48 486.415 L
1071.74 526.244 L
1081 535.859 L
S
GR
GS
[0.75 0 0 0.75 0 0] CT
0.494 0.184 0.557 RC
1 LJ
2.667 LW
N
164.26 450.568 M
173.52 434.044 L
182.78 443.028 L
192.04 465.833 L
201.3 466.631 L
210.56 478.18 L
219.82 476.608 L
229.08 475.789 L
238.34 442.972 L
247.6 435.118 L
256.86 445.283 L
266.12 464.428 L
275.38 467.84 L
284.64 486.973 L
293.9 468.146 L
303.16 466.138 L
312.42 444.571 L
321.68 427.394 L
330.94 440.1 L
340.2 463.727 L
349.46 490.12 L
358.72 490.422 L
367.98 477.465 L
377.24 450.143 L
386.5 442.035 L
395.76 419.522 L
405.02 449.484 L
414.28 458.882 L
423.54 501.493 L
432.8 479.985 L
442.06 512.501 L
451.32 450.062 L
460.58 422.608 L
469.84 424.951 L
479.1 481.834 L
488.36 484.02 L
497.62 500.558 L
506.88 464.819 L
516.14 474.097 L
525.4 454.423 L
534.66 382.36 L
543.92 470.348 L
553.18 466.292 L
562.44 510.614 L
571.7 422.547 L
580.96 537.441 L
590.22 389.082 L
599.48 481.806 L
608.74 448.425 L
618 567.612 L
627.26 369.459 L
636.52 502.189 L
645.78 371.621 L
655.04 626.458 L
664.3 398.402 L
673.56 498.945 L
682.82 475.85 L
692.08 509.695 L
701.34 427.034 L
710.6 403.405 L
719.86 554.114 L
729.12 463.604 L
738.38 569.892 L
747.64 321.074 L
756.9 603.646 L
766.16 288.976 L
775.42 548.371 L
784.68 304.088 L
793.94 687.946 L
803.2 253.123 L
812.46 582.953 L
821.72 375.449 L
830.98 556.884 L
840.24 501.357 L
849.5 441.755 L
858.76 504.427 L
868.02 382.081 L
877.28 560.011 L
886.54 191.889 L
895.8 688.966 L
905.06 180.803 L
914.32 668.375 L
923.58 276.294 L
932.84 655.462 L
942.1 376.32 L
951.36 589.515 L
960.62 299.396 L
969.88 624.842 L
979.14 436.023 L
988.4 464.106 L
997.66 513.55 L
1006.92 445.743 L
1016.18 734.52 L
1025.44 336.434 L
1034.7 725.062 L
1043.96 332.976 L
1053.22 671.434 L
1062.48 87.354 L
1071.74 721.982 L
1081 354.608 L
S
GR
GS
[0.75 0 0 0.75 0 0] CT
0.467 0.675 0.188 RC
1 LJ
2.667 LW
N
164.26 453.745 M
173.52 424.343 L
182.78 442.496 L
192.04 470.53 L
201.3 478.621 L
210.56 479.129 L
219.82 475.167 L
229.08 466.357 L
238.34 440.845 L
247.6 431.259 L
256.86 457.066 L
266.12 472.106 L
275.38 477.955 L
284.64 478.651 L
293.9 468.436 L
303.16 453.337 L
312.42 438.029 L
321.68 451.346 L
330.94 468.029 L
340.2 470.972 L
349.46 475.659 L
358.72 474.412 L
367.98 453.619 L
377.24 441.878 L
386.5 455.547 L
395.76 471.442 L
405.02 474.694 L
414.28 469.307 L
423.54 472.842 L
432.8 459.487 L
442.06 439.501 L
451.32 449.217 L
460.58 472.653 L
469.84 477.124 L
479.1 475.673 L
488.36 466.736 L
497.62 460.142 L
506.88 447.704 L
516.14 442.93 L
525.4 456.94 L
534.66 468.863 L
543.92 475.447 L
553.18 478.945 L
562.44 455.742 L
571.7 446.738 L
580.96 458.433 L
590.22 462.464 L
599.48 464.073 L
608.74 463.822 L
618 473.709 L
627.26 472.07 L
636.52 442.427 L
645.78 445.602 L
655.04 482.932 L
664.3 481.712 L
673.56 471.812 L
682.82 456.853 L
692.08 475.093 L
701.34 467.445 L
710.6 448.23 L
719.86 449.345 L
729.12 479.133 L
738.38 481.305 L
747.64 478.399 L
756.9 450.028 L
766.16 476.219 L
775.42 482.16 L
784.68 454.547 L
793.94 434.679 L
803.2 471.002 L
812.46 488.641 L
821.72 481.177 L
830.98 445.771 L
840.24 479.019 L
849.5 512.92 L
858.76 474.997 L
868.02 433.214 L
877.28 465.536 L
886.54 497.354 L
895.8 492.272 L
905.06 462.926 L
914.32 482.424 L
923.58 517.336 L
932.84 475.5 L
942.1 427.693 L
951.36 455.365 L
960.62 515.037 L
969.88 491.94 L
979.14 453.751 L
988.4 480.116 L
997.66 540.591 L
1006.92 479.194 L
1016.18 416.617 L
1025.44 434.198 L
1034.7 540.753 L
1043.96 516.935 L
1053.22 459.858 L
1062.48 484.166 L
1071.74 556.35 L
1081 476.178 L
S
GR
GS
[0.75 0 0 0.75 0 0] CT
0.302 0.745 0.933 RC
1 LJ
2.667 LW
N
164.26 457.672 M
173.52 420.678 L
182.78 440.222 L
192.04 470.236 L
201.3 477.914 L
210.56 478.961 L
219.82 477.914 L
229.08 471.632 L
238.34 444.41 L
247.6 417.188 L
256.86 454.88 L
266.12 474.773 L
275.38 478.612 L
284.64 479.31 L
293.9 477.565 L
303.16 467.095 L
312.42 430.101 L
321.68 423.819 L
330.94 464.303 L
340.2 476.518 L
349.46 478.612 L
358.72 479.659 L
367.98 476.867 L
377.24 461.86 L
386.5 419.282 L
395.76 432.893 L
405.02 469.538 L
414.28 478.263 L
423.54 479.659 L
432.8 479.659 L
442.06 476.169 L
451.32 458.021 L
460.58 412.651 L
469.84 438.826 L
479.1 472.33 L
488.36 478.612 L
497.62 479.659 L
506.88 480.008 L
516.14 476.518 L
525.4 458.37 L
534.66 409.161 L
543.92 437.081 L
553.18 472.33 L
562.44 478.961 L
571.7 480.008 L
580.96 480.008 L
590.22 478.263 L
599.48 466.397 L
608.74 415.792 L
618 420.329 L
627.26 468.84 L
636.52 478.263 L
645.78 479.659 L
655.04 480.357 L
664.3 480.357 L
673.56 477.914 L
682.82 458.021 L
692.08 393.805 L
701.34 437.081 L
710.6 474.424 L
719.86 479.659 L
729.12 480.357 L
738.38 480.357 L
747.64 481.055 L
756.9 481.404 L
766.16 481.753 L
775.42 480.008 L
784.68 475.82 L
793.94 478.263 L
803.2 479.31 L
812.46 478.263 L
821.72 475.82 L
830.98 471.981 L
840.24 468.142 L
849.5 462.907 L
858.76 459.068 L
868.02 458.37 L
877.28 462.209 L
886.54 466.048 L
895.8 466.746 L
905.06 465.001 L
914.32 461.511 L
923.58 458.37 L
932.84 459.417 L
942.1 462.907 L
951.36 466.048 L
960.62 466.397 L
969.88 464.303 L
979.14 460.115 L
988.4 457.672 L
997.66 459.417 L
1006.92 462.907 L
1016.18 466.397 L
1025.44 466.397 L
1034.7 463.954 L
1043.96 459.417 L
1053.22 457.323 L
1062.48 459.766 L
1071.74 463.954 L
1081 466.048 L
S
GR
GS
[0.75 0 0 0.75 0 0] CT
1 GC
N
207 301 M
207 92 L
474 92 L
474 301 L
cp
f
GR
GS
[0.75 0 0 0.75 192.96918 83.37249] CT
/Helvetica 21.6 F
GS
[1 0 0 1 0 0] CT
0 9 moveto 
1 -1 scale
(Approximation1) t 
GR
GR
GS
[0.75 0 0 0.75 0 0] CT
0 0.447 0.741 RC
1 LJ
2.667 LW
N
224.21 111.163 M
254.285 111.163 L
S
GR
GS
[0.75 0 0 0.75 192.96918 108.97349] CT
/Helvetica 21.6 F
GS
[1 0 0 1 0 0] CT
0 9 moveto 
1 -1 scale
(Approximation2) t 
GR
GR
GS
[0.75 0 0 0.75 0 0] CT
0.851 0.325 0.098 RC
1 LJ
2.667 LW
N
224.21 145.298 M
254.285 145.298 L
S
GR
GS
[0.75 0 0 0.75 192.96918 134.5745] CT
/Helvetica 21.6 F
GS
[1 0 0 1 0 0] CT
0 9 moveto 
1 -1 scale
(Approximation3) t 
GR
GR
GS
[0.75 0 0 0.75 0 0] CT
0.929 0.694 0.125 RC
1 LJ
2.667 LW
N
224.21 179.433 M
254.285 179.433 L
S
GR
GS
[0.75 0 0 0.75 192.96918 160.1755] CT
/Helvetica 21.6 F
GS
[1 0 0 1 0 0] CT
0 9 moveto 
1 -1 scale
(Approximation4) t 
GR
GR
GS
[0.75 0 0 0.75 0 0] CT
0.494 0.184 0.557 RC
1 LJ
2.667 LW
N
224.21 213.567 M
254.285 213.567 L
S
GR
GS
[0.75 0 0 0.75 192.96918 185.77651] CT
/Helvetica 21.6 F
GS
[1 0 0 1 0 0] CT
0 9 moveto 
1 -1 scale
(Approximation5) t 
GR
GR
GS
[0.75 0 0 0.75 0 0] CT
0.467 0.675 0.188 RC
1 LJ
2.667 LW
N
224.21 247.702 M
254.285 247.702 L
S
GR
GS
[0.75 0 0 0.75 192.96918 211.3775] CT
/Helvetica 21.6 F
GS
[1 0 0 1 0 0] CT
0 9 moveto 
1 -1 scale
(Laser Prediction Set) t 
GR
GR
GS
[0.75 0 0 0.75 0 0] CT
0.302 0.745 0.933 RC
1 LJ
2.667 LW
N
224.21 281.837 M
254.285 281.837 L
S
GR
GS
[0.75 0 0 0.75 0 0] CT
0.149 GC
10.0 ML
0.667 LW
N
207 301 M
207 92 L
474 92 L
474 301 L
cp
S
GR
%%Trailer
%%Pages: 1
%%EOF
