%!PS-Adobe-3.0 EPSF-3.0
%%Creator: (MATLAB, The Mathworks, Inc. Version 9.3.0.713579 \(R2017b\). Operating System: Mac OS X)
%%Title: (/Users/hannesvdc/WIT/data-mining/Session 2/plots/standardalphabet.eps)
%%CreationDate: 2017-11-25T14:04:40
%%Pages: (atend)
%%BoundingBox: 0 0 727 589
%%LanguageLevel: 3
%%EndComments
%%BeginProlog
%%BeginResource: procset (Apache XML Graphics Std ProcSet) 1.2 0
%%Version: 1.2 0
%%Copyright: (Copyright 2001-2003,2010 The Apache Software Foundation. License terms: http://www.apache.org/licenses/LICENSE-2.0)
/bd{bind def}bind def
/ld{load def}bd
/GR/grestore ld
/GS/gsave ld
/RM/rmoveto ld
/C/curveto ld
/t/show ld
/L/lineto ld
/ML/setmiterlimit ld
/CT/concat ld
/f/fill ld
/N/newpath ld
/S/stroke ld
/CC/setcmykcolor ld
/A/ashow ld
/cp/closepath ld
/RC/setrgbcolor ld
/LJ/setlinejoin ld
/GC/setgray ld
/LW/setlinewidth ld
/M/moveto ld
/re {4 2 roll M
1 index 0 rlineto
0 exch rlineto
neg 0 rlineto
cp } bd
/_ctm matrix def
/_tm matrix def
/BT { _ctm currentmatrix pop matrix _tm copy pop 0 0 moveto } bd
/ET { _ctm setmatrix } bd
/iTm { _ctm setmatrix _tm concat } bd
/Tm { _tm astore pop iTm 0 0 moveto } bd
/ux 0.0 def
/uy 0.0 def
/F {
  /Tp exch def
  /Tf exch def
  Tf findfont Tp scalefont setfont
  /cf Tf def  /cs Tp def
} bd
/ULS {currentpoint /uy exch def /ux exch def} bd
/ULE {
  /Tcx currentpoint pop def
  gsave
  newpath
  cf findfont cs scalefont dup
  /FontMatrix get 0 get /Ts exch def /FontInfo get dup
  /UnderlinePosition get Ts mul /To exch def
  /UnderlineThickness get Ts mul /Tt exch def
  ux uy To add moveto  Tcx uy To add lineto
  Tt setlinewidth stroke
  grestore
} bd
/OLE {
  /Tcx currentpoint pop def
  gsave
  newpath
  cf findfont cs scalefont dup
  /FontMatrix get 0 get /Ts exch def /FontInfo get dup
  /UnderlinePosition get Ts mul /To exch def
  /UnderlineThickness get Ts mul /Tt exch def
  ux uy To add cs add moveto Tcx uy To add cs add lineto
  Tt setlinewidth stroke
  grestore
} bd
/SOE {
  /Tcx currentpoint pop def
  gsave
  newpath
  cf findfont cs scalefont dup
  /FontMatrix get 0 get /Ts exch def /FontInfo get dup
  /UnderlinePosition get Ts mul /To exch def
  /UnderlineThickness get Ts mul /Tt exch def
  ux uy To add cs 10 mul 26 idiv add moveto Tcx uy To add cs 10 mul 26 idiv add lineto
  Tt setlinewidth stroke
  grestore
} bd
/QT {
/Y22 exch store
/X22 exch store
/Y21 exch store
/X21 exch store
currentpoint
/Y21 load 2 mul add 3 div exch
/X21 load 2 mul add 3 div exch
/X21 load 2 mul /X22 load add 3 div
/Y21 load 2 mul /Y22 load add 3 div
/X22 load /Y22 load curveto
} bd
/SSPD {
dup length /d exch dict def
{
/v exch def
/k exch def
currentpagedevice k known {
/cpdv currentpagedevice k get def
v cpdv ne {
/upd false def
/nullv v type /nulltype eq def
/nullcpdv cpdv type /nulltype eq def
nullv nullcpdv or
{
/upd true def
} {
/sametype v type cpdv type eq def
sametype {
v type /arraytype eq {
/vlen v length def
/cpdvlen cpdv length def
vlen cpdvlen eq {
0 1 vlen 1 sub {
/i exch def
/obj v i get def
/cpdobj cpdv i get def
obj cpdobj ne {
/upd true def
exit
} if
} for
} {
/upd true def
} ifelse
} {
v type /dicttype eq {
v {
/dv exch def
/dk exch def
/cpddv cpdv dk get def
dv cpddv ne {
/upd true def
exit
} if
} forall
} {
/upd true def
} ifelse
} ifelse
} if
} ifelse
upd true eq {
d k v put
} if
} if
} if
} forall
d length 0 gt {
d setpagedevice
} if
} bd
/RE { % /NewFontName [NewEncodingArray] /FontName RE -
  findfont dup length dict begin
  {
    1 index /FID ne
    {def} {pop pop} ifelse
  } forall
  /Encoding exch def
  /FontName 1 index def
  currentdict definefont pop
  end
} bind def
%%EndResource
%%BeginResource: procset (Apache XML Graphics EPS ProcSet) 1.0 0
%%Version: 1.0 0
%%Copyright: (Copyright 2002-2003 The Apache Software Foundation. License terms: http://www.apache.org/licenses/LICENSE-2.0)
/BeginEPSF { %def
/b4_Inc_state save def         % Save state for cleanup
/dict_count countdictstack def % Count objects on dict stack
/op_count count 1 sub def      % Count objects on operand stack
userdict begin                 % Push userdict on dict stack
/showpage { } def              % Redefine showpage, { } = null proc
0 setgray 0 setlinecap         % Prepare graphics state
1 setlinewidth 0 setlinejoin
10 setmiterlimit [ ] 0 setdash newpath
/languagelevel where           % If level not equal to 1 then
{pop languagelevel             % set strokeadjust and
1 ne                           % overprint to their defaults.
{false setstrokeadjust false setoverprint
} if
} if
} bd
/EndEPSF { %def
count op_count sub {pop} repeat            % Clean up stacks
countdictstack dict_count sub {end} repeat
b4_Inc_state restore
} bd
%%EndResource
%FOPBeginFontDict
%%IncludeResource: font Courier-Oblique
%%IncludeResource: font Courier-BoldOblique
%%IncludeResource: font Courier-Bold
%%IncludeResource: font ZapfDingbats
%%IncludeResource: font Symbol
%%IncludeResource: font Helvetica
%%IncludeResource: font Helvetica-Oblique
%%IncludeResource: font Helvetica-Bold
%%IncludeResource: font Helvetica-BoldOblique
%%IncludeResource: font Times-Roman
%%IncludeResource: font Times-Italic
%%IncludeResource: font Times-Bold
%%IncludeResource: font Times-BoldItalic
%%IncludeResource: font Courier
%FOPEndFontDict
%%BeginResource: encoding WinAnsiEncoding
/WinAnsiEncoding [
/.notdef /.notdef /.notdef /.notdef /.notdef
/.notdef /.notdef /.notdef /.notdef /.notdef
/.notdef /.notdef /.notdef /.notdef /.notdef
/.notdef /.notdef /.notdef /.notdef /.notdef
/.notdef /.notdef /.notdef /.notdef /.notdef
/.notdef /.notdef /.notdef /.notdef /.notdef
/.notdef /.notdef /space /exclam /quotedbl
/numbersign /dollar /percent /ampersand /quotesingle
/parenleft /parenright /asterisk /plus /comma
/hyphen /period /slash /zero /one
/two /three /four /five /six
/seven /eight /nine /colon /semicolon
/less /equal /greater /question /at
/A /B /C /D /E
/F /G /H /I /J
/K /L /M /N /O
/P /Q /R /S /T
/U /V /W /X /Y
/Z /bracketleft /backslash /bracketright /asciicircum
/underscore /quoteleft /a /b /c
/d /e /f /g /h
/i /j /k /l /m
/n /o /p /q /r
/s /t /u /v /w
/x /y /z /braceleft /bar
/braceright /asciitilde /bullet /Euro /bullet
/quotesinglbase /florin /quotedblbase /ellipsis /dagger
/daggerdbl /circumflex /perthousand /Scaron /guilsinglleft
/OE /bullet /Zcaron /bullet /bullet
/quoteleft /quoteright /quotedblleft /quotedblright /bullet
/endash /emdash /asciitilde /trademark /scaron
/guilsinglright /oe /bullet /zcaron /Ydieresis
/space /exclamdown /cent /sterling /currency
/yen /brokenbar /section /dieresis /copyright
/ordfeminine /guillemotleft /logicalnot /sfthyphen /registered
/macron /degree /plusminus /twosuperior /threesuperior
/acute /mu /paragraph /middot /cedilla
/onesuperior /ordmasculine /guillemotright /onequarter /onehalf
/threequarters /questiondown /Agrave /Aacute /Acircumflex
/Atilde /Adieresis /Aring /AE /Ccedilla
/Egrave /Eacute /Ecircumflex /Edieresis /Igrave
/Iacute /Icircumflex /Idieresis /Eth /Ntilde
/Ograve /Oacute /Ocircumflex /Otilde /Odieresis
/multiply /Oslash /Ugrave /Uacute /Ucircumflex
/Udieresis /Yacute /Thorn /germandbls /agrave
/aacute /acircumflex /atilde /adieresis /aring
/ae /ccedilla /egrave /eacute /ecircumflex
/edieresis /igrave /iacute /icircumflex /idieresis
/eth /ntilde /ograve /oacute /ocircumflex
/otilde /odieresis /divide /oslash /ugrave
/uacute /ucircumflex /udieresis /yacute /thorn
/ydieresis
] def
%%EndResource
%FOPBeginFontReencode
/Courier-Oblique findfont
dup length dict begin
  {1 index /FID ne {def} {pop pop} ifelse} forall
  /Encoding WinAnsiEncoding def
  currentdict
end
/Courier-Oblique exch definefont pop
/Courier-BoldOblique findfont
dup length dict begin
  {1 index /FID ne {def} {pop pop} ifelse} forall
  /Encoding WinAnsiEncoding def
  currentdict
end
/Courier-BoldOblique exch definefont pop
/Courier-Bold findfont
dup length dict begin
  {1 index /FID ne {def} {pop pop} ifelse} forall
  /Encoding WinAnsiEncoding def
  currentdict
end
/Courier-Bold exch definefont pop
/Helvetica findfont
dup length dict begin
  {1 index /FID ne {def} {pop pop} ifelse} forall
  /Encoding WinAnsiEncoding def
  currentdict
end
/Helvetica exch definefont pop
/Helvetica-Oblique findfont
dup length dict begin
  {1 index /FID ne {def} {pop pop} ifelse} forall
  /Encoding WinAnsiEncoding def
  currentdict
end
/Helvetica-Oblique exch definefont pop
/Helvetica-Bold findfont
dup length dict begin
  {1 index /FID ne {def} {pop pop} ifelse} forall
  /Encoding WinAnsiEncoding def
  currentdict
end
/Helvetica-Bold exch definefont pop
/Helvetica-BoldOblique findfont
dup length dict begin
  {1 index /FID ne {def} {pop pop} ifelse} forall
  /Encoding WinAnsiEncoding def
  currentdict
end
/Helvetica-BoldOblique exch definefont pop
/Times-Roman findfont
dup length dict begin
  {1 index /FID ne {def} {pop pop} ifelse} forall
  /Encoding WinAnsiEncoding def
  currentdict
end
/Times-Roman exch definefont pop
/Times-Italic findfont
dup length dict begin
  {1 index /FID ne {def} {pop pop} ifelse} forall
  /Encoding WinAnsiEncoding def
  currentdict
end
/Times-Italic exch definefont pop
/Times-Bold findfont
dup length dict begin
  {1 index /FID ne {def} {pop pop} ifelse} forall
  /Encoding WinAnsiEncoding def
  currentdict
end
/Times-Bold exch definefont pop
/Times-BoldItalic findfont
dup length dict begin
  {1 index /FID ne {def} {pop pop} ifelse} forall
  /Encoding WinAnsiEncoding def
  currentdict
end
/Times-BoldItalic exch definefont pop
/Courier findfont
dup length dict begin
  {1 index /FID ne {def} {pop pop} ifelse} forall
  /Encoding WinAnsiEncoding def
  currentdict
end
/Courier exch definefont pop
%FOPEndFontReencode
%%EndProlog
%%Page: 1 1
%%PageBoundingBox: 0 0 727 589
%%BeginPageSetup
[1 0 0 -1 0 589] CT
%%EndPageSetup
GS
1 GC
N
0 0 727 589 re
f
GR
GS
1 GC
N
0 0 727 589 re
f
GR
GS
1 GC
N
94.5 521.5 M
658 521.5 L
658 44 L
94.5 44 L
cp
f
GR
GS
0.149 GC
2 setlinecap
1 LJ
0.5 LW
N
94.5 521.5 M
658 521.5 L
S
GR
GS
0.149 GC
2 setlinecap
1 LJ
0.5 LW
N
94.5 44 M
658 44 L
S
GR
GS
0.149 GC
2 setlinecap
1 LJ
0.5 LW
N
94.5 521.5 M
94.5 515.865 L
S
GR
GS
0.149 GC
2 setlinecap
1 LJ
0.5 LW
N
207.2 521.5 M
207.2 515.865 L
S
GR
GS
0.149 GC
2 setlinecap
1 LJ
0.5 LW
N
319.9 521.5 M
319.9 515.865 L
S
GR
GS
0.149 GC
2 setlinecap
1 LJ
0.5 LW
N
432.6 521.5 M
432.6 515.865 L
S
GR
GS
0.149 GC
2 setlinecap
1 LJ
0.5 LW
N
545.3 521.5 M
545.3 515.865 L
S
GR
GS
0.149 GC
2 setlinecap
1 LJ
0.5 LW
N
658 521.5 M
658 515.865 L
S
GR
GS
0.149 GC
2 setlinecap
1 LJ
0.5 LW
N
94.5 44 M
94.5 49.635 L
S
GR
GS
0.149 GC
2 setlinecap
1 LJ
0.5 LW
N
207.2 44 M
207.2 49.635 L
S
GR
GS
0.149 GC
2 setlinecap
1 LJ
0.5 LW
N
319.9 44 M
319.9 49.635 L
S
GR
GS
0.149 GC
2 setlinecap
1 LJ
0.5 LW
N
432.6 44 M
432.6 49.635 L
S
GR
GS
0.149 GC
2 setlinecap
1 LJ
0.5 LW
N
545.3 44 M
545.3 49.635 L
S
GR
GS
0.149 GC
2 setlinecap
1 LJ
0.5 LW
N
658 44 M
658 49.635 L
S
GR
GS
[1 0 0 1 94.5 528.29999] CT
0.149 GC
/Helvetica 24 F
GS
[1 0 0 1 0 0] CT
-7 23 moveto 
1 -1 scale
(0) t 
GR
GR
GS
[1 0 0 1 207.2 528.29999] CT
0.149 GC
/Helvetica 24 F
GS
[1 0 0 1 0 0] CT
-17 23 moveto 
1 -1 scale
(0.2) t 
GR
GR
GS
[1 0 0 1 319.89999 528.29999] CT
0.149 GC
/Helvetica 24 F
GS
[1 0 0 1 0 0] CT
-17 23 moveto 
1 -1 scale
(0.4) t 
GR
GR
GS
[1 0 0 1 432.60001 528.29999] CT
0.149 GC
/Helvetica 24 F
GS
[1 0 0 1 0 0] CT
-17 23 moveto 
1 -1 scale
(0.6) t 
GR
GR
GS
[1 0 0 1 545.29999 528.29999] CT
0.149 GC
/Helvetica 24 F
GS
[1 0 0 1 0 0] CT
-17 23 moveto 
1 -1 scale
(0.8) t 
GR
GR
GS
[1 0 0 1 658 528.29999] CT
0.149 GC
/Helvetica 24 F
GS
[1 0 0 1 0 0] CT
-7 23 moveto 
1 -1 scale
(1) t 
GR
GR
GS
[1 0 0 1 376.25027 557.29999] CT
0.149 GC
/Helvetica 26.4 F
GS
[1 0 0 1 0 0] CT
-68.5 26 moveto 
1 -1 scale
(Noise Level) t 
GR
GR
GS
0.149 GC
2 setlinecap
1 LJ
0.5 LW
N
94.5 521.5 M
94.5 44 L
S
GR
GS
0.149 GC
2 setlinecap
1 LJ
0.5 LW
N
658 521.5 M
658 44 L
S
GR
GS
0.149 GC
2 setlinecap
1 LJ
0.5 LW
N
94.5 521.5 M
100.135 521.5 L
S
GR
GS
0.149 GC
2 setlinecap
1 LJ
0.5 LW
N
94.5 426 M
100.135 426 L
S
GR
GS
0.149 GC
2 setlinecap
1 LJ
0.5 LW
N
94.5 330.5 M
100.135 330.5 L
S
GR
GS
0.149 GC
2 setlinecap
1 LJ
0.5 LW
N
94.5 235 M
100.135 235 L
S
GR
GS
0.149 GC
2 setlinecap
1 LJ
0.5 LW
N
94.5 139.5 M
100.135 139.5 L
S
GR
GS
0.149 GC
2 setlinecap
1 LJ
0.5 LW
N
94.5 44 M
100.135 44 L
S
GR
GS
0.149 GC
2 setlinecap
1 LJ
0.5 LW
N
658 521.5 M
652.365 521.5 L
S
GR
GS
0.149 GC
2 setlinecap
1 LJ
0.5 LW
N
658 426 M
652.365 426 L
S
GR
GS
0.149 GC
2 setlinecap
1 LJ
0.5 LW
N
658 330.5 M
652.365 330.5 L
S
GR
GS
0.149 GC
2 setlinecap
1 LJ
0.5 LW
N
658 235 M
652.365 235 L
S
GR
GS
0.149 GC
2 setlinecap
1 LJ
0.5 LW
N
658 139.5 M
652.365 139.5 L
S
GR
GS
0.149 GC
2 setlinecap
1 LJ
0.5 LW
N
658 44 M
652.365 44 L
S
GR
GS
[1 0 0 1 87.7 521.5] CT
0.149 GC
/Helvetica 24 F
GS
[1 0 0 1 0 0] CT
-14 8.5 moveto 
1 -1 scale
(0) t 
GR
GR
GS
[1 0 0 1 87.7 426] CT
0.149 GC
/Helvetica 24 F
GS
[1 0 0 1 0 0] CT
-27 8.5 moveto 
1 -1 scale
(20) t 
GR
GR
GS
[1 0 0 1 87.7 330.5] CT
0.149 GC
/Helvetica 24 F
GS
[1 0 0 1 0 0] CT
-27 8.5 moveto 
1 -1 scale
(40) t 
GR
GR
GS
[1 0 0 1 87.7 235] CT
0.149 GC
/Helvetica 24 F
GS
[1 0 0 1 0 0] CT
-27 8.5 moveto 
1 -1 scale
(60) t 
GR
GR
GS
[1 0 0 1 87.7 139.5] CT
0.149 GC
/Helvetica 24 F
GS
[1 0 0 1 0 0] CT
-27 8.5 moveto 
1 -1 scale
(80) t 
GR
GR
GS
[1 0 0 1 87.7 44] CT
0.149 GC
/Helvetica 24 F
GS
[1 0 0 1 0 0] CT
-41 8.5 moveto 
1 -1 scale
(100) t 
GR
GR
GS
[0 -1 1 0 44.2 282.74979] CT
0.149 GC
/Helvetica 26.4 F
GS
[1 0 0 1 0 0] CT
-35.5 -6 moveto 
1 -1 scale
(Errors) t 
GR
GR
GS
[1 0 0 1 376.25037 40.69653] CT
/Helvetica-Bold 26.4 F
GS
[1 0 0 1 0 0] CT
-211 -6 moveto 
1 -1 scale
(Percentage of Recognition Errors) t 
GR
GR
GS
0 0.447 0.741 RC
[8 8] 0 setdash
2 LJ
2 LW
N
94.5 521.5 M
122.675 521.5 L
150.85 520.888 L
179.025 490.279 L
207.2 446.202 L
235.375 369.067 L
263.55 310.91 L
291.725 264.385 L
319.9 223.981 L
348.075 193.984 L
376.25 152.968 L
404.425 140.112 L
432.6 137.051 L
460.775 124.808 L
488.95 109.503 L
517.125 103.994 L
545.3 108.891 L
573.475 96.035 L
601.65 97.872 L
629.825 91.138 L
658 94.199 L
S
GR
GS
0.851 0.325 0.098 RC
1 LJ
2 LW
N
94.5 521.5 M
122.675 521.5 L
150.85 521.5 L
179.025 521.5 L
207.2 520.888 L
235.375 516.603 L
263.55 506.808 L
291.725 489.667 L
319.9 463.343 L
348.075 421.715 L
376.25 375.189 L
404.425 340.907 L
432.6 324.99 L
460.775 285.199 L
488.95 255.814 L
517.125 244.183 L
545.3 225.205 L
573.475 202.555 L
601.65 186.026 L
629.825 176.231 L
658 170.721 L
S
GR
GS
1 GC
N
245 110.5 M
245 54 L
104.5 54 L
104.5 110.5 L
cp
f
GR
GS
[1 0 0 1 141.5 69] CT
/Helvetica 21.6 F
GS
[1 0 0 1 0 0] CT
0 8 moveto 
1 -1 scale
(Network 1) t 
GR
GR
GS
0 0.447 0.741 RC
[8 8] 0 setdash
2 LJ
2 LW
N
108.5 69 M
138.5 69 L
S
GR
GS
[1 0 0 1 141.5 95.5] CT
/Helvetica 21.6 F
GS
[1 0 0 1 0 0] CT
0 8 moveto 
1 -1 scale
(Network 2) t 
GR
GR
GS
0.851 0.325 0.098 RC
1 LJ
2 LW
N
108.5 95.5 M
138.5 95.5 L
S
GR
GS
0.149 GC
10.0 ML
0.5 LW
N
104.5 110.5 M
104.5 54 L
245 54 L
245 110.5 L
cp
S
GR
%%Trailer
%%Pages: 1
%%EOF
