%!PS-Adobe-3.0 EPSF-3.0
%%Creator: (MATLAB, The Mathworks, Inc. Version 9.1.0.441655 \(R2016b\). Operating System: Windows 8)
%%Title: (C:/Users/Eigenaar/WIT/Data Mining/data-mining/Session 4/plots/demgmm1_data.eps)
%%CreationDate: 2017-12-08T16:03:00
%%Pages: (atend)
%%BoundingBox: 0 0 971 659
%%LanguageLevel: 3
%%EndComments
%%BeginProlog
%%BeginResource: procset (Apache XML Graphics Std ProcSet) 1.2 0
%%Version: 1.2 0
%%Copyright: (Copyright 2001-2003,2010 The Apache Software Foundation. License terms: http://www.apache.org/licenses/LICENSE-2.0)
/bd{bind def}bind def
/ld{load def}bd
/GR/grestore ld
/M/moveto ld
/LJ/setlinejoin ld
/C/curveto ld
/f/fill ld
/LW/setlinewidth ld
/GC/setgray ld
/t/show ld
/N/newpath ld
/CT/concat ld
/cp/closepath ld
/S/stroke ld
/L/lineto ld
/CC/setcmykcolor ld
/A/ashow ld
/GS/gsave ld
/RC/setrgbcolor ld
/RM/rmoveto ld
/ML/setmiterlimit ld
/re {4 2 roll M
1 index 0 rlineto
0 exch rlineto
neg 0 rlineto
cp } bd
/_ctm matrix def
/_tm matrix def
/BT { _ctm currentmatrix pop matrix _tm copy pop 0 0 moveto } bd
/ET { _ctm setmatrix } bd
/iTm { _ctm setmatrix _tm concat } bd
/Tm { _tm astore pop iTm 0 0 moveto } bd
/ux 0.0 def
/uy 0.0 def
/F {
  /Tp exch def
  /Tf exch def
  Tf findfont Tp scalefont setfont
  /cf Tf def  /cs Tp def
} bd
/ULS {currentpoint /uy exch def /ux exch def} bd
/ULE {
  /Tcx currentpoint pop def
  gsave
  newpath
  cf findfont cs scalefont dup
  /FontMatrix get 0 get /Ts exch def /FontInfo get dup
  /UnderlinePosition get Ts mul /To exch def
  /UnderlineThickness get Ts mul /Tt exch def
  ux uy To add moveto  Tcx uy To add lineto
  Tt setlinewidth stroke
  grestore
} bd
/OLE {
  /Tcx currentpoint pop def
  gsave
  newpath
  cf findfont cs scalefont dup
  /FontMatrix get 0 get /Ts exch def /FontInfo get dup
  /UnderlinePosition get Ts mul /To exch def
  /UnderlineThickness get Ts mul /Tt exch def
  ux uy To add cs add moveto Tcx uy To add cs add lineto
  Tt setlinewidth stroke
  grestore
} bd
/SOE {
  /Tcx currentpoint pop def
  gsave
  newpath
  cf findfont cs scalefont dup
  /FontMatrix get 0 get /Ts exch def /FontInfo get dup
  /UnderlinePosition get Ts mul /To exch def
  /UnderlineThickness get Ts mul /Tt exch def
  ux uy To add cs 10 mul 26 idiv add moveto Tcx uy To add cs 10 mul 26 idiv add lineto
  Tt setlinewidth stroke
  grestore
} bd
/QT {
/Y22 exch store
/X22 exch store
/Y21 exch store
/X21 exch store
currentpoint
/Y21 load 2 mul add 3 div exch
/X21 load 2 mul add 3 div exch
/X21 load 2 mul /X22 load add 3 div
/Y21 load 2 mul /Y22 load add 3 div
/X22 load /Y22 load curveto
} bd
/SSPD {
dup length /d exch dict def
{
/v exch def
/k exch def
currentpagedevice k known {
/cpdv currentpagedevice k get def
v cpdv ne {
/upd false def
/nullv v type /nulltype eq def
/nullcpdv cpdv type /nulltype eq def
nullv nullcpdv or
{
/upd true def
} {
/sametype v type cpdv type eq def
sametype {
v type /arraytype eq {
/vlen v length def
/cpdvlen cpdv length def
vlen cpdvlen eq {
0 1 vlen 1 sub {
/i exch def
/obj v i get def
/cpdobj cpdv i get def
obj cpdobj ne {
/upd true def
exit
} if
} for
} {
/upd true def
} ifelse
} {
v type /dicttype eq {
v {
/dv exch def
/dk exch def
/cpddv cpdv dk get def
dv cpddv ne {
/upd true def
exit
} if
} forall
} {
/upd true def
} ifelse
} ifelse
} if
} ifelse
upd true eq {
d k v put
} if
} if
} if
} forall
d length 0 gt {
d setpagedevice
} if
} bd
/RE { % /NewFontName [NewEncodingArray] /FontName RE -
  findfont dup length dict begin
  {
    1 index /FID ne
    {def} {pop pop} ifelse
  } forall
  /Encoding exch def
  /FontName 1 index def
  currentdict definefont pop
  end
} bind def
%%EndResource
%%BeginResource: procset (Apache XML Graphics EPS ProcSet) 1.0 0
%%Version: 1.0 0
%%Copyright: (Copyright 2002-2003 The Apache Software Foundation. License terms: http://www.apache.org/licenses/LICENSE-2.0)
/BeginEPSF { %def
/b4_Inc_state save def         % Save state for cleanup
/dict_count countdictstack def % Count objects on dict stack
/op_count count 1 sub def      % Count objects on operand stack
userdict begin                 % Push userdict on dict stack
/showpage { } def              % Redefine showpage, { } = null proc
0 setgray 0 setlinecap         % Prepare graphics state
1 setlinewidth 0 setlinejoin
10 setmiterlimit [ ] 0 setdash newpath
/languagelevel where           % If level not equal to 1 then
{pop languagelevel             % set strokeadjust and
1 ne                           % overprint to their defaults.
{false setstrokeadjust false setoverprint
} if
} if
} bd
/EndEPSF { %def
count op_count sub {pop} repeat            % Clean up stacks
countdictstack dict_count sub {end} repeat
b4_Inc_state restore
} bd
%%EndResource
%FOPBeginFontDict
%%IncludeResource: font Courier-Bold
%%IncludeResource: font Helvetica
%%IncludeResource: font Courier-BoldOblique
%%IncludeResource: font Courier-Oblique
%%IncludeResource: font Times-Roman
%%IncludeResource: font Helvetica-BoldOblique
%%IncludeResource: font Helvetica-Bold
%%IncludeResource: font Helvetica-Oblique
%%IncludeResource: font Times-BoldItalic
%%IncludeResource: font Courier
%%IncludeResource: font Times-Italic
%%IncludeResource: font Times-Bold
%%IncludeResource: font Symbol
%%IncludeResource: font ZapfDingbats
%FOPEndFontDict
%%BeginResource: encoding WinAnsiEncoding
/WinAnsiEncoding [
/.notdef /.notdef /.notdef /.notdef /.notdef
/.notdef /.notdef /.notdef /.notdef /.notdef
/.notdef /.notdef /.notdef /.notdef /.notdef
/.notdef /.notdef /.notdef /.notdef /.notdef
/.notdef /.notdef /.notdef /.notdef /.notdef
/.notdef /.notdef /.notdef /.notdef /.notdef
/.notdef /.notdef /space /exclam /quotedbl
/numbersign /dollar /percent /ampersand /quotesingle
/parenleft /parenright /asterisk /plus /comma
/hyphen /period /slash /zero /one
/two /three /four /five /six
/seven /eight /nine /colon /semicolon
/less /equal /greater /question /at
/A /B /C /D /E
/F /G /H /I /J
/K /L /M /N /O
/P /Q /R /S /T
/U /V /W /X /Y
/Z /bracketleft /backslash /bracketright /asciicircum
/underscore /quoteleft /a /b /c
/d /e /f /g /h
/i /j /k /l /m
/n /o /p /q /r
/s /t /u /v /w
/x /y /z /braceleft /bar
/braceright /asciitilde /bullet /Euro /bullet
/quotesinglbase /florin /quotedblbase /ellipsis /dagger
/daggerdbl /circumflex /perthousand /Scaron /guilsinglleft
/OE /bullet /Zcaron /bullet /bullet
/quoteleft /quoteright /quotedblleft /quotedblright /bullet
/endash /emdash /asciitilde /trademark /scaron
/guilsinglright /oe /bullet /zcaron /Ydieresis
/space /exclamdown /cent /sterling /currency
/yen /brokenbar /section /dieresis /copyright
/ordfeminine /guillemotleft /logicalnot /sfthyphen /registered
/macron /degree /plusminus /twosuperior /threesuperior
/acute /mu /paragraph /middot /cedilla
/onesuperior /ordmasculine /guillemotright /onequarter /onehalf
/threequarters /questiondown /Agrave /Aacute /Acircumflex
/Atilde /Adieresis /Aring /AE /Ccedilla
/Egrave /Eacute /Ecircumflex /Edieresis /Igrave
/Iacute /Icircumflex /Idieresis /Eth /Ntilde
/Ograve /Oacute /Ocircumflex /Otilde /Odieresis
/multiply /Oslash /Ugrave /Uacute /Ucircumflex
/Udieresis /Yacute /Thorn /germandbls /agrave
/aacute /acircumflex /atilde /adieresis /aring
/ae /ccedilla /egrave /eacute /ecircumflex
/edieresis /igrave /iacute /icircumflex /idieresis
/eth /ntilde /ograve /oacute /ocircumflex
/otilde /odieresis /divide /oslash /ugrave
/uacute /ucircumflex /udieresis /yacute /thorn
/ydieresis
] def
%%EndResource
%FOPBeginFontReencode
/Courier-Bold findfont
dup length dict begin
  {1 index /FID ne {def} {pop pop} ifelse} forall
  /Encoding WinAnsiEncoding def
  currentdict
end
/Courier-Bold exch definefont pop
/Helvetica findfont
dup length dict begin
  {1 index /FID ne {def} {pop pop} ifelse} forall
  /Encoding WinAnsiEncoding def
  currentdict
end
/Helvetica exch definefont pop
/Courier-BoldOblique findfont
dup length dict begin
  {1 index /FID ne {def} {pop pop} ifelse} forall
  /Encoding WinAnsiEncoding def
  currentdict
end
/Courier-BoldOblique exch definefont pop
/Courier-Oblique findfont
dup length dict begin
  {1 index /FID ne {def} {pop pop} ifelse} forall
  /Encoding WinAnsiEncoding def
  currentdict
end
/Courier-Oblique exch definefont pop
/Times-Roman findfont
dup length dict begin
  {1 index /FID ne {def} {pop pop} ifelse} forall
  /Encoding WinAnsiEncoding def
  currentdict
end
/Times-Roman exch definefont pop
/Helvetica-BoldOblique findfont
dup length dict begin
  {1 index /FID ne {def} {pop pop} ifelse} forall
  /Encoding WinAnsiEncoding def
  currentdict
end
/Helvetica-BoldOblique exch definefont pop
/Helvetica-Bold findfont
dup length dict begin
  {1 index /FID ne {def} {pop pop} ifelse} forall
  /Encoding WinAnsiEncoding def
  currentdict
end
/Helvetica-Bold exch definefont pop
/Helvetica-Oblique findfont
dup length dict begin
  {1 index /FID ne {def} {pop pop} ifelse} forall
  /Encoding WinAnsiEncoding def
  currentdict
end
/Helvetica-Oblique exch definefont pop
/Times-BoldItalic findfont
dup length dict begin
  {1 index /FID ne {def} {pop pop} ifelse} forall
  /Encoding WinAnsiEncoding def
  currentdict
end
/Times-BoldItalic exch definefont pop
/Courier findfont
dup length dict begin
  {1 index /FID ne {def} {pop pop} ifelse} forall
  /Encoding WinAnsiEncoding def
  currentdict
end
/Courier exch definefont pop
/Times-Italic findfont
dup length dict begin
  {1 index /FID ne {def} {pop pop} ifelse} forall
  /Encoding WinAnsiEncoding def
  currentdict
end
/Times-Italic exch definefont pop
/Times-Bold findfont
dup length dict begin
  {1 index /FID ne {def} {pop pop} ifelse} forall
  /Encoding WinAnsiEncoding def
  currentdict
end
/Times-Bold exch definefont pop
%FOPEndFontReencode
%%EndProlog
%%Page: 1 1
%%PageBoundingBox: 0 0 971 659
%%BeginPageSetup
[1 0 0 -1 0 659] CT
%%EndPageSetup
GS
[0.75 0 0 0.75 0 0.5] CT
1 GC
N
0 0 1295 878 re
f
GR
GS
[0.75 0 0 0.75 0 0.5] CT
1 GC
N
0 0 1295 878 re
f
GR
GS
[0.75 0 0 0.75 0 0.5] CT
1 GC
N
312.5 781 M
1027.5 781 L
1027.5 66 L
312.5 66 L
cp
f
GR
GS
[0.75 0 0 0.75 0 0.5] CT
0.149 GC
2 setlinecap
1 LJ
0.667 LW
N
312.5 781 M
1027.5 781 L
S
GR
GS
[0.75 0 0 0.75 0 0.5] CT
0.149 GC
2 setlinecap
1 LJ
0.667 LW
N
312.5 66 M
1027.5 66 L
S
GR
GS
[0.75 0 0 0.75 0 0.5] CT
0.149 GC
2 setlinecap
1 LJ
0.667 LW
N
312.5 781 M
312.5 773.85 L
S
GR
GS
[0.75 0 0 0.75 0 0.5] CT
0.149 GC
2 setlinecap
1 LJ
0.667 LW
N
455.5 781 M
455.5 773.85 L
S
GR
GS
[0.75 0 0 0.75 0 0.5] CT
0.149 GC
2 setlinecap
1 LJ
0.667 LW
N
598.5 781 M
598.5 773.85 L
S
GR
GS
[0.75 0 0 0.75 0 0.5] CT
0.149 GC
2 setlinecap
1 LJ
0.667 LW
N
741.5 781 M
741.5 773.85 L
S
GR
GS
[0.75 0 0 0.75 0 0.5] CT
0.149 GC
2 setlinecap
1 LJ
0.667 LW
N
884.5 781 M
884.5 773.85 L
S
GR
GS
[0.75 0 0 0.75 0 0.5] CT
0.149 GC
2 setlinecap
1 LJ
0.667 LW
N
1027.5 781 M
1027.5 773.85 L
S
GR
GS
[0.75 0 0 0.75 0 0.5] CT
0.149 GC
2 setlinecap
1 LJ
0.667 LW
N
312.5 66 M
312.5 73.15 L
S
GR
GS
[0.75 0 0 0.75 0 0.5] CT
0.149 GC
2 setlinecap
1 LJ
0.667 LW
N
455.5 66 M
455.5 73.15 L
S
GR
GS
[0.75 0 0 0.75 0 0.5] CT
0.149 GC
2 setlinecap
1 LJ
0.667 LW
N
598.5 66 M
598.5 73.15 L
S
GR
GS
[0.75 0 0 0.75 0 0.5] CT
0.149 GC
2 setlinecap
1 LJ
0.667 LW
N
741.5 66 M
741.5 73.15 L
S
GR
GS
[0.75 0 0 0.75 0 0.5] CT
0.149 GC
2 setlinecap
1 LJ
0.667 LW
N
884.5 66 M
884.5 73.15 L
S
GR
GS
[0.75 0 0 0.75 0 0.5] CT
0.149 GC
2 setlinecap
1 LJ
0.667 LW
N
1027.5 66 M
1027.5 73.15 L
S
GR
GS
[0.75 0 0 0.75 234.375 591.85001] CT
0.149 GC
/Helvetica 24 F
GS
[1 0 0 1 0 0] CT
-7 25 moveto 
1 -1 scale
(0) t 
GR
GR
GS
[0.75 0 0 0.75 341.625 591.85001] CT
0.149 GC
/Helvetica 24 F
GS
[1 0 0 1 0 0] CT
-17 25 moveto 
1 -1 scale
(0.2) t 
GR
GR
GS
[0.75 0 0 0.75 448.875 591.85001] CT
0.149 GC
/Helvetica 24 F
GS
[1 0 0 1 0 0] CT
-17 25 moveto 
1 -1 scale
(0.4) t 
GR
GR
GS
[0.75 0 0 0.75 556.125 591.85001] CT
0.149 GC
/Helvetica 24 F
GS
[1 0 0 1 0 0] CT
-17 25 moveto 
1 -1 scale
(0.6) t 
GR
GR
GS
[0.75 0 0 0.75 663.375 591.85001] CT
0.149 GC
/Helvetica 24 F
GS
[1 0 0 1 0 0] CT
-17 25 moveto 
1 -1 scale
(0.8) t 
GR
GR
GS
[0.75 0 0 0.75 770.625 591.85001] CT
0.149 GC
/Helvetica 24 F
GS
[1 0 0 1 0 0] CT
-7 25 moveto 
1 -1 scale
(1) t 
GR
GR
GS
[0.75 0 0 0.75 502.50027 616.09999] CT
0.149 GC
/Helvetica 26.4 F
GS
[1 0 0 1 0 0] CT
-6.5 27 moveto 
1 -1 scale
(x) t 
GR
GR
GS
[0.75 0 0 0.75 0 0.5] CT
0.149 GC
2 setlinecap
1 LJ
0.667 LW
N
312.5 781 M
312.5 66 L
S
GR
GS
[0.75 0 0 0.75 0 0.5] CT
0.149 GC
2 setlinecap
1 LJ
0.667 LW
N
1027.5 781 M
1027.5 66 L
S
GR
GS
[0.75 0 0 0.75 0 0.5] CT
0.149 GC
2 setlinecap
1 LJ
0.667 LW
N
312.5 781 M
319.65 781 L
S
GR
GS
[0.75 0 0 0.75 0 0.5] CT
0.149 GC
2 setlinecap
1 LJ
0.667 LW
N
312.5 709.5 M
319.65 709.5 L
S
GR
GS
[0.75 0 0 0.75 0 0.5] CT
0.149 GC
2 setlinecap
1 LJ
0.667 LW
N
312.5 638 M
319.65 638 L
S
GR
GS
[0.75 0 0 0.75 0 0.5] CT
0.149 GC
2 setlinecap
1 LJ
0.667 LW
N
312.5 566.5 M
319.65 566.5 L
S
GR
GS
[0.75 0 0 0.75 0 0.5] CT
0.149 GC
2 setlinecap
1 LJ
0.667 LW
N
312.5 495 M
319.65 495 L
S
GR
GS
[0.75 0 0 0.75 0 0.5] CT
0.149 GC
2 setlinecap
1 LJ
0.667 LW
N
312.5 423.5 M
319.65 423.5 L
S
GR
GS
[0.75 0 0 0.75 0 0.5] CT
0.149 GC
2 setlinecap
1 LJ
0.667 LW
N
312.5 352 M
319.65 352 L
S
GR
GS
[0.75 0 0 0.75 0 0.5] CT
0.149 GC
2 setlinecap
1 LJ
0.667 LW
N
312.5 280.5 M
319.65 280.5 L
S
GR
GS
[0.75 0 0 0.75 0 0.5] CT
0.149 GC
2 setlinecap
1 LJ
0.667 LW
N
312.5 209 M
319.65 209 L
S
GR
GS
[0.75 0 0 0.75 0 0.5] CT
0.149 GC
2 setlinecap
1 LJ
0.667 LW
N
312.5 137.5 M
319.65 137.5 L
S
GR
GS
[0.75 0 0 0.75 0 0.5] CT
0.149 GC
2 setlinecap
1 LJ
0.667 LW
N
312.5 66 M
319.65 66 L
S
GR
GS
[0.75 0 0 0.75 0 0.5] CT
0.149 GC
2 setlinecap
1 LJ
0.667 LW
N
1027.5 781 M
1020.35 781 L
S
GR
GS
[0.75 0 0 0.75 0 0.5] CT
0.149 GC
2 setlinecap
1 LJ
0.667 LW
N
1027.5 709.5 M
1020.35 709.5 L
S
GR
GS
[0.75 0 0 0.75 0 0.5] CT
0.149 GC
2 setlinecap
1 LJ
0.667 LW
N
1027.5 638 M
1020.35 638 L
S
GR
GS
[0.75 0 0 0.75 0 0.5] CT
0.149 GC
2 setlinecap
1 LJ
0.667 LW
N
1027.5 566.5 M
1020.35 566.5 L
S
GR
GS
[0.75 0 0 0.75 0 0.5] CT
0.149 GC
2 setlinecap
1 LJ
0.667 LW
N
1027.5 495 M
1020.35 495 L
S
GR
GS
[0.75 0 0 0.75 0 0.5] CT
0.149 GC
2 setlinecap
1 LJ
0.667 LW
N
1027.5 423.5 M
1020.35 423.5 L
S
GR
GS
[0.75 0 0 0.75 0 0.5] CT
0.149 GC
2 setlinecap
1 LJ
0.667 LW
N
1027.5 352 M
1020.35 352 L
S
GR
GS
[0.75 0 0 0.75 0 0.5] CT
0.149 GC
2 setlinecap
1 LJ
0.667 LW
N
1027.5 280.5 M
1020.35 280.5 L
S
GR
GS
[0.75 0 0 0.75 0 0.5] CT
0.149 GC
2 setlinecap
1 LJ
0.667 LW
N
1027.5 209 M
1020.35 209 L
S
GR
GS
[0.75 0 0 0.75 0 0.5] CT
0.149 GC
2 setlinecap
1 LJ
0.667 LW
N
1027.5 137.5 M
1020.35 137.5 L
S
GR
GS
[0.75 0 0 0.75 0 0.5] CT
0.149 GC
2 setlinecap
1 LJ
0.667 LW
N
1027.5 66 M
1020.35 66 L
S
GR
GS
[0.75 0 0 0.75 228.77499 586.25] CT
0.149 GC
/Helvetica 24 F
GS
[1 0 0 1 0 0] CT
-14 9.5 moveto 
1 -1 scale
(0) t 
GR
GR
GS
[0.75 0 0 0.75 228.77499 532.625] CT
0.149 GC
/Helvetica 24 F
GS
[1 0 0 1 0 0] CT
-34 9.5 moveto 
1 -1 scale
(0.1) t 
GR
GR
GS
[0.75 0 0 0.75 228.77499 479] CT
0.149 GC
/Helvetica 24 F
GS
[1 0 0 1 0 0] CT
-34 9.5 moveto 
1 -1 scale
(0.2) t 
GR
GR
GS
[0.75 0 0 0.75 228.77499 425.375] CT
0.149 GC
/Helvetica 24 F
GS
[1 0 0 1 0 0] CT
-34 9.5 moveto 
1 -1 scale
(0.3) t 
GR
GR
GS
[0.75 0 0 0.75 228.77499 371.75] CT
0.149 GC
/Helvetica 24 F
GS
[1 0 0 1 0 0] CT
-34 9.5 moveto 
1 -1 scale
(0.4) t 
GR
GR
GS
[0.75 0 0 0.75 228.77499 318.125] CT
0.149 GC
/Helvetica 24 F
GS
[1 0 0 1 0 0] CT
-34 9.5 moveto 
1 -1 scale
(0.5) t 
GR
GR
GS
[0.75 0 0 0.75 228.77499 264.49998] CT
0.149 GC
/Helvetica 24 F
GS
[1 0 0 1 0 0] CT
-34 9.5 moveto 
1 -1 scale
(0.6) t 
GR
GR
GS
[0.75 0 0 0.75 228.77499 210.875] CT
0.149 GC
/Helvetica 24 F
GS
[1 0 0 1 0 0] CT
-34 9.5 moveto 
1 -1 scale
(0.7) t 
GR
GR
GS
[0.75 0 0 0.75 228.77499 157.24999] CT
0.149 GC
/Helvetica 24 F
GS
[1 0 0 1 0 0] CT
-34 9.5 moveto 
1 -1 scale
(0.8) t 
GR
GR
GS
[0.75 0 0 0.75 228.77499 103.62501] CT
0.149 GC
/Helvetica 24 F
GS
[1 0 0 1 0 0] CT
-34 9.5 moveto 
1 -1 scale
(0.9) t 
GR
GR
GS
[0.75 0 0 0.75 228.77499 50] CT
0.149 GC
/Helvetica 24 F
GS
[1 0 0 1 0 0] CT
-14 9.5 moveto 
1 -1 scale
(1) t 
GR
GR
GS
[0 -0.75 0.75 0 200.27499 318.12475] CT
0.149 GC
/Helvetica 26.4 F
GS
[1 0 0 1 0 0] CT
-6.5 -6 moveto 
1 -1 scale
(y) t 
GR
GR
GS
[0.75 0 0 0.75 333.77046 379.36492] CT
0 1 0 RC
N
5.367 -0.5 M
5.367 -3.74 2.74 -6.367 -0.5 -6.367 C
-3.74 -6.367 -6.367 -3.74 -6.367 -0.5 C
-6.367 2.74 -3.74 5.367 -0.5 5.367 C
2.74 5.367 5.367 2.74 5.367 -0.5 C
f
GR
GS
[0.75 0 0 0.75 333.77046 379.36492] CT
0 1 0 RC
10.0 ML
0.667 LW
N
5.367 -0.5 M
5.367 -3.74 2.74 -6.367 -0.5 -6.367 C
-3.74 -6.367 -6.367 -3.74 -6.367 -0.5 C
-6.367 2.74 -3.74 5.367 -0.5 5.367 C
2.74 5.367 5.367 2.74 5.367 -0.5 C
S
GR
GS
[0.75 0 0 0.75 459.11284 358.12917] CT
0 1 0 RC
N
/f-1207123816{5.367 -0.5 M
5.367 -3.74 2.74 -6.367 -0.5 -6.367 C
-3.74 -6.367 -6.367 -3.74 -6.367 -0.5 C
-6.367 2.74 -3.74 5.367 -0.5 5.367 C
2.74 5.367 5.367 2.74 5.367 -0.5 C}def
f-1207123816
f
GR
GS
[0.75 0 0 0.75 459.11284 358.12917] CT
0 1 0 RC
10.0 ML
0.667 LW
N
5.367 -0.5 M
5.367 -3.74 2.74 -6.367 -0.5 -6.367 C
-3.74 -6.367 -6.367 -3.74 -6.367 -0.5 C
-6.367 2.74 -3.74 5.367 -0.5 5.367 C
2.74 5.367 5.367 2.74 5.367 -0.5 C
S
GR
GS
[0.75 0 0 0.75 459.01895 510.83875] CT
0 1 0 RC
N
f-1207123816
f
GR
GS
[0.75 0 0 0.75 459.01895 510.83875] CT
0 1 0 RC
10.0 ML
0.667 LW
N
5.367 -0.5 M
5.367 -3.74 2.74 -6.367 -0.5 -6.367 C
-3.74 -6.367 -6.367 -3.74 -6.367 -0.5 C
-6.367 2.74 -3.74 5.367 -0.5 5.367 C
2.74 5.367 5.367 2.74 5.367 -0.5 C
S
GR
GS
[0.75 0 0 0.75 393.2319 502.6467] CT
0 1 0 RC
N
f-1207123816
f
GR
GS
[0.75 0 0 0.75 393.2319 502.6467] CT
0 1 0 RC
10.0 ML
0.667 LW
N
5.367 -0.5 M
5.367 -3.74 2.74 -6.367 -0.5 -6.367 C
-3.74 -6.367 -6.367 -3.74 -6.367 -0.5 C
-6.367 2.74 -3.74 5.367 -0.5 5.367 C
2.74 5.367 5.367 2.74 5.367 -0.5 C
S
GR
GS
[0.75 0 0 0.75 412.80107 394.74722] CT
0 1 0 RC
N
f-1207123816
f
GR
GS
[0.75 0 0 0.75 412.80107 394.74722] CT
0 1 0 RC
10.0 ML
0.667 LW
N
5.367 -0.5 M
5.367 -3.74 2.74 -6.367 -0.5 -6.367 C
-3.74 -6.367 -6.367 -3.74 -6.367 -0.5 C
-6.367 2.74 -3.74 5.367 -0.5 5.367 C
2.74 5.367 5.367 2.74 5.367 -0.5 C
S
GR
GS
[0.75 0 0 0.75 404.61502 446.81885] CT
0 1 0 RC
N
f-1207123816
f
GR
GS
[0.75 0 0 0.75 404.61502 446.81885] CT
0 1 0 RC
10.0 ML
0.667 LW
N
5.367 -0.5 M
5.367 -3.74 2.74 -6.367 -0.5 -6.367 C
-3.74 -6.367 -6.367 -3.74 -6.367 -0.5 C
-6.367 2.74 -3.74 5.367 -0.5 5.367 C
2.74 5.367 5.367 2.74 5.367 -0.5 C
S
GR
GS
[0.75 0 0 0.75 385.23775 388.37387] CT
0 1 0 RC
N
f-1207123816
f
GR
GS
[0.75 0 0 0.75 385.23775 388.37387] CT
0 1 0 RC
10.0 ML
0.667 LW
N
5.367 -0.5 M
5.367 -3.74 2.74 -6.367 -0.5 -6.367 C
-3.74 -6.367 -6.367 -3.74 -6.367 -0.5 C
-6.367 2.74 -3.74 5.367 -0.5 5.367 C
2.74 5.367 5.367 2.74 5.367 -0.5 C
S
GR
GS
[0.75 0 0 0.75 434.17053 381.63726] CT
0 1 0 RC
N
f-1207123816
f
GR
GS
[0.75 0 0 0.75 434.17053 381.63726] CT
0 1 0 RC
10.0 ML
0.667 LW
N
5.367 -0.5 M
5.367 -3.74 2.74 -6.367 -0.5 -6.367 C
-3.74 -6.367 -6.367 -3.74 -6.367 -0.5 C
-6.367 2.74 -3.74 5.367 -0.5 5.367 C
2.74 5.367 5.367 2.74 5.367 -0.5 C
S
GR
GS
[0.75 0 0 0.75 363.70152 387.19893] CT
0 1 0 RC
N
f-1207123816
f
GR
GS
[0.75 0 0 0.75 363.70152 387.19893] CT
0 1 0 RC
10.0 ML
0.667 LW
N
5.367 -0.5 M
5.367 -3.74 2.74 -6.367 -0.5 -6.367 C
-3.74 -6.367 -6.367 -3.74 -6.367 -0.5 C
-6.367 2.74 -3.74 5.367 -0.5 5.367 C
2.74 5.367 5.367 2.74 5.367 -0.5 C
S
GR
GS
[0.75 0 0 0.75 512.32333 356.18537] CT
0 1 0 RC
N
f-1207123816
f
GR
GS
[0.75 0 0 0.75 512.32333 356.18537] CT
0 1 0 RC
10.0 ML
0.667 LW
N
5.367 -0.5 M
5.367 -3.74 2.74 -6.367 -0.5 -6.367 C
-3.74 -6.367 -6.367 -3.74 -6.367 -0.5 C
-6.367 2.74 -3.74 5.367 -0.5 5.367 C
2.74 5.367 5.367 2.74 5.367 -0.5 C
S
GR
GS
[0.75 0 0 0.75 387.93576 389.5213] CT
0 1 0 RC
N
f-1207123816
f
GR
GS
[0.75 0 0 0.75 387.93576 389.5213] CT
0 1 0 RC
10.0 ML
0.667 LW
N
5.367 -0.5 M
5.367 -3.74 2.74 -6.367 -0.5 -6.367 C
-3.74 -6.367 -6.367 -3.74 -6.367 -0.5 C
-6.367 2.74 -3.74 5.367 -0.5 5.367 C
2.74 5.367 5.367 2.74 5.367 -0.5 C
S
GR
GS
[0.75 0 0 0.75 401.35959 361.5163] CT
0 1 0 RC
N
f-1207123816
f
GR
GS
[0.75 0 0 0.75 401.35959 361.5163] CT
0 1 0 RC
10.0 ML
0.667 LW
N
5.367 -0.5 M
5.367 -3.74 2.74 -6.367 -0.5 -6.367 C
-3.74 -6.367 -6.367 -3.74 -6.367 -0.5 C
-6.367 2.74 -3.74 5.367 -0.5 5.367 C
2.74 5.367 5.367 2.74 5.367 -0.5 C
S
GR
GS
[0.75 0 0 0.75 452.45544 489.85678] CT
0 1 0 RC
N
f-1207123816
f
GR
GS
[0.75 0 0 0.75 452.45544 489.85678] CT
0 1 0 RC
10.0 ML
0.667 LW
N
5.367 -0.5 M
5.367 -3.74 2.74 -6.367 -0.5 -6.367 C
-3.74 -6.367 -6.367 -3.74 -6.367 -0.5 C
-6.367 2.74 -3.74 5.367 -0.5 5.367 C
2.74 5.367 5.367 2.74 5.367 -0.5 C
S
GR
GS
[0.75 0 0 0.75 398.42899 426.43623] CT
0 1 0 RC
N
f-1207123816
f
GR
GS
[0.75 0 0 0.75 398.42899 426.43623] CT
0 1 0 RC
10.0 ML
0.667 LW
N
5.367 -0.5 M
5.367 -3.74 2.74 -6.367 -0.5 -6.367 C
-3.74 -6.367 -6.367 -3.74 -6.367 -0.5 C
-6.367 2.74 -3.74 5.367 -0.5 5.367 C
2.74 5.367 5.367 2.74 5.367 -0.5 C
S
GR
GS
[0.75 0 0 0.75 390.12085 433.77895] CT
0 1 0 RC
N
f-1207123816
f
GR
GS
[0.75 0 0 0.75 390.12085 433.77895] CT
0 1 0 RC
10.0 ML
0.667 LW
N
5.367 -0.5 M
5.367 -3.74 2.74 -6.367 -0.5 -6.367 C
-3.74 -6.367 -6.367 -3.74 -6.367 -0.5 C
-6.367 2.74 -3.74 5.367 -0.5 5.367 C
2.74 5.367 5.367 2.74 5.367 -0.5 C
S
GR
GS
[0.75 0 0 0.75 350.61527 511.3941] CT
0 1 0 RC
N
f-1207123816
f
GR
GS
[0.75 0 0 0.75 350.61527 511.3941] CT
0 1 0 RC
10.0 ML
0.667 LW
N
5.367 -0.5 M
5.367 -3.74 2.74 -6.367 -0.5 -6.367 C
-3.74 -6.367 -6.367 -3.74 -6.367 -0.5 C
-6.367 2.74 -3.74 5.367 -0.5 5.367 C
2.74 5.367 5.367 2.74 5.367 -0.5 C
S
GR
GS
[0.75 0 0 0.75 411.03777 411.57709] CT
0 1 0 RC
N
f-1207123816
f
GR
GS
[0.75 0 0 0.75 411.03777 411.57709] CT
0 1 0 RC
10.0 ML
0.667 LW
N
5.367 -0.5 M
5.367 -3.74 2.74 -6.367 -0.5 -6.367 C
-3.74 -6.367 -6.367 -3.74 -6.367 -0.5 C
-6.367 2.74 -3.74 5.367 -0.5 5.367 C
2.74 5.367 5.367 2.74 5.367 -0.5 C
S
GR
GS
[0.75 0 0 0.75 323.59726 482.02838] CT
0 1 0 RC
N
f-1207123816
f
GR
GS
[0.75 0 0 0.75 323.59726 482.02838] CT
0 1 0 RC
10.0 ML
0.667 LW
N
5.367 -0.5 M
5.367 -3.74 2.74 -6.367 -0.5 -6.367 C
-3.74 -6.367 -6.367 -3.74 -6.367 -0.5 C
-6.367 2.74 -3.74 5.367 -0.5 5.367 C
2.74 5.367 5.367 2.74 5.367 -0.5 C
S
GR
GS
[0.75 0 0 0.75 433.55566 349.48804] CT
0 1 0 RC
N
f-1207123816
f
GR
GS
[0.75 0 0 0.75 433.55566 349.48804] CT
0 1 0 RC
10.0 ML
0.667 LW
N
5.367 -0.5 M
5.367 -3.74 2.74 -6.367 -0.5 -6.367 C
-3.74 -6.367 -6.367 -3.74 -6.367 -0.5 C
-6.367 2.74 -3.74 5.367 -0.5 5.367 C
2.74 5.367 5.367 2.74 5.367 -0.5 C
S
GR
GS
[0.75 0 0 0.75 482.31354 468.54797] CT
0 1 0 RC
N
f-1207123816
f
GR
GS
[0.75 0 0 0.75 482.31354 468.54797] CT
0 1 0 RC
10.0 ML
0.667 LW
N
5.367 -0.5 M
5.367 -3.74 2.74 -6.367 -0.5 -6.367 C
-3.74 -6.367 -6.367 -3.74 -6.367 -0.5 C
-6.367 2.74 -3.74 5.367 -0.5 5.367 C
2.74 5.367 5.367 2.74 5.367 -0.5 C
S
GR
GS
[0.75 0 0 0.75 358.15352 397.02116] CT
0 1 0 RC
N
f-1207123816
f
GR
GS
[0.75 0 0 0.75 358.15352 397.02116] CT
0 1 0 RC
10.0 ML
0.667 LW
N
5.367 -0.5 M
5.367 -3.74 2.74 -6.367 -0.5 -6.367 C
-3.74 -6.367 -6.367 -3.74 -6.367 -0.5 C
-6.367 2.74 -3.74 5.367 -0.5 5.367 C
2.74 5.367 5.367 2.74 5.367 -0.5 C
S
GR
GS
[0.75 0 0 0.75 621.51105 162.84639] CT
0 1 0 RC
N
f-1207123816
f
GR
GS
[0.75 0 0 0.75 621.51105 162.84639] CT
0 1 0 RC
10.0 ML
0.667 LW
N
5.367 -0.5 M
5.367 -3.74 2.74 -6.367 -0.5 -6.367 C
-3.74 -6.367 -6.367 -3.74 -6.367 -0.5 C
-6.367 2.74 -3.74 5.367 -0.5 5.367 C
2.74 5.367 5.367 2.74 5.367 -0.5 C
S
GR
GS
[0.75 0 0 0.75 560.31303 171.67742] CT
0 1 0 RC
N
f-1207123816
f
GR
GS
[0.75 0 0 0.75 560.31303 171.67742] CT
0 1 0 RC
10.0 ML
0.667 LW
N
5.367 -0.5 M
5.367 -3.74 2.74 -6.367 -0.5 -6.367 C
-3.74 -6.367 -6.367 -3.74 -6.367 -0.5 C
-6.367 2.74 -3.74 5.367 -0.5 5.367 C
2.74 5.367 5.367 2.74 5.367 -0.5 C
S
GR
GS
[0.75 0 0 0.75 493.34756 179.8874] CT
0 1 0 RC
N
f-1207123816
f
GR
GS
[0.75 0 0 0.75 493.34756 179.8874] CT
0 1 0 RC
10.0 ML
0.667 LW
N
5.367 -0.5 M
5.367 -3.74 2.74 -6.367 -0.5 -6.367 C
-3.74 -6.367 -6.367 -3.74 -6.367 -0.5 C
-6.367 2.74 -3.74 5.367 -0.5 5.367 C
2.74 5.367 5.367 2.74 5.367 -0.5 C
S
GR
GS
[0.75 0 0 0.75 606.57605 208.71317] CT
0 1 0 RC
N
f-1207123816
f
GR
GS
[0.75 0 0 0.75 606.57605 208.71317] CT
0 1 0 RC
10.0 ML
0.667 LW
N
5.367 -0.5 M
5.367 -3.74 2.74 -6.367 -0.5 -6.367 C
-3.74 -6.367 -6.367 -3.74 -6.367 -0.5 C
-6.367 2.74 -3.74 5.367 -0.5 5.367 C
2.74 5.367 5.367 2.74 5.367 -0.5 C
S
GR
GS
[0.75 0 0 0.75 555.55476 174.5661] CT
0 1 0 RC
N
f-1207123816
f
GR
GS
[0.75 0 0 0.75 555.55476 174.5661] CT
0 1 0 RC
10.0 ML
0.667 LW
N
5.367 -0.5 M
5.367 -3.74 2.74 -6.367 -0.5 -6.367 C
-3.74 -6.367 -6.367 -3.74 -6.367 -0.5 C
-6.367 2.74 -3.74 5.367 -0.5 5.367 C
2.74 5.367 5.367 2.74 5.367 -0.5 C
S
GR
GS
[0.75 0 0 0.75 642.70056 180.36774] CT
0 1 0 RC
N
f-1207123816
f
GR
GS
[0.75 0 0 0.75 642.70056 180.36774] CT
0 1 0 RC
10.0 ML
0.667 LW
N
5.367 -0.5 M
5.367 -3.74 2.74 -6.367 -0.5 -6.367 C
-3.74 -6.367 -6.367 -3.74 -6.367 -0.5 C
-6.367 2.74 -3.74 5.367 -0.5 5.367 C
2.74 5.367 5.367 2.74 5.367 -0.5 C
S
GR
GS
[0.75 0 0 0.75 636.9776 224.58399] CT
0 1 0 RC
N
f-1207123816
f
GR
GS
[0.75 0 0 0.75 636.9776 224.58399] CT
0 1 0 RC
10.0 ML
0.667 LW
N
5.367 -0.5 M
5.367 -3.74 2.74 -6.367 -0.5 -6.367 C
-3.74 -6.367 -6.367 -3.74 -6.367 -0.5 C
-6.367 2.74 -3.74 5.367 -0.5 5.367 C
2.74 5.367 5.367 2.74 5.367 -0.5 C
S
GR
GS
[0.75 0 0 0.75 700.50655 231.11678] CT
0 1 0 RC
N
f-1207123816
f
GR
GS
[0.75 0 0 0.75 700.50655 231.11678] CT
0 1 0 RC
10.0 ML
0.667 LW
N
5.367 -0.5 M
5.367 -3.74 2.74 -6.367 -0.5 -6.367 C
-3.74 -6.367 -6.367 -3.74 -6.367 -0.5 C
-6.367 2.74 -3.74 5.367 -0.5 5.367 C
2.74 5.367 5.367 2.74 5.367 -0.5 C
S
GR
GS
[0.75 0 0 0.75 641.45755 226.74194] CT
0 1 0 RC
N
f-1207123816
f
GR
GS
[0.75 0 0 0.75 641.45755 226.74194] CT
0 1 0 RC
10.0 ML
0.667 LW
N
5.367 -0.5 M
5.367 -3.74 2.74 -6.367 -0.5 -6.367 C
-3.74 -6.367 -6.367 -3.74 -6.367 -0.5 C
-6.367 2.74 -3.74 5.367 -0.5 5.367 C
2.74 5.367 5.367 2.74 5.367 -0.5 C
S
GR
GS
[0.75 0 0 0.75 575.23723 289.9791] CT
0 1 0 RC
N
f-1207123816
f
GR
GS
[0.75 0 0 0.75 575.23723 289.9791] CT
0 1 0 RC
10.0 ML
0.667 LW
N
5.367 -0.5 M
5.367 -3.74 2.74 -6.367 -0.5 -6.367 C
-3.74 -6.367 -6.367 -3.74 -6.367 -0.5 C
-6.367 2.74 -3.74 5.367 -0.5 5.367 C
2.74 5.367 5.367 2.74 5.367 -0.5 C
S
GR
GS
[0.75 0 0 0.75 630.14557 223.42345] CT
0 1 0 RC
N
f-1207123816
f
GR
GS
[0.75 0 0 0.75 630.14557 223.42345] CT
0 1 0 RC
10.0 ML
0.667 LW
N
5.367 -0.5 M
5.367 -3.74 2.74 -6.367 -0.5 -6.367 C
-3.74 -6.367 -6.367 -3.74 -6.367 -0.5 C
-6.367 2.74 -3.74 5.367 -0.5 5.367 C
2.74 5.367 5.367 2.74 5.367 -0.5 C
S
GR
GS
[0.75 0 0 0.75 555.63615 204.52339] CT
0 1 0 RC
N
f-1207123816
f
GR
GS
[0.75 0 0 0.75 555.63615 204.52339] CT
0 1 0 RC
10.0 ML
0.667 LW
N
5.367 -0.5 M
5.367 -3.74 2.74 -6.367 -0.5 -6.367 C
-3.74 -6.367 -6.367 -3.74 -6.367 -0.5 C
-6.367 2.74 -3.74 5.367 -0.5 5.367 C
2.74 5.367 5.367 2.74 5.367 -0.5 C
S
GR
GS
[0.75 0 0 0.75 608.70374 193.99336] CT
0 1 0 RC
N
f-1207123816
f
GR
GS
[0.75 0 0 0.75 608.70374 193.99336] CT
0 1 0 RC
10.0 ML
0.667 LW
N
5.367 -0.5 M
5.367 -3.74 2.74 -6.367 -0.5 -6.367 C
-3.74 -6.367 -6.367 -3.74 -6.367 -0.5 C
-6.367 2.74 -3.74 5.367 -0.5 5.367 C
2.74 5.367 5.367 2.74 5.367 -0.5 C
S
GR
GS
[0.75 0 0 0.75 607.16414 133.46688] CT
0 1 0 RC
N
f-1207123816
f
GR
GS
[0.75 0 0 0.75 607.16414 133.46688] CT
0 1 0 RC
10.0 ML
0.667 LW
N
5.367 -0.5 M
5.367 -3.74 2.74 -6.367 -0.5 -6.367 C
-3.74 -6.367 -6.367 -3.74 -6.367 -0.5 C
-6.367 2.74 -3.74 5.367 -0.5 5.367 C
2.74 5.367 5.367 2.74 5.367 -0.5 C
S
GR
GS
[0.75 0 0 0.75 609.75233 229.69602] CT
0 1 0 RC
N
f-1207123816
f
GR
GS
[0.75 0 0 0.75 609.75233 229.69602] CT
0 1 0 RC
10.0 ML
0.667 LW
N
5.367 -0.5 M
5.367 -3.74 2.74 -6.367 -0.5 -6.367 C
-3.74 -6.367 -6.367 -3.74 -6.367 -0.5 C
-6.367 2.74 -3.74 5.367 -0.5 5.367 C
2.74 5.367 5.367 2.74 5.367 -0.5 C
S
GR
GS
[0.75 0 0 0.75 592.7048 177.45409] CT
0 1 0 RC
N
f-1207123816
f
GR
GS
[0.75 0 0 0.75 592.7048 177.45409] CT
0 1 0 RC
10.0 ML
0.667 LW
N
5.367 -0.5 M
5.367 -3.74 2.74 -6.367 -0.5 -6.367 C
-3.74 -6.367 -6.367 -3.74 -6.367 -0.5 C
-6.367 2.74 -3.74 5.367 -0.5 5.367 C
2.74 5.367 5.367 2.74 5.367 -0.5 C
S
GR
GS
[0.75 0 0 0.75 668.46959 168.02603] CT
0 1 0 RC
N
f-1207123816
f
GR
GS
[0.75 0 0 0.75 668.46959 168.02603] CT
0 1 0 RC
10.0 ML
0.667 LW
N
5.367 -0.5 M
5.367 -3.74 2.74 -6.367 -0.5 -6.367 C
-3.74 -6.367 -6.367 -3.74 -6.367 -0.5 C
-6.367 2.74 -3.74 5.367 -0.5 5.367 C
2.74 5.367 5.367 2.74 5.367 -0.5 C
S
GR
GS
[0.75 0 0 0.75 509.25728 160.41976] CT
0 1 0 RC
N
f-1207123816
f
GR
GS
[0.75 0 0 0.75 509.25728 160.41976] CT
0 1 0 RC
10.0 ML
0.667 LW
N
5.367 -0.5 M
5.367 -3.74 2.74 -6.367 -0.5 -6.367 C
-3.74 -6.367 -6.367 -3.74 -6.367 -0.5 C
-6.367 2.74 -3.74 5.367 -0.5 5.367 C
2.74 5.367 5.367 2.74 5.367 -0.5 C
S
GR
GS
[0.75 0 0 0.75 632.71133 264.07593] CT
0 1 0 RC
N
f-1207123816
f
GR
GS
[0.75 0 0 0.75 632.71133 264.07593] CT
0 1 0 RC
10.0 ML
0.667 LW
N
5.367 -0.5 M
5.367 -3.74 2.74 -6.367 -0.5 -6.367 C
-3.74 -6.367 -6.367 -3.74 -6.367 -0.5 C
-6.367 2.74 -3.74 5.367 -0.5 5.367 C
2.74 5.367 5.367 2.74 5.367 -0.5 C
S
GR
GS
[0.75 0 0 0.75 502.5 23.18753] CT
/Helvetica 24 F
GS
[1 0 0 1 0 0] CT
-25.5 9.5 moveto 
1 -1 scale
(Data) t 
GR
GR
%%Trailer
%%Pages: 1
%%EOF
