%!PS-Adobe-3.0 EPSF-3.0
%%Creator: (MATLAB, The Mathworks, Inc. Version 9.1.0.441655 \(R2016b\). Operating System: Windows 8)
%%Title: (C:/Users/Eigenaar/WIT/Data Mining/data-mining/Session 4/plots/demgmm1_step1M.eps)
%%CreationDate: 2017-12-08T16:13:11
%%Pages: (atend)
%%BoundingBox: 0 0 935 635
%%LanguageLevel: 3
%%EndComments
%%BeginProlog
%%BeginResource: procset (Apache XML Graphics Std ProcSet) 1.2 0
%%Version: 1.2 0
%%Copyright: (Copyright 2001-2003,2010 The Apache Software Foundation. License terms: http://www.apache.org/licenses/LICENSE-2.0)
/bd{bind def}bind def
/ld{load def}bd
/GR/grestore ld
/M/moveto ld
/LJ/setlinejoin ld
/C/curveto ld
/f/fill ld
/LW/setlinewidth ld
/GC/setgray ld
/t/show ld
/N/newpath ld
/CT/concat ld
/cp/closepath ld
/S/stroke ld
/L/lineto ld
/CC/setcmykcolor ld
/A/ashow ld
/GS/gsave ld
/RC/setrgbcolor ld
/RM/rmoveto ld
/ML/setmiterlimit ld
/re {4 2 roll M
1 index 0 rlineto
0 exch rlineto
neg 0 rlineto
cp } bd
/_ctm matrix def
/_tm matrix def
/BT { _ctm currentmatrix pop matrix _tm copy pop 0 0 moveto } bd
/ET { _ctm setmatrix } bd
/iTm { _ctm setmatrix _tm concat } bd
/Tm { _tm astore pop iTm 0 0 moveto } bd
/ux 0.0 def
/uy 0.0 def
/F {
  /Tp exch def
  /Tf exch def
  Tf findfont Tp scalefont setfont
  /cf Tf def  /cs Tp def
} bd
/ULS {currentpoint /uy exch def /ux exch def} bd
/ULE {
  /Tcx currentpoint pop def
  gsave
  newpath
  cf findfont cs scalefont dup
  /FontMatrix get 0 get /Ts exch def /FontInfo get dup
  /UnderlinePosition get Ts mul /To exch def
  /UnderlineThickness get Ts mul /Tt exch def
  ux uy To add moveto  Tcx uy To add lineto
  Tt setlinewidth stroke
  grestore
} bd
/OLE {
  /Tcx currentpoint pop def
  gsave
  newpath
  cf findfont cs scalefont dup
  /FontMatrix get 0 get /Ts exch def /FontInfo get dup
  /UnderlinePosition get Ts mul /To exch def
  /UnderlineThickness get Ts mul /Tt exch def
  ux uy To add cs add moveto Tcx uy To add cs add lineto
  Tt setlinewidth stroke
  grestore
} bd
/SOE {
  /Tcx currentpoint pop def
  gsave
  newpath
  cf findfont cs scalefont dup
  /FontMatrix get 0 get /Ts exch def /FontInfo get dup
  /UnderlinePosition get Ts mul /To exch def
  /UnderlineThickness get Ts mul /Tt exch def
  ux uy To add cs 10 mul 26 idiv add moveto Tcx uy To add cs 10 mul 26 idiv add lineto
  Tt setlinewidth stroke
  grestore
} bd
/QT {
/Y22 exch store
/X22 exch store
/Y21 exch store
/X21 exch store
currentpoint
/Y21 load 2 mul add 3 div exch
/X21 load 2 mul add 3 div exch
/X21 load 2 mul /X22 load add 3 div
/Y21 load 2 mul /Y22 load add 3 div
/X22 load /Y22 load curveto
} bd
/SSPD {
dup length /d exch dict def
{
/v exch def
/k exch def
currentpagedevice k known {
/cpdv currentpagedevice k get def
v cpdv ne {
/upd false def
/nullv v type /nulltype eq def
/nullcpdv cpdv type /nulltype eq def
nullv nullcpdv or
{
/upd true def
} {
/sametype v type cpdv type eq def
sametype {
v type /arraytype eq {
/vlen v length def
/cpdvlen cpdv length def
vlen cpdvlen eq {
0 1 vlen 1 sub {
/i exch def
/obj v i get def
/cpdobj cpdv i get def
obj cpdobj ne {
/upd true def
exit
} if
} for
} {
/upd true def
} ifelse
} {
v type /dicttype eq {
v {
/dv exch def
/dk exch def
/cpddv cpdv dk get def
dv cpddv ne {
/upd true def
exit
} if
} forall
} {
/upd true def
} ifelse
} ifelse
} if
} ifelse
upd true eq {
d k v put
} if
} if
} if
} forall
d length 0 gt {
d setpagedevice
} if
} bd
/RE { % /NewFontName [NewEncodingArray] /FontName RE -
  findfont dup length dict begin
  {
    1 index /FID ne
    {def} {pop pop} ifelse
  } forall
  /Encoding exch def
  /FontName 1 index def
  currentdict definefont pop
  end
} bind def
%%EndResource
%%BeginResource: procset (Apache XML Graphics EPS ProcSet) 1.0 0
%%Version: 1.0 0
%%Copyright: (Copyright 2002-2003 The Apache Software Foundation. License terms: http://www.apache.org/licenses/LICENSE-2.0)
/BeginEPSF { %def
/b4_Inc_state save def         % Save state for cleanup
/dict_count countdictstack def % Count objects on dict stack
/op_count count 1 sub def      % Count objects on operand stack
userdict begin                 % Push userdict on dict stack
/showpage { } def              % Redefine showpage, { } = null proc
0 setgray 0 setlinecap         % Prepare graphics state
1 setlinewidth 0 setlinejoin
10 setmiterlimit [ ] 0 setdash newpath
/languagelevel where           % If level not equal to 1 then
{pop languagelevel             % set strokeadjust and
1 ne                           % overprint to their defaults.
{false setstrokeadjust false setoverprint
} if
} if
} bd
/EndEPSF { %def
count op_count sub {pop} repeat            % Clean up stacks
countdictstack dict_count sub {end} repeat
b4_Inc_state restore
} bd
%%EndResource
%FOPBeginFontDict
%%IncludeResource: font Courier-Bold
%%IncludeResource: font Helvetica
%%IncludeResource: font Courier-BoldOblique
%%IncludeResource: font Courier-Oblique
%%IncludeResource: font Times-Roman
%%IncludeResource: font Helvetica-BoldOblique
%%IncludeResource: font Helvetica-Bold
%%IncludeResource: font Helvetica-Oblique
%%IncludeResource: font Times-BoldItalic
%%IncludeResource: font Courier
%%IncludeResource: font Times-Italic
%%IncludeResource: font Times-Bold
%%IncludeResource: font Symbol
%%IncludeResource: font ZapfDingbats
%FOPEndFontDict
%%BeginResource: encoding WinAnsiEncoding
/WinAnsiEncoding [
/.notdef /.notdef /.notdef /.notdef /.notdef
/.notdef /.notdef /.notdef /.notdef /.notdef
/.notdef /.notdef /.notdef /.notdef /.notdef
/.notdef /.notdef /.notdef /.notdef /.notdef
/.notdef /.notdef /.notdef /.notdef /.notdef
/.notdef /.notdef /.notdef /.notdef /.notdef
/.notdef /.notdef /space /exclam /quotedbl
/numbersign /dollar /percent /ampersand /quotesingle
/parenleft /parenright /asterisk /plus /comma
/hyphen /period /slash /zero /one
/two /three /four /five /six
/seven /eight /nine /colon /semicolon
/less /equal /greater /question /at
/A /B /C /D /E
/F /G /H /I /J
/K /L /M /N /O
/P /Q /R /S /T
/U /V /W /X /Y
/Z /bracketleft /backslash /bracketright /asciicircum
/underscore /quoteleft /a /b /c
/d /e /f /g /h
/i /j /k /l /m
/n /o /p /q /r
/s /t /u /v /w
/x /y /z /braceleft /bar
/braceright /asciitilde /bullet /Euro /bullet
/quotesinglbase /florin /quotedblbase /ellipsis /dagger
/daggerdbl /circumflex /perthousand /Scaron /guilsinglleft
/OE /bullet /Zcaron /bullet /bullet
/quoteleft /quoteright /quotedblleft /quotedblright /bullet
/endash /emdash /asciitilde /trademark /scaron
/guilsinglright /oe /bullet /zcaron /Ydieresis
/space /exclamdown /cent /sterling /currency
/yen /brokenbar /section /dieresis /copyright
/ordfeminine /guillemotleft /logicalnot /sfthyphen /registered
/macron /degree /plusminus /twosuperior /threesuperior
/acute /mu /paragraph /middot /cedilla
/onesuperior /ordmasculine /guillemotright /onequarter /onehalf
/threequarters /questiondown /Agrave /Aacute /Acircumflex
/Atilde /Adieresis /Aring /AE /Ccedilla
/Egrave /Eacute /Ecircumflex /Edieresis /Igrave
/Iacute /Icircumflex /Idieresis /Eth /Ntilde
/Ograve /Oacute /Ocircumflex /Otilde /Odieresis
/multiply /Oslash /Ugrave /Uacute /Ucircumflex
/Udieresis /Yacute /Thorn /germandbls /agrave
/aacute /acircumflex /atilde /adieresis /aring
/ae /ccedilla /egrave /eacute /ecircumflex
/edieresis /igrave /iacute /icircumflex /idieresis
/eth /ntilde /ograve /oacute /ocircumflex
/otilde /odieresis /divide /oslash /ugrave
/uacute /ucircumflex /udieresis /yacute /thorn
/ydieresis
] def
%%EndResource
%FOPBeginFontReencode
/Courier-Bold findfont
dup length dict begin
  {1 index /FID ne {def} {pop pop} ifelse} forall
  /Encoding WinAnsiEncoding def
  currentdict
end
/Courier-Bold exch definefont pop
/Helvetica findfont
dup length dict begin
  {1 index /FID ne {def} {pop pop} ifelse} forall
  /Encoding WinAnsiEncoding def
  currentdict
end
/Helvetica exch definefont pop
/Courier-BoldOblique findfont
dup length dict begin
  {1 index /FID ne {def} {pop pop} ifelse} forall
  /Encoding WinAnsiEncoding def
  currentdict
end
/Courier-BoldOblique exch definefont pop
/Courier-Oblique findfont
dup length dict begin
  {1 index /FID ne {def} {pop pop} ifelse} forall
  /Encoding WinAnsiEncoding def
  currentdict
end
/Courier-Oblique exch definefont pop
/Times-Roman findfont
dup length dict begin
  {1 index /FID ne {def} {pop pop} ifelse} forall
  /Encoding WinAnsiEncoding def
  currentdict
end
/Times-Roman exch definefont pop
/Helvetica-BoldOblique findfont
dup length dict begin
  {1 index /FID ne {def} {pop pop} ifelse} forall
  /Encoding WinAnsiEncoding def
  currentdict
end
/Helvetica-BoldOblique exch definefont pop
/Helvetica-Bold findfont
dup length dict begin
  {1 index /FID ne {def} {pop pop} ifelse} forall
  /Encoding WinAnsiEncoding def
  currentdict
end
/Helvetica-Bold exch definefont pop
/Helvetica-Oblique findfont
dup length dict begin
  {1 index /FID ne {def} {pop pop} ifelse} forall
  /Encoding WinAnsiEncoding def
  currentdict
end
/Helvetica-Oblique exch definefont pop
/Times-BoldItalic findfont
dup length dict begin
  {1 index /FID ne {def} {pop pop} ifelse} forall
  /Encoding WinAnsiEncoding def
  currentdict
end
/Times-BoldItalic exch definefont pop
/Courier findfont
dup length dict begin
  {1 index /FID ne {def} {pop pop} ifelse} forall
  /Encoding WinAnsiEncoding def
  currentdict
end
/Courier exch definefont pop
/Times-Italic findfont
dup length dict begin
  {1 index /FID ne {def} {pop pop} ifelse} forall
  /Encoding WinAnsiEncoding def
  currentdict
end
/Times-Italic exch definefont pop
/Times-Bold findfont
dup length dict begin
  {1 index /FID ne {def} {pop pop} ifelse} forall
  /Encoding WinAnsiEncoding def
  currentdict
end
/Times-Bold exch definefont pop
%FOPEndFontReencode
%%EndProlog
%%Page: 1 1
%%PageBoundingBox: 0 0 935 635
%%BeginPageSetup
[1 0 0 -1 0 635] CT
%%EndPageSetup
GS
[0.75 0 0 0.75 0 0.5] CT
1 GC
N
0 0 1247 846 re
f
GR
GS
[0.75 0 0 0.75 0 0.5] CT
1 GC
N
0 0 1247 846 re
f
GR
GS
[0.75 0 0 0.75 0 0.5] CT
1 GC
N
300.5 753 M
990.5 753 L
990.5 63 L
300.5 63 L
cp
f
GR
GS
[0.75 0 0 0.75 0 0.5] CT
0.149 GC
2 setlinecap
1 LJ
0.667 LW
N
300.5 753 M
990.5 753 L
S
GR
GS
[0.75 0 0 0.75 0 0.5] CT
0.149 GC
2 setlinecap
1 LJ
0.667 LW
N
300.5 63 M
990.5 63 L
S
GR
GS
[0.75 0 0 0.75 0 0.5] CT
0.149 GC
2 setlinecap
1 LJ
0.667 LW
N
300.5 753 M
300.5 746.1 L
S
GR
GS
[0.75 0 0 0.75 0 0.5] CT
0.149 GC
2 setlinecap
1 LJ
0.667 LW
N
438.5 753 M
438.5 746.1 L
S
GR
GS
[0.75 0 0 0.75 0 0.5] CT
0.149 GC
2 setlinecap
1 LJ
0.667 LW
N
576.5 753 M
576.5 746.1 L
S
GR
GS
[0.75 0 0 0.75 0 0.5] CT
0.149 GC
2 setlinecap
1 LJ
0.667 LW
N
714.5 753 M
714.5 746.1 L
S
GR
GS
[0.75 0 0 0.75 0 0.5] CT
0.149 GC
2 setlinecap
1 LJ
0.667 LW
N
852.5 753 M
852.5 746.1 L
S
GR
GS
[0.75 0 0 0.75 0 0.5] CT
0.149 GC
2 setlinecap
1 LJ
0.667 LW
N
990.5 753 M
990.5 746.1 L
S
GR
GS
[0.75 0 0 0.75 0 0.5] CT
0.149 GC
2 setlinecap
1 LJ
0.667 LW
N
300.5 63 M
300.5 69.9 L
S
GR
GS
[0.75 0 0 0.75 0 0.5] CT
0.149 GC
2 setlinecap
1 LJ
0.667 LW
N
438.5 63 M
438.5 69.9 L
S
GR
GS
[0.75 0 0 0.75 0 0.5] CT
0.149 GC
2 setlinecap
1 LJ
0.667 LW
N
576.5 63 M
576.5 69.9 L
S
GR
GS
[0.75 0 0 0.75 0 0.5] CT
0.149 GC
2 setlinecap
1 LJ
0.667 LW
N
714.5 63 M
714.5 69.9 L
S
GR
GS
[0.75 0 0 0.75 0 0.5] CT
0.149 GC
2 setlinecap
1 LJ
0.667 LW
N
852.5 63 M
852.5 69.9 L
S
GR
GS
[0.75 0 0 0.75 0 0.5] CT
0.149 GC
2 setlinecap
1 LJ
0.667 LW
N
990.5 63 M
990.5 69.9 L
S
GR
GS
[0.75 0 0 0.75 225.375 570.85001] CT
0.149 GC
/Helvetica 24 F
GS
[1 0 0 1 0 0] CT
-7 25 moveto 
1 -1 scale
(0) t 
GR
GR
GS
[0.75 0 0 0.75 328.875 570.85001] CT
0.149 GC
/Helvetica 24 F
GS
[1 0 0 1 0 0] CT
-17 25 moveto 
1 -1 scale
(0.2) t 
GR
GR
GS
[0.75 0 0 0.75 432.375 570.85001] CT
0.149 GC
/Helvetica 24 F
GS
[1 0 0 1 0 0] CT
-17 25 moveto 
1 -1 scale
(0.4) t 
GR
GR
GS
[0.75 0 0 0.75 535.875 570.85001] CT
0.149 GC
/Helvetica 24 F
GS
[1 0 0 1 0 0] CT
-17 25 moveto 
1 -1 scale
(0.6) t 
GR
GR
GS
[0.75 0 0 0.75 639.375 570.85001] CT
0.149 GC
/Helvetica 24 F
GS
[1 0 0 1 0 0] CT
-17 25 moveto 
1 -1 scale
(0.8) t 
GR
GR
GS
[0.75 0 0 0.75 742.875 570.85001] CT
0.149 GC
/Helvetica 24 F
GS
[1 0 0 1 0 0] CT
-7 25 moveto 
1 -1 scale
(1) t 
GR
GR
GS
[0.75 0 0 0.75 484.12523 595.09999] CT
0.149 GC
/Helvetica 26.4 F
GS
[1 0 0 1 0 0] CT
-6.5 27 moveto 
1 -1 scale
(x) t 
GR
GR
GS
[0.75 0 0 0.75 0 0.5] CT
0.149 GC
2 setlinecap
1 LJ
0.667 LW
N
300.5 753 M
300.5 63 L
S
GR
GS
[0.75 0 0 0.75 0 0.5] CT
0.149 GC
2 setlinecap
1 LJ
0.667 LW
N
990.5 753 M
990.5 63 L
S
GR
GS
[0.75 0 0 0.75 0 0.5] CT
0.149 GC
2 setlinecap
1 LJ
0.667 LW
N
300.5 753 M
307.4 753 L
S
GR
GS
[0.75 0 0 0.75 0 0.5] CT
0.149 GC
2 setlinecap
1 LJ
0.667 LW
N
300.5 684 M
307.4 684 L
S
GR
GS
[0.75 0 0 0.75 0 0.5] CT
0.149 GC
2 setlinecap
1 LJ
0.667 LW
N
300.5 615 M
307.4 615 L
S
GR
GS
[0.75 0 0 0.75 0 0.5] CT
0.149 GC
2 setlinecap
1 LJ
0.667 LW
N
300.5 546 M
307.4 546 L
S
GR
GS
[0.75 0 0 0.75 0 0.5] CT
0.149 GC
2 setlinecap
1 LJ
0.667 LW
N
300.5 477 M
307.4 477 L
S
GR
GS
[0.75 0 0 0.75 0 0.5] CT
0.149 GC
2 setlinecap
1 LJ
0.667 LW
N
300.5 408 M
307.4 408 L
S
GR
GS
[0.75 0 0 0.75 0 0.5] CT
0.149 GC
2 setlinecap
1 LJ
0.667 LW
N
300.5 339 M
307.4 339 L
S
GR
GS
[0.75 0 0 0.75 0 0.5] CT
0.149 GC
2 setlinecap
1 LJ
0.667 LW
N
300.5 270 M
307.4 270 L
S
GR
GS
[0.75 0 0 0.75 0 0.5] CT
0.149 GC
2 setlinecap
1 LJ
0.667 LW
N
300.5 201 M
307.4 201 L
S
GR
GS
[0.75 0 0 0.75 0 0.5] CT
0.149 GC
2 setlinecap
1 LJ
0.667 LW
N
300.5 132 M
307.4 132 L
S
GR
GS
[0.75 0 0 0.75 0 0.5] CT
0.149 GC
2 setlinecap
1 LJ
0.667 LW
N
300.5 63 M
307.4 63 L
S
GR
GS
[0.75 0 0 0.75 0 0.5] CT
0.149 GC
2 setlinecap
1 LJ
0.667 LW
N
990.5 753 M
983.6 753 L
S
GR
GS
[0.75 0 0 0.75 0 0.5] CT
0.149 GC
2 setlinecap
1 LJ
0.667 LW
N
990.5 684 M
983.6 684 L
S
GR
GS
[0.75 0 0 0.75 0 0.5] CT
0.149 GC
2 setlinecap
1 LJ
0.667 LW
N
990.5 615 M
983.6 615 L
S
GR
GS
[0.75 0 0 0.75 0 0.5] CT
0.149 GC
2 setlinecap
1 LJ
0.667 LW
N
990.5 546 M
983.6 546 L
S
GR
GS
[0.75 0 0 0.75 0 0.5] CT
0.149 GC
2 setlinecap
1 LJ
0.667 LW
N
990.5 477 M
983.6 477 L
S
GR
GS
[0.75 0 0 0.75 0 0.5] CT
0.149 GC
2 setlinecap
1 LJ
0.667 LW
N
990.5 408 M
983.6 408 L
S
GR
GS
[0.75 0 0 0.75 0 0.5] CT
0.149 GC
2 setlinecap
1 LJ
0.667 LW
N
990.5 339 M
983.6 339 L
S
GR
GS
[0.75 0 0 0.75 0 0.5] CT
0.149 GC
2 setlinecap
1 LJ
0.667 LW
N
990.5 270 M
983.6 270 L
S
GR
GS
[0.75 0 0 0.75 0 0.5] CT
0.149 GC
2 setlinecap
1 LJ
0.667 LW
N
990.5 201 M
983.6 201 L
S
GR
GS
[0.75 0 0 0.75 0 0.5] CT
0.149 GC
2 setlinecap
1 LJ
0.667 LW
N
990.5 132 M
983.6 132 L
S
GR
GS
[0.75 0 0 0.75 0 0.5] CT
0.149 GC
2 setlinecap
1 LJ
0.667 LW
N
990.5 63 M
983.6 63 L
S
GR
GS
[0.75 0 0 0.75 219.77499 565.25] CT
0.149 GC
/Helvetica 24 F
GS
[1 0 0 1 0 0] CT
-14 9.5 moveto 
1 -1 scale
(0) t 
GR
GR
GS
[0.75 0 0 0.75 219.77499 513.5] CT
0.149 GC
/Helvetica 24 F
GS
[1 0 0 1 0 0] CT
-34 9.5 moveto 
1 -1 scale
(0.1) t 
GR
GR
GS
[0.75 0 0 0.75 219.77499 461.75] CT
0.149 GC
/Helvetica 24 F
GS
[1 0 0 1 0 0] CT
-34 9.5 moveto 
1 -1 scale
(0.2) t 
GR
GR
GS
[0.75 0 0 0.75 219.77499 410] CT
0.149 GC
/Helvetica 24 F
GS
[1 0 0 1 0 0] CT
-34 9.5 moveto 
1 -1 scale
(0.3) t 
GR
GR
GS
[0.75 0 0 0.75 219.77499 358.25] CT
0.149 GC
/Helvetica 24 F
GS
[1 0 0 1 0 0] CT
-34 9.5 moveto 
1 -1 scale
(0.4) t 
GR
GR
GS
[0.75 0 0 0.75 219.77499 306.5] CT
0.149 GC
/Helvetica 24 F
GS
[1 0 0 1 0 0] CT
-34 9.5 moveto 
1 -1 scale
(0.5) t 
GR
GR
GS
[0.75 0 0 0.75 219.77499 254.74998] CT
0.149 GC
/Helvetica 24 F
GS
[1 0 0 1 0 0] CT
-34 9.5 moveto 
1 -1 scale
(0.6) t 
GR
GR
GS
[0.75 0 0 0.75 219.77499 203] CT
0.149 GC
/Helvetica 24 F
GS
[1 0 0 1 0 0] CT
-34 9.5 moveto 
1 -1 scale
(0.7) t 
GR
GR
GS
[0.75 0 0 0.75 219.77499 151.24999] CT
0.149 GC
/Helvetica 24 F
GS
[1 0 0 1 0 0] CT
-34 9.5 moveto 
1 -1 scale
(0.8) t 
GR
GR
GS
[0.75 0 0 0.75 219.77499 99.50001] CT
0.149 GC
/Helvetica 24 F
GS
[1 0 0 1 0 0] CT
-34 9.5 moveto 
1 -1 scale
(0.9) t 
GR
GR
GS
[0.75 0 0 0.75 219.77499 47.75] CT
0.149 GC
/Helvetica 24 F
GS
[1 0 0 1 0 0] CT
-14 9.5 moveto 
1 -1 scale
(1) t 
GR
GR
GS
[0 -0.75 0.75 0 191.27501 306.49975] CT
0.149 GC
/Helvetica 26.4 F
GS
[1 0 0 1 0 0] CT
-6.5 -6 moveto 
1 -1 scale
(y) t 
GR
GR
GS
[0.75 0 0 0.75 484.125 21.87502] CT
/Helvetica 24 F
GS
[1 0 0 1 0 0] CT
-37 9.5 moveto 
1 -1 scale
(M-step) t 
GR
GR
GS
[0.75 0 0 0.75 321.2951 365.59866] CT
1 0 0 RC
N
5.367 -0.5 M
5.367 -3.74 2.74 -6.367 -0.5 -6.367 C
-3.74 -6.367 -6.367 -3.74 -6.367 -0.5 C
-6.367 2.74 -3.74 5.367 -0.5 5.367 C
2.74 5.367 5.367 2.74 5.367 -0.5 C
f
GR
GS
[0.75 0 0 0.75 321.2951 365.59866] CT
1 0 0 RC
10.0 ML
0.667 LW
N
5.367 -0.5 M
5.367 -3.74 2.74 -6.367 -0.5 -6.367 C
-3.74 -6.367 -6.367 -3.74 -6.367 -0.5 C
-6.367 2.74 -3.74 5.367 -0.5 5.367 C
2.74 5.367 5.367 2.74 5.367 -0.5 C
S
GR
GS
[0.75 0 0 0.75 442.25487 345.10543] CT
0.592 0 0.408 RC
N
/f-1207123816{5.367 -0.5 M
5.367 -3.74 2.74 -6.367 -0.5 -6.367 C
-3.74 -6.367 -6.367 -3.74 -6.367 -0.5 C
-6.367 2.74 -3.74 5.367 -0.5 5.367 C
2.74 5.367 5.367 2.74 5.367 -0.5 C}def
f-1207123816
f
GR
GS
[0.75 0 0 0.75 442.25487 345.10543] CT
0.592 0 0.408 RC
10.0 ML
0.667 LW
N
5.367 -0.5 M
5.367 -3.74 2.74 -6.367 -0.5 -6.367 C
-3.74 -6.367 -6.367 -3.74 -6.367 -0.5 C
-6.367 2.74 -3.74 5.367 -0.5 5.367 C
2.74 5.367 5.367 2.74 5.367 -0.5 C
S
GR
GS
[0.75 0 0 0.75 442.16428 492.47551] CT
0 0 1 RC
N
f-1207123816
f
GR
GS
[0.75 0 0 0.75 442.16428 492.47551] CT
0 0 1 RC
10.0 ML
0.667 LW
N
5.367 -0.5 M
5.367 -3.74 2.74 -6.367 -0.5 -6.367 C
-3.74 -6.367 -6.367 -3.74 -6.367 -0.5 C
-6.367 2.74 -3.74 5.367 -0.5 5.367 C
2.74 5.367 5.367 2.74 5.367 -0.5 C
S
GR
GS
[0.75 0 0 0.75 378.67747 484.56989] CT
0 0 1 RC
N
f-1207123816
f
GR
GS
[0.75 0 0 0.75 378.67747 484.56989] CT
0 0 1 RC
10.0 ML
0.667 LW
N
5.367 -0.5 M
5.367 -3.74 2.74 -6.367 -0.5 -6.367 C
-3.74 -6.367 -6.367 -3.74 -6.367 -0.5 C
-6.367 2.74 -3.74 5.367 -0.5 5.367 C
2.74 5.367 5.367 2.74 5.367 -0.5 C
S
GR
GS
[0.75 0 0 0.75 397.56239 380.44312] CT
0.812 0 0.188 RC
N
f-1207123816
f
GR
GS
[0.75 0 0 0.75 397.56239 380.44312] CT
0.812 0 0.188 RC
10.0 ML
0.667 LW
N
5.367 -0.5 M
5.367 -3.74 2.74 -6.367 -0.5 -6.367 C
-3.74 -6.367 -6.367 -3.74 -6.367 -0.5 C
-6.367 2.74 -3.74 5.367 -0.5 5.367 C
2.74 5.367 5.367 2.74 5.367 -0.5 C
S
GR
GS
[0.75 0 0 0.75 389.66258 430.69408] CT
0.031 0 0.969 RC
N
f-1207123816
f
GR
GS
[0.75 0 0 0.75 389.66258 430.69408] CT
0.031 0 0.969 RC
10.0 ML
0.667 LW
N
5.367 -0.5 M
5.367 -3.74 2.74 -6.367 -0.5 -6.367 C
-3.74 -6.367 -6.367 -3.74 -6.367 -0.5 C
-6.367 2.74 -3.74 5.367 -0.5 5.367 C
2.74 5.367 5.367 2.74 5.367 -0.5 C
S
GR
GS
[0.75 0 0 0.75 370.96284 374.29263] CT
0.996 0 0.004 RC
N
f-1207123816
f
GR
GS
[0.75 0 0 0.75 370.96284 374.29263] CT
0.996 0 0.004 RC
10.0 ML
0.667 LW
N
5.367 -0.5 M
5.367 -3.74 2.74 -6.367 -0.5 -6.367 C
-3.74 -6.367 -6.367 -3.74 -6.367 -0.5 C
-6.367 2.74 -3.74 5.367 -0.5 5.367 C
2.74 5.367 5.367 2.74 5.367 -0.5 C
S
GR
GS
[0.75 0 0 0.75 418.18465 367.79153] CT
0.631 0 0.369 RC
N
f-1207123816
f
GR
GS
[0.75 0 0 0.75 418.18465 367.79153] CT
0.631 0 0.369 RC
10.0 ML
0.667 LW
N
5.367 -0.5 M
5.367 -3.74 2.74 -6.367 -0.5 -6.367 C
-3.74 -6.367 -6.367 -3.74 -6.367 -0.5 C
-6.367 2.74 -3.74 5.367 -0.5 5.367 C
2.74 5.367 5.367 2.74 5.367 -0.5 C
S
GR
GS
[0.75 0 0 0.75 350.17962 373.15874] CT
1 0 0 RC
N
f-1207123816
f
GR
GS
[0.75 0 0 0.75 350.17962 373.15874] CT
1 0 0 RC
10.0 ML
0.667 LW
N
5.367 -0.5 M
5.367 -3.74 2.74 -6.367 -0.5 -6.367 C
-3.74 -6.367 -6.367 -3.74 -6.367 -0.5 C
-6.367 2.74 -3.74 5.367 -0.5 5.367 C
2.74 5.367 5.367 2.74 5.367 -0.5 C
S
GR
GS
[0.75 0 0 0.75 493.60487 343.22958] CT
0.004 0 0.996 RC
N
f-1207123816
f
GR
GS
[0.75 0 0 0.75 493.60487 343.22958] CT
0.004 0 0.996 RC
10.0 ML
0.667 LW
N
5.367 -0.5 M
5.367 -3.74 2.74 -6.367 -0.5 -6.367 C
-3.74 -6.367 -6.367 -3.74 -6.367 -0.5 C
-6.367 2.74 -3.74 5.367 -0.5 5.367 C
2.74 5.367 5.367 2.74 5.367 -0.5 C
S
GR
GS
[0.75 0 0 0.75 373.56651 375.39991] CT
0.992 0 0.008 RC
N
f-1207123816
f
GR
GS
[0.75 0 0 0.75 373.56651 375.39991] CT
0.992 0 0.008 RC
10.0 ML
0.667 LW
N
5.367 -0.5 M
5.367 -3.74 2.74 -6.367 -0.5 -6.367 C
-3.74 -6.367 -6.367 -3.74 -6.367 -0.5 C
-6.367 2.74 -3.74 5.367 -0.5 5.367 C
2.74 5.367 5.367 2.74 5.367 -0.5 C
S
GR
GS
[0.75 0 0 0.75 386.52095 348.37414] CT
1 0 0 RC
N
f-1207123816
f
GR
GS
[0.75 0 0 0.75 386.52095 348.37414] CT
1 0 0 RC
10.0 ML
0.667 LW
N
5.367 -0.5 M
5.367 -3.74 2.74 -6.367 -0.5 -6.367 C
-3.74 -6.367 -6.367 -3.74 -6.367 -0.5 C
-6.367 2.74 -3.74 5.367 -0.5 5.367 C
2.74 5.367 5.367 2.74 5.367 -0.5 C
S
GR
GS
[0.75 0 0 0.75 435.83025 472.22716] CT
0 0 1 RC
N
f-1207123816
f
GR
GS
[0.75 0 0 0.75 435.83025 472.22716] CT
0 0 1 RC
10.0 ML
0.667 LW
N
5.367 -0.5 M
5.367 -3.74 2.74 -6.367 -0.5 -6.367 C
-3.74 -6.367 -6.367 -3.74 -6.367 -0.5 C
-6.367 2.74 -3.74 5.367 -0.5 5.367 C
2.74 5.367 5.367 2.74 5.367 -0.5 C
S
GR
GS
[0.75 0 0 0.75 383.69282 411.02411] CT
0.384 0 0.616 RC
N
f-1207123816
f
GR
GS
[0.75 0 0 0.75 383.69282 411.02411] CT
0.384 0 0.616 RC
10.0 ML
0.667 LW
N
5.367 -0.5 M
5.367 -3.74 2.74 -6.367 -0.5 -6.367 C
-3.74 -6.367 -6.367 -3.74 -6.367 -0.5 C
-6.367 2.74 -3.74 5.367 -0.5 5.367 C
2.74 5.367 5.367 2.74 5.367 -0.5 C
S
GR
GS
[0.75 0 0 0.75 375.6752 418.11011] CT
0.408 0 0.592 RC
N
f-1207123816
f
GR
GS
[0.75 0 0 0.75 375.6752 418.11011] CT
0.408 0 0.592 RC
10.0 ML
0.667 LW
N
5.367 -0.5 M
5.367 -3.74 2.74 -6.367 -0.5 -6.367 C
-3.74 -6.367 -6.367 -3.74 -6.367 -0.5 C
-6.367 2.74 -3.74 5.367 -0.5 5.367 C
2.74 5.367 5.367 2.74 5.367 -0.5 C
S
GR
GS
[0.75 0 0 0.75 337.55093 493.01141] CT
0.008 0 0.992 RC
N
f-1207123816
f
GR
GS
[0.75 0 0 0.75 337.55093 493.01141] CT
0.008 0 0.992 RC
10.0 ML
0.667 LW
N
5.367 -0.5 M
5.367 -3.74 2.74 -6.367 -0.5 -6.367 C
-3.74 -6.367 -6.367 -3.74 -6.367 -0.5 C
-6.367 2.74 -3.74 5.367 -0.5 5.367 C
2.74 5.367 5.367 2.74 5.367 -0.5 C
S
GR
GS
[0.75 0 0 0.75 395.86075 396.68452] CT
0.443 0 0.557 RC
N
f-1207123816
f
GR
GS
[0.75 0 0 0.75 395.86075 396.68452] CT
0.443 0 0.557 RC
10.0 ML
0.667 LW
N
5.367 -0.5 M
5.367 -3.74 2.74 -6.367 -0.5 -6.367 C
-3.74 -6.367 -6.367 -3.74 -6.367 -0.5 C
-6.367 2.74 -3.74 5.367 -0.5 5.367 C
2.74 5.367 5.367 2.74 5.367 -0.5 C
S
GR
GS
[0.75 0 0 0.75 311.4776 464.67245] CT
0.843 0 0.157 RC
N
f-1207123816
f
GR
GS
[0.75 0 0 0.75 311.4776 464.67245] CT
0.843 0 0.157 RC
10.0 ML
0.667 LW
N
5.367 -0.5 M
5.367 -3.74 2.74 -6.367 -0.5 -6.367 C
-3.74 -6.367 -6.367 -3.74 -6.367 -0.5 C
-6.367 2.74 -3.74 5.367 -0.5 5.367 C
2.74 5.367 5.367 2.74 5.367 -0.5 C
S
GR
GS
[0.75 0 0 0.75 417.59129 336.76644] CT
0.984 0 0.016 RC
N
f-1207123816
f
GR
GS
[0.75 0 0 0.75 417.59129 336.76644] CT
0.984 0 0.016 RC
10.0 ML
0.667 LW
N
5.367 -0.5 M
5.367 -3.74 2.74 -6.367 -0.5 -6.367 C
-3.74 -6.367 -6.367 -3.74 -6.367 -0.5 C
-6.367 2.74 -3.74 5.367 -0.5 5.367 C
2.74 5.367 5.367 2.74 5.367 -0.5 C
S
GR
GS
[0.75 0 0 0.75 464.64432 451.66341] CT
0 0 1 RC
N
f-1207123816
f
GR
GS
[0.75 0 0 0.75 464.64432 451.66341] CT
0 0 1 RC
10.0 ML
0.667 LW
N
5.367 -0.5 M
5.367 -3.74 2.74 -6.367 -0.5 -6.367 C
-3.74 -6.367 -6.367 -3.74 -6.367 -0.5 C
-6.367 2.74 -3.74 5.367 -0.5 5.367 C
2.74 5.367 5.367 2.74 5.367 -0.5 C
S
GR
GS
[0.75 0 0 0.75 344.82561 382.63754] CT
1 0 0 RC
N
f-1207123816
f
GR
GS
[0.75 0 0 0.75 344.82561 382.63754] CT
1 0 0 RC
10.0 ML
0.667 LW
N
5.367 -0.5 M
5.367 -3.74 2.74 -6.367 -0.5 -6.367 C
-3.74 -6.367 -6.367 -3.74 -6.367 -0.5 C
-6.367 2.74 -3.74 5.367 -0.5 5.367 C
2.74 5.367 5.367 2.74 5.367 -0.5 C
S
GR
GS
[0.75 0 0 0.75 598.97484 156.65072] CT
0.984 0 0.016 RC
N
f-1207123816
f
GR
GS
[0.75 0 0 0.75 598.97484 156.65072] CT
0.984 0 0.016 RC
10.0 ML
0.667 LW
N
5.367 -0.5 M
5.367 -3.74 2.74 -6.367 -0.5 -6.367 C
-3.74 -6.367 -6.367 -3.74 -6.367 -0.5 C
-6.367 2.74 -3.74 5.367 -0.5 5.367 C
2.74 5.367 5.367 2.74 5.367 -0.5 C
S
GR
GS
[0.75 0 0 0.75 539.9166 165.17296] CT
1 0 0 RC
N
f-1207123816
f
GR
GS
[0.75 0 0 0.75 539.9166 165.17296] CT
1 0 0 RC
10.0 ML
0.667 LW
N
5.367 -0.5 M
5.367 -3.74 2.74 -6.367 -0.5 -6.367 C
-3.74 -6.367 -6.367 -3.74 -6.367 -0.5 C
-6.367 2.74 -3.74 5.367 -0.5 5.367 C
2.74 5.367 5.367 2.74 5.367 -0.5 C
S
GR
GS
[0.75 0 0 0.75 475.29259 173.09588] CT
1 0 0 RC
N
f-1207123816
f
GR
GS
[0.75 0 0 0.75 475.29259 173.09588] CT
1 0 0 RC
10.0 ML
0.667 LW
N
5.367 -0.5 M
5.367 -3.74 2.74 -6.367 -0.5 -6.367 C
-3.74 -6.367 -6.367 -3.74 -6.367 -0.5 C
-6.367 2.74 -3.74 5.367 -0.5 5.367 C
2.74 5.367 5.367 2.74 5.367 -0.5 C
S
GR
GS
[0.75 0 0 0.75 584.56206 200.91374] CT
0.643 0 0.357 RC
N
f-1207123816
f
GR
GS
[0.75 0 0 0.75 584.56206 200.91374] CT
0.643 0 0.357 RC
10.0 ML
0.667 LW
N
5.367 -0.5 M
5.367 -3.74 2.74 -6.367 -0.5 -6.367 C
-3.74 -6.367 -6.367 -3.74 -6.367 -0.5 C
-6.367 2.74 -3.74 5.367 -0.5 5.367 C
2.74 5.367 5.367 2.74 5.367 -0.5 C
S
GR
GS
[0.75 0 0 0.75 535.32472 167.96064] CT
1 0 0 RC
N
f-1207123816
f
GR
GS
[0.75 0 0 0.75 535.32472 167.96064] CT
1 0 0 RC
10.0 ML
0.667 LW
N
5.367 -0.5 M
5.367 -3.74 2.74 -6.367 -0.5 -6.367 C
-3.74 -6.367 -6.367 -3.74 -6.367 -0.5 C
-6.367 2.74 -3.74 5.367 -0.5 5.367 C
2.74 5.367 5.367 2.74 5.367 -0.5 C
S
GR
GS
[0.75 0 0 0.75 619.42346 173.55942] CT
0.431 0 0.569 RC
N
f-1207123816
f
GR
GS
[0.75 0 0 0.75 619.42346 173.55942] CT
0.431 0 0.569 RC
10.0 ML
0.667 LW
N
5.367 -0.5 M
5.367 -3.74 2.74 -6.367 -0.5 -6.367 C
-3.74 -6.367 -6.367 -3.74 -6.367 -0.5 C
-6.367 2.74 -3.74 5.367 -0.5 5.367 C
2.74 5.367 5.367 2.74 5.367 -0.5 C
S
GR
GS
[0.75 0 0 0.75 613.90059 216.22967] CT
0.012 0 0.988 RC
N
f-1207123816
f
GR
GS
[0.75 0 0 0.75 613.90059 216.22967] CT
0.012 0 0.988 RC
10.0 ML
0.667 LW
N
5.367 -0.5 M
5.367 -3.74 2.74 -6.367 -0.5 -6.367 C
-3.74 -6.367 -6.367 -3.74 -6.367 -0.5 C
-6.367 2.74 -3.74 5.367 -0.5 5.367 C
2.74 5.367 5.367 2.74 5.367 -0.5 C
S
GR
GS
[0.75 0 0 0.75 675.20824 222.53403] CT
0 0 1 RC
N
f-1207123816
f
GR
GS
[0.75 0 0 0.75 675.20824 222.53403] CT
0 0 1 RC
10.0 ML
0.667 LW
N
5.367 -0.5 M
5.367 -3.74 2.74 -6.367 -0.5 -6.367 C
-3.74 -6.367 -6.367 -3.74 -6.367 -0.5 C
-6.367 2.74 -3.74 5.367 -0.5 5.367 C
2.74 5.367 5.367 2.74 5.367 -0.5 C
S
GR
GS
[0.75 0 0 0.75 618.22389 218.31215] CT
0.004 0 0.996 RC
N
f-1207123816
f
GR
GS
[0.75 0 0 0.75 618.22389 218.31215] CT
0.004 0 0.996 RC
10.0 ML
0.667 LW
N
5.367 -0.5 M
5.367 -3.74 2.74 -6.367 -0.5 -6.367 C
-3.74 -6.367 -6.367 -3.74 -6.367 -0.5 C
-6.367 2.74 -3.74 5.367 -0.5 5.367 C
2.74 5.367 5.367 2.74 5.367 -0.5 C
S
GR
GS
[0.75 0 0 0.75 554.31894 279.33823] CT
0.008 0 0.992 RC
N
f-1207123816
f
GR
GS
[0.75 0 0 0.75 554.31894 279.33823] CT
0.008 0 0.992 RC
10.0 ML
0.667 LW
N
5.367 -0.5 M
5.367 -3.74 2.74 -6.367 -0.5 -6.367 C
-3.74 -6.367 -6.367 -3.74 -6.367 -0.5 C
-6.367 2.74 -3.74 5.367 -0.5 5.367 C
2.74 5.367 5.367 2.74 5.367 -0.5 C
S
GR
GS
[0.75 0 0 0.75 607.30746 215.1097] CT
0.024 0 0.976 RC
N
f-1207123816
f
GR
GS
[0.75 0 0 0.75 607.30746 215.1097] CT
0.024 0 0.976 RC
10.0 ML
0.667 LW
N
5.367 -0.5 M
5.367 -3.74 2.74 -6.367 -0.5 -6.367 C
-3.74 -6.367 -6.367 -3.74 -6.367 -0.5 C
-6.367 2.74 -3.74 5.367 -0.5 5.367 C
2.74 5.367 5.367 2.74 5.367 -0.5 C
S
GR
GS
[0.75 0 0 0.75 535.40327 196.87048] CT
1 0 0 RC
N
f-1207123816
f
GR
GS
[0.75 0 0 0.75 535.40327 196.87048] CT
1 0 0 RC
10.0 ML
0.667 LW
N
5.367 -0.5 M
5.367 -3.74 2.74 -6.367 -0.5 -6.367 C
-3.74 -6.367 -6.367 -3.74 -6.367 -0.5 C
-6.367 2.74 -3.74 5.367 -0.5 5.367 C
2.74 5.367 5.367 2.74 5.367 -0.5 C
S
GR
GS
[0.75 0 0 0.75 586.61531 186.70864] CT
0.882 0 0.118 RC
N
f-1207123816
f
GR
GS
[0.75 0 0 0.75 586.61531 186.70864] CT
0.882 0 0.118 RC
10.0 ML
0.667 LW
N
5.367 -0.5 M
5.367 -3.74 2.74 -6.367 -0.5 -6.367 C
-3.74 -6.367 -6.367 -3.74 -6.367 -0.5 C
-6.367 2.74 -3.74 5.367 -0.5 5.367 C
2.74 5.367 5.367 2.74 5.367 -0.5 C
S
GR
GS
[0.75 0 0 0.75 585.12955 128.29845] CT
1 0 0 RC
N
f-1207123816
f
GR
GS
[0.75 0 0 0.75 585.12955 128.29845] CT
1 0 0 RC
10.0 ML
0.667 LW
N
5.367 -0.5 M
5.367 -3.74 2.74 -6.367 -0.5 -6.367 C
-3.74 -6.367 -6.367 -3.74 -6.367 -0.5 C
-6.367 2.74 -3.74 5.367 -0.5 5.367 C
2.74 5.367 5.367 2.74 5.367 -0.5 C
S
GR
GS
[0.75 0 0 0.75 587.62724 221.16294] CT
0.11 0 0.89 RC
N
f-1207123816
f
GR
GS
[0.75 0 0 0.75 587.62724 221.16294] CT
0.11 0 0.89 RC
10.0 ML
0.667 LW
N
5.367 -0.5 M
5.367 -3.74 2.74 -6.367 -0.5 -6.367 C
-3.74 -6.367 -6.367 -3.74 -6.367 -0.5 C
-6.367 2.74 -3.74 5.367 -0.5 5.367 C
2.74 5.367 5.367 2.74 5.367 -0.5 C
S
GR
GS
[0.75 0 0 0.75 571.17577 170.74765] CT
0.996 0 0.004 RC
N
f-1207123816
f
GR
GS
[0.75 0 0 0.75 571.17577 170.74765] CT
0.996 0 0.004 RC
10.0 ML
0.667 LW
N
5.367 -0.5 M
5.367 -3.74 2.74 -6.367 -0.5 -6.367 C
-3.74 -6.367 -6.367 -3.74 -6.367 -0.5 C
-6.367 2.74 -3.74 5.367 -0.5 5.367 C
2.74 5.367 5.367 2.74 5.367 -0.5 C
S
GR
GS
[0.75 0 0 0.75 644.29147 161.64925] CT
0.145 0 0.855 RC
N
f-1207123816
f
GR
GS
[0.75 0 0 0.75 644.29147 161.64925] CT
0.145 0 0.855 RC
10.0 ML
0.667 LW
N
5.367 -0.5 M
5.367 -3.74 2.74 -6.367 -0.5 -6.367 C
-3.74 -6.367 -6.367 -3.74 -6.367 -0.5 C
-6.367 2.74 -3.74 5.367 -0.5 5.367 C
2.74 5.367 5.367 2.74 5.367 -0.5 C
S
GR
GS
[0.75 0 0 0.75 490.64598 154.30894] CT
1 0 0 RC
N
f-1207123816
f
GR
GS
[0.75 0 0 0.75 490.64598 154.30894] CT
1 0 0 RC
10.0 ML
0.667 LW
N
5.367 -0.5 M
5.367 -3.74 2.74 -6.367 -0.5 -6.367 C
-3.74 -6.367 -6.367 -3.74 -6.367 -0.5 C
-6.367 2.74 -3.74 5.367 -0.5 5.367 C
2.74 5.367 5.367 2.74 5.367 -0.5 C
S
GR
GS
[0.75 0 0 0.75 609.78351 254.34076] CT
0 0 1 RC
N
f-1207123816
f
GR
GS
[0.75 0 0 0.75 609.78351 254.34076] CT
0 0 1 RC
10.0 ML
0.667 LW
N
5.367 -0.5 M
5.367 -3.74 2.74 -6.367 -0.5 -6.367 C
-3.74 -6.367 -6.367 -3.74 -6.367 -0.5 C
-6.367 2.74 -3.74 5.367 -0.5 5.367 C
2.74 5.367 5.367 2.74 5.367 -0.5 C
S
GR
GS
[0.75 0 0 0.75 0 0.5] CT
1 0 0 RC
1 LJ
0.667 LW
N
750.326 370.255 M
747.117 340.746 L
737.639 312.617 L
722.336 287.184 L
701.924 265.634 L
677.356 248.977 L
649.781 237.99 L
620.49 233.188 L
590.851 234.795 L
562.25 242.736 L
536.026 256.64 L
513.403 275.856 L
495.44 299.486 L
482.976 326.425 L
476.596 355.413 L
476.596 385.096 L
482.976 414.084 L
495.44 441.023 L
513.403 464.653 L
536.026 483.87 L
562.25 497.773 L
590.851 505.714 L
620.49 507.321 L
649.781 502.519 L
677.356 491.532 L
701.924 474.875 L
722.336 453.325 L
737.639 427.892 L
747.117 399.763 L
750.326 370.255 L
S
GR
GS
[0.75 0 0 0.75 0 0.5] CT
0 0 1 RC
1 LJ
0.667 LW
N
824.943 444.914 M
821.45 412.798 L
811.135 382.184 L
794.48 354.503 L
772.263 331.049 L
745.524 312.919 L
715.513 300.962 L
683.633 295.736 L
651.375 297.485 L
620.247 306.127 L
591.705 321.259 L
567.083 342.173 L
547.533 367.892 L
533.968 397.211 L
527.023 428.762 L
527.023 461.067 L
533.968 492.617 L
547.533 521.937 L
567.083 547.655 L
591.705 568.569 L
620.247 583.701 L
651.375 592.344 L
683.633 594.093 L
715.513 588.866 L
745.524 576.909 L
772.263 558.78 L
794.48 535.326 L
811.135 507.645 L
821.45 477.03 L
824.943 444.914 L
S
GR
%%Trailer
%%Pages: 1
%%EOF
