%!PS-Adobe-3.0 EPSF-3.0
%%Creator: (MATLAB, The Mathworks, Inc. Version 9.1.0.441655 \(R2016b\). Operating System: Windows 8)
%%Title: (C:/Users/Eigenaar/WIT/Data Mining/data-mining/Session 4/plots/som1grid.eps)
%%CreationDate: 2017-12-09T13:59:38
%%Pages: (atend)
%%BoundingBox: 0 0 605 494
%%LanguageLevel: 3
%%EndComments
%%BeginProlog
%%BeginResource: procset (Apache XML Graphics Std ProcSet) 1.2 0
%%Version: 1.2 0
%%Copyright: (Copyright 2001-2003,2010 The Apache Software Foundation. License terms: http://www.apache.org/licenses/LICENSE-2.0)
/bd{bind def}bind def
/ld{load def}bd
/GR/grestore ld
/M/moveto ld
/LJ/setlinejoin ld
/C/curveto ld
/f/fill ld
/LW/setlinewidth ld
/GC/setgray ld
/t/show ld
/N/newpath ld
/CT/concat ld
/cp/closepath ld
/S/stroke ld
/L/lineto ld
/CC/setcmykcolor ld
/A/ashow ld
/GS/gsave ld
/RC/setrgbcolor ld
/RM/rmoveto ld
/ML/setmiterlimit ld
/re {4 2 roll M
1 index 0 rlineto
0 exch rlineto
neg 0 rlineto
cp } bd
/_ctm matrix def
/_tm matrix def
/BT { _ctm currentmatrix pop matrix _tm copy pop 0 0 moveto } bd
/ET { _ctm setmatrix } bd
/iTm { _ctm setmatrix _tm concat } bd
/Tm { _tm astore pop iTm 0 0 moveto } bd
/ux 0.0 def
/uy 0.0 def
/F {
  /Tp exch def
  /Tf exch def
  Tf findfont Tp scalefont setfont
  /cf Tf def  /cs Tp def
} bd
/ULS {currentpoint /uy exch def /ux exch def} bd
/ULE {
  /Tcx currentpoint pop def
  gsave
  newpath
  cf findfont cs scalefont dup
  /FontMatrix get 0 get /Ts exch def /FontInfo get dup
  /UnderlinePosition get Ts mul /To exch def
  /UnderlineThickness get Ts mul /Tt exch def
  ux uy To add moveto  Tcx uy To add lineto
  Tt setlinewidth stroke
  grestore
} bd
/OLE {
  /Tcx currentpoint pop def
  gsave
  newpath
  cf findfont cs scalefont dup
  /FontMatrix get 0 get /Ts exch def /FontInfo get dup
  /UnderlinePosition get Ts mul /To exch def
  /UnderlineThickness get Ts mul /Tt exch def
  ux uy To add cs add moveto Tcx uy To add cs add lineto
  Tt setlinewidth stroke
  grestore
} bd
/SOE {
  /Tcx currentpoint pop def
  gsave
  newpath
  cf findfont cs scalefont dup
  /FontMatrix get 0 get /Ts exch def /FontInfo get dup
  /UnderlinePosition get Ts mul /To exch def
  /UnderlineThickness get Ts mul /Tt exch def
  ux uy To add cs 10 mul 26 idiv add moveto Tcx uy To add cs 10 mul 26 idiv add lineto
  Tt setlinewidth stroke
  grestore
} bd
/QT {
/Y22 exch store
/X22 exch store
/Y21 exch store
/X21 exch store
currentpoint
/Y21 load 2 mul add 3 div exch
/X21 load 2 mul add 3 div exch
/X21 load 2 mul /X22 load add 3 div
/Y21 load 2 mul /Y22 load add 3 div
/X22 load /Y22 load curveto
} bd
/SSPD {
dup length /d exch dict def
{
/v exch def
/k exch def
currentpagedevice k known {
/cpdv currentpagedevice k get def
v cpdv ne {
/upd false def
/nullv v type /nulltype eq def
/nullcpdv cpdv type /nulltype eq def
nullv nullcpdv or
{
/upd true def
} {
/sametype v type cpdv type eq def
sametype {
v type /arraytype eq {
/vlen v length def
/cpdvlen cpdv length def
vlen cpdvlen eq {
0 1 vlen 1 sub {
/i exch def
/obj v i get def
/cpdobj cpdv i get def
obj cpdobj ne {
/upd true def
exit
} if
} for
} {
/upd true def
} ifelse
} {
v type /dicttype eq {
v {
/dv exch def
/dk exch def
/cpddv cpdv dk get def
dv cpddv ne {
/upd true def
exit
} if
} forall
} {
/upd true def
} ifelse
} ifelse
} if
} ifelse
upd true eq {
d k v put
} if
} if
} if
} forall
d length 0 gt {
d setpagedevice
} if
} bd
/RE { % /NewFontName [NewEncodingArray] /FontName RE -
  findfont dup length dict begin
  {
    1 index /FID ne
    {def} {pop pop} ifelse
  } forall
  /Encoding exch def
  /FontName 1 index def
  currentdict definefont pop
  end
} bind def
%%EndResource
%%BeginResource: procset (Apache XML Graphics EPS ProcSet) 1.0 0
%%Version: 1.0 0
%%Copyright: (Copyright 2002-2003 The Apache Software Foundation. License terms: http://www.apache.org/licenses/LICENSE-2.0)
/BeginEPSF { %def
/b4_Inc_state save def         % Save state for cleanup
/dict_count countdictstack def % Count objects on dict stack
/op_count count 1 sub def      % Count objects on operand stack
userdict begin                 % Push userdict on dict stack
/showpage { } def              % Redefine showpage, { } = null proc
0 setgray 0 setlinecap         % Prepare graphics state
1 setlinewidth 0 setlinejoin
10 setmiterlimit [ ] 0 setdash newpath
/languagelevel where           % If level not equal to 1 then
{pop languagelevel             % set strokeadjust and
1 ne                           % overprint to their defaults.
{false setstrokeadjust false setoverprint
} if
} if
} bd
/EndEPSF { %def
count op_count sub {pop} repeat            % Clean up stacks
countdictstack dict_count sub {end} repeat
b4_Inc_state restore
} bd
%%EndResource
%FOPBeginFontDict
%%IncludeResource: font Courier-Bold
%%IncludeResource: font Helvetica
%%IncludeResource: font Courier-BoldOblique
%%IncludeResource: font Courier-Oblique
%%IncludeResource: font Times-Roman
%%IncludeResource: font Helvetica-BoldOblique
%%IncludeResource: font Helvetica-Bold
%%IncludeResource: font Helvetica-Oblique
%%IncludeResource: font Times-BoldItalic
%%IncludeResource: font Courier
%%IncludeResource: font Times-Italic
%%IncludeResource: font Times-Bold
%%IncludeResource: font Symbol
%%IncludeResource: font ZapfDingbats
%FOPEndFontDict
%%BeginResource: encoding WinAnsiEncoding
/WinAnsiEncoding [
/.notdef /.notdef /.notdef /.notdef /.notdef
/.notdef /.notdef /.notdef /.notdef /.notdef
/.notdef /.notdef /.notdef /.notdef /.notdef
/.notdef /.notdef /.notdef /.notdef /.notdef
/.notdef /.notdef /.notdef /.notdef /.notdef
/.notdef /.notdef /.notdef /.notdef /.notdef
/.notdef /.notdef /space /exclam /quotedbl
/numbersign /dollar /percent /ampersand /quotesingle
/parenleft /parenright /asterisk /plus /comma
/hyphen /period /slash /zero /one
/two /three /four /five /six
/seven /eight /nine /colon /semicolon
/less /equal /greater /question /at
/A /B /C /D /E
/F /G /H /I /J
/K /L /M /N /O
/P /Q /R /S /T
/U /V /W /X /Y
/Z /bracketleft /backslash /bracketright /asciicircum
/underscore /quoteleft /a /b /c
/d /e /f /g /h
/i /j /k /l /m
/n /o /p /q /r
/s /t /u /v /w
/x /y /z /braceleft /bar
/braceright /asciitilde /bullet /Euro /bullet
/quotesinglbase /florin /quotedblbase /ellipsis /dagger
/daggerdbl /circumflex /perthousand /Scaron /guilsinglleft
/OE /bullet /Zcaron /bullet /bullet
/quoteleft /quoteright /quotedblleft /quotedblright /bullet
/endash /emdash /asciitilde /trademark /scaron
/guilsinglright /oe /bullet /zcaron /Ydieresis
/space /exclamdown /cent /sterling /currency
/yen /brokenbar /section /dieresis /copyright
/ordfeminine /guillemotleft /logicalnot /sfthyphen /registered
/macron /degree /plusminus /twosuperior /threesuperior
/acute /mu /paragraph /middot /cedilla
/onesuperior /ordmasculine /guillemotright /onequarter /onehalf
/threequarters /questiondown /Agrave /Aacute /Acircumflex
/Atilde /Adieresis /Aring /AE /Ccedilla
/Egrave /Eacute /Ecircumflex /Edieresis /Igrave
/Iacute /Icircumflex /Idieresis /Eth /Ntilde
/Ograve /Oacute /Ocircumflex /Otilde /Odieresis
/multiply /Oslash /Ugrave /Uacute /Ucircumflex
/Udieresis /Yacute /Thorn /germandbls /agrave
/aacute /acircumflex /atilde /adieresis /aring
/ae /ccedilla /egrave /eacute /ecircumflex
/edieresis /igrave /iacute /icircumflex /idieresis
/eth /ntilde /ograve /oacute /ocircumflex
/otilde /odieresis /divide /oslash /ugrave
/uacute /ucircumflex /udieresis /yacute /thorn
/ydieresis
] def
%%EndResource
%FOPBeginFontReencode
/Courier-Bold findfont
dup length dict begin
  {1 index /FID ne {def} {pop pop} ifelse} forall
  /Encoding WinAnsiEncoding def
  currentdict
end
/Courier-Bold exch definefont pop
/Helvetica findfont
dup length dict begin
  {1 index /FID ne {def} {pop pop} ifelse} forall
  /Encoding WinAnsiEncoding def
  currentdict
end
/Helvetica exch definefont pop
/Courier-BoldOblique findfont
dup length dict begin
  {1 index /FID ne {def} {pop pop} ifelse} forall
  /Encoding WinAnsiEncoding def
  currentdict
end
/Courier-BoldOblique exch definefont pop
/Courier-Oblique findfont
dup length dict begin
  {1 index /FID ne {def} {pop pop} ifelse} forall
  /Encoding WinAnsiEncoding def
  currentdict
end
/Courier-Oblique exch definefont pop
/Times-Roman findfont
dup length dict begin
  {1 index /FID ne {def} {pop pop} ifelse} forall
  /Encoding WinAnsiEncoding def
  currentdict
end
/Times-Roman exch definefont pop
/Helvetica-BoldOblique findfont
dup length dict begin
  {1 index /FID ne {def} {pop pop} ifelse} forall
  /Encoding WinAnsiEncoding def
  currentdict
end
/Helvetica-BoldOblique exch definefont pop
/Helvetica-Bold findfont
dup length dict begin
  {1 index /FID ne {def} {pop pop} ifelse} forall
  /Encoding WinAnsiEncoding def
  currentdict
end
/Helvetica-Bold exch definefont pop
/Helvetica-Oblique findfont
dup length dict begin
  {1 index /FID ne {def} {pop pop} ifelse} forall
  /Encoding WinAnsiEncoding def
  currentdict
end
/Helvetica-Oblique exch definefont pop
/Times-BoldItalic findfont
dup length dict begin
  {1 index /FID ne {def} {pop pop} ifelse} forall
  /Encoding WinAnsiEncoding def
  currentdict
end
/Times-BoldItalic exch definefont pop
/Courier findfont
dup length dict begin
  {1 index /FID ne {def} {pop pop} ifelse} forall
  /Encoding WinAnsiEncoding def
  currentdict
end
/Courier exch definefont pop
/Times-Italic findfont
dup length dict begin
  {1 index /FID ne {def} {pop pop} ifelse} forall
  /Encoding WinAnsiEncoding def
  currentdict
end
/Times-Italic exch definefont pop
/Times-Bold findfont
dup length dict begin
  {1 index /FID ne {def} {pop pop} ifelse} forall
  /Encoding WinAnsiEncoding def
  currentdict
end
/Times-Bold exch definefont pop
%FOPEndFontReencode
%%EndProlog
%%Page: 1 1
%%PageBoundingBox: 0 0 605 494
%%BeginPageSetup
[1 0 0 -1 0 494] CT
%%EndPageSetup
GS
[0.75 0 0 0.75 0 -0.25] CT
1 GC
N
0 0 806 659 re
f
GR
GS
[0.75 0 0 0.75 0 -0.25] CT
1 GC
N
0 0 806 659 re
f
GR
GS
[0.75 0 0 0.75 180.00017 158.62545] CT
/Helvetica-Bold 14.667 F
GS
[1 0 0 1 0 0] CT
-73.5 -4 moveto 
1 -1 scale
(Hexagonal SOM grid) t 
GR
GR
GS
[0.75 0 0 0.75 0 -0.25] CT
2 setlinecap
10.0 ML
0.667 LW
N
113.872 257.881 M
122.571 252.652 L
122.571 242.198 L
113.872 236.969 L
105.174 242.198 L
105.174 252.652 L
113.872 257.881 L
S
GR
GS
[0.75 0 0 0.75 0 -0.25] CT
2 setlinecap
10.0 ML
0.667 LW
N
122.571 273.564 M
131.269 268.336 L
131.269 257.881 L
122.571 252.652 L
113.872 257.881 L
113.872 268.336 L
122.571 273.564 L
S
GR
GS
[0.75 0 0 0.75 0 -0.25] CT
2 setlinecap
10.0 ML
0.667 LW
N
113.872 289.248 M
122.571 284.019 L
122.571 273.564 L
113.872 268.336 L
105.174 273.564 L
105.174 284.019 L
113.872 289.248 L
S
GR
GS
[0.75 0 0 0.75 0 -0.25] CT
2 setlinecap
10.0 ML
0.667 LW
N
122.571 304.931 M
131.269 299.702 L
131.269 289.248 L
122.571 284.019 L
113.872 289.248 L
113.872 299.702 L
122.571 304.931 L
S
GR
GS
[0.75 0 0 0.75 0 -0.25] CT
2 setlinecap
10.0 ML
0.667 LW
N
113.872 320.614 M
122.571 315.386 L
122.571 304.931 L
113.872 299.702 L
105.174 304.931 L
105.174 315.386 L
113.872 320.614 L
S
GR
GS
[0.75 0 0 0.75 0 -0.25] CT
2 setlinecap
10.0 ML
0.667 LW
N
122.571 336.298 M
131.269 331.069 L
131.269 320.614 L
122.571 315.386 L
113.872 320.614 L
113.872 331.069 L
122.571 336.298 L
S
GR
GS
[0.75 0 0 0.75 0 -0.25] CT
2 setlinecap
10.0 ML
0.667 LW
N
113.872 351.981 M
122.571 346.752 L
122.571 336.298 L
113.872 331.069 L
105.174 336.298 L
105.174 346.752 L
113.872 351.981 L
S
GR
GS
[0.75 0 0 0.75 0 -0.25] CT
2 setlinecap
10.0 ML
0.667 LW
N
122.571 367.664 M
131.269 362.436 L
131.269 351.981 L
122.571 346.752 L
113.872 351.981 L
113.872 362.436 L
122.571 367.664 L
S
GR
GS
[0.75 0 0 0.75 0 -0.25] CT
2 setlinecap
10.0 ML
0.667 LW
N
113.872 383.348 M
122.571 378.119 L
122.571 367.664 L
113.872 362.436 L
105.174 367.664 L
105.174 378.119 L
113.872 383.348 L
S
GR
GS
[0.75 0 0 0.75 0 -0.25] CT
2 setlinecap
10.0 ML
0.667 LW
N
122.571 399.031 M
131.269 393.802 L
131.269 383.348 L
122.571 378.119 L
113.872 383.348 L
113.872 393.802 L
122.571 399.031 L
S
GR
GS
[0.75 0 0 0.75 0 -0.25] CT
2 setlinecap
10.0 ML
0.667 LW
N
131.269 257.881 M
139.968 252.652 L
139.968 242.198 L
131.269 236.969 L
122.571 242.198 L
122.571 252.652 L
131.269 257.881 L
S
GR
GS
[0.75 0 0 0.75 0 -0.25] CT
2 setlinecap
10.0 ML
0.667 LW
N
139.968 273.564 M
148.666 268.336 L
148.666 257.881 L
139.968 252.652 L
131.269 257.881 L
131.269 268.336 L
139.968 273.564 L
S
GR
GS
[0.75 0 0 0.75 0 -0.25] CT
2 setlinecap
10.0 ML
0.667 LW
N
131.269 289.248 M
139.968 284.019 L
139.968 273.564 L
131.269 268.336 L
122.571 273.564 L
122.571 284.019 L
131.269 289.248 L
S
GR
GS
[0.75 0 0 0.75 0 -0.25] CT
2 setlinecap
10.0 ML
0.667 LW
N
139.968 304.931 M
148.666 299.702 L
148.666 289.248 L
139.968 284.019 L
131.269 289.248 L
131.269 299.702 L
139.968 304.931 L
S
GR
GS
[0.75 0 0 0.75 0 -0.25] CT
2 setlinecap
10.0 ML
0.667 LW
N
131.269 320.614 M
139.968 315.386 L
139.968 304.931 L
131.269 299.702 L
122.571 304.931 L
122.571 315.386 L
131.269 320.614 L
S
GR
GS
[0.75 0 0 0.75 0 -0.25] CT
2 setlinecap
10.0 ML
0.667 LW
N
139.968 336.298 M
148.666 331.069 L
148.666 320.614 L
139.968 315.386 L
131.269 320.614 L
131.269 331.069 L
139.968 336.298 L
S
GR
GS
[0.75 0 0 0.75 0 -0.25] CT
2 setlinecap
10.0 ML
0.667 LW
N
131.269 351.981 M
139.968 346.752 L
139.968 336.298 L
131.269 331.069 L
122.571 336.298 L
122.571 346.752 L
131.269 351.981 L
S
GR
GS
[0.75 0 0 0.75 0 -0.25] CT
2 setlinecap
10.0 ML
0.667 LW
N
139.968 367.664 M
148.666 362.436 L
148.666 351.981 L
139.968 346.752 L
131.269 351.981 L
131.269 362.436 L
139.968 367.664 L
S
GR
GS
[0.75 0 0 0.75 0 -0.25] CT
2 setlinecap
10.0 ML
0.667 LW
N
131.269 383.348 M
139.968 378.119 L
139.968 367.664 L
131.269 362.436 L
122.571 367.664 L
122.571 378.119 L
131.269 383.348 L
S
GR
GS
[0.75 0 0 0.75 0 -0.25] CT
2 setlinecap
10.0 ML
0.667 LW
N
139.968 399.031 M
148.666 393.802 L
148.666 383.348 L
139.968 378.119 L
131.269 383.348 L
131.269 393.802 L
139.968 399.031 L
S
GR
GS
[0.75 0 0 0.75 0 -0.25] CT
2 setlinecap
10.0 ML
0.667 LW
N
148.666 257.881 M
157.365 252.652 L
157.365 242.198 L
148.666 236.969 L
139.968 242.198 L
139.968 252.652 L
148.666 257.881 L
S
GR
GS
[0.75 0 0 0.75 0 -0.25] CT
2 setlinecap
10.0 ML
0.667 LW
N
157.365 273.564 M
166.063 268.336 L
166.063 257.881 L
157.365 252.652 L
148.666 257.881 L
148.666 268.336 L
157.365 273.564 L
S
GR
GS
[0.75 0 0 0.75 0 -0.25] CT
2 setlinecap
10.0 ML
0.667 LW
N
148.666 289.248 M
157.365 284.019 L
157.365 273.564 L
148.666 268.336 L
139.968 273.564 L
139.968 284.019 L
148.666 289.248 L
S
GR
GS
[0.75 0 0 0.75 0 -0.25] CT
2 setlinecap
10.0 ML
0.667 LW
N
157.365 304.931 M
166.063 299.702 L
166.063 289.248 L
157.365 284.019 L
148.666 289.248 L
148.666 299.702 L
157.365 304.931 L
S
GR
GS
[0.75 0 0 0.75 0 -0.25] CT
2 setlinecap
10.0 ML
0.667 LW
N
148.666 320.614 M
157.365 315.386 L
157.365 304.931 L
148.666 299.702 L
139.968 304.931 L
139.968 315.386 L
148.666 320.614 L
S
GR
GS
[0.75 0 0 0.75 0 -0.25] CT
2 setlinecap
10.0 ML
0.667 LW
N
157.365 336.298 M
166.063 331.069 L
166.063 320.614 L
157.365 315.386 L
148.666 320.614 L
148.666 331.069 L
157.365 336.298 L
S
GR
GS
[0.75 0 0 0.75 0 -0.25] CT
2 setlinecap
10.0 ML
0.667 LW
N
148.666 351.981 M
157.365 346.752 L
157.365 336.298 L
148.666 331.069 L
139.968 336.298 L
139.968 346.752 L
148.666 351.981 L
S
GR
GS
[0.75 0 0 0.75 0 -0.25] CT
2 setlinecap
10.0 ML
0.667 LW
N
157.365 367.664 M
166.063 362.436 L
166.063 351.981 L
157.365 346.752 L
148.666 351.981 L
148.666 362.436 L
157.365 367.664 L
S
GR
GS
[0.75 0 0 0.75 0 -0.25] CT
2 setlinecap
10.0 ML
0.667 LW
N
148.666 383.348 M
157.365 378.119 L
157.365 367.664 L
148.666 362.436 L
139.968 367.664 L
139.968 378.119 L
148.666 383.348 L
S
GR
GS
[0.75 0 0 0.75 0 -0.25] CT
2 setlinecap
10.0 ML
0.667 LW
N
157.365 399.031 M
166.063 393.802 L
166.063 383.348 L
157.365 378.119 L
148.666 383.348 L
148.666 393.802 L
157.365 399.031 L
S
GR
GS
[0.75 0 0 0.75 0 -0.25] CT
2 setlinecap
10.0 ML
0.667 LW
N
166.063 257.881 M
174.762 252.652 L
174.762 242.198 L
166.063 236.969 L
157.365 242.198 L
157.365 252.652 L
166.063 257.881 L
S
GR
GS
[0.75 0 0 0.75 0 -0.25] CT
2 setlinecap
10.0 ML
0.667 LW
N
174.762 273.564 M
183.46 268.336 L
183.46 257.881 L
174.762 252.652 L
166.063 257.881 L
166.063 268.336 L
174.762 273.564 L
S
GR
GS
[0.75 0 0 0.75 0 -0.25] CT
2 setlinecap
10.0 ML
0.667 LW
N
166.063 289.248 M
174.762 284.019 L
174.762 273.564 L
166.063 268.336 L
157.365 273.564 L
157.365 284.019 L
166.063 289.248 L
S
GR
GS
[0.75 0 0 0.75 0 -0.25] CT
2 setlinecap
10.0 ML
0.667 LW
N
174.762 304.931 M
183.46 299.702 L
183.46 289.248 L
174.762 284.019 L
166.063 289.248 L
166.063 299.702 L
174.762 304.931 L
S
GR
GS
[0.75 0 0 0.75 0 -0.25] CT
2 setlinecap
10.0 ML
0.667 LW
N
166.063 320.614 M
174.762 315.386 L
174.762 304.931 L
166.063 299.702 L
157.365 304.931 L
157.365 315.386 L
166.063 320.614 L
S
GR
GS
[0.75 0 0 0.75 0 -0.25] CT
2 setlinecap
10.0 ML
0.667 LW
N
174.762 336.298 M
183.46 331.069 L
183.46 320.614 L
174.762 315.386 L
166.063 320.614 L
166.063 331.069 L
174.762 336.298 L
S
GR
GS
[0.75 0 0 0.75 0 -0.25] CT
2 setlinecap
10.0 ML
0.667 LW
N
166.063 351.981 M
174.762 346.752 L
174.762 336.298 L
166.063 331.069 L
157.365 336.298 L
157.365 346.752 L
166.063 351.981 L
S
GR
GS
[0.75 0 0 0.75 0 -0.25] CT
2 setlinecap
10.0 ML
0.667 LW
N
174.762 367.664 M
183.46 362.436 L
183.46 351.981 L
174.762 346.752 L
166.063 351.981 L
166.063 362.436 L
174.762 367.664 L
S
GR
GS
[0.75 0 0 0.75 0 -0.25] CT
2 setlinecap
10.0 ML
0.667 LW
N
166.063 383.348 M
174.762 378.119 L
174.762 367.664 L
166.063 362.436 L
157.365 367.664 L
157.365 378.119 L
166.063 383.348 L
S
GR
GS
[0.75 0 0 0.75 0 -0.25] CT
2 setlinecap
10.0 ML
0.667 LW
N
174.762 399.031 M
183.46 393.802 L
183.46 383.348 L
174.762 378.119 L
166.063 383.348 L
166.063 393.802 L
174.762 399.031 L
S
GR
GS
[0.75 0 0 0.75 0 -0.25] CT
2 setlinecap
10.0 ML
0.667 LW
N
183.46 257.881 M
192.159 252.652 L
192.159 242.198 L
183.46 236.969 L
174.762 242.198 L
174.762 252.652 L
183.46 257.881 L
S
GR
GS
[0.75 0 0 0.75 0 -0.25] CT
2 setlinecap
10.0 ML
0.667 LW
N
192.159 273.564 M
200.857 268.336 L
200.857 257.881 L
192.159 252.652 L
183.46 257.881 L
183.46 268.336 L
192.159 273.564 L
S
GR
GS
[0.75 0 0 0.75 0 -0.25] CT
2 setlinecap
10.0 ML
0.667 LW
N
183.46 289.248 M
192.159 284.019 L
192.159 273.564 L
183.46 268.336 L
174.762 273.564 L
174.762 284.019 L
183.46 289.248 L
S
GR
GS
[0.75 0 0 0.75 0 -0.25] CT
2 setlinecap
10.0 ML
0.667 LW
N
192.159 304.931 M
200.857 299.702 L
200.857 289.248 L
192.159 284.019 L
183.46 289.248 L
183.46 299.702 L
192.159 304.931 L
S
GR
GS
[0.75 0 0 0.75 0 -0.25] CT
2 setlinecap
10.0 ML
0.667 LW
N
183.46 320.614 M
192.159 315.386 L
192.159 304.931 L
183.46 299.702 L
174.762 304.931 L
174.762 315.386 L
183.46 320.614 L
S
GR
GS
[0.75 0 0 0.75 0 -0.25] CT
2 setlinecap
10.0 ML
0.667 LW
N
192.159 336.298 M
200.857 331.069 L
200.857 320.614 L
192.159 315.386 L
183.46 320.614 L
183.46 331.069 L
192.159 336.298 L
S
GR
GS
[0.75 0 0 0.75 0 -0.25] CT
2 setlinecap
10.0 ML
0.667 LW
N
183.46 351.981 M
192.159 346.752 L
192.159 336.298 L
183.46 331.069 L
174.762 336.298 L
174.762 346.752 L
183.46 351.981 L
S
GR
GS
[0.75 0 0 0.75 0 -0.25] CT
2 setlinecap
10.0 ML
0.667 LW
N
192.159 367.664 M
200.857 362.436 L
200.857 351.981 L
192.159 346.752 L
183.46 351.981 L
183.46 362.436 L
192.159 367.664 L
S
GR
GS
[0.75 0 0 0.75 0 -0.25] CT
2 setlinecap
10.0 ML
0.667 LW
N
183.46 383.348 M
192.159 378.119 L
192.159 367.664 L
183.46 362.436 L
174.762 367.664 L
174.762 378.119 L
183.46 383.348 L
S
GR
GS
[0.75 0 0 0.75 0 -0.25] CT
2 setlinecap
10.0 ML
0.667 LW
N
192.159 399.031 M
200.857 393.802 L
200.857 383.348 L
192.159 378.119 L
183.46 383.348 L
183.46 393.802 L
192.159 399.031 L
S
GR
GS
[0.75 0 0 0.75 0 -0.25] CT
2 setlinecap
10.0 ML
0.667 LW
N
200.857 257.881 M
209.555 252.652 L
209.555 242.198 L
200.857 236.969 L
192.159 242.198 L
192.159 252.652 L
200.857 257.881 L
S
GR
GS
[0.75 0 0 0.75 0 -0.25] CT
2 setlinecap
10.0 ML
0.667 LW
N
209.555 273.564 M
218.254 268.336 L
218.254 257.881 L
209.555 252.652 L
200.857 257.881 L
200.857 268.336 L
209.555 273.564 L
S
GR
GS
[0.75 0 0 0.75 0 -0.25] CT
2 setlinecap
10.0 ML
0.667 LW
N
200.857 289.248 M
209.555 284.019 L
209.555 273.564 L
200.857 268.336 L
192.159 273.564 L
192.159 284.019 L
200.857 289.248 L
S
GR
GS
[0.75 0 0 0.75 0 -0.25] CT
2 setlinecap
10.0 ML
0.667 LW
N
209.555 304.931 M
218.254 299.702 L
218.254 289.248 L
209.555 284.019 L
200.857 289.248 L
200.857 299.702 L
209.555 304.931 L
S
GR
GS
[0.75 0 0 0.75 0 -0.25] CT
2 setlinecap
10.0 ML
0.667 LW
N
200.857 320.614 M
209.555 315.386 L
209.555 304.931 L
200.857 299.702 L
192.159 304.931 L
192.159 315.386 L
200.857 320.614 L
S
GR
GS
[0.75 0 0 0.75 0 -0.25] CT
2 setlinecap
10.0 ML
0.667 LW
N
209.555 336.298 M
218.254 331.069 L
218.254 320.614 L
209.555 315.386 L
200.857 320.614 L
200.857 331.069 L
209.555 336.298 L
S
GR
GS
[0.75 0 0 0.75 0 -0.25] CT
2 setlinecap
10.0 ML
0.667 LW
N
200.857 351.981 M
209.555 346.752 L
209.555 336.298 L
200.857 331.069 L
192.159 336.298 L
192.159 346.752 L
200.857 351.981 L
S
GR
GS
[0.75 0 0 0.75 0 -0.25] CT
2 setlinecap
10.0 ML
0.667 LW
N
209.555 367.664 M
218.254 362.436 L
218.254 351.981 L
209.555 346.752 L
200.857 351.981 L
200.857 362.436 L
209.555 367.664 L
S
GR
GS
[0.75 0 0 0.75 0 -0.25] CT
2 setlinecap
10.0 ML
0.667 LW
N
200.857 383.348 M
209.555 378.119 L
209.555 367.664 L
200.857 362.436 L
192.159 367.664 L
192.159 378.119 L
200.857 383.348 L
S
GR
GS
[0.75 0 0 0.75 0 -0.25] CT
2 setlinecap
10.0 ML
0.667 LW
N
209.555 399.031 M
218.254 393.802 L
218.254 383.348 L
209.555 378.119 L
200.857 383.348 L
200.857 393.802 L
209.555 399.031 L
S
GR
GS
[0.75 0 0 0.75 0 -0.25] CT
2 setlinecap
10.0 ML
0.667 LW
N
218.254 257.881 M
226.952 252.652 L
226.952 242.198 L
218.254 236.969 L
209.555 242.198 L
209.555 252.652 L
218.254 257.881 L
S
GR
GS
[0.75 0 0 0.75 0 -0.25] CT
2 setlinecap
10.0 ML
0.667 LW
N
226.952 273.564 M
235.651 268.336 L
235.651 257.881 L
226.952 252.652 L
218.254 257.881 L
218.254 268.336 L
226.952 273.564 L
S
GR
GS
[0.75 0 0 0.75 0 -0.25] CT
2 setlinecap
10.0 ML
0.667 LW
N
218.254 289.248 M
226.952 284.019 L
226.952 273.564 L
218.254 268.336 L
209.555 273.564 L
209.555 284.019 L
218.254 289.248 L
S
GR
GS
[0.75 0 0 0.75 0 -0.25] CT
2 setlinecap
10.0 ML
0.667 LW
N
226.952 304.931 M
235.651 299.702 L
235.651 289.248 L
226.952 284.019 L
218.254 289.248 L
218.254 299.702 L
226.952 304.931 L
S
GR
GS
[0.75 0 0 0.75 0 -0.25] CT
2 setlinecap
10.0 ML
0.667 LW
N
218.254 320.614 M
226.952 315.386 L
226.952 304.931 L
218.254 299.702 L
209.555 304.931 L
209.555 315.386 L
218.254 320.614 L
S
GR
GS
[0.75 0 0 0.75 0 -0.25] CT
2 setlinecap
10.0 ML
0.667 LW
N
226.952 336.298 M
235.651 331.069 L
235.651 320.614 L
226.952 315.386 L
218.254 320.614 L
218.254 331.069 L
226.952 336.298 L
S
GR
GS
[0.75 0 0 0.75 0 -0.25] CT
2 setlinecap
10.0 ML
0.667 LW
N
218.254 351.981 M
226.952 346.752 L
226.952 336.298 L
218.254 331.069 L
209.555 336.298 L
209.555 346.752 L
218.254 351.981 L
S
GR
GS
[0.75 0 0 0.75 0 -0.25] CT
2 setlinecap
10.0 ML
0.667 LW
N
226.952 367.664 M
235.651 362.436 L
235.651 351.981 L
226.952 346.752 L
218.254 351.981 L
218.254 362.436 L
226.952 367.664 L
S
GR
GS
[0.75 0 0 0.75 0 -0.25] CT
2 setlinecap
10.0 ML
0.667 LW
N
218.254 383.348 M
226.952 378.119 L
226.952 367.664 L
218.254 362.436 L
209.555 367.664 L
209.555 378.119 L
218.254 383.348 L
S
GR
GS
[0.75 0 0 0.75 0 -0.25] CT
2 setlinecap
10.0 ML
0.667 LW
N
226.952 399.031 M
235.651 393.802 L
235.651 383.348 L
226.952 378.119 L
218.254 383.348 L
218.254 393.802 L
226.952 399.031 L
S
GR
GS
[0.75 0 0 0.75 0 -0.25] CT
2 setlinecap
10.0 ML
0.667 LW
N
235.651 257.881 M
244.349 252.652 L
244.349 242.198 L
235.651 236.969 L
226.952 242.198 L
226.952 252.652 L
235.651 257.881 L
S
GR
GS
[0.75 0 0 0.75 0 -0.25] CT
2 setlinecap
10.0 ML
0.667 LW
N
244.349 273.564 M
253.048 268.336 L
253.048 257.881 L
244.349 252.652 L
235.651 257.881 L
235.651 268.336 L
244.349 273.564 L
S
GR
GS
[0.75 0 0 0.75 0 -0.25] CT
2 setlinecap
10.0 ML
0.667 LW
N
235.651 289.248 M
244.349 284.019 L
244.349 273.564 L
235.651 268.336 L
226.952 273.564 L
226.952 284.019 L
235.651 289.248 L
S
GR
GS
[0.75 0 0 0.75 0 -0.25] CT
2 setlinecap
10.0 ML
0.667 LW
N
244.349 304.931 M
253.048 299.702 L
253.048 289.248 L
244.349 284.019 L
235.651 289.248 L
235.651 299.702 L
244.349 304.931 L
S
GR
GS
[0.75 0 0 0.75 0 -0.25] CT
2 setlinecap
10.0 ML
0.667 LW
N
235.651 320.614 M
244.349 315.386 L
244.349 304.931 L
235.651 299.702 L
226.952 304.931 L
226.952 315.386 L
235.651 320.614 L
S
GR
GS
[0.75 0 0 0.75 0 -0.25] CT
2 setlinecap
10.0 ML
0.667 LW
N
244.349 336.298 M
253.048 331.069 L
253.048 320.614 L
244.349 315.386 L
235.651 320.614 L
235.651 331.069 L
244.349 336.298 L
S
GR
GS
[0.75 0 0 0.75 0 -0.25] CT
2 setlinecap
10.0 ML
0.667 LW
N
235.651 351.981 M
244.349 346.752 L
244.349 336.298 L
235.651 331.069 L
226.952 336.298 L
226.952 346.752 L
235.651 351.981 L
S
GR
GS
[0.75 0 0 0.75 0 -0.25] CT
2 setlinecap
10.0 ML
0.667 LW
N
244.349 367.664 M
253.048 362.436 L
253.048 351.981 L
244.349 346.752 L
235.651 351.981 L
235.651 362.436 L
244.349 367.664 L
S
GR
GS
[0.75 0 0 0.75 0 -0.25] CT
2 setlinecap
10.0 ML
0.667 LW
N
235.651 383.348 M
244.349 378.119 L
244.349 367.664 L
235.651 362.436 L
226.952 367.664 L
226.952 378.119 L
235.651 383.348 L
S
GR
GS
[0.75 0 0 0.75 0 -0.25] CT
2 setlinecap
10.0 ML
0.667 LW
N
244.349 399.031 M
253.048 393.802 L
253.048 383.348 L
244.349 378.119 L
235.651 383.348 L
235.651 393.802 L
244.349 399.031 L
S
GR
GS
[0.75 0 0 0.75 0 -0.25] CT
2 setlinecap
10.0 ML
0.667 LW
N
253.048 257.881 M
261.746 252.652 L
261.746 242.198 L
253.048 236.969 L
244.349 242.198 L
244.349 252.652 L
253.048 257.881 L
S
GR
GS
[0.75 0 0 0.75 0 -0.25] CT
2 setlinecap
10.0 ML
0.667 LW
N
261.746 273.564 M
270.445 268.336 L
270.445 257.881 L
261.746 252.652 L
253.048 257.881 L
253.048 268.336 L
261.746 273.564 L
S
GR
GS
[0.75 0 0 0.75 0 -0.25] CT
2 setlinecap
10.0 ML
0.667 LW
N
253.048 289.248 M
261.746 284.019 L
261.746 273.564 L
253.048 268.336 L
244.349 273.564 L
244.349 284.019 L
253.048 289.248 L
S
GR
GS
[0.75 0 0 0.75 0 -0.25] CT
2 setlinecap
10.0 ML
0.667 LW
N
261.746 304.931 M
270.445 299.702 L
270.445 289.248 L
261.746 284.019 L
253.048 289.248 L
253.048 299.702 L
261.746 304.931 L
S
GR
GS
[0.75 0 0 0.75 0 -0.25] CT
2 setlinecap
10.0 ML
0.667 LW
N
253.048 320.614 M
261.746 315.386 L
261.746 304.931 L
253.048 299.702 L
244.349 304.931 L
244.349 315.386 L
253.048 320.614 L
S
GR
GS
[0.75 0 0 0.75 0 -0.25] CT
2 setlinecap
10.0 ML
0.667 LW
N
261.746 336.298 M
270.445 331.069 L
270.445 320.614 L
261.746 315.386 L
253.048 320.614 L
253.048 331.069 L
261.746 336.298 L
S
GR
GS
[0.75 0 0 0.75 0 -0.25] CT
2 setlinecap
10.0 ML
0.667 LW
N
253.048 351.981 M
261.746 346.752 L
261.746 336.298 L
253.048 331.069 L
244.349 336.298 L
244.349 346.752 L
253.048 351.981 L
S
GR
GS
[0.75 0 0 0.75 0 -0.25] CT
2 setlinecap
10.0 ML
0.667 LW
N
261.746 367.664 M
270.445 362.436 L
270.445 351.981 L
261.746 346.752 L
253.048 351.981 L
253.048 362.436 L
261.746 367.664 L
S
GR
GS
[0.75 0 0 0.75 0 -0.25] CT
2 setlinecap
10.0 ML
0.667 LW
N
253.048 383.348 M
261.746 378.119 L
261.746 367.664 L
253.048 362.436 L
244.349 367.664 L
244.349 378.119 L
253.048 383.348 L
S
GR
GS
[0.75 0 0 0.75 0 -0.25] CT
2 setlinecap
10.0 ML
0.667 LW
N
261.746 399.031 M
270.445 393.802 L
270.445 383.348 L
261.746 378.119 L
253.048 383.348 L
253.048 393.802 L
261.746 399.031 L
S
GR
GS
[0.75 0 0 0.75 0 -0.25] CT
2 setlinecap
10.0 ML
0.667 LW
N
270.445 257.881 M
279.143 252.652 L
279.143 242.198 L
270.445 236.969 L
261.746 242.198 L
261.746 252.652 L
270.445 257.881 L
S
GR
GS
[0.75 0 0 0.75 0 -0.25] CT
2 setlinecap
10.0 ML
0.667 LW
N
279.143 273.564 M
287.841 268.336 L
287.841 257.881 L
279.143 252.652 L
270.445 257.881 L
270.445 268.336 L
279.143 273.564 L
S
GR
GS
[0.75 0 0 0.75 0 -0.25] CT
2 setlinecap
10.0 ML
0.667 LW
N
270.445 289.248 M
279.143 284.019 L
279.143 273.564 L
270.445 268.336 L
261.746 273.564 L
261.746 284.019 L
270.445 289.248 L
S
GR
GS
[0.75 0 0 0.75 0 -0.25] CT
2 setlinecap
10.0 ML
0.667 LW
N
279.143 304.931 M
287.841 299.702 L
287.841 289.248 L
279.143 284.019 L
270.445 289.248 L
270.445 299.702 L
279.143 304.931 L
S
GR
GS
[0.75 0 0 0.75 0 -0.25] CT
2 setlinecap
10.0 ML
0.667 LW
N
270.445 320.614 M
279.143 315.386 L
279.143 304.931 L
270.445 299.702 L
261.746 304.931 L
261.746 315.386 L
270.445 320.614 L
S
GR
GS
[0.75 0 0 0.75 0 -0.25] CT
2 setlinecap
10.0 ML
0.667 LW
N
279.143 336.298 M
287.841 331.069 L
287.841 320.614 L
279.143 315.386 L
270.445 320.614 L
270.445 331.069 L
279.143 336.298 L
S
GR
GS
[0.75 0 0 0.75 0 -0.25] CT
2 setlinecap
10.0 ML
0.667 LW
N
270.445 351.981 M
279.143 346.752 L
279.143 336.298 L
270.445 331.069 L
261.746 336.298 L
261.746 346.752 L
270.445 351.981 L
S
GR
GS
[0.75 0 0 0.75 0 -0.25] CT
2 setlinecap
10.0 ML
0.667 LW
N
279.143 367.664 M
287.841 362.436 L
287.841 351.981 L
279.143 346.752 L
270.445 351.981 L
270.445 362.436 L
279.143 367.664 L
S
GR
GS
[0.75 0 0 0.75 0 -0.25] CT
2 setlinecap
10.0 ML
0.667 LW
N
270.445 383.348 M
279.143 378.119 L
279.143 367.664 L
270.445 362.436 L
261.746 367.664 L
261.746 378.119 L
270.445 383.348 L
S
GR
GS
[0.75 0 0 0.75 0 -0.25] CT
2 setlinecap
10.0 ML
0.667 LW
N
279.143 399.031 M
287.841 393.802 L
287.841 383.348 L
279.143 378.119 L
270.445 383.348 L
270.445 393.802 L
279.143 399.031 L
S
GR
GS
[0.75 0 0 0.75 0 -0.25] CT
2 setlinecap
10.0 ML
0.667 LW
N
287.841 257.881 M
296.54 252.652 L
296.54 242.198 L
287.841 236.969 L
279.143 242.198 L
279.143 252.652 L
287.841 257.881 L
S
GR
GS
[0.75 0 0 0.75 0 -0.25] CT
2 setlinecap
10.0 ML
0.667 LW
N
296.54 273.564 M
305.238 268.336 L
305.238 257.881 L
296.54 252.652 L
287.841 257.881 L
287.841 268.336 L
296.54 273.564 L
S
GR
GS
[0.75 0 0 0.75 0 -0.25] CT
2 setlinecap
10.0 ML
0.667 LW
N
287.841 289.248 M
296.54 284.019 L
296.54 273.564 L
287.841 268.336 L
279.143 273.564 L
279.143 284.019 L
287.841 289.248 L
S
GR
GS
[0.75 0 0 0.75 0 -0.25] CT
2 setlinecap
10.0 ML
0.667 LW
N
296.54 304.931 M
305.238 299.702 L
305.238 289.248 L
296.54 284.019 L
287.841 289.248 L
287.841 299.702 L
296.54 304.931 L
S
GR
GS
[0.75 0 0 0.75 0 -0.25] CT
2 setlinecap
10.0 ML
0.667 LW
N
287.841 320.614 M
296.54 315.386 L
296.54 304.931 L
287.841 299.702 L
279.143 304.931 L
279.143 315.386 L
287.841 320.614 L
S
GR
GS
[0.75 0 0 0.75 0 -0.25] CT
2 setlinecap
10.0 ML
0.667 LW
N
296.54 336.298 M
305.238 331.069 L
305.238 320.614 L
296.54 315.386 L
287.841 320.614 L
287.841 331.069 L
296.54 336.298 L
S
GR
GS
[0.75 0 0 0.75 0 -0.25] CT
2 setlinecap
10.0 ML
0.667 LW
N
287.841 351.981 M
296.54 346.752 L
296.54 336.298 L
287.841 331.069 L
279.143 336.298 L
279.143 346.752 L
287.841 351.981 L
S
GR
GS
[0.75 0 0 0.75 0 -0.25] CT
2 setlinecap
10.0 ML
0.667 LW
N
296.54 367.664 M
305.238 362.436 L
305.238 351.981 L
296.54 346.752 L
287.841 351.981 L
287.841 362.436 L
296.54 367.664 L
S
GR
GS
[0.75 0 0 0.75 0 -0.25] CT
2 setlinecap
10.0 ML
0.667 LW
N
287.841 383.348 M
296.54 378.119 L
296.54 367.664 L
287.841 362.436 L
279.143 367.664 L
279.143 378.119 L
287.841 383.348 L
S
GR
GS
[0.75 0 0 0.75 0 -0.25] CT
2 setlinecap
10.0 ML
0.667 LW
N
296.54 399.031 M
305.238 393.802 L
305.238 383.348 L
296.54 378.119 L
287.841 383.348 L
287.841 393.802 L
296.54 399.031 L
S
GR
GS
[0.75 0 0 0.75 0 -0.25] CT
2 setlinecap
10.0 ML
0.667 LW
N
305.238 257.881 M
313.937 252.652 L
313.937 242.198 L
305.238 236.969 L
296.54 242.198 L
296.54 252.652 L
305.238 257.881 L
S
GR
GS
[0.75 0 0 0.75 0 -0.25] CT
2 setlinecap
10.0 ML
0.667 LW
N
313.937 273.564 M
322.635 268.336 L
322.635 257.881 L
313.937 252.652 L
305.238 257.881 L
305.238 268.336 L
313.937 273.564 L
S
GR
GS
[0.75 0 0 0.75 0 -0.25] CT
2 setlinecap
10.0 ML
0.667 LW
N
305.238 289.248 M
313.937 284.019 L
313.937 273.564 L
305.238 268.336 L
296.54 273.564 L
296.54 284.019 L
305.238 289.248 L
S
GR
GS
[0.75 0 0 0.75 0 -0.25] CT
2 setlinecap
10.0 ML
0.667 LW
N
313.937 304.931 M
322.635 299.702 L
322.635 289.248 L
313.937 284.019 L
305.238 289.248 L
305.238 299.702 L
313.937 304.931 L
S
GR
GS
[0.75 0 0 0.75 0 -0.25] CT
2 setlinecap
10.0 ML
0.667 LW
N
305.238 320.614 M
313.937 315.386 L
313.937 304.931 L
305.238 299.702 L
296.54 304.931 L
296.54 315.386 L
305.238 320.614 L
S
GR
GS
[0.75 0 0 0.75 0 -0.25] CT
2 setlinecap
10.0 ML
0.667 LW
N
313.937 336.298 M
322.635 331.069 L
322.635 320.614 L
313.937 315.386 L
305.238 320.614 L
305.238 331.069 L
313.937 336.298 L
S
GR
GS
[0.75 0 0 0.75 0 -0.25] CT
2 setlinecap
10.0 ML
0.667 LW
N
305.238 351.981 M
313.937 346.752 L
313.937 336.298 L
305.238 331.069 L
296.54 336.298 L
296.54 346.752 L
305.238 351.981 L
S
GR
GS
[0.75 0 0 0.75 0 -0.25] CT
2 setlinecap
10.0 ML
0.667 LW
N
313.937 367.664 M
322.635 362.436 L
322.635 351.981 L
313.937 346.752 L
305.238 351.981 L
305.238 362.436 L
313.937 367.664 L
S
GR
GS
[0.75 0 0 0.75 0 -0.25] CT
2 setlinecap
10.0 ML
0.667 LW
N
305.238 383.348 M
313.937 378.119 L
313.937 367.664 L
305.238 362.436 L
296.54 367.664 L
296.54 378.119 L
305.238 383.348 L
S
GR
GS
[0.75 0 0 0.75 0 -0.25] CT
2 setlinecap
10.0 ML
0.667 LW
N
313.937 399.031 M
322.635 393.802 L
322.635 383.348 L
313.937 378.119 L
305.238 383.348 L
305.238 393.802 L
313.937 399.031 L
S
GR
GS
[0.75 0 0 0.75 0 -0.25] CT
2 setlinecap
10.0 ML
0.667 LW
N
322.635 257.881 M
331.334 252.652 L
331.334 242.198 L
322.635 236.969 L
313.937 242.198 L
313.937 252.652 L
322.635 257.881 L
S
GR
GS
[0.75 0 0 0.75 0 -0.25] CT
2 setlinecap
10.0 ML
0.667 LW
N
331.334 273.564 M
340.032 268.336 L
340.032 257.881 L
331.334 252.652 L
322.635 257.881 L
322.635 268.336 L
331.334 273.564 L
S
GR
GS
[0.75 0 0 0.75 0 -0.25] CT
2 setlinecap
10.0 ML
0.667 LW
N
322.635 289.248 M
331.334 284.019 L
331.334 273.564 L
322.635 268.336 L
313.937 273.564 L
313.937 284.019 L
322.635 289.248 L
S
GR
GS
[0.75 0 0 0.75 0 -0.25] CT
2 setlinecap
10.0 ML
0.667 LW
N
331.334 304.931 M
340.032 299.702 L
340.032 289.248 L
331.334 284.019 L
322.635 289.248 L
322.635 299.702 L
331.334 304.931 L
S
GR
GS
[0.75 0 0 0.75 0 -0.25] CT
2 setlinecap
10.0 ML
0.667 LW
N
322.635 320.614 M
331.334 315.386 L
331.334 304.931 L
322.635 299.702 L
313.937 304.931 L
313.937 315.386 L
322.635 320.614 L
S
GR
GS
[0.75 0 0 0.75 0 -0.25] CT
2 setlinecap
10.0 ML
0.667 LW
N
331.334 336.298 M
340.032 331.069 L
340.032 320.614 L
331.334 315.386 L
322.635 320.614 L
322.635 331.069 L
331.334 336.298 L
S
GR
GS
[0.75 0 0 0.75 0 -0.25] CT
2 setlinecap
10.0 ML
0.667 LW
N
322.635 351.981 M
331.334 346.752 L
331.334 336.298 L
322.635 331.069 L
313.937 336.298 L
313.937 346.752 L
322.635 351.981 L
S
GR
GS
[0.75 0 0 0.75 0 -0.25] CT
2 setlinecap
10.0 ML
0.667 LW
N
331.334 367.664 M
340.032 362.436 L
340.032 351.981 L
331.334 346.752 L
322.635 351.981 L
322.635 362.436 L
331.334 367.664 L
S
GR
GS
[0.75 0 0 0.75 0 -0.25] CT
2 setlinecap
10.0 ML
0.667 LW
N
322.635 383.348 M
331.334 378.119 L
331.334 367.664 L
322.635 362.436 L
313.937 367.664 L
313.937 378.119 L
322.635 383.348 L
S
GR
GS
[0.75 0 0 0.75 0 -0.25] CT
2 setlinecap
10.0 ML
0.667 LW
N
331.334 399.031 M
340.032 393.802 L
340.032 383.348 L
331.334 378.119 L
322.635 383.348 L
322.635 393.802 L
331.334 399.031 L
S
GR
GS
[0.75 0 0 0.75 0 -0.25] CT
2 setlinecap
10.0 ML
0.667 LW
N
340.032 257.881 M
348.731 252.652 L
348.731 242.198 L
340.032 236.969 L
331.334 242.198 L
331.334 252.652 L
340.032 257.881 L
S
GR
GS
[0.75 0 0 0.75 0 -0.25] CT
2 setlinecap
10.0 ML
0.667 LW
N
348.731 273.564 M
357.429 268.336 L
357.429 257.881 L
348.731 252.652 L
340.032 257.881 L
340.032 268.336 L
348.731 273.564 L
S
GR
GS
[0.75 0 0 0.75 0 -0.25] CT
2 setlinecap
10.0 ML
0.667 LW
N
340.032 289.248 M
348.731 284.019 L
348.731 273.564 L
340.032 268.336 L
331.334 273.564 L
331.334 284.019 L
340.032 289.248 L
S
GR
GS
[0.75 0 0 0.75 0 -0.25] CT
2 setlinecap
10.0 ML
0.667 LW
N
348.731 304.931 M
357.429 299.702 L
357.429 289.248 L
348.731 284.019 L
340.032 289.248 L
340.032 299.702 L
348.731 304.931 L
S
GR
GS
[0.75 0 0 0.75 0 -0.25] CT
2 setlinecap
10.0 ML
0.667 LW
N
340.032 320.614 M
348.731 315.386 L
348.731 304.931 L
340.032 299.702 L
331.334 304.931 L
331.334 315.386 L
340.032 320.614 L
S
GR
GS
[0.75 0 0 0.75 0 -0.25] CT
2 setlinecap
10.0 ML
0.667 LW
N
348.731 336.298 M
357.429 331.069 L
357.429 320.614 L
348.731 315.386 L
340.032 320.614 L
340.032 331.069 L
348.731 336.298 L
S
GR
GS
[0.75 0 0 0.75 0 -0.25] CT
2 setlinecap
10.0 ML
0.667 LW
N
340.032 351.981 M
348.731 346.752 L
348.731 336.298 L
340.032 331.069 L
331.334 336.298 L
331.334 346.752 L
340.032 351.981 L
S
GR
GS
[0.75 0 0 0.75 0 -0.25] CT
2 setlinecap
10.0 ML
0.667 LW
N
348.731 367.664 M
357.429 362.436 L
357.429 351.981 L
348.731 346.752 L
340.032 351.981 L
340.032 362.436 L
348.731 367.664 L
S
GR
GS
[0.75 0 0 0.75 0 -0.25] CT
2 setlinecap
10.0 ML
0.667 LW
N
340.032 383.348 M
348.731 378.119 L
348.731 367.664 L
340.032 362.436 L
331.334 367.664 L
331.334 378.119 L
340.032 383.348 L
S
GR
GS
[0.75 0 0 0.75 0 -0.25] CT
2 setlinecap
10.0 ML
0.667 LW
N
348.731 399.031 M
357.429 393.802 L
357.429 383.348 L
348.731 378.119 L
340.032 383.348 L
340.032 393.802 L
348.731 399.031 L
S
GR
GS
[0.75 0 0 0.75 0 -0.25] CT
2 setlinecap
10.0 ML
0.667 LW
N
357.429 257.881 M
366.128 252.652 L
366.128 242.198 L
357.429 236.969 L
348.731 242.198 L
348.731 252.652 L
357.429 257.881 L
S
GR
GS
[0.75 0 0 0.75 0 -0.25] CT
2 setlinecap
10.0 ML
0.667 LW
N
366.128 273.564 M
374.826 268.336 L
374.826 257.881 L
366.128 252.652 L
357.429 257.881 L
357.429 268.336 L
366.128 273.564 L
S
GR
GS
[0.75 0 0 0.75 0 -0.25] CT
2 setlinecap
10.0 ML
0.667 LW
N
357.429 289.248 M
366.128 284.019 L
366.128 273.564 L
357.429 268.336 L
348.731 273.564 L
348.731 284.019 L
357.429 289.248 L
S
GR
GS
[0.75 0 0 0.75 0 -0.25] CT
2 setlinecap
10.0 ML
0.667 LW
N
366.128 304.931 M
374.826 299.702 L
374.826 289.248 L
366.128 284.019 L
357.429 289.248 L
357.429 299.702 L
366.128 304.931 L
S
GR
GS
[0.75 0 0 0.75 0 -0.25] CT
2 setlinecap
10.0 ML
0.667 LW
N
357.429 320.614 M
366.128 315.386 L
366.128 304.931 L
357.429 299.702 L
348.731 304.931 L
348.731 315.386 L
357.429 320.614 L
S
GR
GS
[0.75 0 0 0.75 0 -0.25] CT
2 setlinecap
10.0 ML
0.667 LW
N
366.128 336.298 M
374.826 331.069 L
374.826 320.614 L
366.128 315.386 L
357.429 320.614 L
357.429 331.069 L
366.128 336.298 L
S
GR
GS
[0.75 0 0 0.75 0 -0.25] CT
2 setlinecap
10.0 ML
0.667 LW
N
357.429 351.981 M
366.128 346.752 L
366.128 336.298 L
357.429 331.069 L
348.731 336.298 L
348.731 346.752 L
357.429 351.981 L
S
GR
GS
[0.75 0 0 0.75 0 -0.25] CT
2 setlinecap
10.0 ML
0.667 LW
N
366.128 367.664 M
374.826 362.436 L
374.826 351.981 L
366.128 346.752 L
357.429 351.981 L
357.429 362.436 L
366.128 367.664 L
S
GR
GS
[0.75 0 0 0.75 0 -0.25] CT
2 setlinecap
10.0 ML
0.667 LW
N
357.429 383.348 M
366.128 378.119 L
366.128 367.664 L
357.429 362.436 L
348.731 367.664 L
348.731 378.119 L
357.429 383.348 L
S
GR
GS
[0.75 0 0 0.75 0 -0.25] CT
2 setlinecap
10.0 ML
0.667 LW
N
366.128 399.031 M
374.826 393.802 L
374.826 383.348 L
366.128 378.119 L
357.429 383.348 L
357.429 393.802 L
366.128 399.031 L
S
GR
GS
[0.75 0 0 0.75 445.87541 152.14273] CT
/Helvetica-Bold 14.667 F
GS
[1 0 0 1 0 0] CT
-79 -4 moveto 
1 -1 scale
(Rectangular SOM grid) t 
GR
GR
GS
[0.75 0 0 0.75 0 -0.25] CT
2 setlinecap
10.0 ML
0.667 LW
N
460.179 228.453 M
460.179 246.362 L
478.089 246.362 L
478.089 228.453 L
460.179 228.453 L
S
GR
GS
[0.75 0 0 0.75 0 -0.25] CT
2 setlinecap
10.0 ML
0.667 LW
N
460.179 246.362 M
460.179 264.272 L
478.089 264.272 L
478.089 246.362 L
460.179 246.362 L
S
GR
GS
[0.75 0 0 0.75 0 -0.25] CT
2 setlinecap
10.0 ML
0.667 LW
N
460.179 264.272 M
460.179 282.181 L
478.089 282.181 L
478.089 264.272 L
460.179 264.272 L
S
GR
GS
[0.75 0 0 0.75 0 -0.25] CT
2 setlinecap
10.0 ML
0.667 LW
N
460.179 282.181 M
460.179 300.091 L
478.089 300.091 L
478.089 282.181 L
460.179 282.181 L
S
GR
GS
[0.75 0 0 0.75 0 -0.25] CT
2 setlinecap
10.0 ML
0.667 LW
N
460.179 300.091 M
460.179 318 L
478.089 318 L
478.089 300.091 L
460.179 300.091 L
S
GR
GS
[0.75 0 0 0.75 0 -0.25] CT
2 setlinecap
10.0 ML
0.667 LW
N
460.179 318 M
460.179 335.909 L
478.089 335.909 L
478.089 318 L
460.179 318 L
S
GR
GS
[0.75 0 0 0.75 0 -0.25] CT
2 setlinecap
10.0 ML
0.667 LW
N
460.179 335.909 M
460.179 353.819 L
478.089 353.819 L
478.089 335.909 L
460.179 335.909 L
S
GR
GS
[0.75 0 0 0.75 0 -0.25] CT
2 setlinecap
10.0 ML
0.667 LW
N
460.179 353.819 M
460.179 371.728 L
478.089 371.728 L
478.089 353.819 L
460.179 353.819 L
S
GR
GS
[0.75 0 0 0.75 0 -0.25] CT
2 setlinecap
10.0 ML
0.667 LW
N
460.179 371.728 M
460.179 389.638 L
478.089 389.638 L
478.089 371.728 L
460.179 371.728 L
S
GR
GS
[0.75 0 0 0.75 0 -0.25] CT
2 setlinecap
10.0 ML
0.667 LW
N
460.179 389.638 M
460.179 407.547 L
478.089 407.547 L
478.089 389.638 L
460.179 389.638 L
S
GR
GS
[0.75 0 0 0.75 0 -0.25] CT
2 setlinecap
10.0 ML
0.667 LW
N
478.089 228.453 M
478.089 246.362 L
495.998 246.362 L
495.998 228.453 L
478.089 228.453 L
S
GR
GS
[0.75 0 0 0.75 0 -0.25] CT
2 setlinecap
10.0 ML
0.667 LW
N
478.089 246.362 M
478.089 264.272 L
495.998 264.272 L
495.998 246.362 L
478.089 246.362 L
S
GR
GS
[0.75 0 0 0.75 0 -0.25] CT
2 setlinecap
10.0 ML
0.667 LW
N
478.089 264.272 M
478.089 282.181 L
495.998 282.181 L
495.998 264.272 L
478.089 264.272 L
S
GR
GS
[0.75 0 0 0.75 0 -0.25] CT
2 setlinecap
10.0 ML
0.667 LW
N
478.089 282.181 M
478.089 300.091 L
495.998 300.091 L
495.998 282.181 L
478.089 282.181 L
S
GR
GS
[0.75 0 0 0.75 0 -0.25] CT
2 setlinecap
10.0 ML
0.667 LW
N
478.089 300.091 M
478.089 318 L
495.998 318 L
495.998 300.091 L
478.089 300.091 L
S
GR
GS
[0.75 0 0 0.75 0 -0.25] CT
2 setlinecap
10.0 ML
0.667 LW
N
478.089 318 M
478.089 335.909 L
495.998 335.909 L
495.998 318 L
478.089 318 L
S
GR
GS
[0.75 0 0 0.75 0 -0.25] CT
2 setlinecap
10.0 ML
0.667 LW
N
478.089 335.909 M
478.089 353.819 L
495.998 353.819 L
495.998 335.909 L
478.089 335.909 L
S
GR
GS
[0.75 0 0 0.75 0 -0.25] CT
2 setlinecap
10.0 ML
0.667 LW
N
478.089 353.819 M
478.089 371.728 L
495.998 371.728 L
495.998 353.819 L
478.089 353.819 L
S
GR
GS
[0.75 0 0 0.75 0 -0.25] CT
2 setlinecap
10.0 ML
0.667 LW
N
478.089 371.728 M
478.089 389.638 L
495.998 389.638 L
495.998 371.728 L
478.089 371.728 L
S
GR
GS
[0.75 0 0 0.75 0 -0.25] CT
2 setlinecap
10.0 ML
0.667 LW
N
478.089 389.638 M
478.089 407.547 L
495.998 407.547 L
495.998 389.638 L
478.089 389.638 L
S
GR
GS
[0.75 0 0 0.75 0 -0.25] CT
2 setlinecap
10.0 ML
0.667 LW
N
495.998 228.453 M
495.998 246.362 L
513.907 246.362 L
513.907 228.453 L
495.998 228.453 L
S
GR
GS
[0.75 0 0 0.75 0 -0.25] CT
2 setlinecap
10.0 ML
0.667 LW
N
495.998 246.362 M
495.998 264.272 L
513.907 264.272 L
513.907 246.362 L
495.998 246.362 L
S
GR
GS
[0.75 0 0 0.75 0 -0.25] CT
2 setlinecap
10.0 ML
0.667 LW
N
495.998 264.272 M
495.998 282.181 L
513.907 282.181 L
513.907 264.272 L
495.998 264.272 L
S
GR
GS
[0.75 0 0 0.75 0 -0.25] CT
2 setlinecap
10.0 ML
0.667 LW
N
495.998 282.181 M
495.998 300.091 L
513.907 300.091 L
513.907 282.181 L
495.998 282.181 L
S
GR
GS
[0.75 0 0 0.75 0 -0.25] CT
2 setlinecap
10.0 ML
0.667 LW
N
495.998 300.091 M
495.998 318 L
513.907 318 L
513.907 300.091 L
495.998 300.091 L
S
GR
GS
[0.75 0 0 0.75 0 -0.25] CT
2 setlinecap
10.0 ML
0.667 LW
N
495.998 318 M
495.998 335.909 L
513.907 335.909 L
513.907 318 L
495.998 318 L
S
GR
GS
[0.75 0 0 0.75 0 -0.25] CT
2 setlinecap
10.0 ML
0.667 LW
N
495.998 335.909 M
495.998 353.819 L
513.907 353.819 L
513.907 335.909 L
495.998 335.909 L
S
GR
GS
[0.75 0 0 0.75 0 -0.25] CT
2 setlinecap
10.0 ML
0.667 LW
N
495.998 353.819 M
495.998 371.728 L
513.907 371.728 L
513.907 353.819 L
495.998 353.819 L
S
GR
GS
[0.75 0 0 0.75 0 -0.25] CT
2 setlinecap
10.0 ML
0.667 LW
N
495.998 371.728 M
495.998 389.638 L
513.907 389.638 L
513.907 371.728 L
495.998 371.728 L
S
GR
GS
[0.75 0 0 0.75 0 -0.25] CT
2 setlinecap
10.0 ML
0.667 LW
N
495.998 389.638 M
495.998 407.547 L
513.907 407.547 L
513.907 389.638 L
495.998 389.638 L
S
GR
GS
[0.75 0 0 0.75 0 -0.25] CT
2 setlinecap
10.0 ML
0.667 LW
N
513.907 228.453 M
513.907 246.362 L
531.817 246.362 L
531.817 228.453 L
513.907 228.453 L
S
GR
GS
[0.75 0 0 0.75 0 -0.25] CT
2 setlinecap
10.0 ML
0.667 LW
N
513.907 246.362 M
513.907 264.272 L
531.817 264.272 L
531.817 246.362 L
513.907 246.362 L
S
GR
GS
[0.75 0 0 0.75 0 -0.25] CT
2 setlinecap
10.0 ML
0.667 LW
N
513.907 264.272 M
513.907 282.181 L
531.817 282.181 L
531.817 264.272 L
513.907 264.272 L
S
GR
GS
[0.75 0 0 0.75 0 -0.25] CT
2 setlinecap
10.0 ML
0.667 LW
N
513.907 282.181 M
513.907 300.091 L
531.817 300.091 L
531.817 282.181 L
513.907 282.181 L
S
GR
GS
[0.75 0 0 0.75 0 -0.25] CT
2 setlinecap
10.0 ML
0.667 LW
N
513.907 300.091 M
513.907 318 L
531.817 318 L
531.817 300.091 L
513.907 300.091 L
S
GR
GS
[0.75 0 0 0.75 0 -0.25] CT
2 setlinecap
10.0 ML
0.667 LW
N
513.907 318 M
513.907 335.909 L
531.817 335.909 L
531.817 318 L
513.907 318 L
S
GR
GS
[0.75 0 0 0.75 0 -0.25] CT
2 setlinecap
10.0 ML
0.667 LW
N
513.907 335.909 M
513.907 353.819 L
531.817 353.819 L
531.817 335.909 L
513.907 335.909 L
S
GR
GS
[0.75 0 0 0.75 0 -0.25] CT
2 setlinecap
10.0 ML
0.667 LW
N
513.907 353.819 M
513.907 371.728 L
531.817 371.728 L
531.817 353.819 L
513.907 353.819 L
S
GR
GS
[0.75 0 0 0.75 0 -0.25] CT
2 setlinecap
10.0 ML
0.667 LW
N
513.907 371.728 M
513.907 389.638 L
531.817 389.638 L
531.817 371.728 L
513.907 371.728 L
S
GR
GS
[0.75 0 0 0.75 0 -0.25] CT
2 setlinecap
10.0 ML
0.667 LW
N
513.907 389.638 M
513.907 407.547 L
531.817 407.547 L
531.817 389.638 L
513.907 389.638 L
S
GR
GS
[0.75 0 0 0.75 0 -0.25] CT
2 setlinecap
10.0 ML
0.667 LW
N
531.817 228.453 M
531.817 246.362 L
549.726 246.362 L
549.726 228.453 L
531.817 228.453 L
S
GR
GS
[0.75 0 0 0.75 0 -0.25] CT
2 setlinecap
10.0 ML
0.667 LW
N
531.817 246.362 M
531.817 264.272 L
549.726 264.272 L
549.726 246.362 L
531.817 246.362 L
S
GR
GS
[0.75 0 0 0.75 0 -0.25] CT
2 setlinecap
10.0 ML
0.667 LW
N
531.817 264.272 M
531.817 282.181 L
549.726 282.181 L
549.726 264.272 L
531.817 264.272 L
S
GR
GS
[0.75 0 0 0.75 0 -0.25] CT
2 setlinecap
10.0 ML
0.667 LW
N
531.817 282.181 M
531.817 300.091 L
549.726 300.091 L
549.726 282.181 L
531.817 282.181 L
S
GR
GS
[0.75 0 0 0.75 0 -0.25] CT
2 setlinecap
10.0 ML
0.667 LW
N
531.817 300.091 M
531.817 318 L
549.726 318 L
549.726 300.091 L
531.817 300.091 L
S
GR
GS
[0.75 0 0 0.75 0 -0.25] CT
2 setlinecap
10.0 ML
0.667 LW
N
531.817 318 M
531.817 335.909 L
549.726 335.909 L
549.726 318 L
531.817 318 L
S
GR
GS
[0.75 0 0 0.75 0 -0.25] CT
2 setlinecap
10.0 ML
0.667 LW
N
531.817 335.909 M
531.817 353.819 L
549.726 353.819 L
549.726 335.909 L
531.817 335.909 L
S
GR
GS
[0.75 0 0 0.75 0 -0.25] CT
2 setlinecap
10.0 ML
0.667 LW
N
531.817 353.819 M
531.817 371.728 L
549.726 371.728 L
549.726 353.819 L
531.817 353.819 L
S
GR
GS
[0.75 0 0 0.75 0 -0.25] CT
2 setlinecap
10.0 ML
0.667 LW
N
531.817 371.728 M
531.817 389.638 L
549.726 389.638 L
549.726 371.728 L
531.817 371.728 L
S
GR
GS
[0.75 0 0 0.75 0 -0.25] CT
2 setlinecap
10.0 ML
0.667 LW
N
531.817 389.638 M
531.817 407.547 L
549.726 407.547 L
549.726 389.638 L
531.817 389.638 L
S
GR
GS
[0.75 0 0 0.75 0 -0.25] CT
2 setlinecap
10.0 ML
0.667 LW
N
549.726 228.453 M
549.726 246.362 L
567.636 246.362 L
567.636 228.453 L
549.726 228.453 L
S
GR
GS
[0.75 0 0 0.75 0 -0.25] CT
2 setlinecap
10.0 ML
0.667 LW
N
549.726 246.362 M
549.726 264.272 L
567.636 264.272 L
567.636 246.362 L
549.726 246.362 L
S
GR
GS
[0.75 0 0 0.75 0 -0.25] CT
2 setlinecap
10.0 ML
0.667 LW
N
549.726 264.272 M
549.726 282.181 L
567.636 282.181 L
567.636 264.272 L
549.726 264.272 L
S
GR
GS
[0.75 0 0 0.75 0 -0.25] CT
2 setlinecap
10.0 ML
0.667 LW
N
549.726 282.181 M
549.726 300.091 L
567.636 300.091 L
567.636 282.181 L
549.726 282.181 L
S
GR
GS
[0.75 0 0 0.75 0 -0.25] CT
2 setlinecap
10.0 ML
0.667 LW
N
549.726 300.091 M
549.726 318 L
567.636 318 L
567.636 300.091 L
549.726 300.091 L
S
GR
GS
[0.75 0 0 0.75 0 -0.25] CT
2 setlinecap
10.0 ML
0.667 LW
N
549.726 318 M
549.726 335.909 L
567.636 335.909 L
567.636 318 L
549.726 318 L
S
GR
GS
[0.75 0 0 0.75 0 -0.25] CT
2 setlinecap
10.0 ML
0.667 LW
N
549.726 335.909 M
549.726 353.819 L
567.636 353.819 L
567.636 335.909 L
549.726 335.909 L
S
GR
GS
[0.75 0 0 0.75 0 -0.25] CT
2 setlinecap
10.0 ML
0.667 LW
N
549.726 353.819 M
549.726 371.728 L
567.636 371.728 L
567.636 353.819 L
549.726 353.819 L
S
GR
GS
[0.75 0 0 0.75 0 -0.25] CT
2 setlinecap
10.0 ML
0.667 LW
N
549.726 371.728 M
549.726 389.638 L
567.636 389.638 L
567.636 371.728 L
549.726 371.728 L
S
GR
GS
[0.75 0 0 0.75 0 -0.25] CT
2 setlinecap
10.0 ML
0.667 LW
N
549.726 389.638 M
549.726 407.547 L
567.636 407.547 L
567.636 389.638 L
549.726 389.638 L
S
GR
GS
[0.75 0 0 0.75 0 -0.25] CT
2 setlinecap
10.0 ML
0.667 LW
N
567.636 228.453 M
567.636 246.362 L
585.545 246.362 L
585.545 228.453 L
567.636 228.453 L
S
GR
GS
[0.75 0 0 0.75 0 -0.25] CT
2 setlinecap
10.0 ML
0.667 LW
N
567.636 246.362 M
567.636 264.272 L
585.545 264.272 L
585.545 246.362 L
567.636 246.362 L
S
GR
GS
[0.75 0 0 0.75 0 -0.25] CT
2 setlinecap
10.0 ML
0.667 LW
N
567.636 264.272 M
567.636 282.181 L
585.545 282.181 L
585.545 264.272 L
567.636 264.272 L
S
GR
GS
[0.75 0 0 0.75 0 -0.25] CT
2 setlinecap
10.0 ML
0.667 LW
N
567.636 282.181 M
567.636 300.091 L
585.545 300.091 L
585.545 282.181 L
567.636 282.181 L
S
GR
GS
[0.75 0 0 0.75 0 -0.25] CT
2 setlinecap
10.0 ML
0.667 LW
N
567.636 300.091 M
567.636 318 L
585.545 318 L
585.545 300.091 L
567.636 300.091 L
S
GR
GS
[0.75 0 0 0.75 0 -0.25] CT
2 setlinecap
10.0 ML
0.667 LW
N
567.636 318 M
567.636 335.909 L
585.545 335.909 L
585.545 318 L
567.636 318 L
S
GR
GS
[0.75 0 0 0.75 0 -0.25] CT
2 setlinecap
10.0 ML
0.667 LW
N
567.636 335.909 M
567.636 353.819 L
585.545 353.819 L
585.545 335.909 L
567.636 335.909 L
S
GR
GS
[0.75 0 0 0.75 0 -0.25] CT
2 setlinecap
10.0 ML
0.667 LW
N
567.636 353.819 M
567.636 371.728 L
585.545 371.728 L
585.545 353.819 L
567.636 353.819 L
S
GR
GS
[0.75 0 0 0.75 0 -0.25] CT
2 setlinecap
10.0 ML
0.667 LW
N
567.636 371.728 M
567.636 389.638 L
585.545 389.638 L
585.545 371.728 L
567.636 371.728 L
S
GR
GS
[0.75 0 0 0.75 0 -0.25] CT
2 setlinecap
10.0 ML
0.667 LW
N
567.636 389.638 M
567.636 407.547 L
585.545 407.547 L
585.545 389.638 L
567.636 389.638 L
S
GR
GS
[0.75 0 0 0.75 0 -0.25] CT
2 setlinecap
10.0 ML
0.667 LW
N
585.545 228.453 M
585.545 246.362 L
603.455 246.362 L
603.455 228.453 L
585.545 228.453 L
S
GR
GS
[0.75 0 0 0.75 0 -0.25] CT
2 setlinecap
10.0 ML
0.667 LW
N
585.545 246.362 M
585.545 264.272 L
603.455 264.272 L
603.455 246.362 L
585.545 246.362 L
S
GR
GS
[0.75 0 0 0.75 0 -0.25] CT
2 setlinecap
10.0 ML
0.667 LW
N
585.545 264.272 M
585.545 282.181 L
603.455 282.181 L
603.455 264.272 L
585.545 264.272 L
S
GR
GS
[0.75 0 0 0.75 0 -0.25] CT
2 setlinecap
10.0 ML
0.667 LW
N
585.545 282.181 M
585.545 300.091 L
603.455 300.091 L
603.455 282.181 L
585.545 282.181 L
S
GR
GS
[0.75 0 0 0.75 0 -0.25] CT
2 setlinecap
10.0 ML
0.667 LW
N
585.545 300.091 M
585.545 318 L
603.455 318 L
603.455 300.091 L
585.545 300.091 L
S
GR
GS
[0.75 0 0 0.75 0 -0.25] CT
2 setlinecap
10.0 ML
0.667 LW
N
585.545 318 M
585.545 335.909 L
603.455 335.909 L
603.455 318 L
585.545 318 L
S
GR
GS
[0.75 0 0 0.75 0 -0.25] CT
2 setlinecap
10.0 ML
0.667 LW
N
585.545 335.909 M
585.545 353.819 L
603.455 353.819 L
603.455 335.909 L
585.545 335.909 L
S
GR
GS
[0.75 0 0 0.75 0 -0.25] CT
2 setlinecap
10.0 ML
0.667 LW
N
585.545 353.819 M
585.545 371.728 L
603.455 371.728 L
603.455 353.819 L
585.545 353.819 L
S
GR
GS
[0.75 0 0 0.75 0 -0.25] CT
2 setlinecap
10.0 ML
0.667 LW
N
585.545 371.728 M
585.545 389.638 L
603.455 389.638 L
603.455 371.728 L
585.545 371.728 L
S
GR
GS
[0.75 0 0 0.75 0 -0.25] CT
2 setlinecap
10.0 ML
0.667 LW
N
585.545 389.638 M
585.545 407.547 L
603.455 407.547 L
603.455 389.638 L
585.545 389.638 L
S
GR
GS
[0.75 0 0 0.75 0 -0.25] CT
2 setlinecap
10.0 ML
0.667 LW
N
603.455 228.453 M
603.455 246.362 L
621.364 246.362 L
621.364 228.453 L
603.455 228.453 L
S
GR
GS
[0.75 0 0 0.75 0 -0.25] CT
2 setlinecap
10.0 ML
0.667 LW
N
603.455 246.362 M
603.455 264.272 L
621.364 264.272 L
621.364 246.362 L
603.455 246.362 L
S
GR
GS
[0.75 0 0 0.75 0 -0.25] CT
2 setlinecap
10.0 ML
0.667 LW
N
603.455 264.272 M
603.455 282.181 L
621.364 282.181 L
621.364 264.272 L
603.455 264.272 L
S
GR
GS
[0.75 0 0 0.75 0 -0.25] CT
2 setlinecap
10.0 ML
0.667 LW
N
603.455 282.181 M
603.455 300.091 L
621.364 300.091 L
621.364 282.181 L
603.455 282.181 L
S
GR
GS
[0.75 0 0 0.75 0 -0.25] CT
2 setlinecap
10.0 ML
0.667 LW
N
603.455 300.091 M
603.455 318 L
621.364 318 L
621.364 300.091 L
603.455 300.091 L
S
GR
GS
[0.75 0 0 0.75 0 -0.25] CT
2 setlinecap
10.0 ML
0.667 LW
N
603.455 318 M
603.455 335.909 L
621.364 335.909 L
621.364 318 L
603.455 318 L
S
GR
GS
[0.75 0 0 0.75 0 -0.25] CT
2 setlinecap
10.0 ML
0.667 LW
N
603.455 335.909 M
603.455 353.819 L
621.364 353.819 L
621.364 335.909 L
603.455 335.909 L
S
GR
GS
[0.75 0 0 0.75 0 -0.25] CT
2 setlinecap
10.0 ML
0.667 LW
N
603.455 353.819 M
603.455 371.728 L
621.364 371.728 L
621.364 353.819 L
603.455 353.819 L
S
GR
GS
[0.75 0 0 0.75 0 -0.25] CT
2 setlinecap
10.0 ML
0.667 LW
N
603.455 371.728 M
603.455 389.638 L
621.364 389.638 L
621.364 371.728 L
603.455 371.728 L
S
GR
GS
[0.75 0 0 0.75 0 -0.25] CT
2 setlinecap
10.0 ML
0.667 LW
N
603.455 389.638 M
603.455 407.547 L
621.364 407.547 L
621.364 389.638 L
603.455 389.638 L
S
GR
GS
[0.75 0 0 0.75 0 -0.25] CT
2 setlinecap
10.0 ML
0.667 LW
N
621.364 228.453 M
621.364 246.362 L
639.274 246.362 L
639.274 228.453 L
621.364 228.453 L
S
GR
GS
[0.75 0 0 0.75 0 -0.25] CT
2 setlinecap
10.0 ML
0.667 LW
N
621.364 246.362 M
621.364 264.272 L
639.274 264.272 L
639.274 246.362 L
621.364 246.362 L
S
GR
GS
[0.75 0 0 0.75 0 -0.25] CT
2 setlinecap
10.0 ML
0.667 LW
N
621.364 264.272 M
621.364 282.181 L
639.274 282.181 L
639.274 264.272 L
621.364 264.272 L
S
GR
GS
[0.75 0 0 0.75 0 -0.25] CT
2 setlinecap
10.0 ML
0.667 LW
N
621.364 282.181 M
621.364 300.091 L
639.274 300.091 L
639.274 282.181 L
621.364 282.181 L
S
GR
GS
[0.75 0 0 0.75 0 -0.25] CT
2 setlinecap
10.0 ML
0.667 LW
N
621.364 300.091 M
621.364 318 L
639.274 318 L
639.274 300.091 L
621.364 300.091 L
S
GR
GS
[0.75 0 0 0.75 0 -0.25] CT
2 setlinecap
10.0 ML
0.667 LW
N
621.364 318 M
621.364 335.909 L
639.274 335.909 L
639.274 318 L
621.364 318 L
S
GR
GS
[0.75 0 0 0.75 0 -0.25] CT
2 setlinecap
10.0 ML
0.667 LW
N
621.364 335.909 M
621.364 353.819 L
639.274 353.819 L
639.274 335.909 L
621.364 335.909 L
S
GR
GS
[0.75 0 0 0.75 0 -0.25] CT
2 setlinecap
10.0 ML
0.667 LW
N
621.364 353.819 M
621.364 371.728 L
639.274 371.728 L
639.274 353.819 L
621.364 353.819 L
S
GR
GS
[0.75 0 0 0.75 0 -0.25] CT
2 setlinecap
10.0 ML
0.667 LW
N
621.364 371.728 M
621.364 389.638 L
639.274 389.638 L
639.274 371.728 L
621.364 371.728 L
S
GR
GS
[0.75 0 0 0.75 0 -0.25] CT
2 setlinecap
10.0 ML
0.667 LW
N
621.364 389.638 M
621.364 407.547 L
639.274 407.547 L
639.274 389.638 L
621.364 389.638 L
S
GR
GS
[0.75 0 0 0.75 0 -0.25] CT
2 setlinecap
10.0 ML
0.667 LW
N
639.274 228.453 M
639.274 246.362 L
657.183 246.362 L
657.183 228.453 L
639.274 228.453 L
S
GR
GS
[0.75 0 0 0.75 0 -0.25] CT
2 setlinecap
10.0 ML
0.667 LW
N
639.274 246.362 M
639.274 264.272 L
657.183 264.272 L
657.183 246.362 L
639.274 246.362 L
S
GR
GS
[0.75 0 0 0.75 0 -0.25] CT
2 setlinecap
10.0 ML
0.667 LW
N
639.274 264.272 M
639.274 282.181 L
657.183 282.181 L
657.183 264.272 L
639.274 264.272 L
S
GR
GS
[0.75 0 0 0.75 0 -0.25] CT
2 setlinecap
10.0 ML
0.667 LW
N
639.274 282.181 M
639.274 300.091 L
657.183 300.091 L
657.183 282.181 L
639.274 282.181 L
S
GR
GS
[0.75 0 0 0.75 0 -0.25] CT
2 setlinecap
10.0 ML
0.667 LW
N
639.274 300.091 M
639.274 318 L
657.183 318 L
657.183 300.091 L
639.274 300.091 L
S
GR
GS
[0.75 0 0 0.75 0 -0.25] CT
2 setlinecap
10.0 ML
0.667 LW
N
639.274 318 M
639.274 335.909 L
657.183 335.909 L
657.183 318 L
639.274 318 L
S
GR
GS
[0.75 0 0 0.75 0 -0.25] CT
2 setlinecap
10.0 ML
0.667 LW
N
639.274 335.909 M
639.274 353.819 L
657.183 353.819 L
657.183 335.909 L
639.274 335.909 L
S
GR
GS
[0.75 0 0 0.75 0 -0.25] CT
2 setlinecap
10.0 ML
0.667 LW
N
639.274 353.819 M
639.274 371.728 L
657.183 371.728 L
657.183 353.819 L
639.274 353.819 L
S
GR
GS
[0.75 0 0 0.75 0 -0.25] CT
2 setlinecap
10.0 ML
0.667 LW
N
639.274 371.728 M
639.274 389.638 L
657.183 389.638 L
657.183 371.728 L
639.274 371.728 L
S
GR
GS
[0.75 0 0 0.75 0 -0.25] CT
2 setlinecap
10.0 ML
0.667 LW
N
639.274 389.638 M
639.274 407.547 L
657.183 407.547 L
657.183 389.638 L
639.274 389.638 L
S
GR
GS
[0.75 0 0 0.75 0 -0.25] CT
2 setlinecap
10.0 ML
0.667 LW
N
657.183 228.453 M
657.183 246.362 L
675.093 246.362 L
675.093 228.453 L
657.183 228.453 L
S
GR
GS
[0.75 0 0 0.75 0 -0.25] CT
2 setlinecap
10.0 ML
0.667 LW
N
657.183 246.362 M
657.183 264.272 L
675.093 264.272 L
675.093 246.362 L
657.183 246.362 L
S
GR
GS
[0.75 0 0 0.75 0 -0.25] CT
2 setlinecap
10.0 ML
0.667 LW
N
657.183 264.272 M
657.183 282.181 L
675.093 282.181 L
675.093 264.272 L
657.183 264.272 L
S
GR
GS
[0.75 0 0 0.75 0 -0.25] CT
2 setlinecap
10.0 ML
0.667 LW
N
657.183 282.181 M
657.183 300.091 L
675.093 300.091 L
675.093 282.181 L
657.183 282.181 L
S
GR
GS
[0.75 0 0 0.75 0 -0.25] CT
2 setlinecap
10.0 ML
0.667 LW
N
657.183 300.091 M
657.183 318 L
675.093 318 L
675.093 300.091 L
657.183 300.091 L
S
GR
GS
[0.75 0 0 0.75 0 -0.25] CT
2 setlinecap
10.0 ML
0.667 LW
N
657.183 318 M
657.183 335.909 L
675.093 335.909 L
675.093 318 L
657.183 318 L
S
GR
GS
[0.75 0 0 0.75 0 -0.25] CT
2 setlinecap
10.0 ML
0.667 LW
N
657.183 335.909 M
657.183 353.819 L
675.093 353.819 L
675.093 335.909 L
657.183 335.909 L
S
GR
GS
[0.75 0 0 0.75 0 -0.25] CT
2 setlinecap
10.0 ML
0.667 LW
N
657.183 353.819 M
657.183 371.728 L
675.093 371.728 L
675.093 353.819 L
657.183 353.819 L
S
GR
GS
[0.75 0 0 0.75 0 -0.25] CT
2 setlinecap
10.0 ML
0.667 LW
N
657.183 371.728 M
657.183 389.638 L
675.093 389.638 L
675.093 371.728 L
657.183 371.728 L
S
GR
GS
[0.75 0 0 0.75 0 -0.25] CT
2 setlinecap
10.0 ML
0.667 LW
N
657.183 389.638 M
657.183 407.547 L
675.093 407.547 L
675.093 389.638 L
657.183 389.638 L
S
GR
GS
[0.75 0 0 0.75 0 -0.25] CT
2 setlinecap
10.0 ML
0.667 LW
N
675.093 228.453 M
675.093 246.362 L
693.002 246.362 L
693.002 228.453 L
675.093 228.453 L
S
GR
GS
[0.75 0 0 0.75 0 -0.25] CT
2 setlinecap
10.0 ML
0.667 LW
N
675.093 246.362 M
675.093 264.272 L
693.002 264.272 L
693.002 246.362 L
675.093 246.362 L
S
GR
GS
[0.75 0 0 0.75 0 -0.25] CT
2 setlinecap
10.0 ML
0.667 LW
N
675.093 264.272 M
675.093 282.181 L
693.002 282.181 L
693.002 264.272 L
675.093 264.272 L
S
GR
GS
[0.75 0 0 0.75 0 -0.25] CT
2 setlinecap
10.0 ML
0.667 LW
N
675.093 282.181 M
675.093 300.091 L
693.002 300.091 L
693.002 282.181 L
675.093 282.181 L
S
GR
GS
[0.75 0 0 0.75 0 -0.25] CT
2 setlinecap
10.0 ML
0.667 LW
N
675.093 300.091 M
675.093 318 L
693.002 318 L
693.002 300.091 L
675.093 300.091 L
S
GR
GS
[0.75 0 0 0.75 0 -0.25] CT
2 setlinecap
10.0 ML
0.667 LW
N
675.093 318 M
675.093 335.909 L
693.002 335.909 L
693.002 318 L
675.093 318 L
S
GR
GS
[0.75 0 0 0.75 0 -0.25] CT
2 setlinecap
10.0 ML
0.667 LW
N
675.093 335.909 M
675.093 353.819 L
693.002 353.819 L
693.002 335.909 L
675.093 335.909 L
S
GR
GS
[0.75 0 0 0.75 0 -0.25] CT
2 setlinecap
10.0 ML
0.667 LW
N
675.093 353.819 M
675.093 371.728 L
693.002 371.728 L
693.002 353.819 L
675.093 353.819 L
S
GR
GS
[0.75 0 0 0.75 0 -0.25] CT
2 setlinecap
10.0 ML
0.667 LW
N
675.093 371.728 M
675.093 389.638 L
693.002 389.638 L
693.002 371.728 L
675.093 371.728 L
S
GR
GS
[0.75 0 0 0.75 0 -0.25] CT
2 setlinecap
10.0 ML
0.667 LW
N
675.093 389.638 M
675.093 407.547 L
693.002 407.547 L
693.002 389.638 L
675.093 389.638 L
S
GR
GS
[0.75 0 0 0.75 0 -0.25] CT
2 setlinecap
10.0 ML
0.667 LW
N
693.002 228.453 M
693.002 246.362 L
710.911 246.362 L
710.911 228.453 L
693.002 228.453 L
S
GR
GS
[0.75 0 0 0.75 0 -0.25] CT
2 setlinecap
10.0 ML
0.667 LW
N
693.002 246.362 M
693.002 264.272 L
710.911 264.272 L
710.911 246.362 L
693.002 246.362 L
S
GR
GS
[0.75 0 0 0.75 0 -0.25] CT
2 setlinecap
10.0 ML
0.667 LW
N
693.002 264.272 M
693.002 282.181 L
710.911 282.181 L
710.911 264.272 L
693.002 264.272 L
S
GR
GS
[0.75 0 0 0.75 0 -0.25] CT
2 setlinecap
10.0 ML
0.667 LW
N
693.002 282.181 M
693.002 300.091 L
710.911 300.091 L
710.911 282.181 L
693.002 282.181 L
S
GR
GS
[0.75 0 0 0.75 0 -0.25] CT
2 setlinecap
10.0 ML
0.667 LW
N
693.002 300.091 M
693.002 318 L
710.911 318 L
710.911 300.091 L
693.002 300.091 L
S
GR
GS
[0.75 0 0 0.75 0 -0.25] CT
2 setlinecap
10.0 ML
0.667 LW
N
693.002 318 M
693.002 335.909 L
710.911 335.909 L
710.911 318 L
693.002 318 L
S
GR
GS
[0.75 0 0 0.75 0 -0.25] CT
2 setlinecap
10.0 ML
0.667 LW
N
693.002 335.909 M
693.002 353.819 L
710.911 353.819 L
710.911 335.909 L
693.002 335.909 L
S
GR
GS
[0.75 0 0 0.75 0 -0.25] CT
2 setlinecap
10.0 ML
0.667 LW
N
693.002 353.819 M
693.002 371.728 L
710.911 371.728 L
710.911 353.819 L
693.002 353.819 L
S
GR
GS
[0.75 0 0 0.75 0 -0.25] CT
2 setlinecap
10.0 ML
0.667 LW
N
693.002 371.728 M
693.002 389.638 L
710.911 389.638 L
710.911 371.728 L
693.002 371.728 L
S
GR
GS
[0.75 0 0 0.75 0 -0.25] CT
2 setlinecap
10.0 ML
0.667 LW
N
693.002 389.638 M
693.002 407.547 L
710.911 407.547 L
710.911 389.638 L
693.002 389.638 L
S
GR
GS
[0.75 0 0 0.75 0 -0.25] CT
2 setlinecap
10.0 ML
0.667 LW
N
710.911 228.453 M
710.911 246.362 L
728.821 246.362 L
728.821 228.453 L
710.911 228.453 L
S
GR
GS
[0.75 0 0 0.75 0 -0.25] CT
2 setlinecap
10.0 ML
0.667 LW
N
710.911 246.362 M
710.911 264.272 L
728.821 264.272 L
728.821 246.362 L
710.911 246.362 L
S
GR
GS
[0.75 0 0 0.75 0 -0.25] CT
2 setlinecap
10.0 ML
0.667 LW
N
710.911 264.272 M
710.911 282.181 L
728.821 282.181 L
728.821 264.272 L
710.911 264.272 L
S
GR
GS
[0.75 0 0 0.75 0 -0.25] CT
2 setlinecap
10.0 ML
0.667 LW
N
710.911 282.181 M
710.911 300.091 L
728.821 300.091 L
728.821 282.181 L
710.911 282.181 L
S
GR
GS
[0.75 0 0 0.75 0 -0.25] CT
2 setlinecap
10.0 ML
0.667 LW
N
710.911 300.091 M
710.911 318 L
728.821 318 L
728.821 300.091 L
710.911 300.091 L
S
GR
GS
[0.75 0 0 0.75 0 -0.25] CT
2 setlinecap
10.0 ML
0.667 LW
N
710.911 318 M
710.911 335.909 L
728.821 335.909 L
728.821 318 L
710.911 318 L
S
GR
GS
[0.75 0 0 0.75 0 -0.25] CT
2 setlinecap
10.0 ML
0.667 LW
N
710.911 335.909 M
710.911 353.819 L
728.821 353.819 L
728.821 335.909 L
710.911 335.909 L
S
GR
GS
[0.75 0 0 0.75 0 -0.25] CT
2 setlinecap
10.0 ML
0.667 LW
N
710.911 353.819 M
710.911 371.728 L
728.821 371.728 L
728.821 353.819 L
710.911 353.819 L
S
GR
GS
[0.75 0 0 0.75 0 -0.25] CT
2 setlinecap
10.0 ML
0.667 LW
N
710.911 371.728 M
710.911 389.638 L
728.821 389.638 L
728.821 371.728 L
710.911 371.728 L
S
GR
GS
[0.75 0 0 0.75 0 -0.25] CT
2 setlinecap
10.0 ML
0.667 LW
N
710.911 389.638 M
710.911 407.547 L
728.821 407.547 L
728.821 389.638 L
710.911 389.638 L
S
GR
%%Trailer
%%Pages: 1
%%EOF
