\relax 
\providecommand\hyper@newdestlabel[2]{}
\providecommand\HyperFirstAtBeginDocument{\AtBeginDocument}
\HyperFirstAtBeginDocument{\ifx\hyper@anchor\@undefined
\global\let\oldcontentsline\contentsline
\gdef\contentsline#1#2#3#4{\oldcontentsline{#1}{#2}{#3}}
\global\let\oldnewlabel\newlabel
\gdef\newlabel#1#2{\newlabelxx{#1}#2}
\gdef\newlabelxx#1#2#3#4#5#6{\oldnewlabel{#1}{{#2}{#3}}}
\AtEndDocument{\ifx\hyper@anchor\@undefined
\let\contentsline\oldcontentsline
\let\newlabel\oldnewlabel
\fi}
\fi}
\global\let\hyper@last\relax 
\gdef\HyperFirstAtBeginDocument#1{#1}
\providecommand\HyField@AuxAddToFields[1]{}
\providecommand\HyField@AuxAddToCoFields[2]{}
\select@language{english}
\@writefile{toc}{\select@language{english}}
\@writefile{lof}{\select@language{english}}
\@writefile{lot}{\select@language{english}}
\pgfsyspdfmark {pgfid2}{0}{0}
\pgfsyspdfmark {pgfid1}{6577079}{47493192}
\@writefile{toc}{\contentsline {section}{\numberline {1}Function Approximation: Noiseless Case}{1}{section.1}}
\providecommand*\caption@xref[2]{\@setref\relax\@undefined{#1}}
\newlabel{fig:d1h1}{{1a}{2}{Approximation of a cosine with one edge and one hidden neuron. This works nicely.\relax }{figure.caption.2}{}}
\newlabel{sub@fig:d1h1}{{a}{2}{Approximation of a cosine with one edge and one hidden neuron. This works nicely.\relax }{figure.caption.2}{}}
\newlabel{fig:d2h1}{{1b}{2}{Fitting a cosine with three edges with only one neuron. The end points of the cosine are not approximated well at all.\relax }{figure.caption.2}{}}
\newlabel{sub@fig:d2h1}{{b}{2}{Fitting a cosine with three edges with only one neuron. The end points of the cosine are not approximated well at all.\relax }{figure.caption.2}{}}
\newlabel{fig:d2h3}{{2a}{2}{Increasing the number of hidden neurons to three again gives a nice fit in most of the experiments.\relax }{figure.caption.3}{}}
\newlabel{sub@fig:d2h3}{{a}{2}{Increasing the number of hidden neurons to three again gives a nice fit in most of the experiments.\relax }{figure.caption.3}{}}
\newlabel{fig:d2h3wrong}{{2b}{2}{Although it can still sometimes go wrong due to local minima.\relax }{figure.caption.3}{}}
\newlabel{sub@fig:d2h3wrong}{{b}{2}{Although it can still sometimes go wrong due to local minima.\relax }{figure.caption.3}{}}
\@writefile{toc}{\contentsline {section}{\numberline {2}The role of the hidden layer and output layer}{2}{section.2}}
\@writefile{toc}{\contentsline {subsection}{\numberline {2.1}A linear regression model}{2}{subsection.2.1}}
\@writefile{toc}{\contentsline {subsection}{\numberline {2.2}A non-linear model}{2}{subsection.2.2}}
\newlabel{fig:d6h7}{{3a}{3}{Approximation of a cosine function with seven edges works nicely with seven hidden neurons in most experiments.\relax }{figure.caption.4}{}}
\newlabel{sub@fig:d6h7}{{a}{3}{Approximation of a cosine function with seven edges works nicely with seven hidden neurons in most experiments.\relax }{figure.caption.4}{}}
\newlabel{fig:d6h7wrong}{{3b}{3}{But sometimes more degrees of freedom are needed to not get stuck in local minima.\relax }{figure.caption.4}{}}
\newlabel{sub@fig:d6h7wrong}{{b}{3}{But sometimes more degrees of freedom are needed to not get stuck in local minima.\relax }{figure.caption.4}{}}
\@writefile{lof}{\contentsline {figure}{\numberline {4}{\ignorespaces An example of overfitting with nine hidden neurons for a simple cosine function.\relax }}{3}{figure.caption.5}}
\newlabel{fig:d1h9}{{4}{3}{An example of overfitting with nine hidden neurons for a simple cosine function.\relax }{figure.caption.5}{}}
\@writefile{lof}{\contentsline {figure}{\numberline {5}{\ignorespaces A sinusoidal input function for the neural network.\relax }}{4}{figure.caption.6}}
\newlabel{fig:cosine}{{5}{4}{A sinusoidal input function for the neural network.\relax }{figure.caption.6}{}}
\@writefile{toc}{\contentsline {section}{\numberline {3}Function Approximation: Noisy Case}{4}{section.3}}
\@writefile{toc}{\contentsline {subsection}{\numberline {3.1}Impact of the number of data points}{4}{subsection.3.1}}
\newlabel{fig:activation1}{{6a}{5}{Two possible activation functions from the hidden neurons after training the network.\relax }{figure.caption.7}{}}
\newlabel{sub@fig:activation1}{{a}{5}{Two possible activation functions from the hidden neurons after training the network.\relax }{figure.caption.7}{}}
\newlabel{fig:activation2}{{6b}{5}{Two other possible activation functions with the same overall fit.\relax }{figure.caption.7}{}}
\newlabel{sub@fig:activation2}{{b}{5}{Two other possible activation functions with the same overall fit.\relax }{figure.caption.7}{}}
\@writefile{toc}{\contentsline {subsection}{\numberline {3.2}Impact of the noise level}{5}{subsection.3.2}}
\newlabel{fig:N30}{{7a}{6}{Different approximations for $N=30$.\relax }{figure.caption.8}{}}
\newlabel{sub@fig:N30}{{a}{6}{Different approximations for $N=30$.\relax }{figure.caption.8}{}}
\newlabel{fig:N150}{{7b}{6}{Different approximations for $N=150$.\relax }{figure.caption.8}{}}
\newlabel{sub@fig:N150}{{b}{6}{Different approximations for $N=150$.\relax }{figure.caption.8}{}}
\newlabel{fig:N1200}{{7c}{6}{Different approximations for $N=1200$.\relax }{figure.caption.8}{}}
\newlabel{sub@fig:N1200}{{c}{6}{Different approximations for $N=1200$.\relax }{figure.caption.8}{}}
\newlabel{fig:noise02}{{8a}{7}{Five approximations for $N=150$ and noise standard deviaton 0.2.\relax }{figure.caption.9}{}}
\newlabel{sub@fig:noise02}{{a}{7}{Five approximations for $N=150$ and noise standard deviaton 0.2.\relax }{figure.caption.9}{}}
\newlabel{fig:noise06}{{8b}{7}{Five approximations for $N=150$ and noise standard deviaton 0.6.\relax }{figure.caption.9}{}}
\newlabel{sub@fig:noise06}{{b}{7}{Five approximations for $N=150$ and noise standard deviaton 0.6.\relax }{figure.caption.9}{}}
\newlabel{fig:noise12}{{8c}{7}{Five approximations for $N=150$ and noise standard deviaton 1.2.\relax }{figure.caption.9}{}}
\newlabel{sub@fig:noise12}{{c}{7}{Five approximations for $N=150$ and noise standard deviaton 1.2.\relax }{figure.caption.9}{}}
\newlabel{fig:hidden2}{{9a}{8}{Approximations with only 2 hidden neurons.\relax }{figure.caption.10}{}}
\newlabel{sub@fig:hidden2}{{a}{8}{Approximations with only 2 hidden neurons.\relax }{figure.caption.10}{}}
\newlabel{fig:hidden10}{{9b}{8}{Overfitting phenomenon with 10 hidden neurons.\relax }{figure.caption.10}{}}
\newlabel{sub@fig:hidden10}{{b}{8}{Overfitting phenomenon with 10 hidden neurons.\relax }{figure.caption.10}{}}
\@writefile{toc}{\contentsline {subsection}{\numberline {3.3}Impact of the number of hidden neurons}{8}{subsection.3.3}}
\@writefile{toc}{\contentsline {subsection}{\numberline {3.4}Impact of the training algorithm}{8}{subsection.3.4}}
\@writefile{toc}{\contentsline {subsection}{\numberline {3.5}Early stopping versus iterating until convergence}{9}{subsection.3.5}}
\@writefile{toc}{\contentsline {subsection}{\numberline {3.6}Impact of the regularization parameter}{9}{subsection.3.6}}
\newlabel{fig:quasinewton}{{10a}{10}{Approximations with $N=150$ and noise level 0.2 with the BFGS algorithm.\relax }{figure.caption.11}{}}
\newlabel{sub@fig:quasinewton}{{a}{10}{Approximations with $N=150$ and noise level 0.2 with the BFGS algorithm.\relax }{figure.caption.11}{}}
\newlabel{fig:levenberg}{{10b}{10}{Approximations using the Levenberg-Marquardt method.\relax }{figure.caption.11}{}}
\newlabel{sub@fig:levenberg}{{b}{10}{Approximations using the Levenberg-Marquardt method.\relax }{figure.caption.11}{}}
\newlabel{fig:backpropagation}{{10c}{10}{Very bad fits using gradient descent.\relax }{figure.caption.11}{}}
\newlabel{sub@fig:backpropagation}{{c}{10}{Very bad fits using gradient descent.\relax }{figure.caption.11}{}}
\newlabel{fig:conjugategradients}{{10d}{10}{Neural net outputs using the conjugate gradient algorithm.\relax }{figure.caption.11}{}}
\newlabel{sub@fig:conjugategradients}{{d}{10}{Neural net outputs using the conjugate gradient algorithm.\relax }{figure.caption.11}{}}
\newlabel{fig:earlystopping}{{11a}{11}{Standard neural-net approximation with early stopping.\relax }{figure.caption.12}{}}
\newlabel{sub@fig:earlystopping}{{a}{11}{Standard neural-net approximation with early stopping.\relax }{figure.caption.12}{}}
\newlabel{fig:convergence}{{11b}{11}{Approximation without early stopping. Some overfitting is visibile near the border for the purple approximation.\relax }{figure.caption.12}{}}
\newlabel{sub@fig:convergence}{{b}{11}{Approximation without early stopping. Some overfitting is visibile near the border for the purple approximation.\relax }{figure.caption.12}{}}
\newlabel{fig:convergenceperformance}{{12a}{11}{The optimizer keeps iterating even though the MSE doesn't decrease anymore but the gradient does.\relax }{figure.caption.13}{}}
\newlabel{sub@fig:convergenceperformance}{{a}{11}{The optimizer keeps iterating even though the MSE doesn't decrease anymore but the gradient does.\relax }{figure.caption.13}{}}
\newlabel{fig:earlystoppingperformance}{{12b}{11}{The MSE on the validation data increases and makes the optimizer stop while reaching almost the minimal MSE on the test set.\relax }{figure.caption.13}{}}
\newlabel{sub@fig:earlystoppingperformance}{{b}{11}{The MSE on the validation data increases and makes the optimizer stop while reaching almost the minimal MSE on the test set.\relax }{figure.caption.13}{}}
\newlabel{fig:reg0}{{13a}{12}{Simulations with a regularization parameter of 0.\relax }{figure.caption.14}{}}
\newlabel{sub@fig:reg0}{{a}{12}{Simulations with a regularization parameter of 0.\relax }{figure.caption.14}{}}
\newlabel{fig:reg01}{{13b}{12}{Regularization parameter increased to 0.1.\relax }{figure.caption.14}{}}
\newlabel{sub@fig:reg01}{{b}{12}{Regularization parameter increased to 0.1.\relax }{figure.caption.14}{}}
\newlabel{fig:reg05}{{13c}{12}{All weights are completely suppressed with regularization parameter 0.5.\relax }{figure.caption.14}{}}
\newlabel{sub@fig:reg05}{{c}{12}{All weights are completely suppressed with regularization parameter 0.5.\relax }{figure.caption.14}{}}
\@writefile{toc}{\contentsline {subsection}{\numberline {3.7}Impact of the initial choice of weights}{13}{subsection.3.7}}
\@writefile{toc}{\contentsline {subsection}{\numberline {3.8}Conclusion on function approximation in the noisy case}{13}{subsection.3.8}}
\@writefile{toc}{\contentsline {section}{\numberline {4}The Curse of Dimensionality}{13}{section.4}}
\@writefile{toc}{\contentsline {subsection}{\numberline {4.1}Choice of Training, Validation and Test data}{13}{subsection.4.1}}
\@writefile{toc}{\contentsline {subsection}{\numberline {4.2}One dimensional input space}{13}{subsection.4.2}}
\@writefile{lof}{\contentsline {figure}{\numberline {14}{\ignorespaces Extrapolation of the fitted sinc function yields very bad results.\relax }}{14}{figure.caption.15}}
\newlabel{fig:badtestdata}{{14}{14}{Extrapolation of the fitted sinc function yields very bad results.\relax }{figure.caption.15}{}}
\@writefile{toc}{\contentsline {subsection}{\numberline {4.3}Two dimensional input space}{14}{subsection.4.3}}
\@writefile{toc}{\contentsline {subsection}{\numberline {4.4}Five dimensional input space}{14}{subsection.4.4}}
\newlabel{fig:m1h5}{{15a}{15}{5 hidden neurons.\relax }{figure.caption.16}{}}
\newlabel{sub@fig:m1h5}{{a}{15}{5 hidden neurons.\relax }{figure.caption.16}{}}
\newlabel{fig:m1h6}{{15b}{15}{6 hidden neurons.\relax }{figure.caption.16}{}}
\newlabel{sub@fig:m1h6}{{b}{15}{6 hidden neurons.\relax }{figure.caption.16}{}}
\newlabel{fig:m1h7}{{15c}{15}{7 hidden neurons.\relax }{figure.caption.16}{}}
\newlabel{sub@fig:m1h7}{{c}{15}{7 hidden neurons.\relax }{figure.caption.16}{}}
\newlabel{fig:m1h8}{{15d}{15}{8 hidden neurons.\relax }{figure.caption.16}{}}
\newlabel{sub@fig:m1h8}{{d}{15}{8 hidden neurons.\relax }{figure.caption.16}{}}
\newlabel{fig:m2h20}{{16a}{16}{20 Hidden neurons.\relax }{figure.caption.17}{}}
\newlabel{sub@fig:m2h20}{{a}{16}{20 Hidden neurons.\relax }{figure.caption.17}{}}
\newlabel{fig:m2h25}{{16b}{16}{25 Hidden neurons.\relax }{figure.caption.17}{}}
\newlabel{sub@fig:m2h25}{{b}{16}{25 Hidden neurons.\relax }{figure.caption.17}{}}
\newlabel{fig:m2h30}{{16c}{16}{30 Hidden neurons.\relax }{figure.caption.17}{}}
\newlabel{sub@fig:m2h30}{{c}{16}{30 Hidden neurons.\relax }{figure.caption.17}{}}
\newlabel{fig:m2h35}{{16d}{16}{35 Hidden neurons.\relax }{figure.caption.17}{}}
\newlabel{sub@fig:m2h35}{{d}{16}{35 Hidden neurons.\relax }{figure.caption.17}{}}
\newlabel{fig:m5h50}{{17a}{17}{Cross section on the x-axis for 50 hidden neurons.\relax }{figure.caption.18}{}}
\newlabel{sub@fig:m5h50}{{a}{17}{Cross section on the x-axis for 50 hidden neurons.\relax }{figure.caption.18}{}}
\newlabel{fig:m5h100}{{17b}{17}{Cross section on the x-axis for 100 hidden neurons.\relax }{figure.caption.18}{}}
\newlabel{sub@fig:m5h100}{{b}{17}{Cross section on the x-axis for 100 hidden neurons.\relax }{figure.caption.18}{}}
\newlabel{LastPage}{{}{17}{}{page.17}{}}
\xdef\lastpage@lastpage{17}
\xdef\lastpage@lastpageHy{17}
