%!PS-Adobe-3.0 EPSF-3.0
%%Creator: (MATLAB, The Mathworks, Inc. Version 9.3.0.713579 \(R2017b\). Operating System: Mac OS X)
%%Title: (/Users/hannesvdc/WIT/data-mining/Session 1/plots/activation1.eps)
%%CreationDate: 2017-11-10T11:51:41
%%Pages: (atend)
%%BoundingBox: 0 0 653 513
%%LanguageLevel: 3
%%EndComments
%%BeginProlog
%%BeginResource: procset (Apache XML Graphics Std ProcSet) 1.2 0
%%Version: 1.2 0
%%Copyright: (Copyright 2001-2003,2010 The Apache Software Foundation. License terms: http://www.apache.org/licenses/LICENSE-2.0)
/bd{bind def}bind def
/ld{load def}bd
/GR/grestore ld
/GS/gsave ld
/RM/rmoveto ld
/C/curveto ld
/t/show ld
/L/lineto ld
/ML/setmiterlimit ld
/CT/concat ld
/f/fill ld
/N/newpath ld
/S/stroke ld
/CC/setcmykcolor ld
/A/ashow ld
/cp/closepath ld
/RC/setrgbcolor ld
/LJ/setlinejoin ld
/GC/setgray ld
/LW/setlinewidth ld
/M/moveto ld
/re {4 2 roll M
1 index 0 rlineto
0 exch rlineto
neg 0 rlineto
cp } bd
/_ctm matrix def
/_tm matrix def
/BT { _ctm currentmatrix pop matrix _tm copy pop 0 0 moveto } bd
/ET { _ctm setmatrix } bd
/iTm { _ctm setmatrix _tm concat } bd
/Tm { _tm astore pop iTm 0 0 moveto } bd
/ux 0.0 def
/uy 0.0 def
/F {
  /Tp exch def
  /Tf exch def
  Tf findfont Tp scalefont setfont
  /cf Tf def  /cs Tp def
} bd
/ULS {currentpoint /uy exch def /ux exch def} bd
/ULE {
  /Tcx currentpoint pop def
  gsave
  newpath
  cf findfont cs scalefont dup
  /FontMatrix get 0 get /Ts exch def /FontInfo get dup
  /UnderlinePosition get Ts mul /To exch def
  /UnderlineThickness get Ts mul /Tt exch def
  ux uy To add moveto  Tcx uy To add lineto
  Tt setlinewidth stroke
  grestore
} bd
/OLE {
  /Tcx currentpoint pop def
  gsave
  newpath
  cf findfont cs scalefont dup
  /FontMatrix get 0 get /Ts exch def /FontInfo get dup
  /UnderlinePosition get Ts mul /To exch def
  /UnderlineThickness get Ts mul /Tt exch def
  ux uy To add cs add moveto Tcx uy To add cs add lineto
  Tt setlinewidth stroke
  grestore
} bd
/SOE {
  /Tcx currentpoint pop def
  gsave
  newpath
  cf findfont cs scalefont dup
  /FontMatrix get 0 get /Ts exch def /FontInfo get dup
  /UnderlinePosition get Ts mul /To exch def
  /UnderlineThickness get Ts mul /Tt exch def
  ux uy To add cs 10 mul 26 idiv add moveto Tcx uy To add cs 10 mul 26 idiv add lineto
  Tt setlinewidth stroke
  grestore
} bd
/QT {
/Y22 exch store
/X22 exch store
/Y21 exch store
/X21 exch store
currentpoint
/Y21 load 2 mul add 3 div exch
/X21 load 2 mul add 3 div exch
/X21 load 2 mul /X22 load add 3 div
/Y21 load 2 mul /Y22 load add 3 div
/X22 load /Y22 load curveto
} bd
/SSPD {
dup length /d exch dict def
{
/v exch def
/k exch def
currentpagedevice k known {
/cpdv currentpagedevice k get def
v cpdv ne {
/upd false def
/nullv v type /nulltype eq def
/nullcpdv cpdv type /nulltype eq def
nullv nullcpdv or
{
/upd true def
} {
/sametype v type cpdv type eq def
sametype {
v type /arraytype eq {
/vlen v length def
/cpdvlen cpdv length def
vlen cpdvlen eq {
0 1 vlen 1 sub {
/i exch def
/obj v i get def
/cpdobj cpdv i get def
obj cpdobj ne {
/upd true def
exit
} if
} for
} {
/upd true def
} ifelse
} {
v type /dicttype eq {
v {
/dv exch def
/dk exch def
/cpddv cpdv dk get def
dv cpddv ne {
/upd true def
exit
} if
} forall
} {
/upd true def
} ifelse
} ifelse
} if
} ifelse
upd true eq {
d k v put
} if
} if
} if
} forall
d length 0 gt {
d setpagedevice
} if
} bd
/RE { % /NewFontName [NewEncodingArray] /FontName RE -
  findfont dup length dict begin
  {
    1 index /FID ne
    {def} {pop pop} ifelse
  } forall
  /Encoding exch def
  /FontName 1 index def
  currentdict definefont pop
  end
} bind def
%%EndResource
%%BeginResource: procset (Apache XML Graphics EPS ProcSet) 1.0 0
%%Version: 1.0 0
%%Copyright: (Copyright 2002-2003 The Apache Software Foundation. License terms: http://www.apache.org/licenses/LICENSE-2.0)
/BeginEPSF { %def
/b4_Inc_state save def         % Save state for cleanup
/dict_count countdictstack def % Count objects on dict stack
/op_count count 1 sub def      % Count objects on operand stack
userdict begin                 % Push userdict on dict stack
/showpage { } def              % Redefine showpage, { } = null proc
0 setgray 0 setlinecap         % Prepare graphics state
1 setlinewidth 0 setlinejoin
10 setmiterlimit [ ] 0 setdash newpath
/languagelevel where           % If level not equal to 1 then
{pop languagelevel             % set strokeadjust and
1 ne                           % overprint to their defaults.
{false setstrokeadjust false setoverprint
} if
} if
} bd
/EndEPSF { %def
count op_count sub {pop} repeat            % Clean up stacks
countdictstack dict_count sub {end} repeat
b4_Inc_state restore
} bd
%%EndResource
%FOPBeginFontDict
%%IncludeResource: font Courier-Oblique
%%IncludeResource: font Courier-BoldOblique
%%IncludeResource: font Courier-Bold
%%IncludeResource: font ZapfDingbats
%%IncludeResource: font Symbol
%%IncludeResource: font Helvetica
%%IncludeResource: font Helvetica-Oblique
%%IncludeResource: font Helvetica-Bold
%%IncludeResource: font Helvetica-BoldOblique
%%IncludeResource: font Times-Roman
%%IncludeResource: font Times-Italic
%%IncludeResource: font Times-Bold
%%IncludeResource: font Times-BoldItalic
%%IncludeResource: font Courier
%FOPEndFontDict
%%BeginResource: encoding WinAnsiEncoding
/WinAnsiEncoding [
/.notdef /.notdef /.notdef /.notdef /.notdef
/.notdef /.notdef /.notdef /.notdef /.notdef
/.notdef /.notdef /.notdef /.notdef /.notdef
/.notdef /.notdef /.notdef /.notdef /.notdef
/.notdef /.notdef /.notdef /.notdef /.notdef
/.notdef /.notdef /.notdef /.notdef /.notdef
/.notdef /.notdef /space /exclam /quotedbl
/numbersign /dollar /percent /ampersand /quotesingle
/parenleft /parenright /asterisk /plus /comma
/hyphen /period /slash /zero /one
/two /three /four /five /six
/seven /eight /nine /colon /semicolon
/less /equal /greater /question /at
/A /B /C /D /E
/F /G /H /I /J
/K /L /M /N /O
/P /Q /R /S /T
/U /V /W /X /Y
/Z /bracketleft /backslash /bracketright /asciicircum
/underscore /quoteleft /a /b /c
/d /e /f /g /h
/i /j /k /l /m
/n /o /p /q /r
/s /t /u /v /w
/x /y /z /braceleft /bar
/braceright /asciitilde /bullet /Euro /bullet
/quotesinglbase /florin /quotedblbase /ellipsis /dagger
/daggerdbl /circumflex /perthousand /Scaron /guilsinglleft
/OE /bullet /Zcaron /bullet /bullet
/quoteleft /quoteright /quotedblleft /quotedblright /bullet
/endash /emdash /asciitilde /trademark /scaron
/guilsinglright /oe /bullet /zcaron /Ydieresis
/space /exclamdown /cent /sterling /currency
/yen /brokenbar /section /dieresis /copyright
/ordfeminine /guillemotleft /logicalnot /sfthyphen /registered
/macron /degree /plusminus /twosuperior /threesuperior
/acute /mu /paragraph /middot /cedilla
/onesuperior /ordmasculine /guillemotright /onequarter /onehalf
/threequarters /questiondown /Agrave /Aacute /Acircumflex
/Atilde /Adieresis /Aring /AE /Ccedilla
/Egrave /Eacute /Ecircumflex /Edieresis /Igrave
/Iacute /Icircumflex /Idieresis /Eth /Ntilde
/Ograve /Oacute /Ocircumflex /Otilde /Odieresis
/multiply /Oslash /Ugrave /Uacute /Ucircumflex
/Udieresis /Yacute /Thorn /germandbls /agrave
/aacute /acircumflex /atilde /adieresis /aring
/ae /ccedilla /egrave /eacute /ecircumflex
/edieresis /igrave /iacute /icircumflex /idieresis
/eth /ntilde /ograve /oacute /ocircumflex
/otilde /odieresis /divide /oslash /ugrave
/uacute /ucircumflex /udieresis /yacute /thorn
/ydieresis
] def
%%EndResource
%FOPBeginFontReencode
/Courier-Oblique findfont
dup length dict begin
  {1 index /FID ne {def} {pop pop} ifelse} forall
  /Encoding WinAnsiEncoding def
  currentdict
end
/Courier-Oblique exch definefont pop
/Courier-BoldOblique findfont
dup length dict begin
  {1 index /FID ne {def} {pop pop} ifelse} forall
  /Encoding WinAnsiEncoding def
  currentdict
end
/Courier-BoldOblique exch definefont pop
/Courier-Bold findfont
dup length dict begin
  {1 index /FID ne {def} {pop pop} ifelse} forall
  /Encoding WinAnsiEncoding def
  currentdict
end
/Courier-Bold exch definefont pop
/Helvetica findfont
dup length dict begin
  {1 index /FID ne {def} {pop pop} ifelse} forall
  /Encoding WinAnsiEncoding def
  currentdict
end
/Helvetica exch definefont pop
/Helvetica-Oblique findfont
dup length dict begin
  {1 index /FID ne {def} {pop pop} ifelse} forall
  /Encoding WinAnsiEncoding def
  currentdict
end
/Helvetica-Oblique exch definefont pop
/Helvetica-Bold findfont
dup length dict begin
  {1 index /FID ne {def} {pop pop} ifelse} forall
  /Encoding WinAnsiEncoding def
  currentdict
end
/Helvetica-Bold exch definefont pop
/Helvetica-BoldOblique findfont
dup length dict begin
  {1 index /FID ne {def} {pop pop} ifelse} forall
  /Encoding WinAnsiEncoding def
  currentdict
end
/Helvetica-BoldOblique exch definefont pop
/Times-Roman findfont
dup length dict begin
  {1 index /FID ne {def} {pop pop} ifelse} forall
  /Encoding WinAnsiEncoding def
  currentdict
end
/Times-Roman exch definefont pop
/Times-Italic findfont
dup length dict begin
  {1 index /FID ne {def} {pop pop} ifelse} forall
  /Encoding WinAnsiEncoding def
  currentdict
end
/Times-Italic exch definefont pop
/Times-Bold findfont
dup length dict begin
  {1 index /FID ne {def} {pop pop} ifelse} forall
  /Encoding WinAnsiEncoding def
  currentdict
end
/Times-Bold exch definefont pop
/Times-BoldItalic findfont
dup length dict begin
  {1 index /FID ne {def} {pop pop} ifelse} forall
  /Encoding WinAnsiEncoding def
  currentdict
end
/Times-BoldItalic exch definefont pop
/Courier findfont
dup length dict begin
  {1 index /FID ne {def} {pop pop} ifelse} forall
  /Encoding WinAnsiEncoding def
  currentdict
end
/Courier exch definefont pop
%FOPEndFontReencode
%%EndProlog
%%Page: 1 1
%%PageBoundingBox: 0 0 653 513
%%BeginPageSetup
[1 0 0 -1 0 513] CT
%%EndPageSetup
GS
1 GC
N
0 0 653 513 re
f
GR
GS
1 GC
N
0 0 653 513 re
f
GR
GS
1 GC
N
85 456.5 M
591 456.5 L
591 38.5 L
85 38.5 L
cp
f
GR
GS
0.149 GC
2 setlinecap
1 LJ
0.5 LW
N
85 456.5 M
591 456.5 L
S
GR
GS
0.149 GC
2 setlinecap
1 LJ
0.5 LW
N
85 38.5 M
591 38.5 L
S
GR
GS
0.149 GC
2 setlinecap
1 LJ
0.5 LW
N
85 456.5 M
85 451.44 L
S
GR
GS
0.149 GC
2 setlinecap
1 LJ
0.5 LW
N
186.2 456.5 M
186.2 451.44 L
S
GR
GS
0.149 GC
2 setlinecap
1 LJ
0.5 LW
N
287.4 456.5 M
287.4 451.44 L
S
GR
GS
0.149 GC
2 setlinecap
1 LJ
0.5 LW
N
388.6 456.5 M
388.6 451.44 L
S
GR
GS
0.149 GC
2 setlinecap
1 LJ
0.5 LW
N
489.8 456.5 M
489.8 451.44 L
S
GR
GS
0.149 GC
2 setlinecap
1 LJ
0.5 LW
N
591 456.5 M
591 451.44 L
S
GR
GS
0.149 GC
2 setlinecap
1 LJ
0.5 LW
N
85 38.5 M
85 43.56 L
S
GR
GS
0.149 GC
2 setlinecap
1 LJ
0.5 LW
N
186.2 38.5 M
186.2 43.56 L
S
GR
GS
0.149 GC
2 setlinecap
1 LJ
0.5 LW
N
287.4 38.5 M
287.4 43.56 L
S
GR
GS
0.149 GC
2 setlinecap
1 LJ
0.5 LW
N
388.6 38.5 M
388.6 43.56 L
S
GR
GS
0.149 GC
2 setlinecap
1 LJ
0.5 LW
N
489.8 38.5 M
489.8 43.56 L
S
GR
GS
0.149 GC
2 setlinecap
1 LJ
0.5 LW
N
591 38.5 M
591 43.56 L
S
GR
GS
[1 0 0 1 85 462.10001] CT
0.149 GC
/Helvetica 18 F
GS
[1 0 0 1 0 0] CT
-5.5 18 moveto 
1 -1 scale
(0) t 
GR
GR
GS
[1 0 0 1 186.2 462.10001] CT
0.149 GC
/Helvetica 18 F
GS
[1 0 0 1 0 0] CT
-13 18 moveto 
1 -1 scale
(0.2) t 
GR
GR
GS
[1 0 0 1 287.39999 462.10001] CT
0.149 GC
/Helvetica 18 F
GS
[1 0 0 1 0 0] CT
-13 18 moveto 
1 -1 scale
(0.4) t 
GR
GR
GS
[1 0 0 1 388.60001 462.10001] CT
0.149 GC
/Helvetica 18 F
GS
[1 0 0 1 0 0] CT
-13 18 moveto 
1 -1 scale
(0.6) t 
GR
GR
GS
[1 0 0 1 489.80002 462.10001] CT
0.149 GC
/Helvetica 18 F
GS
[1 0 0 1 0 0] CT
-13 18 moveto 
1 -1 scale
(0.8) t 
GR
GR
GS
[1 0 0 1 591 462.10001] CT
0.149 GC
/Helvetica 18 F
GS
[1 0 0 1 0 0] CT
-5.5 18 moveto 
1 -1 scale
(1) t 
GR
GR
GS
[1 0 0 1 338.00024 484.60001] CT
0.149 GC
/Helvetica 19.8 F
GS
[1 0 0 1 0 0] CT
-6.5 19 moveto 
1 -1 scale
(X) t 
GR
GR
GS
0.149 GC
2 setlinecap
1 LJ
0.5 LW
N
85 456.5 M
85 38.5 L
S
GR
GS
0.149 GC
2 setlinecap
1 LJ
0.5 LW
N
591 456.5 M
591 38.5 L
S
GR
GS
0.149 GC
2 setlinecap
1 LJ
0.5 LW
N
85 456.5 M
90.06 456.5 L
S
GR
GS
0.149 GC
2 setlinecap
1 LJ
0.5 LW
N
85 372.9 M
90.06 372.9 L
S
GR
GS
0.149 GC
2 setlinecap
1 LJ
0.5 LW
N
85 289.3 M
90.06 289.3 L
S
GR
GS
0.149 GC
2 setlinecap
1 LJ
0.5 LW
N
85 205.7 M
90.06 205.7 L
S
GR
GS
0.149 GC
2 setlinecap
1 LJ
0.5 LW
N
85 122.1 M
90.06 122.1 L
S
GR
GS
0.149 GC
2 setlinecap
1 LJ
0.5 LW
N
85 38.5 M
90.06 38.5 L
S
GR
GS
0.149 GC
2 setlinecap
1 LJ
0.5 LW
N
591 456.5 M
585.94 456.5 L
S
GR
GS
0.149 GC
2 setlinecap
1 LJ
0.5 LW
N
591 372.9 M
585.94 372.9 L
S
GR
GS
0.149 GC
2 setlinecap
1 LJ
0.5 LW
N
591 289.3 M
585.94 289.3 L
S
GR
GS
0.149 GC
2 setlinecap
1 LJ
0.5 LW
N
591 205.7 M
585.94 205.7 L
S
GR
GS
0.149 GC
2 setlinecap
1 LJ
0.5 LW
N
591 122.1 M
585.94 122.1 L
S
GR
GS
0.149 GC
2 setlinecap
1 LJ
0.5 LW
N
591 38.5 M
585.94 38.5 L
S
GR
GS
[1 0 0 1 79.4 456.5] CT
0.149 GC
/Helvetica 18 F
GS
[1 0 0 1 0 0] CT
-33 7 moveto 
1 -1 scale
(-1.5) t 
GR
GR
GS
[1 0 0 1 79.4 372.89999] CT
0.149 GC
/Helvetica 18 F
GS
[1 0 0 1 0 0] CT
-18 7 moveto 
1 -1 scale
(-1) t 
GR
GR
GS
[1 0 0 1 79.4 289.29999] CT
0.149 GC
/Helvetica 18 F
GS
[1 0 0 1 0 0] CT
-33 7 moveto 
1 -1 scale
(-0.5) t 
GR
GR
GS
[1 0 0 1 79.4 205.7] CT
0.149 GC
/Helvetica 18 F
GS
[1 0 0 1 0 0] CT
-11 7 moveto 
1 -1 scale
(0) t 
GR
GR
GS
[1 0 0 1 79.4 122.1] CT
0.149 GC
/Helvetica 18 F
GS
[1 0 0 1 0 0] CT
-26 7 moveto 
1 -1 scale
(0.5) t 
GR
GR
GS
[1 0 0 1 79.4 38.5] CT
0.149 GC
/Helvetica 18 F
GS
[1 0 0 1 0 0] CT
-11 7 moveto 
1 -1 scale
(1) t 
GR
GR
GS
[1 0 0 1 338.00034 37.125] CT
/Helvetica-Bold 19.8 F
GS
[1 0 0 1 0 0] CT
-94.5 -5 moveto 
1 -1 scale
(Activation functions) t 
GR
GR
GS
0 0.447 0.741 RC
1 LJ
3 LW
N
85 38.5 M
110.3 38.5 L
135.6 38.5 L
160.9 38.5 L
186.2 38.5 L
211.5 38.5 L
236.8 38.5 L
262.1 38.5 L
287.4 38.5 L
312.7 38.5 L
338 38.5 L
363.3 38.5 L
388.6 38.5 L
413.9 38.501 L
439.2 38.501 L
464.5 38.501 L
489.8 38.502 L
515.1 38.503 L
540.4 38.504 L
565.7 38.506 L
591 38.508 L
S
GR
GS
0.851 0.325 0.098 RC
1 LJ
3 LW
N
85 56.774 M
110.3 61.112 L
135.6 66.389 L
160.9 72.762 L
186.2 80.393 L
211.5 89.434 L
236.8 100.017 L
262.1 112.227 L
287.4 126.082 L
312.7 141.512 L
338 158.34 L
363.3 176.281 L
388.6 194.949 L
413.9 213.891 L
439.2 232.623 L
464.5 250.687 L
489.8 267.685 L
515.1 283.318 L
540.4 297.393 L
565.7 309.826 L
591 320.625 L
S
GR
GS
0.929 0.694 0.125 RC
1 LJ
3 LW
N
85 372.9 M
110.3 371.582 L
135.6 367.647 L
160.9 361.159 L
186.2 352.218 L
211.5 340.968 L
236.8 327.584 L
262.1 312.277 L
287.4 295.29 L
312.7 276.89 L
338 257.368 L
363.3 237.03 L
388.6 216.199 L
413.9 195.201 L
439.2 174.37 L
464.5 154.032 L
489.8 134.51 L
515.1 116.11 L
540.4 99.123 L
565.7 83.816 L
591 70.432 L
S
GR
GS
0.494 0.184 0.557 RC
1 LJ
3 LW
N
85 376.473 M
110.3 371.471 L
135.6 365.385 L
160.9 358.036 L
186.2 349.236 L
211.5 338.809 L
236.8 326.605 L
262.1 312.525 L
287.4 296.548 L
312.7 278.754 L
338 259.348 L
363.3 238.659 L
388.6 217.131 L
413.9 195.288 L
439.2 173.686 L
464.5 152.855 L
489.8 133.254 L
515.1 115.228 L
540.4 98.998 L
565.7 84.662 L
591 72.212 L
S
GR
GS
1 GC
N
512 432.5 M
512 313 L
361 313 L
361 432.5 L
cp
f
GR
GS
[1 0 0 1 410.75 329.25] CT
/Helvetica 24 F
GS
[1 0 0 1 0 0] CT
0 8.5 moveto 
1 -1 scale
(x1p) t 
GR
GR
GS
0 0.447 0.741 RC
1 LJ
3 LW
N
377.75 329.25 M
407.75 329.25 L
S
GR
GS
[1 0 0 1 410.75 358.25] CT
/Helvetica 24 F
GS
[1 0 0 1 0 0] CT
0 8.5 moveto 
1 -1 scale
(x2p) t 
GR
GR
GS
0.851 0.325 0.098 RC
1 LJ
3 LW
N
377.75 358.25 M
407.75 358.25 L
S
GR
GS
[1 0 0 1 410.75 387.25] CT
/Helvetica 24 F
GS
[1 0 0 1 0 0] CT
0 8.5 moveto 
1 -1 scale
(yp) t 
GR
GR
GS
0.929 0.694 0.125 RC
1 LJ
3 LW
N
377.75 387.25 M
407.75 387.25 L
S
GR
GS
[1 0 0 1 410.75 416.25] CT
/Helvetica 24 F
GS
[1 0 0 1 0 0] CT
0 8.5 moveto 
1 -1 scale
(outputp) t 
GR
GR
GS
0.494 0.184 0.557 RC
1 LJ
3 LW
N
377.75 416.25 M
407.75 416.25 L
S
GR
GS
0.149 GC
10.0 ML
0.5 LW
N
361 432.5 M
361 313 L
512 313 L
512 432.5 L
cp
S
GR
%%Trailer
%%Pages: 1
%%EOF
