%!PS-Adobe-3.0 EPSF-3.0
%%Creator: (MATLAB, The Mathworks, Inc. Version 9.3.0.713579 \(R2017b\). Operating System: Mac OS X)
%%Title: (/Users/hannesvdc/WIT/data-mining/Session 1/plots/activation2.eps)
%%CreationDate: 2017-11-10T11:55:21
%%Pages: (atend)
%%BoundingBox: 0 0 636 488
%%LanguageLevel: 3
%%EndComments
%%BeginProlog
%%BeginResource: procset (Apache XML Graphics Std ProcSet) 1.2 0
%%Version: 1.2 0
%%Copyright: (Copyright 2001-2003,2010 The Apache Software Foundation. License terms: http://www.apache.org/licenses/LICENSE-2.0)
/bd{bind def}bind def
/ld{load def}bd
/GR/grestore ld
/GS/gsave ld
/RM/rmoveto ld
/C/curveto ld
/t/show ld
/L/lineto ld
/ML/setmiterlimit ld
/CT/concat ld
/f/fill ld
/N/newpath ld
/S/stroke ld
/CC/setcmykcolor ld
/A/ashow ld
/cp/closepath ld
/RC/setrgbcolor ld
/LJ/setlinejoin ld
/GC/setgray ld
/LW/setlinewidth ld
/M/moveto ld
/re {4 2 roll M
1 index 0 rlineto
0 exch rlineto
neg 0 rlineto
cp } bd
/_ctm matrix def
/_tm matrix def
/BT { _ctm currentmatrix pop matrix _tm copy pop 0 0 moveto } bd
/ET { _ctm setmatrix } bd
/iTm { _ctm setmatrix _tm concat } bd
/Tm { _tm astore pop iTm 0 0 moveto } bd
/ux 0.0 def
/uy 0.0 def
/F {
  /Tp exch def
  /Tf exch def
  Tf findfont Tp scalefont setfont
  /cf Tf def  /cs Tp def
} bd
/ULS {currentpoint /uy exch def /ux exch def} bd
/ULE {
  /Tcx currentpoint pop def
  gsave
  newpath
  cf findfont cs scalefont dup
  /FontMatrix get 0 get /Ts exch def /FontInfo get dup
  /UnderlinePosition get Ts mul /To exch def
  /UnderlineThickness get Ts mul /Tt exch def
  ux uy To add moveto  Tcx uy To add lineto
  Tt setlinewidth stroke
  grestore
} bd
/OLE {
  /Tcx currentpoint pop def
  gsave
  newpath
  cf findfont cs scalefont dup
  /FontMatrix get 0 get /Ts exch def /FontInfo get dup
  /UnderlinePosition get Ts mul /To exch def
  /UnderlineThickness get Ts mul /Tt exch def
  ux uy To add cs add moveto Tcx uy To add cs add lineto
  Tt setlinewidth stroke
  grestore
} bd
/SOE {
  /Tcx currentpoint pop def
  gsave
  newpath
  cf findfont cs scalefont dup
  /FontMatrix get 0 get /Ts exch def /FontInfo get dup
  /UnderlinePosition get Ts mul /To exch def
  /UnderlineThickness get Ts mul /Tt exch def
  ux uy To add cs 10 mul 26 idiv add moveto Tcx uy To add cs 10 mul 26 idiv add lineto
  Tt setlinewidth stroke
  grestore
} bd
/QT {
/Y22 exch store
/X22 exch store
/Y21 exch store
/X21 exch store
currentpoint
/Y21 load 2 mul add 3 div exch
/X21 load 2 mul add 3 div exch
/X21 load 2 mul /X22 load add 3 div
/Y21 load 2 mul /Y22 load add 3 div
/X22 load /Y22 load curveto
} bd
/SSPD {
dup length /d exch dict def
{
/v exch def
/k exch def
currentpagedevice k known {
/cpdv currentpagedevice k get def
v cpdv ne {
/upd false def
/nullv v type /nulltype eq def
/nullcpdv cpdv type /nulltype eq def
nullv nullcpdv or
{
/upd true def
} {
/sametype v type cpdv type eq def
sametype {
v type /arraytype eq {
/vlen v length def
/cpdvlen cpdv length def
vlen cpdvlen eq {
0 1 vlen 1 sub {
/i exch def
/obj v i get def
/cpdobj cpdv i get def
obj cpdobj ne {
/upd true def
exit
} if
} for
} {
/upd true def
} ifelse
} {
v type /dicttype eq {
v {
/dv exch def
/dk exch def
/cpddv cpdv dk get def
dv cpddv ne {
/upd true def
exit
} if
} forall
} {
/upd true def
} ifelse
} ifelse
} if
} ifelse
upd true eq {
d k v put
} if
} if
} if
} forall
d length 0 gt {
d setpagedevice
} if
} bd
/RE { % /NewFontName [NewEncodingArray] /FontName RE -
  findfont dup length dict begin
  {
    1 index /FID ne
    {def} {pop pop} ifelse
  } forall
  /Encoding exch def
  /FontName 1 index def
  currentdict definefont pop
  end
} bind def
%%EndResource
%%BeginResource: procset (Apache XML Graphics EPS ProcSet) 1.0 0
%%Version: 1.0 0
%%Copyright: (Copyright 2002-2003 The Apache Software Foundation. License terms: http://www.apache.org/licenses/LICENSE-2.0)
/BeginEPSF { %def
/b4_Inc_state save def         % Save state for cleanup
/dict_count countdictstack def % Count objects on dict stack
/op_count count 1 sub def      % Count objects on operand stack
userdict begin                 % Push userdict on dict stack
/showpage { } def              % Redefine showpage, { } = null proc
0 setgray 0 setlinecap         % Prepare graphics state
1 setlinewidth 0 setlinejoin
10 setmiterlimit [ ] 0 setdash newpath
/languagelevel where           % If level not equal to 1 then
{pop languagelevel             % set strokeadjust and
1 ne                           % overprint to their defaults.
{false setstrokeadjust false setoverprint
} if
} if
} bd
/EndEPSF { %def
count op_count sub {pop} repeat            % Clean up stacks
countdictstack dict_count sub {end} repeat
b4_Inc_state restore
} bd
%%EndResource
%FOPBeginFontDict
%%IncludeResource: font Courier-Oblique
%%IncludeResource: font Courier-BoldOblique
%%IncludeResource: font Courier-Bold
%%IncludeResource: font ZapfDingbats
%%IncludeResource: font Symbol
%%IncludeResource: font Helvetica
%%IncludeResource: font Helvetica-Oblique
%%IncludeResource: font Helvetica-Bold
%%IncludeResource: font Helvetica-BoldOblique
%%IncludeResource: font Times-Roman
%%IncludeResource: font Times-Italic
%%IncludeResource: font Times-Bold
%%IncludeResource: font Times-BoldItalic
%%IncludeResource: font Courier
%FOPEndFontDict
%%BeginResource: encoding WinAnsiEncoding
/WinAnsiEncoding [
/.notdef /.notdef /.notdef /.notdef /.notdef
/.notdef /.notdef /.notdef /.notdef /.notdef
/.notdef /.notdef /.notdef /.notdef /.notdef
/.notdef /.notdef /.notdef /.notdef /.notdef
/.notdef /.notdef /.notdef /.notdef /.notdef
/.notdef /.notdef /.notdef /.notdef /.notdef
/.notdef /.notdef /space /exclam /quotedbl
/numbersign /dollar /percent /ampersand /quotesingle
/parenleft /parenright /asterisk /plus /comma
/hyphen /period /slash /zero /one
/two /three /four /five /six
/seven /eight /nine /colon /semicolon
/less /equal /greater /question /at
/A /B /C /D /E
/F /G /H /I /J
/K /L /M /N /O
/P /Q /R /S /T
/U /V /W /X /Y
/Z /bracketleft /backslash /bracketright /asciicircum
/underscore /quoteleft /a /b /c
/d /e /f /g /h
/i /j /k /l /m
/n /o /p /q /r
/s /t /u /v /w
/x /y /z /braceleft /bar
/braceright /asciitilde /bullet /Euro /bullet
/quotesinglbase /florin /quotedblbase /ellipsis /dagger
/daggerdbl /circumflex /perthousand /Scaron /guilsinglleft
/OE /bullet /Zcaron /bullet /bullet
/quoteleft /quoteright /quotedblleft /quotedblright /bullet
/endash /emdash /asciitilde /trademark /scaron
/guilsinglright /oe /bullet /zcaron /Ydieresis
/space /exclamdown /cent /sterling /currency
/yen /brokenbar /section /dieresis /copyright
/ordfeminine /guillemotleft /logicalnot /sfthyphen /registered
/macron /degree /plusminus /twosuperior /threesuperior
/acute /mu /paragraph /middot /cedilla
/onesuperior /ordmasculine /guillemotright /onequarter /onehalf
/threequarters /questiondown /Agrave /Aacute /Acircumflex
/Atilde /Adieresis /Aring /AE /Ccedilla
/Egrave /Eacute /Ecircumflex /Edieresis /Igrave
/Iacute /Icircumflex /Idieresis /Eth /Ntilde
/Ograve /Oacute /Ocircumflex /Otilde /Odieresis
/multiply /Oslash /Ugrave /Uacute /Ucircumflex
/Udieresis /Yacute /Thorn /germandbls /agrave
/aacute /acircumflex /atilde /adieresis /aring
/ae /ccedilla /egrave /eacute /ecircumflex
/edieresis /igrave /iacute /icircumflex /idieresis
/eth /ntilde /ograve /oacute /ocircumflex
/otilde /odieresis /divide /oslash /ugrave
/uacute /ucircumflex /udieresis /yacute /thorn
/ydieresis
] def
%%EndResource
%FOPBeginFontReencode
/Courier-Oblique findfont
dup length dict begin
  {1 index /FID ne {def} {pop pop} ifelse} forall
  /Encoding WinAnsiEncoding def
  currentdict
end
/Courier-Oblique exch definefont pop
/Courier-BoldOblique findfont
dup length dict begin
  {1 index /FID ne {def} {pop pop} ifelse} forall
  /Encoding WinAnsiEncoding def
  currentdict
end
/Courier-BoldOblique exch definefont pop
/Courier-Bold findfont
dup length dict begin
  {1 index /FID ne {def} {pop pop} ifelse} forall
  /Encoding WinAnsiEncoding def
  currentdict
end
/Courier-Bold exch definefont pop
/Helvetica findfont
dup length dict begin
  {1 index /FID ne {def} {pop pop} ifelse} forall
  /Encoding WinAnsiEncoding def
  currentdict
end
/Helvetica exch definefont pop
/Helvetica-Oblique findfont
dup length dict begin
  {1 index /FID ne {def} {pop pop} ifelse} forall
  /Encoding WinAnsiEncoding def
  currentdict
end
/Helvetica-Oblique exch definefont pop
/Helvetica-Bold findfont
dup length dict begin
  {1 index /FID ne {def} {pop pop} ifelse} forall
  /Encoding WinAnsiEncoding def
  currentdict
end
/Helvetica-Bold exch definefont pop
/Helvetica-BoldOblique findfont
dup length dict begin
  {1 index /FID ne {def} {pop pop} ifelse} forall
  /Encoding WinAnsiEncoding def
  currentdict
end
/Helvetica-BoldOblique exch definefont pop
/Times-Roman findfont
dup length dict begin
  {1 index /FID ne {def} {pop pop} ifelse} forall
  /Encoding WinAnsiEncoding def
  currentdict
end
/Times-Roman exch definefont pop
/Times-Italic findfont
dup length dict begin
  {1 index /FID ne {def} {pop pop} ifelse} forall
  /Encoding WinAnsiEncoding def
  currentdict
end
/Times-Italic exch definefont pop
/Times-Bold findfont
dup length dict begin
  {1 index /FID ne {def} {pop pop} ifelse} forall
  /Encoding WinAnsiEncoding def
  currentdict
end
/Times-Bold exch definefont pop
/Times-BoldItalic findfont
dup length dict begin
  {1 index /FID ne {def} {pop pop} ifelse} forall
  /Encoding WinAnsiEncoding def
  currentdict
end
/Times-BoldItalic exch definefont pop
/Courier findfont
dup length dict begin
  {1 index /FID ne {def} {pop pop} ifelse} forall
  /Encoding WinAnsiEncoding def
  currentdict
end
/Courier exch definefont pop
%FOPEndFontReencode
%%EndProlog
%%Page: 1 1
%%PageBoundingBox: 0 0 636 488
%%BeginPageSetup
[1 0 0 -1 0 488] CT
%%EndPageSetup
GS
1 GC
N
0 0 636 488 re
f
GR
GS
1 GC
N
0 0 636 488 re
f
GR
GS
1 GC
N
82.5 434.5 M
575.5 434.5 L
575.5 36.5 L
82.5 36.5 L
cp
f
GR
GS
0.149 GC
2 setlinecap
1 LJ
0.5 LW
N
82.5 434.5 M
575.5 434.5 L
S
GR
GS
0.149 GC
2 setlinecap
1 LJ
0.5 LW
N
82.5 36.5 M
575.5 36.5 L
S
GR
GS
0.149 GC
2 setlinecap
1 LJ
0.5 LW
N
82.5 434.5 M
82.5 429.57 L
S
GR
GS
0.149 GC
2 setlinecap
1 LJ
0.5 LW
N
181.1 434.5 M
181.1 429.57 L
S
GR
GS
0.149 GC
2 setlinecap
1 LJ
0.5 LW
N
279.7 434.5 M
279.7 429.57 L
S
GR
GS
0.149 GC
2 setlinecap
1 LJ
0.5 LW
N
378.3 434.5 M
378.3 429.57 L
S
GR
GS
0.149 GC
2 setlinecap
1 LJ
0.5 LW
N
476.9 434.5 M
476.9 429.57 L
S
GR
GS
0.149 GC
2 setlinecap
1 LJ
0.5 LW
N
575.5 434.5 M
575.5 429.57 L
S
GR
GS
0.149 GC
2 setlinecap
1 LJ
0.5 LW
N
82.5 36.5 M
82.5 41.43 L
S
GR
GS
0.149 GC
2 setlinecap
1 LJ
0.5 LW
N
181.1 36.5 M
181.1 41.43 L
S
GR
GS
0.149 GC
2 setlinecap
1 LJ
0.5 LW
N
279.7 36.5 M
279.7 41.43 L
S
GR
GS
0.149 GC
2 setlinecap
1 LJ
0.5 LW
N
378.3 36.5 M
378.3 41.43 L
S
GR
GS
0.149 GC
2 setlinecap
1 LJ
0.5 LW
N
476.9 36.5 M
476.9 41.43 L
S
GR
GS
0.149 GC
2 setlinecap
1 LJ
0.5 LW
N
575.5 36.5 M
575.5 41.43 L
S
GR
GS
[1 0 0 1 82.5 440.10001] CT
0.149 GC
/Helvetica 18 F
GS
[1 0 0 1 0 0] CT
-5.5 18 moveto 
1 -1 scale
(0) t 
GR
GR
GS
[1 0 0 1 181.10001 440.10001] CT
0.149 GC
/Helvetica 18 F
GS
[1 0 0 1 0 0] CT
-13 18 moveto 
1 -1 scale
(0.2) t 
GR
GR
GS
[1 0 0 1 279.70001 440.10001] CT
0.149 GC
/Helvetica 18 F
GS
[1 0 0 1 0 0] CT
-13 18 moveto 
1 -1 scale
(0.4) t 
GR
GR
GS
[1 0 0 1 378.30002 440.10001] CT
0.149 GC
/Helvetica 18 F
GS
[1 0 0 1 0 0] CT
-13 18 moveto 
1 -1 scale
(0.6) t 
GR
GR
GS
[1 0 0 1 476.89999 440.10001] CT
0.149 GC
/Helvetica 18 F
GS
[1 0 0 1 0 0] CT
-13 18 moveto 
1 -1 scale
(0.8) t 
GR
GR
GS
[1 0 0 1 575.5 440.10001] CT
0.149 GC
/Helvetica 18 F
GS
[1 0 0 1 0 0] CT
-5.5 18 moveto 
1 -1 scale
(1) t 
GR
GR
GS
[1 0 0 1 329.00024 462.60001] CT
0.149 GC
/Helvetica 19.8 F
GS
[1 0 0 1 0 0] CT
-6.5 19 moveto 
1 -1 scale
(X) t 
GR
GR
GS
0.149 GC
2 setlinecap
1 LJ
0.5 LW
N
82.5 434.5 M
82.5 36.5 L
S
GR
GS
0.149 GC
2 setlinecap
1 LJ
0.5 LW
N
575.5 434.5 M
575.5 36.5 L
S
GR
GS
0.149 GC
2 setlinecap
1 LJ
0.5 LW
N
82.5 434.5 M
87.43 434.5 L
S
GR
GS
0.149 GC
2 setlinecap
1 LJ
0.5 LW
N
82.5 354.9 M
87.43 354.9 L
S
GR
GS
0.149 GC
2 setlinecap
1 LJ
0.5 LW
N
82.5 275.3 M
87.43 275.3 L
S
GR
GS
0.149 GC
2 setlinecap
1 LJ
0.5 LW
N
82.5 195.7 M
87.43 195.7 L
S
GR
GS
0.149 GC
2 setlinecap
1 LJ
0.5 LW
N
82.5 116.1 M
87.43 116.1 L
S
GR
GS
0.149 GC
2 setlinecap
1 LJ
0.5 LW
N
82.5 36.5 M
87.43 36.5 L
S
GR
GS
0.149 GC
2 setlinecap
1 LJ
0.5 LW
N
575.5 434.5 M
570.57 434.5 L
S
GR
GS
0.149 GC
2 setlinecap
1 LJ
0.5 LW
N
575.5 354.9 M
570.57 354.9 L
S
GR
GS
0.149 GC
2 setlinecap
1 LJ
0.5 LW
N
575.5 275.3 M
570.57 275.3 L
S
GR
GS
0.149 GC
2 setlinecap
1 LJ
0.5 LW
N
575.5 195.7 M
570.57 195.7 L
S
GR
GS
0.149 GC
2 setlinecap
1 LJ
0.5 LW
N
575.5 116.1 M
570.57 116.1 L
S
GR
GS
0.149 GC
2 setlinecap
1 LJ
0.5 LW
N
575.5 36.5 M
570.57 36.5 L
S
GR
GS
[1 0 0 1 76.9 434.5] CT
0.149 GC
/Helvetica 18 F
GS
[1 0 0 1 0 0] CT
-33 7 moveto 
1 -1 scale
(-1.5) t 
GR
GR
GS
[1 0 0 1 76.9 354.89999] CT
0.149 GC
/Helvetica 18 F
GS
[1 0 0 1 0 0] CT
-18 7 moveto 
1 -1 scale
(-1) t 
GR
GR
GS
[1 0 0 1 76.9 275.29999] CT
0.149 GC
/Helvetica 18 F
GS
[1 0 0 1 0 0] CT
-33 7 moveto 
1 -1 scale
(-0.5) t 
GR
GR
GS
[1 0 0 1 76.9 195.7] CT
0.149 GC
/Helvetica 18 F
GS
[1 0 0 1 0 0] CT
-11 7 moveto 
1 -1 scale
(0) t 
GR
GR
GS
[1 0 0 1 76.9 116.1] CT
0.149 GC
/Helvetica 18 F
GS
[1 0 0 1 0 0] CT
-26 7 moveto 
1 -1 scale
(0.5) t 
GR
GR
GS
[1 0 0 1 76.9 36.5] CT
0.149 GC
/Helvetica 18 F
GS
[1 0 0 1 0 0] CT
-11 7 moveto 
1 -1 scale
(1) t 
GR
GR
GS
[1 0 0 1 329.00034 34.02501] CT
/Helvetica-Bold 19.8 F
GS
[1 0 0 1 0 0] CT
-94.5 -5 moveto 
1 -1 scale
(Activation functions) t 
GR
GR
GS
0 0.447 0.741 RC
1 LJ
3 LW
N
82.5 347.311 M
107.15 345.158 L
131.8 342.419 L
156.45 338.951 L
181.1 334.582 L
205.75 329.119 L
230.4 322.347 L
255.05 314.045 L
279.7 304.002 L
304.35 292.049 L
329 278.096 L
353.65 262.169 L
378.3 244.449 L
402.95 225.288 L
427.6 205.196 L
452.25 184.796 L
476.9 164.749 L
501.55 145.673 L
526.2 128.068 L
550.85 112.274 L
575.5 98.46 L
S
GR
GS
0.851 0.325 0.098 RC
1 LJ
3 LW
N
82.5 51.071 M
107.15 57.995 L
131.8 67.871 L
156.45 81.596 L
181.1 99.996 L
205.75 123.513 L
230.4 151.802 L
255.05 183.446 L
279.7 216.095 L
304.35 247.088 L
329 274.268 L
353.65 296.497 L
378.3 313.66 L
402.95 326.333 L
427.6 335.386 L
452.25 341.701 L
476.9 346.033 L
501.55 348.971 L
526.2 350.948 L
550.85 352.271 L
575.5 353.154 L
S
GR
GS
0.929 0.694 0.125 RC
1 LJ
3 LW
N
82.5 354.9 M
107.15 353.645 L
131.8 349.898 L
156.45 343.72 L
181.1 335.208 L
205.75 324.496 L
230.4 311.752 L
255.05 297.178 L
279.7 281.004 L
304.35 263.484 L
329 244.896 L
353.65 225.531 L
378.3 205.696 L
402.95 185.704 L
427.6 165.869 L
452.25 146.504 L
476.9 127.916 L
501.55 110.396 L
526.2 94.222 L
550.85 79.648 L
575.5 66.904 L
S
GR
GS
0.494 0.184 0.557 RC
1 LJ
3 LW
N
82.5 357.532 M
107.15 354.027 L
131.8 349.32 L
156.45 343.079 L
181.1 334.961 L
205.75 324.692 L
230.4 312.162 L
255.05 297.502 L
279.7 281.068 L
304.35 263.325 L
329 244.69 L
353.65 225.45 L
378.3 205.791 L
402.95 185.893 L
427.6 166.005 L
452.25 146.477 L
476.9 127.719 L
501.55 110.144 L
526.2 94.093 L
550.85 79.797 L
575.5 67.357 L
S
GR
GS
1 GC
N
566.5 322.5 M
566.5 203 L
441 203 L
441 322.5 L
cp
f
GR
GS
[1 0 0 1 478 219.25] CT
/Helvetica 24 F
GS
[1 0 0 1 0 0] CT
0 8.5 moveto 
1 -1 scale
(x1p) t 
GR
GR
GS
0 0.447 0.741 RC
1 LJ
3 LW
N
445 219.25 M
475 219.25 L
S
GR
GS
[1 0 0 1 478 248.25] CT
/Helvetica 24 F
GS
[1 0 0 1 0 0] CT
0 8.5 moveto 
1 -1 scale
(x2p) t 
GR
GR
GS
0.851 0.325 0.098 RC
1 LJ
3 LW
N
445 248.25 M
475 248.25 L
S
GR
GS
[1 0 0 1 478 277.25] CT
/Helvetica 24 F
GS
[1 0 0 1 0 0] CT
0 8.5 moveto 
1 -1 scale
(yp) t 
GR
GR
GS
0.929 0.694 0.125 RC
1 LJ
3 LW
N
445 277.25 M
475 277.25 L
S
GR
GS
[1 0 0 1 478 306.25] CT
/Helvetica 24 F
GS
[1 0 0 1 0 0] CT
0 8.5 moveto 
1 -1 scale
(outputp) t 
GR
GR
GS
0.494 0.184 0.557 RC
1 LJ
3 LW
N
445 306.25 M
475 306.25 L
S
GR
GS
0.149 GC
10.0 ML
0.5 LW
N
441 322.5 M
441 203 L
566.5 203 L
566.5 322.5 L
cp
S
GR
%%Trailer
%%Pages: 1
%%EOF
