%!PS-Adobe-3.0 EPSF-3.0
%%Creator: (MATLAB, The Mathworks, Inc. Version 9.1.0.441655 \(R2016b\). Operating System: Windows 8)
%%Title: (C:/Users/Eigenaar/WIT/Data Mining/data-mining/Session 1/plots/backpropagation.eps)
%%CreationDate: 2017-11-10T21:29:28
%%Pages: (atend)
%%BoundingBox: 0 0 740 599
%%LanguageLevel: 3
%%EndComments
%%BeginProlog
%%BeginResource: procset (Apache XML Graphics Std ProcSet) 1.2 0
%%Version: 1.2 0
%%Copyright: (Copyright 2001-2003,2010 The Apache Software Foundation. License terms: http://www.apache.org/licenses/LICENSE-2.0)
/bd{bind def}bind def
/ld{load def}bd
/GR/grestore ld
/M/moveto ld
/LJ/setlinejoin ld
/C/curveto ld
/f/fill ld
/LW/setlinewidth ld
/GC/setgray ld
/t/show ld
/N/newpath ld
/CT/concat ld
/cp/closepath ld
/S/stroke ld
/L/lineto ld
/CC/setcmykcolor ld
/A/ashow ld
/GS/gsave ld
/RC/setrgbcolor ld
/RM/rmoveto ld
/ML/setmiterlimit ld
/re {4 2 roll M
1 index 0 rlineto
0 exch rlineto
neg 0 rlineto
cp } bd
/_ctm matrix def
/_tm matrix def
/BT { _ctm currentmatrix pop matrix _tm copy pop 0 0 moveto } bd
/ET { _ctm setmatrix } bd
/iTm { _ctm setmatrix _tm concat } bd
/Tm { _tm astore pop iTm 0 0 moveto } bd
/ux 0.0 def
/uy 0.0 def
/F {
  /Tp exch def
  /Tf exch def
  Tf findfont Tp scalefont setfont
  /cf Tf def  /cs Tp def
} bd
/ULS {currentpoint /uy exch def /ux exch def} bd
/ULE {
  /Tcx currentpoint pop def
  gsave
  newpath
  cf findfont cs scalefont dup
  /FontMatrix get 0 get /Ts exch def /FontInfo get dup
  /UnderlinePosition get Ts mul /To exch def
  /UnderlineThickness get Ts mul /Tt exch def
  ux uy To add moveto  Tcx uy To add lineto
  Tt setlinewidth stroke
  grestore
} bd
/OLE {
  /Tcx currentpoint pop def
  gsave
  newpath
  cf findfont cs scalefont dup
  /FontMatrix get 0 get /Ts exch def /FontInfo get dup
  /UnderlinePosition get Ts mul /To exch def
  /UnderlineThickness get Ts mul /Tt exch def
  ux uy To add cs add moveto Tcx uy To add cs add lineto
  Tt setlinewidth stroke
  grestore
} bd
/SOE {
  /Tcx currentpoint pop def
  gsave
  newpath
  cf findfont cs scalefont dup
  /FontMatrix get 0 get /Ts exch def /FontInfo get dup
  /UnderlinePosition get Ts mul /To exch def
  /UnderlineThickness get Ts mul /Tt exch def
  ux uy To add cs 10 mul 26 idiv add moveto Tcx uy To add cs 10 mul 26 idiv add lineto
  Tt setlinewidth stroke
  grestore
} bd
/QT {
/Y22 exch store
/X22 exch store
/Y21 exch store
/X21 exch store
currentpoint
/Y21 load 2 mul add 3 div exch
/X21 load 2 mul add 3 div exch
/X21 load 2 mul /X22 load add 3 div
/Y21 load 2 mul /Y22 load add 3 div
/X22 load /Y22 load curveto
} bd
/SSPD {
dup length /d exch dict def
{
/v exch def
/k exch def
currentpagedevice k known {
/cpdv currentpagedevice k get def
v cpdv ne {
/upd false def
/nullv v type /nulltype eq def
/nullcpdv cpdv type /nulltype eq def
nullv nullcpdv or
{
/upd true def
} {
/sametype v type cpdv type eq def
sametype {
v type /arraytype eq {
/vlen v length def
/cpdvlen cpdv length def
vlen cpdvlen eq {
0 1 vlen 1 sub {
/i exch def
/obj v i get def
/cpdobj cpdv i get def
obj cpdobj ne {
/upd true def
exit
} if
} for
} {
/upd true def
} ifelse
} {
v type /dicttype eq {
v {
/dv exch def
/dk exch def
/cpddv cpdv dk get def
dv cpddv ne {
/upd true def
exit
} if
} forall
} {
/upd true def
} ifelse
} ifelse
} if
} ifelse
upd true eq {
d k v put
} if
} if
} if
} forall
d length 0 gt {
d setpagedevice
} if
} bd
/RE { % /NewFontName [NewEncodingArray] /FontName RE -
  findfont dup length dict begin
  {
    1 index /FID ne
    {def} {pop pop} ifelse
  } forall
  /Encoding exch def
  /FontName 1 index def
  currentdict definefont pop
  end
} bind def
%%EndResource
%%BeginResource: procset (Apache XML Graphics EPS ProcSet) 1.0 0
%%Version: 1.0 0
%%Copyright: (Copyright 2002-2003 The Apache Software Foundation. License terms: http://www.apache.org/licenses/LICENSE-2.0)
/BeginEPSF { %def
/b4_Inc_state save def         % Save state for cleanup
/dict_count countdictstack def % Count objects on dict stack
/op_count count 1 sub def      % Count objects on operand stack
userdict begin                 % Push userdict on dict stack
/showpage { } def              % Redefine showpage, { } = null proc
0 setgray 0 setlinecap         % Prepare graphics state
1 setlinewidth 0 setlinejoin
10 setmiterlimit [ ] 0 setdash newpath
/languagelevel where           % If level not equal to 1 then
{pop languagelevel             % set strokeadjust and
1 ne                           % overprint to their defaults.
{false setstrokeadjust false setoverprint
} if
} if
} bd
/EndEPSF { %def
count op_count sub {pop} repeat            % Clean up stacks
countdictstack dict_count sub {end} repeat
b4_Inc_state restore
} bd
%%EndResource
%FOPBeginFontDict
%%IncludeResource: font Courier-Bold
%%IncludeResource: font Helvetica
%%IncludeResource: font Courier-BoldOblique
%%IncludeResource: font Courier-Oblique
%%IncludeResource: font Times-Roman
%%IncludeResource: font Helvetica-BoldOblique
%%IncludeResource: font Helvetica-Bold
%%IncludeResource: font Helvetica-Oblique
%%IncludeResource: font Times-BoldItalic
%%IncludeResource: font Courier
%%IncludeResource: font Times-Italic
%%IncludeResource: font Times-Bold
%%IncludeResource: font Symbol
%%IncludeResource: font ZapfDingbats
%FOPEndFontDict
%%BeginResource: encoding WinAnsiEncoding
/WinAnsiEncoding [
/.notdef /.notdef /.notdef /.notdef /.notdef
/.notdef /.notdef /.notdef /.notdef /.notdef
/.notdef /.notdef /.notdef /.notdef /.notdef
/.notdef /.notdef /.notdef /.notdef /.notdef
/.notdef /.notdef /.notdef /.notdef /.notdef
/.notdef /.notdef /.notdef /.notdef /.notdef
/.notdef /.notdef /space /exclam /quotedbl
/numbersign /dollar /percent /ampersand /quotesingle
/parenleft /parenright /asterisk /plus /comma
/hyphen /period /slash /zero /one
/two /three /four /five /six
/seven /eight /nine /colon /semicolon
/less /equal /greater /question /at
/A /B /C /D /E
/F /G /H /I /J
/K /L /M /N /O
/P /Q /R /S /T
/U /V /W /X /Y
/Z /bracketleft /backslash /bracketright /asciicircum
/underscore /quoteleft /a /b /c
/d /e /f /g /h
/i /j /k /l /m
/n /o /p /q /r
/s /t /u /v /w
/x /y /z /braceleft /bar
/braceright /asciitilde /bullet /Euro /bullet
/quotesinglbase /florin /quotedblbase /ellipsis /dagger
/daggerdbl /circumflex /perthousand /Scaron /guilsinglleft
/OE /bullet /Zcaron /bullet /bullet
/quoteleft /quoteright /quotedblleft /quotedblright /bullet
/endash /emdash /asciitilde /trademark /scaron
/guilsinglright /oe /bullet /zcaron /Ydieresis
/space /exclamdown /cent /sterling /currency
/yen /brokenbar /section /dieresis /copyright
/ordfeminine /guillemotleft /logicalnot /sfthyphen /registered
/macron /degree /plusminus /twosuperior /threesuperior
/acute /mu /paragraph /middot /cedilla
/onesuperior /ordmasculine /guillemotright /onequarter /onehalf
/threequarters /questiondown /Agrave /Aacute /Acircumflex
/Atilde /Adieresis /Aring /AE /Ccedilla
/Egrave /Eacute /Ecircumflex /Edieresis /Igrave
/Iacute /Icircumflex /Idieresis /Eth /Ntilde
/Ograve /Oacute /Ocircumflex /Otilde /Odieresis
/multiply /Oslash /Ugrave /Uacute /Ucircumflex
/Udieresis /Yacute /Thorn /germandbls /agrave
/aacute /acircumflex /atilde /adieresis /aring
/ae /ccedilla /egrave /eacute /ecircumflex
/edieresis /igrave /iacute /icircumflex /idieresis
/eth /ntilde /ograve /oacute /ocircumflex
/otilde /odieresis /divide /oslash /ugrave
/uacute /ucircumflex /udieresis /yacute /thorn
/ydieresis
] def
%%EndResource
%FOPBeginFontReencode
/Courier-Bold findfont
dup length dict begin
  {1 index /FID ne {def} {pop pop} ifelse} forall
  /Encoding WinAnsiEncoding def
  currentdict
end
/Courier-Bold exch definefont pop
/Helvetica findfont
dup length dict begin
  {1 index /FID ne {def} {pop pop} ifelse} forall
  /Encoding WinAnsiEncoding def
  currentdict
end
/Helvetica exch definefont pop
/Courier-BoldOblique findfont
dup length dict begin
  {1 index /FID ne {def} {pop pop} ifelse} forall
  /Encoding WinAnsiEncoding def
  currentdict
end
/Courier-BoldOblique exch definefont pop
/Courier-Oblique findfont
dup length dict begin
  {1 index /FID ne {def} {pop pop} ifelse} forall
  /Encoding WinAnsiEncoding def
  currentdict
end
/Courier-Oblique exch definefont pop
/Times-Roman findfont
dup length dict begin
  {1 index /FID ne {def} {pop pop} ifelse} forall
  /Encoding WinAnsiEncoding def
  currentdict
end
/Times-Roman exch definefont pop
/Helvetica-BoldOblique findfont
dup length dict begin
  {1 index /FID ne {def} {pop pop} ifelse} forall
  /Encoding WinAnsiEncoding def
  currentdict
end
/Helvetica-BoldOblique exch definefont pop
/Helvetica-Bold findfont
dup length dict begin
  {1 index /FID ne {def} {pop pop} ifelse} forall
  /Encoding WinAnsiEncoding def
  currentdict
end
/Helvetica-Bold exch definefont pop
/Helvetica-Oblique findfont
dup length dict begin
  {1 index /FID ne {def} {pop pop} ifelse} forall
  /Encoding WinAnsiEncoding def
  currentdict
end
/Helvetica-Oblique exch definefont pop
/Times-BoldItalic findfont
dup length dict begin
  {1 index /FID ne {def} {pop pop} ifelse} forall
  /Encoding WinAnsiEncoding def
  currentdict
end
/Times-BoldItalic exch definefont pop
/Courier findfont
dup length dict begin
  {1 index /FID ne {def} {pop pop} ifelse} forall
  /Encoding WinAnsiEncoding def
  currentdict
end
/Courier exch definefont pop
/Times-Italic findfont
dup length dict begin
  {1 index /FID ne {def} {pop pop} ifelse} forall
  /Encoding WinAnsiEncoding def
  currentdict
end
/Times-Italic exch definefont pop
/Times-Bold findfont
dup length dict begin
  {1 index /FID ne {def} {pop pop} ifelse} forall
  /Encoding WinAnsiEncoding def
  currentdict
end
/Times-Bold exch definefont pop
%FOPEndFontReencode
%%EndProlog
%%Page: 1 1
%%PageBoundingBox: 0 0 740 599
%%BeginPageSetup
[1 0 0 -1 0 599] CT
%%EndPageSetup
GS
[0.75 0 0 0.75 0 -0.25] CT
1 GC
N
0 0 987 799 re
f
GR
GS
[0.75 0 0 0.75 0 -0.25] CT
1 GC
N
0 0 987 799 re
f
GR
GS
[0.75 0 0 0.75 0 -0.25] CT
1 GC
N
128 711 M
893 711 L
893 60 L
128 60 L
cp
f
GR
GS
[0.75 0 0 0.75 0 -0.25] CT
0.149 GC
2 setlinecap
1 LJ
0.667 LW
N
128 711 M
893 711 L
S
GR
GS
[0.75 0 0 0.75 0 -0.25] CT
0.149 GC
2 setlinecap
1 LJ
0.667 LW
N
128 60 M
893 60 L
S
GR
GS
[0.75 0 0 0.75 0 -0.25] CT
0.149 GC
2 setlinecap
1 LJ
0.667 LW
N
128 711 M
128 703.35 L
S
GR
GS
[0.75 0 0 0.75 0 -0.25] CT
0.149 GC
2 setlinecap
1 LJ
0.667 LW
N
319.25 711 M
319.25 703.35 L
S
GR
GS
[0.75 0 0 0.75 0 -0.25] CT
0.149 GC
2 setlinecap
1 LJ
0.667 LW
N
510.5 711 M
510.5 703.35 L
S
GR
GS
[0.75 0 0 0.75 0 -0.25] CT
0.149 GC
2 setlinecap
1 LJ
0.667 LW
N
701.75 711 M
701.75 703.35 L
S
GR
GS
[0.75 0 0 0.75 0 -0.25] CT
0.149 GC
2 setlinecap
1 LJ
0.667 LW
N
893 711 M
893 703.35 L
S
GR
GS
[0.75 0 0 0.75 0 -0.25] CT
0.149 GC
2 setlinecap
1 LJ
0.667 LW
N
128 60 M
128 67.65 L
S
GR
GS
[0.75 0 0 0.75 0 -0.25] CT
0.149 GC
2 setlinecap
1 LJ
0.667 LW
N
319.25 60 M
319.25 67.65 L
S
GR
GS
[0.75 0 0 0.75 0 -0.25] CT
0.149 GC
2 setlinecap
1 LJ
0.667 LW
N
510.5 60 M
510.5 67.65 L
S
GR
GS
[0.75 0 0 0.75 0 -0.25] CT
0.149 GC
2 setlinecap
1 LJ
0.667 LW
N
701.75 60 M
701.75 67.65 L
S
GR
GS
[0.75 0 0 0.75 0 -0.25] CT
0.149 GC
2 setlinecap
1 LJ
0.667 LW
N
893 60 M
893 67.65 L
S
GR
GS
[0.75 0 0 0.75 96 538.60001] CT
0.149 GC
/Helvetica 24 F
GS
[1 0 0 1 0 0] CT
-11 25 moveto 
1 -1 scale
(-1) t 
GR
GR
GS
[0.75 0 0 0.75 239.4375 538.60001] CT
0.149 GC
/Helvetica 24 F
GS
[1 0 0 1 0 0] CT
-21 25 moveto 
1 -1 scale
(-0.5) t 
GR
GR
GS
[0.75 0 0 0.75 382.875 538.60001] CT
0.149 GC
/Helvetica 24 F
GS
[1 0 0 1 0 0] CT
-7 25 moveto 
1 -1 scale
(0) t 
GR
GR
GS
[0.75 0 0 0.75 526.3125 538.60001] CT
0.149 GC
/Helvetica 24 F
GS
[1 0 0 1 0 0] CT
-17 25 moveto 
1 -1 scale
(0.5) t 
GR
GR
GS
[0.75 0 0 0.75 669.75 538.60001] CT
0.149 GC
/Helvetica 24 F
GS
[1 0 0 1 0 0] CT
-7 25 moveto 
1 -1 scale
(1) t 
GR
GR
GS
[0.75 0 0 0.75 382.87527 562.84999] CT
0.149 GC
/Helvetica 26.4 F
GS
[1 0 0 1 0 0] CT
-9 27 moveto 
1 -1 scale
(X) t 
GR
GR
GS
[0.75 0 0 0.75 0 -0.25] CT
0.149 GC
2 setlinecap
1 LJ
0.667 LW
N
128 711 M
128 60 L
S
GR
GS
[0.75 0 0 0.75 0 -0.25] CT
0.149 GC
2 setlinecap
1 LJ
0.667 LW
N
893 711 M
893 60 L
S
GR
GS
[0.75 0 0 0.75 0 -0.25] CT
0.149 GC
2 setlinecap
1 LJ
0.667 LW
N
128 711 M
135.65 711 L
S
GR
GS
[0.75 0 0 0.75 0 -0.25] CT
0.149 GC
2 setlinecap
1 LJ
0.667 LW
N
128 602.5 M
135.65 602.5 L
S
GR
GS
[0.75 0 0 0.75 0 -0.25] CT
0.149 GC
2 setlinecap
1 LJ
0.667 LW
N
128 494 M
135.65 494 L
S
GR
GS
[0.75 0 0 0.75 0 -0.25] CT
0.149 GC
2 setlinecap
1 LJ
0.667 LW
N
128 385.5 M
135.65 385.5 L
S
GR
GS
[0.75 0 0 0.75 0 -0.25] CT
0.149 GC
2 setlinecap
1 LJ
0.667 LW
N
128 277 M
135.65 277 L
S
GR
GS
[0.75 0 0 0.75 0 -0.25] CT
0.149 GC
2 setlinecap
1 LJ
0.667 LW
N
128 168.5 M
135.65 168.5 L
S
GR
GS
[0.75 0 0 0.75 0 -0.25] CT
0.149 GC
2 setlinecap
1 LJ
0.667 LW
N
128 60 M
135.65 60 L
S
GR
GS
[0.75 0 0 0.75 0 -0.25] CT
0.149 GC
2 setlinecap
1 LJ
0.667 LW
N
893 711 M
885.35 711 L
S
GR
GS
[0.75 0 0 0.75 0 -0.25] CT
0.149 GC
2 setlinecap
1 LJ
0.667 LW
N
893 602.5 M
885.35 602.5 L
S
GR
GS
[0.75 0 0 0.75 0 -0.25] CT
0.149 GC
2 setlinecap
1 LJ
0.667 LW
N
893 494 M
885.35 494 L
S
GR
GS
[0.75 0 0 0.75 0 -0.25] CT
0.149 GC
2 setlinecap
1 LJ
0.667 LW
N
893 385.5 M
885.35 385.5 L
S
GR
GS
[0.75 0 0 0.75 0 -0.25] CT
0.149 GC
2 setlinecap
1 LJ
0.667 LW
N
893 277 M
885.35 277 L
S
GR
GS
[0.75 0 0 0.75 0 -0.25] CT
0.149 GC
2 setlinecap
1 LJ
0.667 LW
N
893 168.5 M
885.35 168.5 L
S
GR
GS
[0.75 0 0 0.75 0 -0.25] CT
0.149 GC
2 setlinecap
1 LJ
0.667 LW
N
893 60 M
885.35 60 L
S
GR
GS
[0.75 0 0 0.75 90.40002 533] CT
0.149 GC
/Helvetica 24 F
GS
[1 0 0 1 0 0] CT
-42 9.5 moveto 
1 -1 scale
(-1.5) t 
GR
GR
GS
[0.75 0 0 0.75 90.40002 451.625] CT
0.149 GC
/Helvetica 24 F
GS
[1 0 0 1 0 0] CT
-22 9.5 moveto 
1 -1 scale
(-1) t 
GR
GR
GS
[0.75 0 0 0.75 90.40002 370.25] CT
0.149 GC
/Helvetica 24 F
GS
[1 0 0 1 0 0] CT
-42 9.5 moveto 
1 -1 scale
(-0.5) t 
GR
GR
GS
[0.75 0 0 0.75 90.40002 288.875] CT
0.149 GC
/Helvetica 24 F
GS
[1 0 0 1 0 0] CT
-14 9.5 moveto 
1 -1 scale
(0) t 
GR
GR
GS
[0.75 0 0 0.75 90.40002 207.5] CT
0.149 GC
/Helvetica 24 F
GS
[1 0 0 1 0 0] CT
-34 9.5 moveto 
1 -1 scale
(0.5) t 
GR
GR
GS
[0.75 0 0 0.75 90.40002 126.125] CT
0.149 GC
/Helvetica 24 F
GS
[1 0 0 1 0 0] CT
-14 9.5 moveto 
1 -1 scale
(1) t 
GR
GR
GS
[0.75 0 0 0.75 90.40002 44.75] CT
0.149 GC
/Helvetica 24 F
GS
[1 0 0 1 0 0] CT
-34 9.5 moveto 
1 -1 scale
(1.5) t 
GR
GR
GS
[0.75 0 0 0.75 382.87537 41.0375] CT
/Helvetica-Bold 26.4 F
GS
[1 0 0 1 0 0] CT
-111 -6 moveto 
1 -1 scale
(Back Propagation) t 
GR
GR
GS
[0.75 0 0 0.75 0 -0.25] CT
0 0.447 0.741 RC
1 LJ
4 LW
N
128 388.48 M
133.134 382.49 L
138.268 377.34 L
143.403 372.934 L
148.537 369.183 L
153.671 366.006 L
158.805 363.332 L
163.94 361.098 L
169.074 359.25 L
174.208 357.742 L
179.342 356.536 L
184.477 355.6 L
189.611 354.911 L
194.745 354.449 L
199.879 354.204 L
205.013 354.167 L
210.148 354.338 L
215.282 354.72 L
220.416 355.32 L
225.55 356.15 L
230.685 357.224 L
235.819 358.561 L
240.953 360.181 L
246.087 362.102 L
251.221 364.344 L
256.356 366.92 L
261.49 369.839 L
266.624 373.1 L
271.758 376.694 L
276.893 380.594 L
282.027 384.763 L
287.161 389.147 L
292.295 393.681 L
297.43 398.291 L
302.564 402.898 L
307.698 407.421 L
312.832 411.787 L
317.966 415.931 L
323.101 419.8 L
328.235 423.355 L
333.369 426.572 L
338.503 429.439 L
343.638 431.955 L
348.772 434.126 L
353.906 435.966 L
359.04 437.489 L
364.174 438.711 L
369.309 439.649 L
374.443 440.315 L
379.577 440.718 L
384.711 440.863 L
389.846 440.749 L
394.98 440.37 L
400.114 439.716 L
405.248 438.767 L
410.383 437.503 L
415.517 435.893 L
420.651 433.904 L
425.785 431.5 L
430.919 428.642 L
436.054 425.291 L
441.188 421.413 L
446.322 416.979 L
451.456 411.974 L
456.591 406.399 L
461.725 400.274 L
466.859 393.645 L
471.993 386.581 L
477.128 379.18 L
482.262 371.557 L
487.396 363.845 L
492.53 356.181 L
497.664 348.701 L
502.799 341.53 L
507.933 334.774 L
513.067 328.514 L
518.201 322.809 L
523.336 317.692 L
528.47 313.175 L
533.604 309.253 L
538.738 305.91 L
543.872 303.12 L
549.007 300.856 L
554.141 299.09 L
559.275 297.8 L
564.409 296.967 L
569.544 296.58 L
574.678 296.637 L
579.812 297.148 L
584.946 298.129 L
590.081 299.61 L
595.215 301.628 L
600.349 304.232 L
605.483 307.477 L
610.617 311.424 L
615.752 316.137 L
620.886 321.676 L
626.02 328.093 L
631.154 335.423 L
636.289 343.679 L
641.423 352.837 L
646.557 362.837 L
651.691 373.574 L
656.826 384.9 L
661.96 396.628 L
667.094 408.542 L
672.228 420.413 L
677.362 432.013 L
682.497 443.132 L
687.631 453.592 L
692.765 463.254 L
697.899 472.024 L
703.034 479.848 L
708.168 486.709 L
713.302 492.616 L
718.436 497.602 L
723.57 501.708 L
728.705 504.982 L
733.839 507.468 L
738.973 509.202 L
744.107 510.21 L
749.242 510.504 L
754.376 510.079 L
759.51 508.914 L
764.644 506.968 L
769.779 504.18 L
774.913 500.473 L
780.047 495.75 L
785.181 489.9 L
790.315 482.798 L
795.45 474.318 L
800.584 464.334 L
805.718 452.738 L
810.852 439.448 L
815.987 424.433 L
821.121 407.72 L
826.255 389.416 L
831.389 369.711 L
836.523 348.881 L
841.658 327.281 L
846.792 305.319 L
851.926 283.431 L
857.06 262.044 L
862.195 241.549 L
867.329 222.268 L
872.463 204.443 L
877.597 188.229 L
882.732 173.693 L
887.866 160.833 L
893 149.588 L
S
GR
GS
[0.75 0 0 0.75 0 -0.25] CT
0.851 0.325 0.098 RC
1 LJ
4 LW
N
128 67.895 M
133.134 78.951 L
138.268 91.848 L
143.403 106.754 L
148.537 123.804 L
153.671 143.073 L
158.805 164.556 L
163.94 188.146 L
169.074 213.626 L
174.208 240.655 L
179.342 268.787 L
184.477 297.491 L
189.611 326.189 L
194.745 354.303 L
199.879 381.296 L
205.013 406.713 L
210.148 430.204 L
215.282 451.538 L
220.416 470.593 L
225.55 487.351 L
230.685 501.868 L
235.819 514.258 L
240.953 524.669 L
246.087 533.265 L
251.221 540.211 L
256.356 545.659 L
261.49 549.747 L
266.624 552.589 L
271.758 554.275 L
276.893 554.871 L
282.027 554.418 L
287.161 552.938 L
292.295 550.432 L
297.43 546.893 L
302.564 542.3 L
307.698 536.637 L
312.832 529.894 L
317.966 522.08 L
323.101 513.227 L
328.235 503.405 L
333.369 492.724 L
338.503 481.333 L
343.638 469.422 L
348.772 457.208 L
353.906 444.927 L
359.04 432.813 L
364.174 421.084 L
369.309 409.929 L
374.443 399.494 L
379.577 389.881 L
384.711 381.147 L
389.846 373.306 L
394.98 366.337 L
400.114 360.194 L
405.248 354.81 L
410.383 350.108 L
415.517 346.005 L
420.651 342.416 L
425.785 339.258 L
430.919 336.453 L
436.054 333.928 L
441.188 331.615 L
446.322 329.453 L
451.456 327.388 L
456.591 325.374 L
461.725 323.371 L
466.859 321.347 L
471.993 319.279 L
477.128 317.154 L
482.262 314.97 L
487.396 312.734 L
492.53 310.463 L
497.664 308.183 L
502.799 305.927 L
507.933 303.732 L
513.067 301.638 L
518.201 299.682 L
523.336 297.9 L
528.47 296.324 L
533.604 294.98 L
538.738 293.889 L
543.872 293.072 L
549.007 292.545 L
554.141 292.326 L
559.275 292.435 L
564.409 292.894 L
569.544 293.734 L
574.678 294.99 L
579.812 296.706 L
584.946 298.936 L
590.081 301.743 L
595.215 305.196 L
600.349 309.375 L
605.483 314.363 L
610.617 320.241 L
615.752 327.09 L
620.886 334.974 L
626.02 343.937 L
631.154 353.992 L
636.289 365.111 L
641.423 377.216 L
646.557 390.175 L
651.691 403.805 L
656.826 417.876 L
661.96 432.125 L
667.094 446.276 L
672.228 460.056 L
677.362 473.218 L
682.497 485.554 L
687.631 496.906 L
692.765 507.168 L
697.899 516.283 L
703.034 524.235 L
708.168 531.042 L
713.302 536.744 L
718.436 541.392 L
723.57 545.04 L
728.705 547.737 L
733.839 549.522 L
738.973 550.42 L
744.107 550.435 L
749.242 549.552 L
754.376 547.733 L
759.51 544.917 L
764.644 541.017 L
769.779 535.922 L
774.913 529.5 L
780.047 521.599 L
785.181 512.055 L
790.315 500.697 L
795.45 487.363 L
800.584 471.915 L
805.718 454.259 L
810.852 434.365 L
815.987 412.289 L
821.121 388.192 L
826.255 362.348 L
831.389 335.143 L
836.523 307.058 L
841.658 278.638 L
846.792 250.455 L
851.926 223.058 L
857.06 196.938 L
862.195 172.49 L
867.329 150 L
872.463 129.637 L
877.597 111.464 L
882.732 95.453 L
887.866 81.506 L
893 69.476 L
S
GR
GS
[0.75 0 0 0.75 0 -0.25] CT
0.929 0.694 0.125 RC
1 LJ
4 LW
N
128 239.279 M
133.134 256.198 L
138.268 272.883 L
143.403 289.053 L
148.537 304.461 L
153.671 318.907 L
158.805 332.247 L
163.94 344.394 L
169.074 355.312 L
174.208 365.011 L
179.342 373.536 L
184.477 380.958 L
189.611 387.363 L
194.745 392.846 L
199.879 397.505 L
205.013 401.432 L
210.148 404.716 L
215.282 407.436 L
220.416 409.664 L
225.55 411.46 L
230.685 412.877 L
235.819 413.957 L
240.953 414.737 L
246.087 415.242 L
251.221 415.494 L
256.356 415.508 L
261.49 415.294 L
266.624 414.858 L
271.758 414.205 L
276.893 413.338 L
282.027 412.261 L
287.161 410.979 L
292.295 409.503 L
297.43 407.846 L
302.564 406.03 L
307.698 404.082 L
312.832 402.034 L
317.966 399.925 L
323.101 397.794 L
328.235 395.682 L
333.369 393.625 L
338.503 391.658 L
343.638 389.807 L
348.772 388.09 L
353.906 386.52 L
359.04 385.1 L
364.174 383.83 L
369.309 382.704 L
374.443 381.711 L
379.577 380.84 L
384.711 380.076 L
389.846 379.406 L
394.98 378.814 L
400.114 378.289 L
405.248 377.814 L
410.383 377.379 L
415.517 376.97 L
420.651 376.575 L
425.785 376.184 L
430.919 375.784 L
436.054 375.364 L
441.188 374.913 L
446.322 374.42 L
451.456 373.874 L
456.591 373.265 L
461.725 372.582 L
466.859 371.816 L
471.993 370.962 L
477.128 370.013 L
482.262 368.97 L
487.396 367.834 L
492.53 366.614 L
497.664 365.322 L
502.799 363.974 L
507.933 362.592 L
513.067 361.198 L
518.201 359.818 L
523.336 358.475 L
528.47 357.192 L
533.604 355.988 L
538.738 354.877 L
543.872 353.868 L
549.007 352.969 L
554.141 352.181 L
559.275 351.503 L
564.409 350.932 L
569.544 350.465 L
574.678 350.097 L
579.812 349.824 L
584.946 349.643 L
590.081 349.551 L
595.215 349.549 L
600.349 349.638 L
605.483 349.822 L
610.617 350.105 L
615.752 350.497 L
620.886 351.008 L
626.02 351.65 L
631.154 352.438 L
636.289 353.39 L
641.423 354.524 L
646.557 355.859 L
651.691 357.414 L
656.826 359.205 L
661.96 361.248 L
667.094 363.55 L
672.228 366.113 L
677.362 368.928 L
682.497 371.976 L
687.631 375.227 L
692.765 378.639 L
697.899 382.161 L
703.034 385.735 L
708.168 389.301 L
713.302 392.8 L
718.436 396.18 L
723.57 399.397 L
728.705 402.419 L
733.839 405.227 L
738.973 407.813 L
744.107 410.181 L
749.242 412.346 L
754.376 414.328 L
759.51 416.156 L
764.644 417.862 L
769.779 419.481 L
774.913 421.051 L
780.047 422.615 L
785.181 424.216 L
790.315 425.901 L
795.45 427.72 L
800.584 429.728 L
805.718 431.985 L
810.852 434.557 L
815.987 437.517 L
821.121 440.945 L
826.255 444.929 L
831.389 449.566 L
836.523 454.956 L
841.658 461.206 L
846.792 468.424 L
851.926 476.714 L
857.06 486.167 L
862.195 496.858 L
867.329 508.834 L
872.463 522.101 L
877.597 536.619 L
882.732 552.293 L
887.866 568.966 L
893 586.428 L
S
GR
GS
[0.75 0 0 0.75 0 -0.25] CT
0.494 0.184 0.557 RC
1 LJ
4 LW
N
128 316.79 M
133.134 317.825 L
138.268 318.88 L
143.403 319.949 L
148.537 321.034 L
153.671 322.137 L
158.805 323.266 L
163.94 324.435 L
169.074 325.661 L
174.208 326.965 L
179.342 328.374 L
184.477 329.916 L
189.611 331.625 L
194.745 333.537 L
199.879 335.689 L
205.013 338.123 L
210.148 340.877 L
215.282 343.992 L
220.416 347.504 L
225.55 351.443 L
230.685 355.831 L
235.819 360.678 L
240.953 365.981 L
246.087 371.716 L
251.221 377.843 L
256.356 384.299 L
261.49 391.006 L
266.624 397.868 L
271.758 404.781 L
276.893 411.635 L
282.027 418.325 L
287.161 424.754 L
292.295 430.841 L
297.43 436.521 L
302.564 441.749 L
307.698 446.499 L
312.832 450.761 L
317.966 454.539 L
323.101 457.851 L
328.235 460.718 L
333.369 463.168 L
338.503 465.231 L
343.638 466.936 L
348.772 468.31 L
353.906 469.375 L
359.04 470.151 L
364.174 470.651 L
369.309 470.884 L
374.443 470.851 L
379.577 470.549 L
384.711 469.967 L
389.846 469.087 L
394.98 467.886 L
400.114 466.334 L
405.248 464.394 L
410.383 462.025 L
415.517 459.18 L
420.651 455.811 L
425.785 451.871 L
430.919 447.313 L
436.054 442.103 L
441.188 436.215 L
446.322 429.645 L
451.456 422.412 L
456.591 414.561 L
461.725 406.17 L
466.859 397.346 L
471.993 388.222 L
477.128 378.951 L
482.262 369.697 L
487.396 360.622 L
492.53 351.877 L
497.664 343.591 L
502.799 335.867 L
507.933 328.779 L
513.067 322.37 L
518.201 316.655 L
523.336 311.628 L
528.47 307.267 L
533.604 303.537 L
538.738 300.396 L
543.872 297.803 L
549.007 295.716 L
554.141 294.099 L
559.275 292.92 L
564.409 292.158 L
569.544 291.797 L
574.678 291.833 L
579.812 292.269 L
584.946 293.121 L
590.081 294.412 L
595.215 296.174 L
600.349 298.452 L
605.483 301.294 L
610.617 304.755 L
615.752 308.893 L
620.886 313.765 L
626.02 319.421 L
631.154 325.897 L
636.289 333.209 L
641.423 341.345 L
646.557 350.26 L
651.691 359.869 L
656.826 370.046 L
661.96 380.631 L
667.094 391.433 L
672.228 402.249 L
677.362 412.87 L
682.497 423.104 L
687.631 432.783 L
692.765 441.775 L
697.899 449.985 L
703.034 457.359 L
708.168 463.876 L
713.302 469.545 L
718.436 474.393 L
723.57 478.463 L
728.705 481.802 L
733.839 484.458 L
738.973 486.475 L
744.107 487.89 L
749.242 488.729 L
754.376 489.005 L
759.51 488.719 L
764.644 487.858 L
769.779 486.391 L
774.913 484.276 L
780.047 481.453 L
785.181 477.848 L
790.315 473.375 L
795.45 467.938 L
800.584 461.432 L
805.718 453.756 L
810.852 444.816 L
815.987 434.536 L
821.121 422.871 L
826.255 409.823 L
831.389 395.447 L
836.523 379.866 L
841.658 363.27 L
846.792 345.915 L
851.926 328.109 L
857.06 310.194 L
862.195 292.518 L
867.329 275.411 L
872.463 259.16 L
877.597 243.993 L
882.732 230.069 L
887.866 217.479 L
893 206.249 L
S
GR
GS
[0.75 0 0 0.75 0 -0.25] CT
0.467 0.675 0.188 RC
1 LJ
4 LW
N
128 231.208 M
133.134 242.461 L
138.268 254.77 L
143.403 268.026 L
148.537 282.06 L
153.671 296.654 L
158.805 311.549 L
163.94 326.465 L
169.074 341.118 L
174.208 355.242 L
179.342 368.61 L
184.477 381.042 L
189.611 392.416 L
194.745 402.662 L
199.879 411.76 L
205.013 419.733 L
210.148 426.63 L
215.282 432.523 L
220.416 437.494 L
225.55 441.629 L
230.685 445.01 L
235.819 447.715 L
240.953 449.813 L
246.087 451.361 L
251.221 452.408 L
256.356 452.99 L
261.49 453.135 L
266.624 452.862 L
271.758 452.181 L
276.893 451.099 L
282.027 449.618 L
287.161 447.74 L
292.295 445.47 L
297.43 442.819 L
302.564 439.804 L
307.698 436.455 L
312.832 432.815 L
317.966 428.937 L
323.101 424.89 L
328.235 420.747 L
333.369 416.588 L
338.503 412.49 L
343.638 408.524 L
348.772 404.753 L
353.906 401.223 L
359.04 397.967 L
364.174 395.004 L
369.309 392.338 L
374.443 389.962 L
379.577 387.861 L
384.711 386.013 L
389.846 384.394 L
394.98 382.974 L
400.114 381.727 L
405.248 380.623 L
410.383 379.635 L
415.517 378.738 L
420.651 377.907 L
425.785 377.118 L
430.919 376.35 L
436.054 375.581 L
441.188 374.791 L
446.322 373.962 L
451.456 373.076 L
456.591 372.118 L
461.725 371.074 L
466.859 369.935 L
471.993 368.693 L
477.128 367.346 L
482.262 365.9 L
487.396 364.362 L
492.53 362.75 L
497.664 361.085 L
502.799 359.394 L
507.933 357.704 L
513.067 356.048 L
518.201 354.453 L
523.336 352.947 L
528.47 351.551 L
533.604 350.284 L
538.738 349.156 L
543.872 348.177 L
549.007 347.351 L
554.141 346.677 L
559.275 346.158 L
564.409 345.791 L
569.544 345.579 L
574.678 345.522 L
579.812 345.626 L
584.946 345.897 L
590.081 346.349 L
595.215 346.995 L
600.349 347.857 L
605.483 348.958 L
610.617 350.329 L
615.752 352.005 L
620.886 354.023 L
626.02 356.427 L
631.154 359.26 L
636.289 362.567 L
641.423 366.387 L
646.557 370.755 L
651.691 375.692 L
656.826 381.205 L
661.96 387.277 L
667.094 393.869 L
672.228 400.91 L
677.362 408.307 L
682.497 415.938 L
687.631 423.666 L
692.765 431.344 L
697.899 438.826 L
703.034 445.975 L
708.168 452.672 L
713.302 458.822 L
718.436 464.355 L
723.57 469.222 L
728.705 473.398 L
733.839 476.873 L
738.973 479.645 L
744.107 481.719 L
749.242 483.097 L
754.376 483.778 L
759.51 483.751 L
764.644 482.992 L
769.779 481.466 L
774.913 479.121 L
780.047 475.892 L
785.181 471.698 L
790.315 466.448 L
795.45 460.045 L
800.584 452.389 L
805.718 443.39 L
810.852 432.976 L
815.987 421.11 L
821.121 407.798 L
826.255 393.106 L
831.389 377.17 L
836.523 360.196 L
841.658 342.457 L
846.792 324.279 L
851.926 306.019 L
857.06 288.039 L
862.195 270.679 L
867.329 254.229 L
872.463 238.918 L
877.597 224.902 L
882.732 212.265 L
887.866 201.025 L
893 191.151 L
S
GR
GS
[0.75 0 0 0.75 96 104.9099] CT
1 0 0 RC
10.0 ML
0.667 LW
N
0 -4 M
0 4 L
-4 0 M
4 0 L
-2.828 -2.828 M
2.828 2.828 L
-2.828 2.828 M
2.828 -2.828 L
S
GR
GS
[0.75 0 0 0.75 99.85067 124.67694] CT
1 0 0 RC
10.0 ML
0.667 LW
N
0 -4 M
0 4 L
-4 0 M
4 0 L
-2.828 -2.828 M
2.828 2.828 L
-2.828 2.828 M
2.828 -2.828 L
S
GR
GS
[0.75 0 0 0.75 103.70134 94.40215] CT
1 0 0 RC
10.0 ML
0.667 LW
N
0 -4 M
0 4 L
-4 0 M
4 0 L
-2.828 -2.828 M
2.828 2.828 L
-2.828 2.828 M
2.828 -2.828 L
S
GR
GS
[0.75 0 0 0.75 107.55202 122.53618] CT
1 0 0 RC
10.0 ML
0.667 LW
N
0 -4 M
0 4 L
-4 0 M
4 0 L
-2.828 -2.828 M
2.828 2.828 L
-2.828 2.828 M
2.828 -2.828 L
S
GR
GS
[0.75 0 0 0.75 111.40268 127.70496] CT
1 0 0 RC
10.0 ML
0.667 LW
N
0 -4 M
0 4 L
-4 0 M
4 0 L
-2.828 -2.828 M
2.828 2.828 L
-2.828 2.828 M
2.828 -2.828 L
S
GR
GS
[0.75 0 0 0.75 115.25336 123.87546] CT
1 0 0 RC
10.0 ML
0.667 LW
N
0 -4 M
0 4 L
-4 0 M
4 0 L
-2.828 -2.828 M
2.828 2.828 L
-2.828 2.828 M
2.828 -2.828 L
S
GR
GS
[0.75 0 0 0.75 119.10402 161.16112] CT
1 0 0 RC
10.0 ML
0.667 LW
N
0 -4 M
0 4 L
-4 0 M
4 0 L
-2.828 -2.828 M
2.828 2.828 L
-2.828 2.828 M
2.828 -2.828 L
S
GR
GS
[0.75 0 0 0.75 122.9547 149.0145] CT
1 0 0 RC
10.0 ML
0.667 LW
N
0 -4 M
0 4 L
-4 0 M
4 0 L
-2.828 -2.828 M
2.828 2.828 L
-2.828 2.828 M
2.828 -2.828 L
S
GR
GS
[0.75 0 0 0.75 126.80537 186.84988] CT
1 0 0 RC
10.0 ML
0.667 LW
N
0 -4 M
0 4 L
-4 0 M
4 0 L
-2.828 -2.828 M
2.828 2.828 L
-2.828 2.828 M
2.828 -2.828 L
S
GR
GS
[0.75 0 0 0.75 130.65604 235.173] CT
1 0 0 RC
10.0 ML
0.667 LW
N
0 -4 M
0 4 L
-4 0 M
4 0 L
-2.828 -2.828 M
2.828 2.828 L
-2.828 2.828 M
2.828 -2.828 L
S
GR
GS
[0.75 0 0 0.75 134.5067 208.00578] CT
1 0 0 RC
10.0 ML
0.667 LW
N
0 -4 M
0 4 L
-4 0 M
4 0 L
-2.828 -2.828 M
2.828 2.828 L
-2.828 2.828 M
2.828 -2.828 L
S
GR
GS
[0.75 0 0 0.75 138.35739 213.3222] CT
1 0 0 RC
10.0 ML
0.667 LW
N
0 -4 M
0 4 L
-4 0 M
4 0 L
-2.828 -2.828 M
2.828 2.828 L
-2.828 2.828 M
2.828 -2.828 L
S
GR
GS
[0.75 0 0 0.75 142.20805 173.33341] CT
1 0 0 RC
10.0 ML
0.667 LW
N
0 -4 M
0 4 L
-4 0 M
4 0 L
-2.828 -2.828 M
2.828 2.828 L
-2.828 2.828 M
2.828 -2.828 L
S
GR
GS
[0.75 0 0 0.75 146.05872 227.21114] CT
1 0 0 RC
10.0 ML
0.667 LW
N
0 -4 M
0 4 L
-4 0 M
4 0 L
-2.828 -2.828 M
2.828 2.828 L
-2.828 2.828 M
2.828 -2.828 L
S
GR
GS
[0.75 0 0 0.75 149.90939 194.47056] CT
1 0 0 RC
10.0 ML
0.667 LW
N
0 -4 M
0 4 L
-4 0 M
4 0 L
-2.828 -2.828 M
2.828 2.828 L
-2.828 2.828 M
2.828 -2.828 L
S
GR
GS
[0.75 0 0 0.75 153.76007 213.94527] CT
1 0 0 RC
10.0 ML
0.667 LW
N
0 -4 M
0 4 L
-4 0 M
4 0 L
-2.828 -2.828 M
2.828 2.828 L
-2.828 2.828 M
2.828 -2.828 L
S
GR
GS
[0.75 0 0 0.75 157.61073 268.38223] CT
1 0 0 RC
10.0 ML
0.667 LW
N
0 -4 M
0 4 L
-4 0 M
4 0 L
-2.828 -2.828 M
2.828 2.828 L
-2.828 2.828 M
2.828 -2.828 L
S
GR
GS
[0.75 0 0 0.75 161.46141 296.62057] CT
1 0 0 RC
10.0 ML
0.667 LW
N
0 -4 M
0 4 L
-4 0 M
4 0 L
-2.828 -2.828 M
2.828 2.828 L
-2.828 2.828 M
2.828 -2.828 L
S
GR
GS
[0.75 0 0 0.75 165.31209 293.36582] CT
1 0 0 RC
10.0 ML
0.667 LW
N
0 -4 M
0 4 L
-4 0 M
4 0 L
-2.828 -2.828 M
2.828 2.828 L
-2.828 2.828 M
2.828 -2.828 L
S
GR
GS
[0.75 0 0 0.75 169.16275 333.44731] CT
1 0 0 RC
10.0 ML
0.667 LW
N
0 -4 M
0 4 L
-4 0 M
4 0 L
-2.828 -2.828 M
2.828 2.828 L
-2.828 2.828 M
2.828 -2.828 L
S
GR
GS
[0.75 0 0 0.75 173.01343 267.98425] CT
1 0 0 RC
10.0 ML
0.667 LW
N
0 -4 M
0 4 L
-4 0 M
4 0 L
-2.828 -2.828 M
2.828 2.828 L
-2.828 2.828 M
2.828 -2.828 L
S
GR
GS
[0.75 0 0 0.75 176.86409 305.31721] CT
1 0 0 RC
10.0 ML
0.667 LW
N
0 -4 M
0 4 L
-4 0 M
4 0 L
-2.828 -2.828 M
2.828 2.828 L
-2.828 2.828 M
2.828 -2.828 L
S
GR
GS
[0.75 0 0 0.75 180.71478 335.80193] CT
1 0 0 RC
10.0 ML
0.667 LW
N
0 -4 M
0 4 L
-4 0 M
4 0 L
-2.828 -2.828 M
2.828 2.828 L
-2.828 2.828 M
2.828 -2.828 L
S
GR
GS
[0.75 0 0 0.75 184.56544 282.52394] CT
1 0 0 RC
10.0 ML
0.667 LW
N
0 -4 M
0 4 L
-4 0 M
4 0 L
-2.828 -2.828 M
2.828 2.828 L
-2.828 2.828 M
2.828 -2.828 L
S
GR
GS
[0.75 0 0 0.75 188.41611 352.48021] CT
1 0 0 RC
10.0 ML
0.667 LW
N
0 -4 M
0 4 L
-4 0 M
4 0 L
-2.828 -2.828 M
2.828 2.828 L
-2.828 2.828 M
2.828 -2.828 L
S
GR
GS
[0.75 0 0 0.75 192.26678 335.41988] CT
1 0 0 RC
10.0 ML
0.667 LW
N
0 -4 M
0 4 L
-4 0 M
4 0 L
-2.828 -2.828 M
2.828 2.828 L
-2.828 2.828 M
2.828 -2.828 L
S
GR
GS
[0.75 0 0 0.75 196.11745 400.29152] CT
1 0 0 RC
10.0 ML
0.667 LW
N
0 -4 M
0 4 L
-4 0 M
4 0 L
-2.828 -2.828 M
2.828 2.828 L
-2.828 2.828 M
2.828 -2.828 L
S
GR
GS
[0.75 0 0 0.75 199.96811 408.3466] CT
1 0 0 RC
10.0 ML
0.667 LW
N
0 -4 M
0 4 L
-4 0 M
4 0 L
-2.828 -2.828 M
2.828 2.828 L
-2.828 2.828 M
2.828 -2.828 L
S
GR
GS
[0.75 0 0 0.75 203.81879 426.03331] CT
1 0 0 RC
10.0 ML
0.667 LW
N
0 -4 M
0 4 L
-4 0 M
4 0 L
-2.828 -2.828 M
2.828 2.828 L
-2.828 2.828 M
2.828 -2.828 L
S
GR
GS
[0.75 0 0 0.75 207.66946 467.72377] CT
1 0 0 RC
10.0 ML
0.667 LW
N
0 -4 M
0 4 L
-4 0 M
4 0 L
-2.828 -2.828 M
2.828 2.828 L
-2.828 2.828 M
2.828 -2.828 L
S
GR
GS
[0.75 0 0 0.75 211.52014 440.03159] CT
1 0 0 RC
10.0 ML
0.667 LW
N
0 -4 M
0 4 L
-4 0 M
4 0 L
-2.828 -2.828 M
2.828 2.828 L
-2.828 2.828 M
2.828 -2.828 L
S
GR
GS
[0.75 0 0 0.75 215.3708 453.08971] CT
1 0 0 RC
10.0 ML
0.667 LW
N
0 -4 M
0 4 L
-4 0 M
4 0 L
-2.828 -2.828 M
2.828 2.828 L
-2.828 2.828 M
2.828 -2.828 L
S
GR
GS
[0.75 0 0 0.75 219.22147 442.71413] CT
1 0 0 RC
10.0 ML
0.667 LW
N
0 -4 M
0 4 L
-4 0 M
4 0 L
-2.828 -2.828 M
2.828 2.828 L
-2.828 2.828 M
2.828 -2.828 L
S
GR
GS
[0.75 0 0 0.75 223.07213 455.59766] CT
1 0 0 RC
10.0 ML
0.667 LW
N
0 -4 M
0 4 L
-4 0 M
4 0 L
-2.828 -2.828 M
2.828 2.828 L
-2.828 2.828 M
2.828 -2.828 L
S
GR
GS
[0.75 0 0 0.75 226.92281 405.59787] CT
1 0 0 RC
10.0 ML
0.667 LW
N
0 -4 M
0 4 L
-4 0 M
4 0 L
-2.828 -2.828 M
2.828 2.828 L
-2.828 2.828 M
2.828 -2.828 L
S
GR
GS
[0.75 0 0 0.75 230.7735 469.2717] CT
1 0 0 RC
10.0 ML
0.667 LW
N
0 -4 M
0 4 L
-4 0 M
4 0 L
-2.828 -2.828 M
2.828 2.828 L
-2.828 2.828 M
2.828 -2.828 L
S
GR
GS
[0.75 0 0 0.75 234.62416 473.12904] CT
1 0 0 RC
10.0 ML
0.667 LW
N
0 -4 M
0 4 L
-4 0 M
4 0 L
-2.828 -2.828 M
2.828 2.828 L
-2.828 2.828 M
2.828 -2.828 L
S
GR
GS
[0.75 0 0 0.75 238.47485 396.59741] CT
1 0 0 RC
10.0 ML
0.667 LW
N
0 -4 M
0 4 L
-4 0 M
4 0 L
-2.828 -2.828 M
2.828 2.828 L
-2.828 2.828 M
2.828 -2.828 L
S
GR
GS
[0.75 0 0 0.75 242.32551 460.62614] CT
1 0 0 RC
10.0 ML
0.667 LW
N
0 -4 M
0 4 L
-4 0 M
4 0 L
-2.828 -2.828 M
2.828 2.828 L
-2.828 2.828 M
2.828 -2.828 L
S
GR
GS
[0.75 0 0 0.75 246.17617 445.74997] CT
1 0 0 RC
10.0 ML
0.667 LW
N
0 -4 M
0 4 L
-4 0 M
4 0 L
-2.828 -2.828 M
2.828 2.828 L
-2.828 2.828 M
2.828 -2.828 L
S
GR
GS
[0.75 0 0 0.75 250.02683 400.61108] CT
1 0 0 RC
10.0 ML
0.667 LW
N
0 -4 M
0 4 L
-4 0 M
4 0 L
-2.828 -2.828 M
2.828 2.828 L
-2.828 2.828 M
2.828 -2.828 L
S
GR
GS
[0.75 0 0 0.75 253.87752 453.02058] CT
1 0 0 RC
10.0 ML
0.667 LW
N
0 -4 M
0 4 L
-4 0 M
4 0 L
-2.828 -2.828 M
2.828 2.828 L
-2.828 2.828 M
2.828 -2.828 L
S
GR
GS
[0.75 0 0 0.75 257.7282 388.52937] CT
1 0 0 RC
10.0 ML
0.667 LW
N
0 -4 M
0 4 L
-4 0 M
4 0 L
-2.828 -2.828 M
2.828 2.828 L
-2.828 2.828 M
2.828 -2.828 L
S
GR
GS
[0.75 0 0 0.75 261.57887 438.9921] CT
1 0 0 RC
10.0 ML
0.667 LW
N
0 -4 M
0 4 L
-4 0 M
4 0 L
-2.828 -2.828 M
2.828 2.828 L
-2.828 2.828 M
2.828 -2.828 L
S
GR
GS
[0.75 0 0 0.75 265.42953 398.09009] CT
1 0 0 RC
10.0 ML
0.667 LW
N
0 -4 M
0 4 L
-4 0 M
4 0 L
-2.828 -2.828 M
2.828 2.828 L
-2.828 2.828 M
2.828 -2.828 L
S
GR
GS
[0.75 0 0 0.75 269.28021 464.80736] CT
1 0 0 RC
10.0 ML
0.667 LW
N
0 -4 M
0 4 L
-4 0 M
4 0 L
-2.828 -2.828 M
2.828 2.828 L
-2.828 2.828 M
2.828 -2.828 L
S
GR
GS
[0.75 0 0 0.75 273.13087 409.81117] CT
1 0 0 RC
10.0 ML
0.667 LW
N
0 -4 M
0 4 L
-4 0 M
4 0 L
-2.828 -2.828 M
2.828 2.828 L
-2.828 2.828 M
2.828 -2.828 L
S
GR
GS
[0.75 0 0 0.75 276.98154 373.65093] CT
1 0 0 RC
10.0 ML
0.667 LW
N
0 -4 M
0 4 L
-4 0 M
4 0 L
-2.828 -2.828 M
2.828 2.828 L
-2.828 2.828 M
2.828 -2.828 L
S
GR
GS
[0.75 0 0 0.75 280.83222 411.54289] CT
1 0 0 RC
10.0 ML
0.667 LW
N
0 -4 M
0 4 L
-4 0 M
4 0 L
-2.828 -2.828 M
2.828 2.828 L
-2.828 2.828 M
2.828 -2.828 L
S
GR
GS
[0.75 0 0 0.75 284.68288 415.19402] CT
1 0 0 RC
10.0 ML
0.667 LW
N
0 -4 M
0 4 L
-4 0 M
4 0 L
-2.828 -2.828 M
2.828 2.828 L
-2.828 2.828 M
2.828 -2.828 L
S
GR
GS
[0.75 0 0 0.75 288.53355 360.62463] CT
1 0 0 RC
10.0 ML
0.667 LW
N
0 -4 M
0 4 L
-4 0 M
4 0 L
-2.828 -2.828 M
2.828 2.828 L
-2.828 2.828 M
2.828 -2.828 L
S
GR
GS
[0.75 0 0 0.75 292.38423 349.3177] CT
1 0 0 RC
10.0 ML
0.667 LW
N
0 -4 M
0 4 L
-4 0 M
4 0 L
-2.828 -2.828 M
2.828 2.828 L
-2.828 2.828 M
2.828 -2.828 L
S
GR
GS
[0.75 0 0 0.75 296.23489 392.47676] CT
1 0 0 RC
10.0 ML
0.667 LW
N
0 -4 M
0 4 L
-4 0 M
4 0 L
-2.828 -2.828 M
2.828 2.828 L
-2.828 2.828 M
2.828 -2.828 L
S
GR
GS
[0.75 0 0 0.75 300.08558 372.31616] CT
1 0 0 RC
10.0 ML
0.667 LW
N
0 -4 M
0 4 L
-4 0 M
4 0 L
-2.828 -2.828 M
2.828 2.828 L
-2.828 2.828 M
2.828 -2.828 L
S
GR
GS
[0.75 0 0 0.75 303.93624 278.65302] CT
1 0 0 RC
10.0 ML
0.667 LW
N
0 -4 M
0 4 L
-4 0 M
4 0 L
-2.828 -2.828 M
2.828 2.828 L
-2.828 2.828 M
2.828 -2.828 L
S
GR
GS
[0.75 0 0 0.75 307.7869 282.00804] CT
1 0 0 RC
10.0 ML
0.667 LW
N
0 -4 M
0 4 L
-4 0 M
4 0 L
-2.828 -2.828 M
2.828 2.828 L
-2.828 2.828 M
2.828 -2.828 L
S
GR
GS
[0.75 0 0 0.75 311.63759 284.86781] CT
1 0 0 RC
10.0 ML
0.667 LW
N
0 -4 M
0 4 L
-4 0 M
4 0 L
-2.828 -2.828 M
2.828 2.828 L
-2.828 2.828 M
2.828 -2.828 L
S
GR
GS
[0.75 0 0 0.75 315.48825 257.95322] CT
1 0 0 RC
10.0 ML
0.667 LW
N
0 -4 M
0 4 L
-4 0 M
4 0 L
-2.828 -2.828 M
2.828 2.828 L
-2.828 2.828 M
2.828 -2.828 L
S
GR
GS
[0.75 0 0 0.75 319.33894 235.10159] CT
1 0 0 RC
10.0 ML
0.667 LW
N
0 -4 M
0 4 L
-4 0 M
4 0 L
-2.828 -2.828 M
2.828 2.828 L
-2.828 2.828 M
2.828 -2.828 L
S
GR
GS
[0.75 0 0 0.75 323.1896 233.31769] CT
1 0 0 RC
10.0 ML
0.667 LW
N
0 -4 M
0 4 L
-4 0 M
4 0 L
-2.828 -2.828 M
2.828 2.828 L
-2.828 2.828 M
2.828 -2.828 L
S
GR
GS
[0.75 0 0 0.75 327.04026 194.95091] CT
1 0 0 RC
10.0 ML
0.667 LW
N
0 -4 M
0 4 L
-4 0 M
4 0 L
-2.828 -2.828 M
2.828 2.828 L
-2.828 2.828 M
2.828 -2.828 L
S
GR
GS
[0.75 0 0 0.75 330.89095 205.06362] CT
1 0 0 RC
10.0 ML
0.667 LW
N
0 -4 M
0 4 L
-4 0 M
4 0 L
-2.828 -2.828 M
2.828 2.828 L
-2.828 2.828 M
2.828 -2.828 L
S
GR
GS
[0.75 0 0 0.75 334.74161 276.02926] CT
1 0 0 RC
10.0 ML
0.667 LW
N
0 -4 M
0 4 L
-4 0 M
4 0 L
-2.828 -2.828 M
2.828 2.828 L
-2.828 2.828 M
2.828 -2.828 L
S
GR
GS
[0.75 0 0 0.75 338.59229 209.48667] CT
1 0 0 RC
10.0 ML
0.667 LW
N
0 -4 M
0 4 L
-4 0 M
4 0 L
-2.828 -2.828 M
2.828 2.828 L
-2.828 2.828 M
2.828 -2.828 L
S
GR
GS
[0.75 0 0 0.75 342.44296 167.12213] CT
1 0 0 RC
10.0 ML
0.667 LW
N
0 -4 M
0 4 L
-4 0 M
4 0 L
-2.828 -2.828 M
2.828 2.828 L
-2.828 2.828 M
2.828 -2.828 L
S
GR
GS
[0.75 0 0 0.75 346.29362 195.67917] CT
1 0 0 RC
10.0 ML
0.667 LW
N
0 -4 M
0 4 L
-4 0 M
4 0 L
-2.828 -2.828 M
2.828 2.828 L
-2.828 2.828 M
2.828 -2.828 L
S
GR
GS
[0.75 0 0 0.75 350.1443 201.75706] CT
1 0 0 RC
10.0 ML
0.667 LW
N
0 -4 M
0 4 L
-4 0 M
4 0 L
-2.828 -2.828 M
2.828 2.828 L
-2.828 2.828 M
2.828 -2.828 L
S
GR
GS
[0.75 0 0 0.75 353.99496 112.47016] CT
1 0 0 RC
10.0 ML
0.667 LW
N
0 -4 M
0 4 L
-4 0 M
4 0 L
-2.828 -2.828 M
2.828 2.828 L
-2.828 2.828 M
2.828 -2.828 L
S
GR
GS
[0.75 0 0 0.75 357.84563 122.76706] CT
1 0 0 RC
10.0 ML
0.667 LW
N
0 -4 M
0 4 L
-4 0 M
4 0 L
-2.828 -2.828 M
2.828 2.828 L
-2.828 2.828 M
2.828 -2.828 L
S
GR
GS
[0.75 0 0 0.75 361.69631 159.99149] CT
1 0 0 RC
10.0 ML
0.667 LW
N
0 -4 M
0 4 L
-4 0 M
4 0 L
-2.828 -2.828 M
2.828 2.828 L
-2.828 2.828 M
2.828 -2.828 L
S
GR
GS
[0.75 0 0 0.75 365.54697 172.68347] CT
1 0 0 RC
10.0 ML
0.667 LW
N
0 -4 M
0 4 L
-4 0 M
4 0 L
-2.828 -2.828 M
2.828 2.828 L
-2.828 2.828 M
2.828 -2.828 L
S
GR
GS
[0.75 0 0 0.75 369.39766 74.88433] CT
1 0 0 RC
10.0 ML
0.667 LW
N
0 -4 M
0 4 L
-4 0 M
4 0 L
-2.828 -2.828 M
2.828 2.828 L
-2.828 2.828 M
2.828 -2.828 L
S
GR
GS
[0.75 0 0 0.75 373.24832 108.25022] CT
1 0 0 RC
10.0 ML
0.667 LW
N
0 -4 M
0 4 L
-4 0 M
4 0 L
-2.828 -2.828 M
2.828 2.828 L
-2.828 2.828 M
2.828 -2.828 L
S
GR
GS
[0.75 0 0 0.75 377.09898 134.05021] CT
1 0 0 RC
10.0 ML
0.667 LW
N
0 -4 M
0 4 L
-4 0 M
4 0 L
-2.828 -2.828 M
2.828 2.828 L
-2.828 2.828 M
2.828 -2.828 L
S
GR
GS
[0.75 0 0 0.75 380.94967 168.57796] CT
1 0 0 RC
10.0 ML
0.667 LW
N
0 -4 M
0 4 L
-4 0 M
4 0 L
-2.828 -2.828 M
2.828 2.828 L
-2.828 2.828 M
2.828 -2.828 L
S
GR
GS
[0.75 0 0 0.75 384.80035 96.44261] CT
1 0 0 RC
10.0 ML
0.667 LW
N
0 -4 M
0 4 L
-4 0 M
4 0 L
-2.828 -2.828 M
2.828 2.828 L
-2.828 2.828 M
2.828 -2.828 L
S
GR
GS
[0.75 0 0 0.75 388.65102 73.06841] CT
1 0 0 RC
10.0 ML
0.667 LW
N
0 -4 M
0 4 L
-4 0 M
4 0 L
-2.828 -2.828 M
2.828 2.828 L
-2.828 2.828 M
2.828 -2.828 L
S
GR
GS
[0.75 0 0 0.75 392.50168 146.61637] CT
1 0 0 RC
10.0 ML
0.667 LW
N
0 -4 M
0 4 L
-4 0 M
4 0 L
-2.828 -2.828 M
2.828 2.828 L
-2.828 2.828 M
2.828 -2.828 L
S
GR
GS
[0.75 0 0 0.75 396.35234 125.50383] CT
1 0 0 RC
10.0 ML
0.667 LW
N
0 -4 M
0 4 L
-4 0 M
4 0 L
-2.828 -2.828 M
2.828 2.828 L
-2.828 2.828 M
2.828 -2.828 L
S
GR
GS
[0.75 0 0 0.75 400.203 115.3141] CT
1 0 0 RC
10.0 ML
0.667 LW
N
0 -4 M
0 4 L
-4 0 M
4 0 L
-2.828 -2.828 M
2.828 2.828 L
-2.828 2.828 M
2.828 -2.828 L
S
GR
GS
[0.75 0 0 0.75 404.05371 220.38168] CT
1 0 0 RC
10.0 ML
0.667 LW
N
0 -4 M
0 4 L
-4 0 M
4 0 L
-2.828 -2.828 M
2.828 2.828 L
-2.828 2.828 M
2.828 -2.828 L
S
GR
GS
[0.75 0 0 0.75 407.90437 134.42653] CT
1 0 0 RC
10.0 ML
0.667 LW
N
0 -4 M
0 4 L
-4 0 M
4 0 L
-2.828 -2.828 M
2.828 2.828 L
-2.828 2.828 M
2.828 -2.828 L
S
GR
GS
[0.75 0 0 0.75 411.75504 152.02382] CT
1 0 0 RC
10.0 ML
0.667 LW
N
0 -4 M
0 4 L
-4 0 M
4 0 L
-2.828 -2.828 M
2.828 2.828 L
-2.828 2.828 M
2.828 -2.828 L
S
GR
GS
[0.75 0 0 0.75 415.6057 177.84507] CT
1 0 0 RC
10.0 ML
0.667 LW
N
0 -4 M
0 4 L
-4 0 M
4 0 L
-2.828 -2.828 M
2.828 2.828 L
-2.828 2.828 M
2.828 -2.828 L
S
GR
GS
[0.75 0 0 0.75 419.45636 112.82664] CT
1 0 0 RC
10.0 ML
0.667 LW
N
0 -4 M
0 4 L
-4 0 M
4 0 L
-2.828 -2.828 M
2.828 2.828 L
-2.828 2.828 M
2.828 -2.828 L
S
GR
GS
[0.75 0 0 0.75 423.30707 169.75443] CT
1 0 0 RC
10.0 ML
0.667 LW
N
0 -4 M
0 4 L
-4 0 M
4 0 L
-2.828 -2.828 M
2.828 2.828 L
-2.828 2.828 M
2.828 -2.828 L
S
GR
GS
[0.75 0 0 0.75 427.15773 141.73627] CT
1 0 0 RC
10.0 ML
0.667 LW
N
0 -4 M
0 4 L
-4 0 M
4 0 L
-2.828 -2.828 M
2.828 2.828 L
-2.828 2.828 M
2.828 -2.828 L
S
GR
GS
[0.75 0 0 0.75 431.00839 149.54285] CT
1 0 0 RC
10.0 ML
0.667 LW
N
0 -4 M
0 4 L
-4 0 M
4 0 L
-2.828 -2.828 M
2.828 2.828 L
-2.828 2.828 M
2.828 -2.828 L
S
GR
GS
[0.75 0 0 0.75 434.85905 220.30738] CT
1 0 0 RC
10.0 ML
0.667 LW
N
0 -4 M
0 4 L
-4 0 M
4 0 L
-2.828 -2.828 M
2.828 2.828 L
-2.828 2.828 M
2.828 -2.828 L
S
GR
GS
[0.75 0 0 0.75 438.70972 277.52397] CT
1 0 0 RC
10.0 ML
0.667 LW
N
0 -4 M
0 4 L
-4 0 M
4 0 L
-2.828 -2.828 M
2.828 2.828 L
-2.828 2.828 M
2.828 -2.828 L
S
GR
GS
[0.75 0 0 0.75 442.56042 212.07047] CT
1 0 0 RC
10.0 ML
0.667 LW
N
0 -4 M
0 4 L
-4 0 M
4 0 L
-2.828 -2.828 M
2.828 2.828 L
-2.828 2.828 M
2.828 -2.828 L
S
GR
GS
[0.75 0 0 0.75 446.41109 256.26442] CT
1 0 0 RC
10.0 ML
0.667 LW
N
0 -4 M
0 4 L
-4 0 M
4 0 L
-2.828 -2.828 M
2.828 2.828 L
-2.828 2.828 M
2.828 -2.828 L
S
GR
GS
[0.75 0 0 0.75 450.26175 272.63881] CT
1 0 0 RC
10.0 ML
0.667 LW
N
0 -4 M
0 4 L
-4 0 M
4 0 L
-2.828 -2.828 M
2.828 2.828 L
-2.828 2.828 M
2.828 -2.828 L
S
GR
GS
[0.75 0 0 0.75 454.11241 221.10382] CT
1 0 0 RC
10.0 ML
0.667 LW
N
0 -4 M
0 4 L
-4 0 M
4 0 L
-2.828 -2.828 M
2.828 2.828 L
-2.828 2.828 M
2.828 -2.828 L
S
GR
GS
[0.75 0 0 0.75 457.96307 280.66872] CT
1 0 0 RC
10.0 ML
0.667 LW
N
0 -4 M
0 4 L
-4 0 M
4 0 L
-2.828 -2.828 M
2.828 2.828 L
-2.828 2.828 M
2.828 -2.828 L
S
GR
GS
[0.75 0 0 0.75 461.81378 332.38702] CT
1 0 0 RC
10.0 ML
0.667 LW
N
0 -4 M
0 4 L
-4 0 M
4 0 L
-2.828 -2.828 M
2.828 2.828 L
-2.828 2.828 M
2.828 -2.828 L
S
GR
GS
[0.75 0 0 0.75 465.66444 261.88683] CT
1 0 0 RC
10.0 ML
0.667 LW
N
0 -4 M
0 4 L
-4 0 M
4 0 L
-2.828 -2.828 M
2.828 2.828 L
-2.828 2.828 M
2.828 -2.828 L
S
GR
GS
[0.75 0 0 0.75 469.51511 328.32084] CT
1 0 0 RC
10.0 ML
0.667 LW
N
0 -4 M
0 4 L
-4 0 M
4 0 L
-2.828 -2.828 M
2.828 2.828 L
-2.828 2.828 M
2.828 -2.828 L
S
GR
GS
[0.75 0 0 0.75 473.36577 347.80816] CT
1 0 0 RC
10.0 ML
0.667 LW
N
0 -4 M
0 4 L
-4 0 M
4 0 L
-2.828 -2.828 M
2.828 2.828 L
-2.828 2.828 M
2.828 -2.828 L
S
GR
GS
[0.75 0 0 0.75 477.21643 380.52336] CT
1 0 0 RC
10.0 ML
0.667 LW
N
0 -4 M
0 4 L
-4 0 M
4 0 L
-2.828 -2.828 M
2.828 2.828 L
-2.828 2.828 M
2.828 -2.828 L
S
GR
GS
[0.75 0 0 0.75 481.06709 354.74676] CT
1 0 0 RC
10.0 ML
0.667 LW
N
0 -4 M
0 4 L
-4 0 M
4 0 L
-2.828 -2.828 M
2.828 2.828 L
-2.828 2.828 M
2.828 -2.828 L
S
GR
GS
[0.75 0 0 0.75 484.9178 476.23813] CT
1 0 0 RC
10.0 ML
0.667 LW
N
0 -4 M
0 4 L
-4 0 M
4 0 L
-2.828 -2.828 M
2.828 2.828 L
-2.828 2.828 M
2.828 -2.828 L
S
GR
GS
[0.75 0 0 0.75 488.76846 405.81256] CT
1 0 0 RC
10.0 ML
0.667 LW
N
0 -4 M
0 4 L
-4 0 M
4 0 L
-2.828 -2.828 M
2.828 2.828 L
-2.828 2.828 M
2.828 -2.828 L
S
GR
GS
[0.75 0 0 0.75 492.61913 395.36232] CT
1 0 0 RC
10.0 ML
0.667 LW
N
0 -4 M
0 4 L
-4 0 M
4 0 L
-2.828 -2.828 M
2.828 2.828 L
-2.828 2.828 M
2.828 -2.828 L
S
GR
GS
[0.75 0 0 0.75 496.46979 436.71097] CT
1 0 0 RC
10.0 ML
0.667 LW
N
0 -4 M
0 4 L
-4 0 M
4 0 L
-2.828 -2.828 M
2.828 2.828 L
-2.828 2.828 M
2.828 -2.828 L
S
GR
GS
[0.75 0 0 0.75 500.32045 474.55095] CT
1 0 0 RC
10.0 ML
0.667 LW
N
0 -4 M
0 4 L
-4 0 M
4 0 L
-2.828 -2.828 M
2.828 2.828 L
-2.828 2.828 M
2.828 -2.828 L
S
GR
GS
[0.75 0 0 0.75 504.17116 411.74312] CT
1 0 0 RC
10.0 ML
0.667 LW
N
0 -4 M
0 4 L
-4 0 M
4 0 L
-2.828 -2.828 M
2.828 2.828 L
-2.828 2.828 M
2.828 -2.828 L
S
GR
GS
[0.75 0 0 0.75 508.02182 476.58186] CT
1 0 0 RC
10.0 ML
0.667 LW
N
0 -4 M
0 4 L
-4 0 M
4 0 L
-2.828 -2.828 M
2.828 2.828 L
-2.828 2.828 M
2.828 -2.828 L
S
GR
GS
[0.75 0 0 0.75 511.87248 454.99483] CT
1 0 0 RC
10.0 ML
0.667 LW
N
0 -4 M
0 4 L
-4 0 M
4 0 L
-2.828 -2.828 M
2.828 2.828 L
-2.828 2.828 M
2.828 -2.828 L
S
GR
GS
[0.75 0 0 0.75 515.72314 442.39131] CT
1 0 0 RC
10.0 ML
0.667 LW
N
0 -4 M
0 4 L
-4 0 M
4 0 L
-2.828 -2.828 M
2.828 2.828 L
-2.828 2.828 M
2.828 -2.828 L
S
GR
GS
[0.75 0 0 0.75 519.57381 470.0466] CT
1 0 0 RC
10.0 ML
0.667 LW
N
0 -4 M
0 4 L
-4 0 M
4 0 L
-2.828 -2.828 M
2.828 2.828 L
-2.828 2.828 M
2.828 -2.828 L
S
GR
GS
[0.75 0 0 0.75 523.42451 420.89157] CT
1 0 0 RC
10.0 ML
0.667 LW
N
0 -4 M
0 4 L
-4 0 M
4 0 L
-2.828 -2.828 M
2.828 2.828 L
-2.828 2.828 M
2.828 -2.828 L
S
GR
GS
[0.75 0 0 0.75 527.27518 474.97328] CT
1 0 0 RC
10.0 ML
0.667 LW
N
0 -4 M
0 4 L
-4 0 M
4 0 L
-2.828 -2.828 M
2.828 2.828 L
-2.828 2.828 M
2.828 -2.828 L
S
GR
GS
[0.75 0 0 0.75 531.12584 409.50923] CT
1 0 0 RC
10.0 ML
0.667 LW
N
0 -4 M
0 4 L
-4 0 M
4 0 L
-2.828 -2.828 M
2.828 2.828 L
-2.828 2.828 M
2.828 -2.828 L
S
GR
GS
[0.75 0 0 0.75 534.9765 466.92479] CT
1 0 0 RC
10.0 ML
0.667 LW
N
0 -4 M
0 4 L
-4 0 M
4 0 L
-2.828 -2.828 M
2.828 2.828 L
-2.828 2.828 M
2.828 -2.828 L
S
GR
GS
[0.75 0 0 0.75 538.82716 454.85677] CT
1 0 0 RC
10.0 ML
0.667 LW
N
0 -4 M
0 4 L
-4 0 M
4 0 L
-2.828 -2.828 M
2.828 2.828 L
-2.828 2.828 M
2.828 -2.828 L
S
GR
GS
[0.75 0 0 0.75 542.67787 469.08429] CT
1 0 0 RC
10.0 ML
0.667 LW
N
0 -4 M
0 4 L
-4 0 M
4 0 L
-2.828 -2.828 M
2.828 2.828 L
-2.828 2.828 M
2.828 -2.828 L
S
GR
GS
[0.75 0 0 0.75 546.52853 459.64955] CT
1 0 0 RC
10.0 ML
0.667 LW
N
0 -4 M
0 4 L
-4 0 M
4 0 L
-2.828 -2.828 M
2.828 2.828 L
-2.828 2.828 M
2.828 -2.828 L
S
GR
GS
[0.75 0 0 0.75 550.3792 401.57399] CT
1 0 0 RC
10.0 ML
0.667 LW
N
0 -4 M
0 4 L
-4 0 M
4 0 L
-2.828 -2.828 M
2.828 2.828 L
-2.828 2.828 M
2.828 -2.828 L
S
GR
GS
[0.75 0 0 0.75 554.22986 465.20094] CT
1 0 0 RC
10.0 ML
0.667 LW
N
0 -4 M
0 4 L
-4 0 M
4 0 L
-2.828 -2.828 M
2.828 2.828 L
-2.828 2.828 M
2.828 -2.828 L
S
GR
GS
[0.75 0 0 0.75 558.08052 358.28591] CT
1 0 0 RC
10.0 ML
0.667 LW
N
0 -4 M
0 4 L
-4 0 M
4 0 L
-2.828 -2.828 M
2.828 2.828 L
-2.828 2.828 M
2.828 -2.828 L
S
GR
GS
[0.75 0 0 0.75 561.93118 444.02795] CT
1 0 0 RC
10.0 ML
0.667 LW
N
0 -4 M
0 4 L
-4 0 M
4 0 L
-2.828 -2.828 M
2.828 2.828 L
-2.828 2.828 M
2.828 -2.828 L
S
GR
GS
[0.75 0 0 0.75 565.78189 418.97327] CT
1 0 0 RC
10.0 ML
0.667 LW
N
0 -4 M
0 4 L
-4 0 M
4 0 L
-2.828 -2.828 M
2.828 2.828 L
-2.828 2.828 M
2.828 -2.828 L
S
GR
GS
[0.75 0 0 0.75 569.63255 355.71099] CT
1 0 0 RC
10.0 ML
0.667 LW
N
0 -4 M
0 4 L
-4 0 M
4 0 L
-2.828 -2.828 M
2.828 2.828 L
-2.828 2.828 M
2.828 -2.828 L
S
GR
GS
[0.75 0 0 0.75 573.48322 337.15538] CT
1 0 0 RC
10.0 ML
0.667 LW
N
0 -4 M
0 4 L
-4 0 M
4 0 L
-2.828 -2.828 M
2.828 2.828 L
-2.828 2.828 M
2.828 -2.828 L
S
GR
GS
[0.75 0 0 0.75 577.33388 305.90708] CT
1 0 0 RC
10.0 ML
0.667 LW
N
0 -4 M
0 4 L
-4 0 M
4 0 L
-2.828 -2.828 M
2.828 2.828 L
-2.828 2.828 M
2.828 -2.828 L
S
GR
GS
[0.75 0 0 0.75 581.18459 334.24801] CT
1 0 0 RC
10.0 ML
0.667 LW
N
0 -4 M
0 4 L
-4 0 M
4 0 L
-2.828 -2.828 M
2.828 2.828 L
-2.828 2.828 M
2.828 -2.828 L
S
GR
GS
[0.75 0 0 0.75 585.03525 344.28562] CT
1 0 0 RC
10.0 ML
0.667 LW
N
0 -4 M
0 4 L
-4 0 M
4 0 L
-2.828 -2.828 M
2.828 2.828 L
-2.828 2.828 M
2.828 -2.828 L
S
GR
GS
[0.75 0 0 0.75 588.88591 364.95097] CT
1 0 0 RC
10.0 ML
0.667 LW
N
0 -4 M
0 4 L
-4 0 M
4 0 L
-2.828 -2.828 M
2.828 2.828 L
-2.828 2.828 M
2.828 -2.828 L
S
GR
GS
[0.75 0 0 0.75 592.73657 305.85817] CT
1 0 0 RC
10.0 ML
0.667 LW
N
0 -4 M
0 4 L
-4 0 M
4 0 L
-2.828 -2.828 M
2.828 2.828 L
-2.828 2.828 M
2.828 -2.828 L
S
GR
GS
[0.75 0 0 0.75 596.58723 272.06741] CT
1 0 0 RC
10.0 ML
0.667 LW
N
0 -4 M
0 4 L
-4 0 M
4 0 L
-2.828 -2.828 M
2.828 2.828 L
-2.828 2.828 M
2.828 -2.828 L
S
GR
GS
[0.75 0 0 0.75 600.4379 267.97797] CT
1 0 0 RC
10.0 ML
0.667 LW
N
0 -4 M
0 4 L
-4 0 M
4 0 L
-2.828 -2.828 M
2.828 2.828 L
-2.828 2.828 M
2.828 -2.828 L
S
GR
GS
[0.75 0 0 0.75 604.2886 204.9495] CT
1 0 0 RC
10.0 ML
0.667 LW
N
0 -4 M
0 4 L
-4 0 M
4 0 L
-2.828 -2.828 M
2.828 2.828 L
-2.828 2.828 M
2.828 -2.828 L
S
GR
GS
[0.75 0 0 0.75 608.13927 176.03623] CT
1 0 0 RC
10.0 ML
0.667 LW
N
0 -4 M
0 4 L
-4 0 M
4 0 L
-2.828 -2.828 M
2.828 2.828 L
-2.828 2.828 M
2.828 -2.828 L
S
GR
GS
[0.75 0 0 0.75 611.98993 226.07188] CT
1 0 0 RC
10.0 ML
0.667 LW
N
0 -4 M
0 4 L
-4 0 M
4 0 L
-2.828 -2.828 M
2.828 2.828 L
-2.828 2.828 M
2.828 -2.828 L
S
GR
GS
[0.75 0 0 0.75 615.84059 188.89306] CT
1 0 0 RC
10.0 ML
0.667 LW
N
0 -4 M
0 4 L
-4 0 M
4 0 L
-2.828 -2.828 M
2.828 2.828 L
-2.828 2.828 M
2.828 -2.828 L
S
GR
GS
[0.75 0 0 0.75 619.69125 186.98512] CT
1 0 0 RC
10.0 ML
0.667 LW
N
0 -4 M
0 4 L
-4 0 M
4 0 L
-2.828 -2.828 M
2.828 2.828 L
-2.828 2.828 M
2.828 -2.828 L
S
GR
GS
[0.75 0 0 0.75 623.54196 209.62892] CT
1 0 0 RC
10.0 ML
0.667 LW
N
0 -4 M
0 4 L
-4 0 M
4 0 L
-2.828 -2.828 M
2.828 2.828 L
-2.828 2.828 M
2.828 -2.828 L
S
GR
GS
[0.75 0 0 0.75 627.39262 264.60762] CT
1 0 0 RC
10.0 ML
0.667 LW
N
0 -4 M
0 4 L
-4 0 M
4 0 L
-2.828 -2.828 M
2.828 2.828 L
-2.828 2.828 M
2.828 -2.828 L
S
GR
GS
[0.75 0 0 0.75 631.24329 192.86571] CT
1 0 0 RC
10.0 ML
0.667 LW
N
0 -4 M
0 4 L
-4 0 M
4 0 L
-2.828 -2.828 M
2.828 2.828 L
-2.828 2.828 M
2.828 -2.828 L
S
GR
GS
[0.75 0 0 0.75 635.09395 239.97767] CT
1 0 0 RC
10.0 ML
0.667 LW
N
0 -4 M
0 4 L
-4 0 M
4 0 L
-2.828 -2.828 M
2.828 2.828 L
-2.828 2.828 M
2.828 -2.828 L
S
GR
GS
[0.75 0 0 0.75 638.94466 179.38397] CT
1 0 0 RC
10.0 ML
0.667 LW
N
0 -4 M
0 4 L
-4 0 M
4 0 L
-2.828 -2.828 M
2.828 2.828 L
-2.828 2.828 M
2.828 -2.828 L
S
GR
GS
[0.75 0 0 0.75 642.79532 136.36544] CT
1 0 0 RC
10.0 ML
0.667 LW
N
0 -4 M
0 4 L
-4 0 M
4 0 L
-2.828 -2.828 M
2.828 2.828 L
-2.828 2.828 M
2.828 -2.828 L
S
GR
GS
[0.75 0 0 0.75 646.64598 153.30467] CT
1 0 0 RC
10.0 ML
0.667 LW
N
0 -4 M
0 4 L
-4 0 M
4 0 L
-2.828 -2.828 M
2.828 2.828 L
-2.828 2.828 M
2.828 -2.828 L
S
GR
GS
[0.75 0 0 0.75 650.49664 96.05046] CT
1 0 0 RC
10.0 ML
0.667 LW
N
0 -4 M
0 4 L
-4 0 M
4 0 L
-2.828 -2.828 M
2.828 2.828 L
-2.828 2.828 M
2.828 -2.828 L
S
GR
GS
[0.75 0 0 0.75 654.34731 235.14838] CT
1 0 0 RC
10.0 ML
0.667 LW
N
0 -4 M
0 4 L
-4 0 M
4 0 L
-2.828 -2.828 M
2.828 2.828 L
-2.828 2.828 M
2.828 -2.828 L
S
GR
GS
[0.75 0 0 0.75 658.19797 102.28986] CT
1 0 0 RC
10.0 ML
0.667 LW
N
0 -4 M
0 4 L
-4 0 M
4 0 L
-2.828 -2.828 M
2.828 2.828 L
-2.828 2.828 M
2.828 -2.828 L
S
GR
GS
[0.75 0 0 0.75 662.04868 176.16754] CT
1 0 0 RC
10.0 ML
0.667 LW
N
0 -4 M
0 4 L
-4 0 M
4 0 L
-2.828 -2.828 M
2.828 2.828 L
-2.828 2.828 M
2.828 -2.828 L
S
GR
GS
[0.75 0 0 0.75 665.89934 56.00728] CT
1 0 0 RC
10.0 ML
0.667 LW
N
0 -4 M
0 4 L
-4 0 M
4 0 L
-2.828 -2.828 M
2.828 2.828 L
-2.828 2.828 M
2.828 -2.828 L
S
GR
GS
[0.75 0 0 0.75 669.75 125.29959] CT
1 0 0 RC
10.0 ML
0.667 LW
N
0 -4 M
0 4 L
-4 0 M
4 0 L
-2.828 -2.828 M
2.828 2.828 L
-2.828 2.828 M
2.828 -2.828 L
S
GR
GS
[0.75 0 0 0.75 0 -0.25] CT
0.302 0.745 0.933 RC
1 LJ
4 LW
N
128 168.5 M
133.134 169.271 L
138.268 171.58 L
143.403 175.409 L
148.537 180.731 L
153.671 187.51 L
158.805 195.695 L
163.94 205.23 L
169.074 216.047 L
174.208 228.068 L
179.342 241.208 L
184.477 255.374 L
189.611 270.464 L
194.745 286.373 L
199.879 302.986 L
205.013 320.186 L
210.148 337.85 L
215.282 355.853 L
220.416 374.067 L
225.55 392.362 L
230.685 410.608 L
235.819 428.676 L
240.953 446.436 L
246.087 463.764 L
251.221 480.535 L
256.356 496.631 L
261.49 511.936 L
266.624 526.343 L
271.758 539.749 L
276.893 552.058 L
282.027 563.183 L
287.161 573.045 L
292.295 581.574 L
297.43 588.709 L
302.564 594.399 L
307.698 598.605 L
312.832 601.295 L
317.966 602.452 L
323.101 602.066 L
328.235 600.141 L
333.369 596.69 L
338.503 591.737 L
343.638 585.319 L
348.772 577.48 L
353.906 568.277 L
359.04 557.774 L
364.174 546.046 L
369.309 533.177 L
374.443 519.259 L
379.577 504.389 L
384.711 488.675 L
389.846 472.227 L
394.98 455.162 L
400.114 437.602 L
405.248 419.672 L
410.383 401.499 L
415.517 383.212 L
420.651 364.942 L
425.785 346.817 L
430.919 328.968 L
436.054 311.521 L
441.188 294.599 L
446.322 278.323 L
451.456 262.81 L
456.591 248.169 L
461.725 234.503 L
466.859 221.912 L
471.993 210.483 L
477.128 200.298 L
482.262 191.43 L
487.396 183.941 L
492.53 177.885 L
497.664 173.306 L
502.799 170.234 L
507.933 168.693 L
513.067 168.693 L
518.201 170.234 L
523.336 173.306 L
528.47 177.885 L
533.604 183.941 L
538.738 191.43 L
543.872 200.298 L
549.007 210.483 L
554.141 221.912 L
559.275 234.503 L
564.409 248.169 L
569.544 262.81 L
574.678 278.323 L
579.812 294.599 L
584.946 311.521 L
590.081 328.968 L
595.215 346.817 L
600.349 364.942 L
605.483 383.212 L
610.617 401.499 L
615.752 419.672 L
620.886 437.602 L
626.02 455.162 L
631.154 472.227 L
636.289 488.675 L
641.423 504.389 L
646.557 519.259 L
651.691 533.177 L
656.826 546.046 L
661.96 557.774 L
667.094 568.277 L
672.228 577.48 L
677.362 585.319 L
682.497 591.737 L
687.631 596.69 L
692.765 600.141 L
697.899 602.066 L
703.034 602.452 L
708.168 601.295 L
713.302 598.605 L
718.436 594.399 L
723.57 588.709 L
728.705 581.574 L
733.839 573.045 L
738.973 563.183 L
744.107 552.058 L
749.242 539.749 L
754.376 526.343 L
759.51 511.936 L
764.644 496.631 L
769.779 480.535 L
774.913 463.764 L
780.047 446.436 L
785.181 428.676 L
790.315 410.608 L
795.45 392.362 L
800.584 374.067 L
805.718 355.853 L
810.852 337.85 L
815.987 320.186 L
821.121 302.986 L
826.255 286.373 L
831.389 270.464 L
836.523 255.374 L
841.658 241.208 L
846.792 228.068 L
851.926 216.047 L
857.06 205.23 L
862.195 195.695 L
867.329 187.51 L
872.463 180.731 L
877.597 175.409 L
882.732 171.58 L
887.866 169.271 L
893 168.5 L
S
GR
GS
[0.75 0 0 0.75 0 -0.25] CT
1 GC
N
226 266 M
226 63 L
420 63 L
420 266 L
cp
f
GR
GS
[0.75 0 0 0.75 197.25 59] CT
/Helvetica 21.6 F
GS
[1 0 0 1 0 0] CT
0 9 moveto 
1 -1 scale
(Approximation1) t 
GR
GR
GS
[0.75 0 0 0.75 0 -0.25] CT
0 0.447 0.741 RC
1 LJ
4 LW
N
230 79 M
260 79 L
S
GR
GS
[0.75 0 0 0.75 197.25 80.375] CT
/Helvetica 21.6 F
GS
[1 0 0 1 0 0] CT
0 9 moveto 
1 -1 scale
(Approximation2) t 
GR
GR
GS
[0.75 0 0 0.75 0 -0.25] CT
0.851 0.325 0.098 RC
1 LJ
4 LW
N
230 107.5 M
260 107.5 L
S
GR
GS
[0.75 0 0 0.75 197.25 101.75] CT
/Helvetica 21.6 F
GS
[1 0 0 1 0 0] CT
0 9 moveto 
1 -1 scale
(Approximation3) t 
GR
GR
GS
[0.75 0 0 0.75 0 -0.25] CT
0.929 0.694 0.125 RC
1 LJ
4 LW
N
230 136 M
260 136 L
S
GR
GS
[0.75 0 0 0.75 197.25 123.125] CT
/Helvetica 21.6 F
GS
[1 0 0 1 0 0] CT
0 9 moveto 
1 -1 scale
(Approximation4) t 
GR
GR
GS
[0.75 0 0 0.75 0 -0.25] CT
0.494 0.184 0.557 RC
1 LJ
4 LW
N
230 164.5 M
260 164.5 L
S
GR
GS
[0.75 0 0 0.75 197.25 144.5] CT
/Helvetica 21.6 F
GS
[1 0 0 1 0 0] CT
0 9 moveto 
1 -1 scale
(Approximation5) t 
GR
GR
GS
[0.75 0 0 0.75 0 -0.25] CT
0.467 0.675 0.188 RC
1 LJ
4 LW
N
230 193 M
260 193 L
S
GR
GS
[0.75 0 0 0.75 197.25 165.875] CT
/Helvetica 21.6 F
GS
[1 0 0 1 0 0] CT
0 9 moveto 
1 -1 scale
(Training set) t 
GR
GR
GS
[0.75 0 0 0.75 183.75 165.875] CT
1 0 0 RC
10.0 ML
0.667 LW
N
0 -4 M
0 4 L
-4 0 M
4 0 L
-2.828 -2.828 M
2.828 2.828 L
-2.828 2.828 M
2.828 -2.828 L
S
GR
GS
[0.75 0 0 0.75 197.25 187.25] CT
/Helvetica 21.6 F
GS
[1 0 0 1 0 0] CT
0 9 moveto 
1 -1 scale
(True function) t 
GR
GR
GS
[0.75 0 0 0.75 0 -0.25] CT
0.302 0.745 0.933 RC
1 LJ
4 LW
N
230 250 M
260 250 L
S
GR
GS
[0.75 0 0 0.75 0 -0.25] CT
0.149 GC
10.0 ML
0.667 LW
N
226 266 M
226 63 L
420 63 L
420 266 L
cp
S
GR
%%Trailer
%%Pages: 1
%%EOF
