%!PS-Adobe-3.0 EPSF-3.0
%%Creator: (MATLAB, The Mathworks, Inc. Version 9.1.0.441655 \(R2016b\). Operating System: Windows 8)
%%Title: (C:/Users/Eigenaar/WIT/Data Mining/data-mining/Session 1/plots/convergenceperformance.eps)
%%CreationDate: 2017-11-10T23:02:36
%%Pages: (atend)
%%BoundingBox: 0 0 713 619
%%LanguageLevel: 3
%%EndComments
%%BeginProlog
%%BeginResource: procset (Apache XML Graphics Std ProcSet) 1.2 0
%%Version: 1.2 0
%%Copyright: (Copyright 2001-2003,2010 The Apache Software Foundation. License terms: http://www.apache.org/licenses/LICENSE-2.0)
/bd{bind def}bind def
/ld{load def}bd
/GR/grestore ld
/M/moveto ld
/LJ/setlinejoin ld
/C/curveto ld
/f/fill ld
/LW/setlinewidth ld
/GC/setgray ld
/t/show ld
/N/newpath ld
/CT/concat ld
/cp/closepath ld
/S/stroke ld
/L/lineto ld
/CC/setcmykcolor ld
/A/ashow ld
/GS/gsave ld
/RC/setrgbcolor ld
/RM/rmoveto ld
/ML/setmiterlimit ld
/re {4 2 roll M
1 index 0 rlineto
0 exch rlineto
neg 0 rlineto
cp } bd
/_ctm matrix def
/_tm matrix def
/BT { _ctm currentmatrix pop matrix _tm copy pop 0 0 moveto } bd
/ET { _ctm setmatrix } bd
/iTm { _ctm setmatrix _tm concat } bd
/Tm { _tm astore pop iTm 0 0 moveto } bd
/ux 0.0 def
/uy 0.0 def
/F {
  /Tp exch def
  /Tf exch def
  Tf findfont Tp scalefont setfont
  /cf Tf def  /cs Tp def
} bd
/ULS {currentpoint /uy exch def /ux exch def} bd
/ULE {
  /Tcx currentpoint pop def
  gsave
  newpath
  cf findfont cs scalefont dup
  /FontMatrix get 0 get /Ts exch def /FontInfo get dup
  /UnderlinePosition get Ts mul /To exch def
  /UnderlineThickness get Ts mul /Tt exch def
  ux uy To add moveto  Tcx uy To add lineto
  Tt setlinewidth stroke
  grestore
} bd
/OLE {
  /Tcx currentpoint pop def
  gsave
  newpath
  cf findfont cs scalefont dup
  /FontMatrix get 0 get /Ts exch def /FontInfo get dup
  /UnderlinePosition get Ts mul /To exch def
  /UnderlineThickness get Ts mul /Tt exch def
  ux uy To add cs add moveto Tcx uy To add cs add lineto
  Tt setlinewidth stroke
  grestore
} bd
/SOE {
  /Tcx currentpoint pop def
  gsave
  newpath
  cf findfont cs scalefont dup
  /FontMatrix get 0 get /Ts exch def /FontInfo get dup
  /UnderlinePosition get Ts mul /To exch def
  /UnderlineThickness get Ts mul /Tt exch def
  ux uy To add cs 10 mul 26 idiv add moveto Tcx uy To add cs 10 mul 26 idiv add lineto
  Tt setlinewidth stroke
  grestore
} bd
/QT {
/Y22 exch store
/X22 exch store
/Y21 exch store
/X21 exch store
currentpoint
/Y21 load 2 mul add 3 div exch
/X21 load 2 mul add 3 div exch
/X21 load 2 mul /X22 load add 3 div
/Y21 load 2 mul /Y22 load add 3 div
/X22 load /Y22 load curveto
} bd
/SSPD {
dup length /d exch dict def
{
/v exch def
/k exch def
currentpagedevice k known {
/cpdv currentpagedevice k get def
v cpdv ne {
/upd false def
/nullv v type /nulltype eq def
/nullcpdv cpdv type /nulltype eq def
nullv nullcpdv or
{
/upd true def
} {
/sametype v type cpdv type eq def
sametype {
v type /arraytype eq {
/vlen v length def
/cpdvlen cpdv length def
vlen cpdvlen eq {
0 1 vlen 1 sub {
/i exch def
/obj v i get def
/cpdobj cpdv i get def
obj cpdobj ne {
/upd true def
exit
} if
} for
} {
/upd true def
} ifelse
} {
v type /dicttype eq {
v {
/dv exch def
/dk exch def
/cpddv cpdv dk get def
dv cpddv ne {
/upd true def
exit
} if
} forall
} {
/upd true def
} ifelse
} ifelse
} if
} ifelse
upd true eq {
d k v put
} if
} if
} if
} forall
d length 0 gt {
d setpagedevice
} if
} bd
/RE { % /NewFontName [NewEncodingArray] /FontName RE -
  findfont dup length dict begin
  {
    1 index /FID ne
    {def} {pop pop} ifelse
  } forall
  /Encoding exch def
  /FontName 1 index def
  currentdict definefont pop
  end
} bind def
%%EndResource
%%BeginResource: procset (Apache XML Graphics EPS ProcSet) 1.0 0
%%Version: 1.0 0
%%Copyright: (Copyright 2002-2003 The Apache Software Foundation. License terms: http://www.apache.org/licenses/LICENSE-2.0)
/BeginEPSF { %def
/b4_Inc_state save def         % Save state for cleanup
/dict_count countdictstack def % Count objects on dict stack
/op_count count 1 sub def      % Count objects on operand stack
userdict begin                 % Push userdict on dict stack
/showpage { } def              % Redefine showpage, { } = null proc
0 setgray 0 setlinecap         % Prepare graphics state
1 setlinewidth 0 setlinejoin
10 setmiterlimit [ ] 0 setdash newpath
/languagelevel where           % If level not equal to 1 then
{pop languagelevel             % set strokeadjust and
1 ne                           % overprint to their defaults.
{false setstrokeadjust false setoverprint
} if
} if
} bd
/EndEPSF { %def
count op_count sub {pop} repeat            % Clean up stacks
countdictstack dict_count sub {end} repeat
b4_Inc_state restore
} bd
%%EndResource
%FOPBeginFontDict
%%IncludeResource: font Courier-Bold
%%IncludeResource: font Helvetica
%%IncludeResource: font Courier-BoldOblique
%%IncludeResource: font Courier-Oblique
%%IncludeResource: font Times-Roman
%%IncludeResource: font Helvetica-BoldOblique
%%IncludeResource: font Helvetica-Bold
%%IncludeResource: font Helvetica-Oblique
%%IncludeResource: font Times-BoldItalic
%%IncludeResource: font Courier
%%IncludeResource: font Times-Italic
%%IncludeResource: font Times-Bold
%%IncludeResource: font Symbol
%%IncludeResource: font ZapfDingbats
%FOPEndFontDict
%%BeginResource: encoding WinAnsiEncoding
/WinAnsiEncoding [
/.notdef /.notdef /.notdef /.notdef /.notdef
/.notdef /.notdef /.notdef /.notdef /.notdef
/.notdef /.notdef /.notdef /.notdef /.notdef
/.notdef /.notdef /.notdef /.notdef /.notdef
/.notdef /.notdef /.notdef /.notdef /.notdef
/.notdef /.notdef /.notdef /.notdef /.notdef
/.notdef /.notdef /space /exclam /quotedbl
/numbersign /dollar /percent /ampersand /quotesingle
/parenleft /parenright /asterisk /plus /comma
/hyphen /period /slash /zero /one
/two /three /four /five /six
/seven /eight /nine /colon /semicolon
/less /equal /greater /question /at
/A /B /C /D /E
/F /G /H /I /J
/K /L /M /N /O
/P /Q /R /S /T
/U /V /W /X /Y
/Z /bracketleft /backslash /bracketright /asciicircum
/underscore /quoteleft /a /b /c
/d /e /f /g /h
/i /j /k /l /m
/n /o /p /q /r
/s /t /u /v /w
/x /y /z /braceleft /bar
/braceright /asciitilde /bullet /Euro /bullet
/quotesinglbase /florin /quotedblbase /ellipsis /dagger
/daggerdbl /circumflex /perthousand /Scaron /guilsinglleft
/OE /bullet /Zcaron /bullet /bullet
/quoteleft /quoteright /quotedblleft /quotedblright /bullet
/endash /emdash /asciitilde /trademark /scaron
/guilsinglright /oe /bullet /zcaron /Ydieresis
/space /exclamdown /cent /sterling /currency
/yen /brokenbar /section /dieresis /copyright
/ordfeminine /guillemotleft /logicalnot /sfthyphen /registered
/macron /degree /plusminus /twosuperior /threesuperior
/acute /mu /paragraph /middot /cedilla
/onesuperior /ordmasculine /guillemotright /onequarter /onehalf
/threequarters /questiondown /Agrave /Aacute /Acircumflex
/Atilde /Adieresis /Aring /AE /Ccedilla
/Egrave /Eacute /Ecircumflex /Edieresis /Igrave
/Iacute /Icircumflex /Idieresis /Eth /Ntilde
/Ograve /Oacute /Ocircumflex /Otilde /Odieresis
/multiply /Oslash /Ugrave /Uacute /Ucircumflex
/Udieresis /Yacute /Thorn /germandbls /agrave
/aacute /acircumflex /atilde /adieresis /aring
/ae /ccedilla /egrave /eacute /ecircumflex
/edieresis /igrave /iacute /icircumflex /idieresis
/eth /ntilde /ograve /oacute /ocircumflex
/otilde /odieresis /divide /oslash /ugrave
/uacute /ucircumflex /udieresis /yacute /thorn
/ydieresis
] def
%%EndResource
%FOPBeginFontReencode
/Courier-Bold findfont
dup length dict begin
  {1 index /FID ne {def} {pop pop} ifelse} forall
  /Encoding WinAnsiEncoding def
  currentdict
end
/Courier-Bold exch definefont pop
/Helvetica findfont
dup length dict begin
  {1 index /FID ne {def} {pop pop} ifelse} forall
  /Encoding WinAnsiEncoding def
  currentdict
end
/Helvetica exch definefont pop
/Courier-BoldOblique findfont
dup length dict begin
  {1 index /FID ne {def} {pop pop} ifelse} forall
  /Encoding WinAnsiEncoding def
  currentdict
end
/Courier-BoldOblique exch definefont pop
/Courier-Oblique findfont
dup length dict begin
  {1 index /FID ne {def} {pop pop} ifelse} forall
  /Encoding WinAnsiEncoding def
  currentdict
end
/Courier-Oblique exch definefont pop
/Times-Roman findfont
dup length dict begin
  {1 index /FID ne {def} {pop pop} ifelse} forall
  /Encoding WinAnsiEncoding def
  currentdict
end
/Times-Roman exch definefont pop
/Helvetica-BoldOblique findfont
dup length dict begin
  {1 index /FID ne {def} {pop pop} ifelse} forall
  /Encoding WinAnsiEncoding def
  currentdict
end
/Helvetica-BoldOblique exch definefont pop
/Helvetica-Bold findfont
dup length dict begin
  {1 index /FID ne {def} {pop pop} ifelse} forall
  /Encoding WinAnsiEncoding def
  currentdict
end
/Helvetica-Bold exch definefont pop
/Helvetica-Oblique findfont
dup length dict begin
  {1 index /FID ne {def} {pop pop} ifelse} forall
  /Encoding WinAnsiEncoding def
  currentdict
end
/Helvetica-Oblique exch definefont pop
/Times-BoldItalic findfont
dup length dict begin
  {1 index /FID ne {def} {pop pop} ifelse} forall
  /Encoding WinAnsiEncoding def
  currentdict
end
/Times-BoldItalic exch definefont pop
/Courier findfont
dup length dict begin
  {1 index /FID ne {def} {pop pop} ifelse} forall
  /Encoding WinAnsiEncoding def
  currentdict
end
/Courier exch definefont pop
/Times-Italic findfont
dup length dict begin
  {1 index /FID ne {def} {pop pop} ifelse} forall
  /Encoding WinAnsiEncoding def
  currentdict
end
/Times-Italic exch definefont pop
/Times-Bold findfont
dup length dict begin
  {1 index /FID ne {def} {pop pop} ifelse} forall
  /Encoding WinAnsiEncoding def
  currentdict
end
/Times-Bold exch definefont pop
%FOPEndFontReencode
%%EndProlog
%%Page: 1 1
%%PageBoundingBox: 0 0 713 619
%%BeginPageSetup
[1 0 0 -1 0 619] CT
%%EndPageSetup
GS
[0.75 0 0 0.75 0 0.25] CT
N
0 0 M
950 0 L
950 825 L
0 825 L
0 0 L
cp
clip
1 GC
N
0 0 950 825 re
f
GR
GS
[0.75 0 0 0.75 0 0.25] CT
1 GC
N
0 0 950 825 re
f
GR
GS
[0.75 0 0 0.75 0 0.25] CT
1 GC
N
124 734 M
860 734 L
860 62 L
124 62 L
cp
f
GR
GS
[0.75 0 0 0.75 0 0.25] CT
0.149 GC
2 setlinecap
1 LJ
0.667 LW
N
124 734 M
860 734 L
S
GR
GS
[0.75 0 0 0.75 0 0.25] CT
0.149 GC
2 setlinecap
1 LJ
0.667 LW
N
124 734 M
124 726.64 L
S
GR
GS
[0.75 0 0 0.75 0 0.25] CT
0.149 GC
2 setlinecap
1 LJ
0.667 LW
N
213.756 734 M
213.756 726.64 L
S
GR
GS
[0.75 0 0 0.75 0 0.25] CT
0.149 GC
2 setlinecap
1 LJ
0.667 LW
N
303.512 734 M
303.512 726.64 L
S
GR
GS
[0.75 0 0 0.75 0 0.25] CT
0.149 GC
2 setlinecap
1 LJ
0.667 LW
N
393.268 734 M
393.268 726.64 L
S
GR
GS
[0.75 0 0 0.75 0 0.25] CT
0.149 GC
2 setlinecap
1 LJ
0.667 LW
N
483.024 734 M
483.024 726.64 L
S
GR
GS
[0.75 0 0 0.75 0 0.25] CT
0.149 GC
2 setlinecap
1 LJ
0.667 LW
N
572.781 734 M
572.781 726.64 L
S
GR
GS
[0.75 0 0 0.75 0 0.25] CT
0.149 GC
2 setlinecap
1 LJ
0.667 LW
N
662.537 734 M
662.537 726.64 L
S
GR
GS
[0.75 0 0 0.75 0 0.25] CT
0.149 GC
2 setlinecap
1 LJ
0.667 LW
N
752.293 734 M
752.293 726.64 L
S
GR
GS
[0.75 0 0 0.75 0 0.25] CT
0.149 GC
2 setlinecap
1 LJ
0.667 LW
N
842.049 734 M
842.049 726.64 L
S
GR
GS
[0.75 0 0 0.75 93 556.35001] CT
0.149 GC
/Helvetica 24 F
GS
[1 0 0 1 0 0] CT
-7 25 moveto 
1 -1 scale
(0) t 
GR
GR
GS
[0.75 0 0 0.75 160.31708 556.35001] CT
0.149 GC
/Helvetica 24 F
GS
[1 0 0 1 0 0] CT
-13.5 25 moveto 
1 -1 scale
(20) t 
GR
GR
GS
[0.75 0 0 0.75 227.63416 556.35001] CT
0.149 GC
/Helvetica 24 F
GS
[1 0 0 1 0 0] CT
-13.5 25 moveto 
1 -1 scale
(40) t 
GR
GR
GS
[0.75 0 0 0.75 294.95123 556.35001] CT
0.149 GC
/Helvetica 24 F
GS
[1 0 0 1 0 0] CT
-13.5 25 moveto 
1 -1 scale
(60) t 
GR
GR
GS
[0.75 0 0 0.75 362.26831 556.35001] CT
0.149 GC
/Helvetica 24 F
GS
[1 0 0 1 0 0] CT
-13.5 25 moveto 
1 -1 scale
(80) t 
GR
GR
GS
[0.75 0 0 0.75 429.58539 556.35001] CT
0.149 GC
/Helvetica 24 F
GS
[1 0 0 1 0 0] CT
-20.5 25 moveto 
1 -1 scale
(100) t 
GR
GR
GS
[0.75 0 0 0.75 496.90247 556.35001] CT
0.149 GC
/Helvetica 24 F
GS
[1 0 0 1 0 0] CT
-20.5 25 moveto 
1 -1 scale
(120) t 
GR
GR
GS
[0.75 0 0 0.75 564.21954 556.35001] CT
0.149 GC
/Helvetica 24 F
GS
[1 0 0 1 0 0] CT
-20.5 25 moveto 
1 -1 scale
(140) t 
GR
GR
GS
[0.75 0 0 0.75 631.53662 556.35001] CT
0.149 GC
/Helvetica 24 F
GS
[1 0 0 1 0 0] CT
-20.5 25 moveto 
1 -1 scale
(160) t 
GR
GR
GS
[0.75 0 0 0.75 369.00027 580.59999] CT
0.149 GC
/Helvetica 26.4 F
GS
[1 0 0 1 0 0] CT
-69 27 moveto 
1 -1 scale
(164 Epochs) t 
GR
GR
GS
[0.75 0 0 0.75 0 0.25] CT
0.149 GC
2 setlinecap
1 LJ
0.667 LW
N
124 734 M
124 62 L
S
GR
GS
[0.75 0 0 0.75 0 0.25] CT
0.149 GC
2 setlinecap
1 LJ
0.667 LW
N
124 724.04 M
131.36 724.04 L
S
GR
GS
[0.75 0 0 0.75 0 0.25] CT
0.149 GC
2 setlinecap
1 LJ
0.667 LW
N
124 506.363 M
131.36 506.363 L
S
GR
GS
[0.75 0 0 0.75 0 0.25] CT
0.149 GC
2 setlinecap
1 LJ
0.667 LW
N
124 288.687 M
131.36 288.687 L
S
GR
GS
[0.75 0 0 0.75 0 0.25] CT
0.149 GC
2 setlinecap
1 LJ
0.667 LW
N
124 71.01 M
131.36 71.01 L
S
GR
GS
[0.75 0 0 0.75 0 0.25] CT
0.149 GC
2 setlinecap
1 LJ
0.667 LW
N
124 734 M
127.68 734 L
S
GR
GS
[0.75 0 0 0.75 0 0.25] CT
0.149 GC
2 setlinecap
1 LJ
0.667 LW
N
124 724.04 M
127.68 724.04 L
S
GR
GS
[0.75 0 0 0.75 0 0.25] CT
0.149 GC
2 setlinecap
1 LJ
0.667 LW
N
124 658.513 M
127.68 658.513 L
S
GR
GS
[0.75 0 0 0.75 0 0.25] CT
0.149 GC
2 setlinecap
1 LJ
0.667 LW
N
124 620.182 M
127.68 620.182 L
S
GR
GS
[0.75 0 0 0.75 0 0.25] CT
0.149 GC
2 setlinecap
1 LJ
0.667 LW
N
124 592.985 M
127.68 592.985 L
S
GR
GS
[0.75 0 0 0.75 0 0.25] CT
0.149 GC
2 setlinecap
1 LJ
0.667 LW
N
124 571.89 M
127.68 571.89 L
S
GR
GS
[0.75 0 0 0.75 0 0.25] CT
0.149 GC
2 setlinecap
1 LJ
0.667 LW
N
124 554.654 M
127.68 554.654 L
S
GR
GS
[0.75 0 0 0.75 0 0.25] CT
0.149 GC
2 setlinecap
1 LJ
0.667 LW
N
124 540.082 M
127.68 540.082 L
S
GR
GS
[0.75 0 0 0.75 0 0.25] CT
0.149 GC
2 setlinecap
1 LJ
0.667 LW
N
124 527.458 M
127.68 527.458 L
S
GR
GS
[0.75 0 0 0.75 0 0.25] CT
0.149 GC
2 setlinecap
1 LJ
0.667 LW
N
124 516.323 M
127.68 516.323 L
S
GR
GS
[0.75 0 0 0.75 0 0.25] CT
0.149 GC
2 setlinecap
1 LJ
0.667 LW
N
124 506.363 M
127.68 506.363 L
S
GR
GS
[0.75 0 0 0.75 0 0.25] CT
0.149 GC
2 setlinecap
1 LJ
0.667 LW
N
124 440.836 M
127.68 440.836 L
S
GR
GS
[0.75 0 0 0.75 0 0.25] CT
0.149 GC
2 setlinecap
1 LJ
0.667 LW
N
124 402.505 M
127.68 402.505 L
S
GR
GS
[0.75 0 0 0.75 0 0.25] CT
0.149 GC
2 setlinecap
1 LJ
0.667 LW
N
124 375.309 M
127.68 375.309 L
S
GR
GS
[0.75 0 0 0.75 0 0.25] CT
0.149 GC
2 setlinecap
1 LJ
0.667 LW
N
124 354.214 M
127.68 354.214 L
S
GR
GS
[0.75 0 0 0.75 0 0.25] CT
0.149 GC
2 setlinecap
1 LJ
0.667 LW
N
124 336.978 M
127.68 336.978 L
S
GR
GS
[0.75 0 0 0.75 0 0.25] CT
0.149 GC
2 setlinecap
1 LJ
0.667 LW
N
124 322.405 M
127.68 322.405 L
S
GR
GS
[0.75 0 0 0.75 0 0.25] CT
0.149 GC
2 setlinecap
1 LJ
0.667 LW
N
124 309.782 M
127.68 309.782 L
S
GR
GS
[0.75 0 0 0.75 0 0.25] CT
0.149 GC
2 setlinecap
1 LJ
0.667 LW
N
124 298.647 M
127.68 298.647 L
S
GR
GS
[0.75 0 0 0.75 0 0.25] CT
0.149 GC
2 setlinecap
1 LJ
0.667 LW
N
124 288.687 M
127.68 288.687 L
S
GR
GS
[0.75 0 0 0.75 0 0.25] CT
0.149 GC
2 setlinecap
1 LJ
0.667 LW
N
124 223.16 M
127.68 223.16 L
S
GR
GS
[0.75 0 0 0.75 0 0.25] CT
0.149 GC
2 setlinecap
1 LJ
0.667 LW
N
124 184.829 M
127.68 184.829 L
S
GR
GS
[0.75 0 0 0.75 0 0.25] CT
0.149 GC
2 setlinecap
1 LJ
0.667 LW
N
124 157.632 M
127.68 157.632 L
S
GR
GS
[0.75 0 0 0.75 0 0.25] CT
0.149 GC
2 setlinecap
1 LJ
0.667 LW
N
124 136.537 M
127.68 136.537 L
S
GR
GS
[0.75 0 0 0.75 0 0.25] CT
0.149 GC
2 setlinecap
1 LJ
0.667 LW
N
124 119.301 M
127.68 119.301 L
S
GR
GS
[0.75 0 0 0.75 0 0.25] CT
0.149 GC
2 setlinecap
1 LJ
0.667 LW
N
124 104.729 M
127.68 104.729 L
S
GR
GS
[0.75 0 0 0.75 0 0.25] CT
0.149 GC
2 setlinecap
1 LJ
0.667 LW
N
124 92.105 M
127.68 92.105 L
S
GR
GS
[0.75 0 0 0.75 0 0.25] CT
0.149 GC
2 setlinecap
1 LJ
0.667 LW
N
124 80.971 M
127.68 80.971 L
S
GR
GS
[0.75 0 0 0.75 0 0.25] CT
0.149 GC
2 setlinecap
1 LJ
0.667 LW
N
124 71.01 M
127.68 71.01 L
S
GR
GS
[0.75 0 0 0.75 54.75 553] CT
0.149 GC
/Helvetica 24 F
GS
[1 0 0 1 0 0] CT
0 0 moveto 
1 -1 scale
(10) t 
GR
GR
GS
[0.75 0 0 0.75 75 544] CT
0.149 GC
/Helvetica 19.2 F
GS
[1 0 0 1 0 0] CT
0 0 moveto 
1 -1 scale
(-2) t 
GR
GR
GS
[0.75 0 0 0.75 54.75 389.5] CT
0.149 GC
/Helvetica 24 F
GS
[1 0 0 1 0 0] CT
0 0 moveto 
1 -1 scale
(10) t 
GR
GR
GS
[0.75 0 0 0.75 75 380.5] CT
0.149 GC
/Helvetica 19.2 F
GS
[1 0 0 1 0 0] CT
0 0 moveto 
1 -1 scale
(-1) t 
GR
GR
GS
[0.75 0 0 0.75 59.25 226.75] CT
0.149 GC
/Helvetica 24 F
GS
[1 0 0 1 0 0] CT
0 0 moveto 
1 -1 scale
(10) t 
GR
GR
GS
[0.75 0 0 0.75 79.5 217.75] CT
0.149 GC
/Helvetica 19.2 F
GS
[1 0 0 1 0 0] CT
0 0 moveto 
1 -1 scale
(0) t 
GR
GR
GS
[0.75 0 0 0.75 59.25 63.25] CT
0.149 GC
/Helvetica 24 F
GS
[1 0 0 1 0 0] CT
0 0 moveto 
1 -1 scale
(10) t 
GR
GR
GS
[0.75 0 0 0.75 79.5 54.25] CT
0.149 GC
/Helvetica 19.2 F
GS
[1 0 0 1 0 0] CT
0 0 moveto 
1 -1 scale
(1) t 
GR
GR
GS
[0 -0.75 0.75 0 51.4 298.74977] CT
0.149 GC
/Helvetica 26.4 F
GS
[1 0 0 1 0 0] CT
-158.5 -6 moveto 
1 -1 scale
(Mean Squared Error  \(mse\)) t 
GR
GR
GS
[0.75 0 0 0.75 369.00037 43.03751] CT
/Helvetica-Bold 26.4 F
GS
[1 0 0 1 0 0] CT
-321 -6 moveto 
1 -1 scale
(Best Training Performance is 0.042214 at epoch 164) t 
GR
GR
GS
[0.75 0 0 0.75 0 0.25] CT
0 0 1 RC
1 LJ
2.667 LW
N
124 245.571 M
128.488 288.217 L
132.976 320.822 L
137.463 372.694 L
141.951 383.766 L
146.439 400.377 L
150.927 439.566 L
155.415 451.745 L
159.902 493.78 L
164.39 510.692 L
168.878 527.873 L
173.366 553.235 L
177.854 566.107 L
182.341 574.19 L
186.829 577.536 L
191.317 581.863 L
195.805 583.15 L
200.293 583.638 L
204.78 583.905 L
209.268 583.953 L
213.756 584.062 L
218.244 584.11 L
222.732 584.231 L
227.22 584.36 L
231.707 584.502 L
236.195 584.693 L
240.683 584.717 L
245.171 584.734 L
249.659 584.744 L
254.146 584.777 L
258.634 584.808 L
263.122 584.812 L
267.61 584.816 L
272.098 585.07 L
276.585 585.668 L
281.073 586.266 L
285.561 586.323 L
290.049 586.336 L
294.537 586.338 L
299.024 586.339 L
303.512 586.339 L
308 586.342 L
312.488 586.412 L
316.976 586.669 L
321.463 586.806 L
325.951 586.904 L
330.439 586.954 L
334.927 586.971 L
339.415 586.989 L
343.902 586.997 L
348.39 586.998 L
352.878 586.999 L
357.366 586.999 L
361.854 586.999 L
366.341 586.999 L
370.829 586.999 L
375.317 586.999 L
379.805 586.999 L
384.293 586.999 L
388.78 587 L
393.268 587.003 L
397.756 587.028 L
402.244 587.037 L
406.732 587.039 L
411.22 587.039 L
415.707 587.039 L
420.195 587.039 L
424.683 587.039 L
429.171 587.039 L
433.659 587.039 L
438.146 587.04 L
442.634 587.074 L
447.122 587.094 L
451.61 587.115 L
456.098 587.128 L
460.585 587.138 L
465.073 587.151 L
469.561 587.16 L
474.049 587.163 L
478.537 587.187 L
483.024 587.204 L
487.512 587.205 L
492 587.209 L
496.488 587.215 L
500.976 587.223 L
505.463 587.225 L
509.951 587.229 L
514.439 587.23 L
518.927 587.23 L
523.415 587.23 L
527.902 587.23 L
532.39 587.23 L
536.878 587.23 L
541.366 587.231 L
545.854 587.235 L
550.341 587.247 L
554.829 587.26 L
559.317 587.279 L
563.805 587.281 L
568.293 587.293 L
572.781 587.298 L
577.268 587.301 L
581.756 587.306 L
586.244 587.308 L
590.732 587.31 L
595.219 587.311 L
599.707 587.312 L
604.195 587.313 L
608.683 587.313 L
613.171 587.313 L
617.659 587.313 L
622.146 587.313 L
626.634 587.313 L
631.122 587.313 L
635.61 587.313 L
640.098 587.313 L
644.585 587.313 L
649.073 587.313 L
653.561 587.313 L
658.049 587.313 L
662.537 587.313 L
667.024 587.317 L
671.512 587.32 L
676 587.326 L
680.488 587.328 L
684.976 587.329 L
689.463 587.329 L
693.951 587.332 L
698.439 587.333 L
702.927 587.339 L
707.415 587.343 L
711.902 587.362 L
716.39 587.372 L
720.878 587.503 L
725.366 587.652 L
729.854 587.803 L
734.341 587.844 L
738.829 587.866 L
743.317 587.88 L
747.805 587.886 L
752.293 587.887 L
756.781 587.89 L
761.268 587.891 L
765.756 587.891 L
770.244 587.892 L
774.732 587.892 L
779.219 587.892 L
783.707 587.892 L
788.195 587.893 L
792.683 587.893 L
797.171 587.893 L
801.659 587.893 L
806.146 587.893 L
810.634 587.893 L
815.122 587.893 L
819.61 587.893 L
824.098 587.893 L
828.585 587.893 L
833.073 587.893 L
837.561 587.893 L
842.049 587.893 L
846.537 587.893 L
851.024 587.893 L
855.512 587.893 L
860 587.893 L
S
GR
GS
[0.75 0 0 0.75 0 0.25] CT
1 0 0 RC
1 LJ
2.667 LW
N
124 244.854 M
128.488 285.47 L
132.976 317.106 L
137.463 370.324 L
141.951 376.746 L
146.439 391.025 L
150.927 424.9 L
155.415 459.241 L
159.902 479.564 L
164.39 497.364 L
168.878 524.601 L
173.366 536.444 L
177.854 557.585 L
182.341 557.744 L
186.829 563.394 L
191.317 562.76 L
195.805 562.341 L
200.293 562.315 L
204.78 559.761 L
209.268 561.824 L
213.756 559.99 L
218.244 561.901 L
222.732 560.323 L
227.22 561.464 L
231.707 562.48 L
236.195 561.995 L
240.683 562.025 L
245.171 562.13 L
249.659 562.231 L
254.146 562.035 L
258.634 561.962 L
263.122 561.9 L
267.61 561.797 L
272.098 563.276 L
276.585 560.202 L
281.073 562.476 L
285.561 562.644 L
290.049 562.658 L
294.537 562.676 L
299.024 562.652 L
303.512 562.68 L
308 562.617 L
312.488 562.785 L
316.976 564.334 L
321.463 563.731 L
325.951 564.398 L
330.439 564.599 L
334.927 564.503 L
339.415 564.765 L
343.902 564.966 L
348.39 564.98 L
352.878 565.011 L
357.366 565.035 L
361.854 565.033 L
366.341 565.03 L
370.829 565.03 L
375.317 565.03 L
379.805 565.036 L
384.293 565.029 L
388.78 565.092 L
393.268 565.03 L
397.756 565.497 L
402.244 565.461 L
406.732 565.612 L
411.22 565.582 L
415.707 565.584 L
420.195 565.591 L
424.683 565.597 L
429.171 565.608 L
433.659 565.586 L
438.146 565.674 L
442.634 565.444 L
447.122 565.166 L
451.61 565.342 L
456.098 565.607 L
460.585 565.651 L
465.073 565.743 L
469.561 565.833 L
474.049 565.534 L
478.537 565.651 L
483.024 565.663 L
487.512 565.528 L
492 565.458 L
496.488 565.504 L
500.976 565.518 L
505.463 565.282 L
509.951 565.389 L
514.439 565.368 L
518.927 565.35 L
523.415 565.316 L
527.902 565.354 L
532.39 565.335 L
536.878 565.323 L
541.366 565.37 L
545.854 565.476 L
550.341 565.531 L
554.829 565.484 L
559.317 565.678 L
563.805 565.899 L
568.293 565.758 L
572.781 565.763 L
577.268 565.889 L
581.756 565.783 L
586.244 565.852 L
590.732 565.878 L
595.219 565.818 L
599.707 565.811 L
604.195 565.839 L
608.683 565.809 L
613.171 565.819 L
617.659 565.822 L
622.146 565.824 L
626.634 565.822 L
631.122 565.824 L
635.61 565.822 L
640.098 565.824 L
644.585 565.82 L
649.073 565.826 L
653.561 565.817 L
658.049 565.831 L
662.537 565.81 L
667.024 565.767 L
671.512 565.695 L
676 565.692 L
680.488 565.793 L
684.976 565.761 L
689.463 565.642 L
693.951 565.706 L
698.439 565.821 L
702.927 565.606 L
707.415 565.766 L
711.902 565.572 L
716.39 565.313 L
720.878 565.782 L
725.366 565.702 L
729.854 565.474 L
734.341 565.457 L
738.829 565.305 L
743.317 565.512 L
747.805 565.504 L
752.293 565.593 L
756.781 565.523 L
761.268 565.547 L
765.756 565.51 L
770.244 565.534 L
774.732 565.508 L
779.219 565.528 L
783.707 565.51 L
788.195 565.524 L
792.683 565.51 L
797.171 565.523 L
801.659 565.515 L
806.146 565.526 L
810.634 565.528 L
815.122 565.53 L
819.61 565.53 L
824.098 565.53 L
828.585 565.531 L
833.073 565.53 L
837.561 565.531 L
842.049 565.531 L
846.537 565.531 L
851.024 565.531 L
855.512 565.531 L
860 565.531 L
S
GR
GS
[0.75 0 0 0.75 0 0.25] CT
0 0 0.6 RC
[1 3] 0 setdash
2 LJ
0.667 LW
N
860 734 M
860 62 L
S
GR
GS
[0.75 0 0 0.75 0 0.25] CT
0 0 0.6 RC
[1 3] 0 setdash
2 LJ
0.667 LW
N
124 587.893 M
860 587.893 L
S
GR
GS
[0.75 0 0 0.75 645 441.17012] CT
0 0 0.6 RC
10.0 ML
2 LW
N
10.167 -0.5 M
10.167 -6.391 5.391 -11.167 -0.5 -11.167 C
-6.391 -11.167 -11.167 -6.391 -11.167 -0.5 C
-11.167 5.391 -6.391 10.167 -0.5 10.167 C
5.391 10.167 10.167 5.391 10.167 -0.5 C
S
GR
GS
[0.75 0 0 0.75 0 0.25] CT
1 GC
N
755 164 M
755 75 L
847 75 L
847 164 L
cp
f
GR
GS
[0.75 0 0 0.75 594 68.5] CT
/Helvetica 21.6 F
GS
[1 0 0 1 0 0] CT
0 9 moveto 
1 -1 scale
(Train) t 
GR
GR
GS
[0.75 0 0 0.75 0 0.25] CT
0 0 1 RC
1 LJ
2.667 LW
N
759 91 M
789 91 L
S
GR
GS
[0.75 0 0 0.75 594 89.875] CT
/Helvetica 21.6 F
GS
[1 0 0 1 0 0] CT
0 9 moveto 
1 -1 scale
(Test) t 
GR
GR
GS
[0.75 0 0 0.75 0 0.25] CT
1 0 0 RC
1 LJ
2.667 LW
N
759 119.5 M
789 119.5 L
S
GR
GS
[0.75 0 0 0.75 594 111.25] CT
/Helvetica 21.6 F
GS
[1 0 0 1 0 0] CT
0 9 moveto 
1 -1 scale
(Best) t 
GR
GR
GS
[0.75 0 0 0.75 0 0.25] CT
0 0 0.6 RC
[1 3] 0 setdash
2 LJ
0.667 LW
N
759 148 M
789 148 L
S
GR
GS
[0.75 0 0 0.75 0 0.25] CT
0.149 GC
10.0 ML
0.667 LW
N
755 164 M
755 75 L
847 75 L
847 164 L
cp
S
GR
%%Trailer
%%Pages: 1
%%EOF
