%!PS-Adobe-3.0 EPSF-3.0
%%Creator: (MATLAB, The Mathworks, Inc. Version 9.3.0.713579 \(R2017b\). Operating System: Mac OS X)
%%Title: (/Users/hannesvdc/WIT/data-mining/Session 1/plots/d1h1.eps)
%%CreationDate: 2017-11-09T20:09:02
%%Pages: (atend)
%%BoundingBox: 0 0 500 400
%%LanguageLevel: 3
%%EndComments
%%BeginProlog
%%BeginResource: procset (Apache XML Graphics Std ProcSet) 1.2 0
%%Version: 1.2 0
%%Copyright: (Copyright 2001-2003,2010 The Apache Software Foundation. License terms: http://www.apache.org/licenses/LICENSE-2.0)
/bd{bind def}bind def
/ld{load def}bd
/GR/grestore ld
/GS/gsave ld
/RM/rmoveto ld
/C/curveto ld
/t/show ld
/L/lineto ld
/ML/setmiterlimit ld
/CT/concat ld
/f/fill ld
/N/newpath ld
/S/stroke ld
/CC/setcmykcolor ld
/A/ashow ld
/cp/closepath ld
/RC/setrgbcolor ld
/LJ/setlinejoin ld
/GC/setgray ld
/LW/setlinewidth ld
/M/moveto ld
/re {4 2 roll M
1 index 0 rlineto
0 exch rlineto
neg 0 rlineto
cp } bd
/_ctm matrix def
/_tm matrix def
/BT { _ctm currentmatrix pop matrix _tm copy pop 0 0 moveto } bd
/ET { _ctm setmatrix } bd
/iTm { _ctm setmatrix _tm concat } bd
/Tm { _tm astore pop iTm 0 0 moveto } bd
/ux 0.0 def
/uy 0.0 def
/F {
  /Tp exch def
  /Tf exch def
  Tf findfont Tp scalefont setfont
  /cf Tf def  /cs Tp def
} bd
/ULS {currentpoint /uy exch def /ux exch def} bd
/ULE {
  /Tcx currentpoint pop def
  gsave
  newpath
  cf findfont cs scalefont dup
  /FontMatrix get 0 get /Ts exch def /FontInfo get dup
  /UnderlinePosition get Ts mul /To exch def
  /UnderlineThickness get Ts mul /Tt exch def
  ux uy To add moveto  Tcx uy To add lineto
  Tt setlinewidth stroke
  grestore
} bd
/OLE {
  /Tcx currentpoint pop def
  gsave
  newpath
  cf findfont cs scalefont dup
  /FontMatrix get 0 get /Ts exch def /FontInfo get dup
  /UnderlinePosition get Ts mul /To exch def
  /UnderlineThickness get Ts mul /Tt exch def
  ux uy To add cs add moveto Tcx uy To add cs add lineto
  Tt setlinewidth stroke
  grestore
} bd
/SOE {
  /Tcx currentpoint pop def
  gsave
  newpath
  cf findfont cs scalefont dup
  /FontMatrix get 0 get /Ts exch def /FontInfo get dup
  /UnderlinePosition get Ts mul /To exch def
  /UnderlineThickness get Ts mul /Tt exch def
  ux uy To add cs 10 mul 26 idiv add moveto Tcx uy To add cs 10 mul 26 idiv add lineto
  Tt setlinewidth stroke
  grestore
} bd
/QT {
/Y22 exch store
/X22 exch store
/Y21 exch store
/X21 exch store
currentpoint
/Y21 load 2 mul add 3 div exch
/X21 load 2 mul add 3 div exch
/X21 load 2 mul /X22 load add 3 div
/Y21 load 2 mul /Y22 load add 3 div
/X22 load /Y22 load curveto
} bd
/SSPD {
dup length /d exch dict def
{
/v exch def
/k exch def
currentpagedevice k known {
/cpdv currentpagedevice k get def
v cpdv ne {
/upd false def
/nullv v type /nulltype eq def
/nullcpdv cpdv type /nulltype eq def
nullv nullcpdv or
{
/upd true def
} {
/sametype v type cpdv type eq def
sametype {
v type /arraytype eq {
/vlen v length def
/cpdvlen cpdv length def
vlen cpdvlen eq {
0 1 vlen 1 sub {
/i exch def
/obj v i get def
/cpdobj cpdv i get def
obj cpdobj ne {
/upd true def
exit
} if
} for
} {
/upd true def
} ifelse
} {
v type /dicttype eq {
v {
/dv exch def
/dk exch def
/cpddv cpdv dk get def
dv cpddv ne {
/upd true def
exit
} if
} forall
} {
/upd true def
} ifelse
} ifelse
} if
} ifelse
upd true eq {
d k v put
} if
} if
} if
} forall
d length 0 gt {
d setpagedevice
} if
} bd
/RE { % /NewFontName [NewEncodingArray] /FontName RE -
  findfont dup length dict begin
  {
    1 index /FID ne
    {def} {pop pop} ifelse
  } forall
  /Encoding exch def
  /FontName 1 index def
  currentdict definefont pop
  end
} bind def
%%EndResource
%%BeginResource: procset (Apache XML Graphics EPS ProcSet) 1.0 0
%%Version: 1.0 0
%%Copyright: (Copyright 2002-2003 The Apache Software Foundation. License terms: http://www.apache.org/licenses/LICENSE-2.0)
/BeginEPSF { %def
/b4_Inc_state save def         % Save state for cleanup
/dict_count countdictstack def % Count objects on dict stack
/op_count count 1 sub def      % Count objects on operand stack
userdict begin                 % Push userdict on dict stack
/showpage { } def              % Redefine showpage, { } = null proc
0 setgray 0 setlinecap         % Prepare graphics state
1 setlinewidth 0 setlinejoin
10 setmiterlimit [ ] 0 setdash newpath
/languagelevel where           % If level not equal to 1 then
{pop languagelevel             % set strokeadjust and
1 ne                           % overprint to their defaults.
{false setstrokeadjust false setoverprint
} if
} if
} bd
/EndEPSF { %def
count op_count sub {pop} repeat            % Clean up stacks
countdictstack dict_count sub {end} repeat
b4_Inc_state restore
} bd
%%EndResource
%FOPBeginFontDict
%%IncludeResource: font Courier-Oblique
%%IncludeResource: font Courier-BoldOblique
%%IncludeResource: font Courier-Bold
%%IncludeResource: font ZapfDingbats
%%IncludeResource: font Symbol
%%IncludeResource: font Helvetica
%%IncludeResource: font Helvetica-Oblique
%%IncludeResource: font Helvetica-Bold
%%IncludeResource: font Helvetica-BoldOblique
%%IncludeResource: font Times-Roman
%%IncludeResource: font Times-Italic
%%IncludeResource: font Times-Bold
%%IncludeResource: font Times-BoldItalic
%%IncludeResource: font Courier
%FOPEndFontDict
%%BeginResource: encoding WinAnsiEncoding
/WinAnsiEncoding [
/.notdef /.notdef /.notdef /.notdef /.notdef
/.notdef /.notdef /.notdef /.notdef /.notdef
/.notdef /.notdef /.notdef /.notdef /.notdef
/.notdef /.notdef /.notdef /.notdef /.notdef
/.notdef /.notdef /.notdef /.notdef /.notdef
/.notdef /.notdef /.notdef /.notdef /.notdef
/.notdef /.notdef /space /exclam /quotedbl
/numbersign /dollar /percent /ampersand /quotesingle
/parenleft /parenright /asterisk /plus /comma
/hyphen /period /slash /zero /one
/two /three /four /five /six
/seven /eight /nine /colon /semicolon
/less /equal /greater /question /at
/A /B /C /D /E
/F /G /H /I /J
/K /L /M /N /O
/P /Q /R /S /T
/U /V /W /X /Y
/Z /bracketleft /backslash /bracketright /asciicircum
/underscore /quoteleft /a /b /c
/d /e /f /g /h
/i /j /k /l /m
/n /o /p /q /r
/s /t /u /v /w
/x /y /z /braceleft /bar
/braceright /asciitilde /bullet /Euro /bullet
/quotesinglbase /florin /quotedblbase /ellipsis /dagger
/daggerdbl /circumflex /perthousand /Scaron /guilsinglleft
/OE /bullet /Zcaron /bullet /bullet
/quoteleft /quoteright /quotedblleft /quotedblright /bullet
/endash /emdash /asciitilde /trademark /scaron
/guilsinglright /oe /bullet /zcaron /Ydieresis
/space /exclamdown /cent /sterling /currency
/yen /brokenbar /section /dieresis /copyright
/ordfeminine /guillemotleft /logicalnot /sfthyphen /registered
/macron /degree /plusminus /twosuperior /threesuperior
/acute /mu /paragraph /middot /cedilla
/onesuperior /ordmasculine /guillemotright /onequarter /onehalf
/threequarters /questiondown /Agrave /Aacute /Acircumflex
/Atilde /Adieresis /Aring /AE /Ccedilla
/Egrave /Eacute /Ecircumflex /Edieresis /Igrave
/Iacute /Icircumflex /Idieresis /Eth /Ntilde
/Ograve /Oacute /Ocircumflex /Otilde /Odieresis
/multiply /Oslash /Ugrave /Uacute /Ucircumflex
/Udieresis /Yacute /Thorn /germandbls /agrave
/aacute /acircumflex /atilde /adieresis /aring
/ae /ccedilla /egrave /eacute /ecircumflex
/edieresis /igrave /iacute /icircumflex /idieresis
/eth /ntilde /ograve /oacute /ocircumflex
/otilde /odieresis /divide /oslash /ugrave
/uacute /ucircumflex /udieresis /yacute /thorn
/ydieresis
] def
%%EndResource
%FOPBeginFontReencode
/Courier-Oblique findfont
dup length dict begin
  {1 index /FID ne {def} {pop pop} ifelse} forall
  /Encoding WinAnsiEncoding def
  currentdict
end
/Courier-Oblique exch definefont pop
/Courier-BoldOblique findfont
dup length dict begin
  {1 index /FID ne {def} {pop pop} ifelse} forall
  /Encoding WinAnsiEncoding def
  currentdict
end
/Courier-BoldOblique exch definefont pop
/Courier-Bold findfont
dup length dict begin
  {1 index /FID ne {def} {pop pop} ifelse} forall
  /Encoding WinAnsiEncoding def
  currentdict
end
/Courier-Bold exch definefont pop
/Helvetica findfont
dup length dict begin
  {1 index /FID ne {def} {pop pop} ifelse} forall
  /Encoding WinAnsiEncoding def
  currentdict
end
/Helvetica exch definefont pop
/Helvetica-Oblique findfont
dup length dict begin
  {1 index /FID ne {def} {pop pop} ifelse} forall
  /Encoding WinAnsiEncoding def
  currentdict
end
/Helvetica-Oblique exch definefont pop
/Helvetica-Bold findfont
dup length dict begin
  {1 index /FID ne {def} {pop pop} ifelse} forall
  /Encoding WinAnsiEncoding def
  currentdict
end
/Helvetica-Bold exch definefont pop
/Helvetica-BoldOblique findfont
dup length dict begin
  {1 index /FID ne {def} {pop pop} ifelse} forall
  /Encoding WinAnsiEncoding def
  currentdict
end
/Helvetica-BoldOblique exch definefont pop
/Times-Roman findfont
dup length dict begin
  {1 index /FID ne {def} {pop pop} ifelse} forall
  /Encoding WinAnsiEncoding def
  currentdict
end
/Times-Roman exch definefont pop
/Times-Italic findfont
dup length dict begin
  {1 index /FID ne {def} {pop pop} ifelse} forall
  /Encoding WinAnsiEncoding def
  currentdict
end
/Times-Italic exch definefont pop
/Times-Bold findfont
dup length dict begin
  {1 index /FID ne {def} {pop pop} ifelse} forall
  /Encoding WinAnsiEncoding def
  currentdict
end
/Times-Bold exch definefont pop
/Times-BoldItalic findfont
dup length dict begin
  {1 index /FID ne {def} {pop pop} ifelse} forall
  /Encoding WinAnsiEncoding def
  currentdict
end
/Times-BoldItalic exch definefont pop
/Courier findfont
dup length dict begin
  {1 index /FID ne {def} {pop pop} ifelse} forall
  /Encoding WinAnsiEncoding def
  currentdict
end
/Courier exch definefont pop
%FOPEndFontReencode
%%EndProlog
%%Page: 1 1
%%PageBoundingBox: 0 0 500 400
%%BeginPageSetup
[1 0 0 -1 0 400] CT
%%EndPageSetup
GS
0.68 GC
N
0 0 500 400 re
f
GR
GS
0.678 GC
N
0 0 500 400 re
f
GR
GS
1 LJ
0.5 LW
N
0 400 M
0 1 L
500 1 L
500 400 L
0 400 L
S
GR
GS
[1 0 0 1 25 20] CT
/Times-BoldItalic 16 F
GS
[1 0 0 1 0 0] CT
0 5.5 moveto 
1 -1 scale
(Neural Network) t 
GR
GR
GS
[1 0 0 1 135 20] CT
/Times-Bold 16 F
GS
[1 0 0 1 0 0] CT
0 5.5 moveto 
1 -1 scale
(DESIGN) t 
GR
GR
GS
[1 0 0 1 415 20] CT
/Times-Bold 16 F
GS
[1 0 0 1 0 0] CT
-102 5.5 moveto 
1 -1 scale
(Generalization) t 
GR
GR
GS
0 0 0.302 RC
N
0 33 M
0 37 L
415 37 L
415 33 L
cp
382 60 M
378 60 L
378 378 L
382 378 L
cp
f
GR
GS
[1 0 0 1 390 85] CT
/Helvetica 10 F
GS
[1 0 0 1 0 0] CT
0 3.5 moveto 
1 -1 scale
(Click the [Train]) t 
GR
GR
GS
[1 0 0 1 390 97] CT
/Helvetica 10 F
GS
[1 0 0 1 0 0] CT
0 3.5 moveto 
1 -1 scale
(button to train the) t 
GR
GR
GS
[1 0 0 1 390 109] CT
/Helvetica 10 F
GS
[1 0 0 1 0 0] CT
0 3.5 moveto 
1 -1 scale
(logsig-linear) t 
GR
GR
GS
[1 0 0 1 390 121] CT
/Helvetica 10 F
GS
[1 0 0 1 0 0] CT
0 3.5 moveto 
1 -1 scale
(network on the) t 
GR
GR
GS
[1 0 0 1 390 133] CT
/Helvetica 10 F
GS
[1 0 0 1 0 0] CT
0 3.5 moveto 
1 -1 scale
(data points at left.) t 
GR
GR
GS
[1 0 0 1 390 151] CT
/Helvetica 10 F
GS
[1 0 0 1 0 0] CT
0 3.5 moveto 
1 -1 scale
(Use the slide bar) t 
GR
GR
GS
[1 0 0 1 390 163] CT
/Helvetica 10 F
GS
[1 0 0 1 0 0] CT
0 3.5 moveto 
1 -1 scale
(to choose the) t 
GR
GR
GS
[1 0 0 1 390 175] CT
/Helvetica 10 F
GS
[1 0 0 1 0 0] CT
0 3.5 moveto 
1 -1 scale
(number of neurons) t 
GR
GR
GS
[1 0 0 1 390 187] CT
/Helvetica 10 F
GS
[1 0 0 1 0 0] CT
0 3.5 moveto 
1 -1 scale
(in the hidden layer.) t 
GR
GR
GS
[1 0 0 1 410 362] CT
/Times-Bold 12 F
GS
[1 0 0 1 0 0] CT
0 4 moveto 
1 -1 scale
(Chapter 11) t 
GR
GR
GS
0 0 0.302 RC
N
410 374 M
410 378 L
500 378 L
500 377.956 L
500 374 L
cp
f
GR
GS
0.4 GC
N
437 66 M
487 66 L
487 16 L
437 16 L
cp
f
GR
GS
1 0.102 0.102 RC
N
433 62 M
483 62 L
483 12 L
433 12 L
cp
f
GR
GS
0 0 0.302 RC
N
438 57 M
478 57 L
478 17 L
438 17 L
cp
f
GR
GS
1 0.102 0.102 RC
N
473.5 38.5 M
473.5 35.5 L
470.5 35.5 L
442.5 35.5 L
442.5 38.5 L
445.5 38.5 L
cp
f
GR
GS
1 1 0 RC
N
445 53.999 M
445.75 53.998 L
445.75 49.998 L
441.75 49.998 L
441 49.999 L
441 53.999 L
cp
445.75 53.998 M
446.5 53.996 L
446.5 49.996 L
442.5 49.996 L
441.75 49.998 L
441.75 53.998 L
cp
446.5 53.996 M
447.25 53.994 L
447.25 49.994 L
443.25 49.994 L
442.5 49.996 L
442.5 53.996 L
cp
447.25 53.994 M
448 53.99 L
448 49.99 L
444 49.99 L
443.25 49.994 L
443.25 53.994 L
cp
448 53.99 M
448.75 53.983 L
448.75 49.983 L
444.75 49.983 L
444 49.99 L
444 53.99 L
cp
448.75 53.983 M
449.5 53.973 L
449.5 49.973 L
445.5 49.973 L
444.75 49.983 L
444.75 53.983 L
cp
449.5 53.973 M
450.25 53.955 L
450.25 49.955 L
446.25 49.955 L
445.5 49.973 L
445.5 53.973 L
cp
450.25 53.955 M
451 53.926 L
451 49.926 L
447 49.926 L
446.25 49.955 L
446.25 53.955 L
cp
451 53.926 M
451.75 53.878 L
451.75 49.878 L
447.75 49.878 L
447 49.926 L
447 53.926 L
cp
451.75 53.878 M
452.5 53.799 L
452.5 49.799 L
448.5 49.799 L
447.75 49.878 L
447.75 53.878 L
cp
452.5 53.799 M
453.25 53.67 L
453.25 49.67 L
449.25 49.67 L
448.5 49.799 L
448.5 53.799 L
cp
453.25 53.67 M
454 53.46 L
454 49.46 L
450 49.46 L
449.25 49.67 L
449.25 53.67 L
cp
454 53.46 M
454.75 53.121 L
454.75 49.121 L
450.75 49.121 L
450 49.46 L
450 53.46 L
cp
455.5 48.577 M
451.5 48.577 L
450.75 49.121 L
450.75 53.121 L
454.75 53.121 L
455.5 52.577 L
cp
452.25 47.724 M
451.5 48.577 L
451.5 52.577 L
455.5 52.577 L
456.25 51.724 L
456.25 47.724 L
cp
456.25 51.724 M
457 50.424 L
457 46.424 L
453 46.424 L
452.25 47.724 L
452.25 51.724 L
cp
453 50.424 M
457 50.424 L
457.75 48.527 L
457.75 44.527 L
453.75 44.527 L
453 46.424 L
cp
453.75 48.527 M
457.75 48.527 L
458.5 45.932 L
458.5 41.932 L
454.5 41.932 L
453.75 44.527 L
cp
458.5 45.932 M
459.25 42.674 L
459.25 38.674 L
455.25 38.674 L
454.5 41.932 L
454.5 45.932 L
cp
459.25 42.674 M
460 39 L
460 35 L
456 35 L
455.25 38.674 L
455.25 42.674 L
cp
460 39 M
460.75 35.326 L
460.75 31.326 L
456.75 31.326 L
456 35 L
456 39 L
cp
460.75 35.326 M
461.5 32.068 L
461.5 28.068 L
457.5 28.068 L
456.75 31.326 L
456.75 35.326 L
cp
457.5 32.068 M
461.5 32.068 L
462.25 29.473 L
462.25 25.473 L
458.25 25.473 L
457.5 28.068 L
cp
458.25 29.473 M
462.25 29.473 L
463 27.576 L
463 23.576 L
459 23.576 L
458.25 25.473 L
cp
463 27.576 M
463.75 26.276 L
463.75 22.276 L
459.75 22.276 L
459 23.576 L
459 27.576 L
cp
460.5 21.423 M
459.75 22.276 L
459.75 26.276 L
463.75 26.276 L
464.5 25.423 L
464.5 21.423 L
cp
465.25 20.879 M
461.25 20.879 L
460.5 21.423 L
460.5 25.423 L
464.5 25.423 L
465.25 24.879 L
cp
465.25 24.879 M
466 24.54 L
466 20.54 L
462 20.54 L
461.25 20.879 L
461.25 24.879 L
cp
466 24.54 M
466.75 24.33 L
466.75 20.33 L
462.75 20.33 L
462 20.54 L
462 24.54 L
cp
466.75 24.33 M
467.5 24.201 L
467.5 20.201 L
463.5 20.201 L
462.75 20.33 L
462.75 24.33 L
cp
467.5 24.201 M
468.25 24.122 L
468.25 20.122 L
464.25 20.122 L
463.5 20.201 L
463.5 24.201 L
cp
468.25 24.122 M
469 24.074 L
469 20.074 L
465 20.074 L
464.25 20.122 L
464.25 24.122 L
cp
469 24.074 M
469.75 24.045 L
469.75 20.045 L
465.75 20.045 L
465 20.074 L
465 24.074 L
cp
469.75 24.045 M
470.5 24.027 L
470.5 20.027 L
466.5 20.027 L
465.75 20.045 L
465.75 24.045 L
cp
470.5 24.027 M
471.25 24.017 L
471.25 20.017 L
467.25 20.017 L
466.5 20.027 L
466.5 24.027 L
cp
471.25 24.017 M
472 24.01 L
472 20.01 L
468 20.01 L
467.25 20.017 L
467.25 24.017 L
cp
472 24.01 M
472.75 24.006 L
472.75 20.006 L
468.75 20.006 L
468 20.01 L
468 24.01 L
cp
472.75 24.006 M
473.5 24.004 L
473.5 20.004 L
469.5 20.004 L
468.75 20.006 L
468.75 24.006 L
cp
473.5 24.004 M
474.25 24.002 L
474.25 20.002 L
470.25 20.002 L
469.5 20.004 L
469.5 24.004 L
cp
474.25 24.002 M
475 24.001 L
475 20.001 L
471 20.001 L
470.25 20.002 L
470.25 24.002 L
cp
f
GR
GS
[1 0 0 1 20 285] CT
0 0 0.302 RC
/Helvetica-Bold 12 F
GS
[1 0 0 1 0 0] CT
0 4.5 moveto 
1 -1 scale
(Number of Hidden Neurons S1:) t 
GR
GR
GS
[1 0 0 1 340 285] CT
0 0 0.302 RC
/Helvetica-Bold 12 F
GS
[1 0 0 1 0 0] CT
-7 4.5 moveto 
1 -1 scale
(1) t 
GR
GR
GS
[1 0 0 1 20 323] CT
0 0 0.302 RC
/Helvetica-Bold 12 F
GS
[1 0 0 1 0 0] CT
0 4.5 moveto 
1 -1 scale
(1) t 
GR
GR
GS
[1 0 0 1 340 323] CT
0 0 0.302 RC
/Helvetica-Bold 12 F
GS
[1 0 0 1 0 0] CT
-7 4.5 moveto 
1 -1 scale
(9) t 
GR
GR
GS
[1 0 0 1 20 345] CT
0 0 0.302 RC
/Helvetica-Bold 12 F
GS
[1 0 0 1 0 0] CT
0 4.5 moveto 
1 -1 scale
(Difficulty Index:) t 
GR
GR
GS
[1 0 0 1 340 345] CT
0 0 0.302 RC
/Helvetica-Bold 12 F
GS
[1 0 0 1 0 0] CT
-7 4.5 moveto 
1 -1 scale
(1) t 
GR
GR
GS
[1 0 0 1 20 383] CT
0 0 0.302 RC
/Helvetica-Bold 12 F
GS
[1 0 0 1 0 0] CT
0 4.5 moveto 
1 -1 scale
(1) t 
GR
GR
GS
[1 0 0 1 340 383] CT
0 0 0.302 RC
/Helvetica-Bold 12 F
GS
[1 0 0 1 0 0] CT
-7 4.5 moveto 
1 -1 scale
(9) t 
GR
GR
GS
0.949 0.949 0.569 RC
N
50 240 M
320 240 L
320 70 L
50 70 L
cp
f
GR
GS
0 0 0.302 RC
2 setlinecap
1 LJ
0.5 LW
N
50 240 M
320 240 L
S
GR
GS
0 0 0.302 RC
2 setlinecap
1 LJ
0.5 LW
N
50 70 M
320 70 L
S
GR
GS
0 0 0.302 RC
2 setlinecap
1 LJ
0.5 LW
N
50 240 M
50 237.3 L
S
GR
GS
0 0 0.302 RC
2 setlinecap
1 LJ
0.5 LW
N
83.75 240 M
83.75 237.3 L
S
GR
GS
0 0 0.302 RC
2 setlinecap
1 LJ
0.5 LW
N
117.5 240 M
117.5 237.3 L
S
GR
GS
0 0 0.302 RC
2 setlinecap
1 LJ
0.5 LW
N
151.25 240 M
151.25 237.3 L
S
GR
GS
0 0 0.302 RC
2 setlinecap
1 LJ
0.5 LW
N
185 240 M
185 237.3 L
S
GR
GS
0 0 0.302 RC
2 setlinecap
1 LJ
0.5 LW
N
218.75 240 M
218.75 237.3 L
S
GR
GS
0 0 0.302 RC
2 setlinecap
1 LJ
0.5 LW
N
252.5 240 M
252.5 237.3 L
S
GR
GS
0 0 0.302 RC
2 setlinecap
1 LJ
0.5 LW
N
286.25 240 M
286.25 237.3 L
S
GR
GS
0 0 0.302 RC
2 setlinecap
1 LJ
0.5 LW
N
320 240 M
320 237.3 L
S
GR
GS
0 0 0.302 RC
2 setlinecap
1 LJ
0.5 LW
N
50 70 M
50 72.7 L
S
GR
GS
0 0 0.302 RC
2 setlinecap
1 LJ
0.5 LW
N
83.75 70 M
83.75 72.7 L
S
GR
GS
0 0 0.302 RC
2 setlinecap
1 LJ
0.5 LW
N
117.5 70 M
117.5 72.7 L
S
GR
GS
0 0 0.302 RC
2 setlinecap
1 LJ
0.5 LW
N
151.25 70 M
151.25 72.7 L
S
GR
GS
0 0 0.302 RC
2 setlinecap
1 LJ
0.5 LW
N
185 70 M
185 72.7 L
S
GR
GS
0 0 0.302 RC
2 setlinecap
1 LJ
0.5 LW
N
218.75 70 M
218.75 72.7 L
S
GR
GS
0 0 0.302 RC
2 setlinecap
1 LJ
0.5 LW
N
252.5 70 M
252.5 72.7 L
S
GR
GS
0 0 0.302 RC
2 setlinecap
1 LJ
0.5 LW
N
286.25 70 M
286.25 72.7 L
S
GR
GS
0 0 0.302 RC
2 setlinecap
1 LJ
0.5 LW
N
320 70 M
320 72.7 L
S
GR
GS
[1 0 0 1 50 244] CT
0 0 0.302 RC
/Helvetica 10 F
GS
[1 0 0 1 0 0] CT
-5 10 moveto 
1 -1 scale
(-2) t 
GR
GR
GS
[1 0 0 1 83.75 244] CT
0 0 0.302 RC
/Helvetica 10 F
GS
[1 0 0 1 0 0] CT
-9 10 moveto 
1 -1 scale
(-1.5) t 
GR
GR
GS
[1 0 0 1 117.5 244] CT
0 0 0.302 RC
/Helvetica 10 F
GS
[1 0 0 1 0 0] CT
-5 10 moveto 
1 -1 scale
(-1) t 
GR
GR
GS
[1 0 0 1 151.25 244] CT
0 0 0.302 RC
/Helvetica 10 F
GS
[1 0 0 1 0 0] CT
-9 10 moveto 
1 -1 scale
(-0.5) t 
GR
GR
GS
[1 0 0 1 185 244] CT
0 0 0.302 RC
/Helvetica 10 F
GS
[1 0 0 1 0 0] CT
-3 10 moveto 
1 -1 scale
(0) t 
GR
GR
GS
[1 0 0 1 218.75 244] CT
0 0 0.302 RC
/Helvetica 10 F
GS
[1 0 0 1 0 0] CT
-7 10 moveto 
1 -1 scale
(0.5) t 
GR
GR
GS
[1 0 0 1 252.5 244] CT
0 0 0.302 RC
/Helvetica 10 F
GS
[1 0 0 1 0 0] CT
-3 10 moveto 
1 -1 scale
(1) t 
GR
GR
GS
[1 0 0 1 286.25 244] CT
0 0 0.302 RC
/Helvetica 10 F
GS
[1 0 0 1 0 0] CT
-7 10 moveto 
1 -1 scale
(1.5) t 
GR
GR
GS
[1 0 0 1 320 244] CT
0 0 0.302 RC
/Helvetica 10 F
GS
[1 0 0 1 0 0] CT
-3 10 moveto 
1 -1 scale
(2) t 
GR
GR
GS
[1 0 0 1 185.00012 257.5] CT
0 0 0.302 RC
/Helvetica-Bold 11 F
GS
[1 0 0 1 0 0] CT
-13.5 11 moveto 
1 -1 scale
(Input) t 
GR
GR
GS
0 0 0.302 RC
2 setlinecap
1 LJ
0.5 LW
N
50 240 M
50 70 L
S
GR
GS
0 0 0.302 RC
2 setlinecap
1 LJ
0.5 LW
N
320 240 M
320 70 L
S
GR
GS
0 0 0.302 RC
2 setlinecap
1 LJ
0.5 LW
N
50 240 M
52.7 240 L
S
GR
GS
0 0 0.302 RC
2 setlinecap
1 LJ
0.5 LW
N
50 197.5 M
52.7 197.5 L
S
GR
GS
0 0 0.302 RC
2 setlinecap
1 LJ
0.5 LW
N
50 155 M
52.7 155 L
S
GR
GS
0 0 0.302 RC
2 setlinecap
1 LJ
0.5 LW
N
50 112.5 M
52.7 112.5 L
S
GR
GS
0 0 0.302 RC
2 setlinecap
1 LJ
0.5 LW
N
50 70 M
52.7 70 L
S
GR
GS
0 0 0.302 RC
2 setlinecap
1 LJ
0.5 LW
N
320 240 M
317.3 240 L
S
GR
GS
0 0 0.302 RC
2 setlinecap
1 LJ
0.5 LW
N
320 197.5 M
317.3 197.5 L
S
GR
GS
0 0 0.302 RC
2 setlinecap
1 LJ
0.5 LW
N
320 155 M
317.3 155 L
S
GR
GS
0 0 0.302 RC
2 setlinecap
1 LJ
0.5 LW
N
320 112.5 M
317.3 112.5 L
S
GR
GS
0 0 0.302 RC
2 setlinecap
1 LJ
0.5 LW
N
320 70 M
317.3 70 L
S
GR
GS
[1 0 0 1 46 240] CT
0 0 0.302 RC
/Helvetica 10 F
GS
[1 0 0 1 0 0] CT
-6 3.5 moveto 
1 -1 scale
(0) t 
GR
GR
GS
[1 0 0 1 46 197.5] CT
0 0 0.302 RC
/Helvetica 10 F
GS
[1 0 0 1 0 0] CT
-14 3.5 moveto 
1 -1 scale
(0.5) t 
GR
GR
GS
[1 0 0 1 46 155] CT
0 0 0.302 RC
/Helvetica 10 F
GS
[1 0 0 1 0 0] CT
-6 3.5 moveto 
1 -1 scale
(1) t 
GR
GR
GS
[1 0 0 1 46 112.5] CT
0 0 0.302 RC
/Helvetica 10 F
GS
[1 0 0 1 0 0] CT
-14 3.5 moveto 
1 -1 scale
(1.5) t 
GR
GR
GS
[1 0 0 1 46 70] CT
0 0 0.302 RC
/Helvetica 10 F
GS
[1 0 0 1 0 0] CT
-6 3.5 moveto 
1 -1 scale
(2) t 
GR
GR
GS
[0 -1 1 0 28.99999 154.99992] CT
0 0 0.302 RC
/Helvetica-Bold 11 F
GS
[1 0 0 1 0 0] CT
-17.5 -3 moveto 
1 -1 scale
(Target) t 
GR
GR
GS
[1 0 0 1 185.00018 68.5] CT
0 0 0.302 RC
/Helvetica-Bold 12 F
GS
[1 0 0 1 0 0] CT
-69 -3 moveto 
1 -1 scale
(Function Approximation) t 
GR
GR
GS
[1 0 0 1 50 240] CT
1 0.102 0.102 RC
10.0 ML
N
0 -3 M
0 3 L
-3 0 M
3 0 L
S
GR
GS
[1 0 0 1 77 235.8398] CT
1 0.102 0.102 RC
10.0 ML
N
0 -3 M
0 3 L
-3 0 M
3 0 L
S
GR
GS
[1 0 0 1 104 223.76645] CT
1 0.102 0.102 RC
10.0 ML
N
0 -3 M
0 3 L
-3 0 M
3 0 L
S
GR
GS
[1 0 0 1 131 204.96175] CT
1 0.102 0.102 RC
10.0 ML
N
0 -3 M
0 3 L
-3 0 M
3 0 L
S
GR
GS
[1 0 0 1 158 181.26645] CT
1 0.102 0.102 RC
10.0 ML
N
0 -3 M
0 3 L
-3 0 M
3 0 L
S
GR
GS
[1 0 0 1 185 155] CT
1 0.102 0.102 RC
10.0 ML
N
0 -3 M
0 3 L
-3 0 M
3 0 L
S
GR
GS
[1 0 0 1 212 128.73357] CT
1 0.102 0.102 RC
10.0 ML
N
0 -3 M
0 3 L
-3 0 M
3 0 L
S
GR
GS
[1 0 0 1 239 105.03825] CT
1 0.102 0.102 RC
10.0 ML
N
0 -3 M
0 3 L
-3 0 M
3 0 L
S
GR
GS
[1 0 0 1 266 86.23356] CT
1 0.102 0.102 RC
10.0 ML
N
0 -3 M
0 3 L
-3 0 M
3 0 L
S
GR
GS
[1 0 0 1 293 74.1602] CT
1 0.102 0.102 RC
10.0 ML
N
0 -3 M
0 3 L
-3 0 M
3 0 L
S
GR
GS
[1 0 0 1 320 70] CT
1 0.102 0.102 RC
10.0 ML
N
0 -3 M
0 3 L
-3 0 M
3 0 L
S
GR
GS
0 0 0.302 RC
1 LJ
2 LW
N
58.1 239.593 M
60.8 238.939 L
63.5 238.25 L
66.2 237.525 L
68.9 236.764 L
71.6 235.963 L
74.3 235.123 L
77 234.241 L
79.7 233.315 L
82.4 232.344 L
85.1 231.327 L
87.8 230.262 L
90.5 229.147 L
93.2 227.981 L
95.9 226.763 L
98.6 225.49 L
101.3 224.162 L
104 222.777 L
106.7 221.334 L
109.4 219.832 L
112.1 218.269 L
114.8 216.646 L
117.5 214.961 L
120.2 213.214 L
122.9 211.404 L
125.6 209.532 L
128.3 207.596 L
131 205.599 L
133.7 203.539 L
136.4 201.417 L
139.1 199.235 L
141.8 196.994 L
144.5 194.696 L
147.2 192.342 L
149.9 189.934 L
152.6 187.474 L
155.3 184.966 L
158 182.412 L
160.7 179.816 L
163.4 177.18 L
166.1 174.509 L
168.8 171.807 L
171.5 169.077 L
174.2 166.323 L
176.9 163.551 L
179.6 160.765 L
182.3 157.969 L
185 155.169 L
187.7 152.368 L
190.4 149.572 L
193.1 146.786 L
195.8 144.013 L
198.5 141.26 L
201.2 138.529 L
203.9 135.826 L
206.6 133.154 L
209.3 130.517 L
212 127.92 L
214.7 125.365 L
217.4 122.855 L
220.1 120.395 L
222.8 117.985 L
225.5 115.63 L
228.2 113.33 L
230.9 111.088 L
233.6 108.904 L
236.3 106.781 L
239 104.72 L
241.7 102.72 L
244.4 100.783 L
247.1 98.909 L
249.8 97.098 L
252.5 95.349 L
255.2 93.663 L
257.9 92.038 L
260.6 90.474 L
263.3 88.971 L
266 87.526 L
268.7 86.14 L
271.4 84.81 L
274.1 83.536 L
276.8 82.316 L
279.5 81.149 L
282.2 80.033 L
284.9 78.966 L
287.6 77.948 L
290.3 76.976 L
293 76.05 L
295.7 75.166 L
298.4 74.325 L
301.1 73.524 L
303.8 72.761 L
306.5 72.036 L
309.2 71.346 L
311.9 70.69 L
314.6 70.068 L
S
GR
GS
[1 0 0 1 20 294] CT
[1 0 0 1 0 0] CT
N
0 0 M
0 15 L
320 15 L
320 0 L
cp
clip
GS
0 0 translate
320 15 scale
%AXGBeginBitmap: java.awt.image.BufferedImage
{{
/RawData currentfile /ASCII85Decode filter def
/Data RawData /FlateDecode filter def
/DeviceRGB setcolorspace
<<
  /ImageType 1
  /Decode [0 1 0 1 0 1]
  /DataSource Data
  /Height 15
  /ImageMatrix [320 0 0 15 0 0]
  /Width 320
  /BitsPerComponent 8
>> image
} stopped {handleerror} if
  RawData flushfile
} exec
Gb"0U5md];$p[[Nh@k-tSoG)h/H`j,`RJ&'[l%b@r2%FgTTh2ehV\#,:.>VK&(au$pA<P:"A\N6e1Y@U
lVYEYD,lYaOa\HXUr7/3jXiY\6,1bR`d#m@q$PEnd4_kmoVc-L+rFh!8,^=)77s*9;882EY=JOX[_*[S
$eb)se1Y@%kcom@qMejmhR<<hi*Jm"ghZY&&%ItRJmO79@9<~>

%AXGEndBitmap
GR
GR
GS
[1 0 0 1 20 354] CT
[1 0 0 1 0 0] CT
N
0 0 M
0 15 L
320 15 L
320 0 L
cp
clip
GS
0 0 translate
320 15 scale
%AXGBeginBitmap: java.awt.image.BufferedImage
{{
/RawData currentfile /ASCII85Decode filter def
/Data RawData /FlateDecode filter def
/DeviceRGB setcolorspace
<<
  /ImageType 1
  /Decode [0 1 0 1 0 1]
  /DataSource Data
  /Height 15
  /ImageMatrix [320 0 0 15 0 0]
  /Width 320
  /BitsPerComponent 8
>> image
} stopped {handleerror} if
  RawData flushfile
} exec
Gb"0U5md];$p[[Nh@k-tSoG)h/H`j,`RJ&'[l%b@r2%FgTTh2ehV\#,:.>VK&(au$pA<P:"A\N6e1Y@U
lVYEYD,lYaOa\HXUr7/3jXiY\6,1bR`d#m@q$PEnd4_kmoVc-L+rFh!8,^=)77s*9;882EY=JOX[_*[S
$eb)se1Y@%kcom@qMejmhR<<hi*Jm"ghZY&&%ItRJmO79@9<~>

%AXGEndBitmap
GR
GR
GS
[1 0 0 1 400 235] CT
[1 0 0 1 0 0] CT
N
0 0 M
0 20 L
60 20 L
60 0 L
cp
clip
GS
0 0 translate
60 20 scale
%AXGBeginBitmap: java.awt.image.BufferedImage
{{
/RawData currentfile /ASCII85Decode filter def
/Data RawData /FlateDecode filter def
/DeviceRGB setcolorspace
<<
  /ImageType 1
  /Decode [0 1 0 1 0 1]
  /DataSource Data
  /Height 20
  /ImageMatrix [60 0 0 20 0 0]
  /Width 60
  /BitsPerComponent 8
>> image
} stopped {handleerror} if
  RawData flushfile
} exec
Gb!=9]a]K7'EI+jVg1WIL^!qUK=2OSJq^aRJnm#+Bi1QaWR./8BO4\PhGe/@.Pt3AR[XZ/?%qF76M%?H
o:\MBWC$3Q6M"1H2W#u@5:W<!k!(LCCSf\~>

%AXGEndBitmap
GR
GR
GS
[1 0 0 1 400 235] CT
/Helvetica 10 F
GS
N
0 0 M
60 0 L
60 20 L
0 20 L
0 0 L
cp
clip
[1 0 0 1 0 0] CT
19 12 moveto 
1 -1 scale
(Train) t 
GR
GR
GS
[1 0 0 1 400 270] CT
[1 0 0 1 0 0] CT
N
0 0 M
0 20 L
60 20 L
60 0 L
cp
clip
GS
0 0 translate
60 20 scale
%AXGBeginBitmap: java.awt.image.BufferedImage
{{
/RawData currentfile /ASCII85Decode filter def
/Data RawData /FlateDecode filter def
/DeviceRGB setcolorspace
<<
  /ImageType 1
  /Decode [0 1 0 1 0 1]
  /DataSource Data
  /Height 20
  /ImageMatrix [60 0 0 20 0 0]
  /Width 60
  /BitsPerComponent 8
>> image
} stopped {handleerror} if
  RawData flushfile
} exec
Gb!=9]a]K7'EI+jVg1WIL^!qUK=2OSJq^aRJnm#+Bi1QaWR./8BO4\PhGe/@.Pt3AR[XZ/?%qF76M%?H
o:\MBWC$3Q6M"1H2W#u@5:W<!k!(LCCSf\~>

%AXGEndBitmap
GR
GR
GS
[1 0 0 1 400 270] CT
/Helvetica 10 F
GS
N
0 0 M
60 0 L
60 20 L
0 20 L
0 0 L
cp
clip
[1 0 0 1 0 0] CT
9 12 moveto 
1 -1 scale
(Contents) t 
GR
GR
GS
[1 0 0 1 400 305] CT
[1 0 0 1 0 0] CT
N
0 0 M
0 20 L
60 20 L
60 0 L
cp
clip
GS
0 0 translate
60 20 scale
%AXGBeginBitmap: java.awt.image.BufferedImage
{{
/RawData currentfile /ASCII85Decode filter def
/Data RawData /FlateDecode filter def
/DeviceRGB setcolorspace
<<
  /ImageType 1
  /Decode [0 1 0 1 0 1]
  /DataSource Data
  /Height 20
  /ImageMatrix [60 0 0 20 0 0]
  /Width 60
  /BitsPerComponent 8
>> image
} stopped {handleerror} if
  RawData flushfile
} exec
Gb!=9]a]K7'EI+jVg1WIL^!qUK=2OSJq^aRJnm#+Bi1QaWR./8BO4\PhGe/@.Pt3AR[XZ/?%qF76M%?H
o:\MBWC$3Q6M"1H2W#u@5:W<!k!(LCCSf\~>

%AXGEndBitmap
GR
GR
GS
[1 0 0 1 400 305] CT
/Helvetica 10 F
GS
N
0 0 M
60 0 L
60 20 L
0 20 L
0 0 L
cp
clip
[1 0 0 1 0 0] CT
17 12 moveto 
1 -1 scale
(Close) t 
GR
GR
%%Trailer
%%Pages: 1
%%EOF
