%!PS-Adobe-3.0 EPSF-3.0
%%Creator: (MATLAB, The Mathworks, Inc. Version 9.3.0.713579 \(R2017b\). Operating System: Mac OS X)
%%Title: (/Users/hannesvdc/WIT/data-mining/Session 1/plots/d2h1.eps)
%%CreationDate: 2017-11-09T20:09:54
%%Pages: (atend)
%%BoundingBox: 0 0 500 400
%%LanguageLevel: 3
%%EndComments
%%BeginProlog
%%BeginResource: procset (Apache XML Graphics Std ProcSet) 1.2 0
%%Version: 1.2 0
%%Copyright: (Copyright 2001-2003,2010 The Apache Software Foundation. License terms: http://www.apache.org/licenses/LICENSE-2.0)
/bd{bind def}bind def
/ld{load def}bd
/GR/grestore ld
/GS/gsave ld
/RM/rmoveto ld
/C/curveto ld
/t/show ld
/L/lineto ld
/ML/setmiterlimit ld
/CT/concat ld
/f/fill ld
/N/newpath ld
/S/stroke ld
/CC/setcmykcolor ld
/A/ashow ld
/cp/closepath ld
/RC/setrgbcolor ld
/LJ/setlinejoin ld
/GC/setgray ld
/LW/setlinewidth ld
/M/moveto ld
/re {4 2 roll M
1 index 0 rlineto
0 exch rlineto
neg 0 rlineto
cp } bd
/_ctm matrix def
/_tm matrix def
/BT { _ctm currentmatrix pop matrix _tm copy pop 0 0 moveto } bd
/ET { _ctm setmatrix } bd
/iTm { _ctm setmatrix _tm concat } bd
/Tm { _tm astore pop iTm 0 0 moveto } bd
/ux 0.0 def
/uy 0.0 def
/F {
  /Tp exch def
  /Tf exch def
  Tf findfont Tp scalefont setfont
  /cf Tf def  /cs Tp def
} bd
/ULS {currentpoint /uy exch def /ux exch def} bd
/ULE {
  /Tcx currentpoint pop def
  gsave
  newpath
  cf findfont cs scalefont dup
  /FontMatrix get 0 get /Ts exch def /FontInfo get dup
  /UnderlinePosition get Ts mul /To exch def
  /UnderlineThickness get Ts mul /Tt exch def
  ux uy To add moveto  Tcx uy To add lineto
  Tt setlinewidth stroke
  grestore
} bd
/OLE {
  /Tcx currentpoint pop def
  gsave
  newpath
  cf findfont cs scalefont dup
  /FontMatrix get 0 get /Ts exch def /FontInfo get dup
  /UnderlinePosition get Ts mul /To exch def
  /UnderlineThickness get Ts mul /Tt exch def
  ux uy To add cs add moveto Tcx uy To add cs add lineto
  Tt setlinewidth stroke
  grestore
} bd
/SOE {
  /Tcx currentpoint pop def
  gsave
  newpath
  cf findfont cs scalefont dup
  /FontMatrix get 0 get /Ts exch def /FontInfo get dup
  /UnderlinePosition get Ts mul /To exch def
  /UnderlineThickness get Ts mul /Tt exch def
  ux uy To add cs 10 mul 26 idiv add moveto Tcx uy To add cs 10 mul 26 idiv add lineto
  Tt setlinewidth stroke
  grestore
} bd
/QT {
/Y22 exch store
/X22 exch store
/Y21 exch store
/X21 exch store
currentpoint
/Y21 load 2 mul add 3 div exch
/X21 load 2 mul add 3 div exch
/X21 load 2 mul /X22 load add 3 div
/Y21 load 2 mul /Y22 load add 3 div
/X22 load /Y22 load curveto
} bd
/SSPD {
dup length /d exch dict def
{
/v exch def
/k exch def
currentpagedevice k known {
/cpdv currentpagedevice k get def
v cpdv ne {
/upd false def
/nullv v type /nulltype eq def
/nullcpdv cpdv type /nulltype eq def
nullv nullcpdv or
{
/upd true def
} {
/sametype v type cpdv type eq def
sametype {
v type /arraytype eq {
/vlen v length def
/cpdvlen cpdv length def
vlen cpdvlen eq {
0 1 vlen 1 sub {
/i exch def
/obj v i get def
/cpdobj cpdv i get def
obj cpdobj ne {
/upd true def
exit
} if
} for
} {
/upd true def
} ifelse
} {
v type /dicttype eq {
v {
/dv exch def
/dk exch def
/cpddv cpdv dk get def
dv cpddv ne {
/upd true def
exit
} if
} forall
} {
/upd true def
} ifelse
} ifelse
} if
} ifelse
upd true eq {
d k v put
} if
} if
} if
} forall
d length 0 gt {
d setpagedevice
} if
} bd
/RE { % /NewFontName [NewEncodingArray] /FontName RE -
  findfont dup length dict begin
  {
    1 index /FID ne
    {def} {pop pop} ifelse
  } forall
  /Encoding exch def
  /FontName 1 index def
  currentdict definefont pop
  end
} bind def
%%EndResource
%%BeginResource: procset (Apache XML Graphics EPS ProcSet) 1.0 0
%%Version: 1.0 0
%%Copyright: (Copyright 2002-2003 The Apache Software Foundation. License terms: http://www.apache.org/licenses/LICENSE-2.0)
/BeginEPSF { %def
/b4_Inc_state save def         % Save state for cleanup
/dict_count countdictstack def % Count objects on dict stack
/op_count count 1 sub def      % Count objects on operand stack
userdict begin                 % Push userdict on dict stack
/showpage { } def              % Redefine showpage, { } = null proc
0 setgray 0 setlinecap         % Prepare graphics state
1 setlinewidth 0 setlinejoin
10 setmiterlimit [ ] 0 setdash newpath
/languagelevel where           % If level not equal to 1 then
{pop languagelevel             % set strokeadjust and
1 ne                           % overprint to their defaults.
{false setstrokeadjust false setoverprint
} if
} if
} bd
/EndEPSF { %def
count op_count sub {pop} repeat            % Clean up stacks
countdictstack dict_count sub {end} repeat
b4_Inc_state restore
} bd
%%EndResource
%FOPBeginFontDict
%%IncludeResource: font Courier-Oblique
%%IncludeResource: font Courier-BoldOblique
%%IncludeResource: font Courier-Bold
%%IncludeResource: font ZapfDingbats
%%IncludeResource: font Symbol
%%IncludeResource: font Helvetica
%%IncludeResource: font Helvetica-Oblique
%%IncludeResource: font Helvetica-Bold
%%IncludeResource: font Helvetica-BoldOblique
%%IncludeResource: font Times-Roman
%%IncludeResource: font Times-Italic
%%IncludeResource: font Times-Bold
%%IncludeResource: font Times-BoldItalic
%%IncludeResource: font Courier
%FOPEndFontDict
%%BeginResource: encoding WinAnsiEncoding
/WinAnsiEncoding [
/.notdef /.notdef /.notdef /.notdef /.notdef
/.notdef /.notdef /.notdef /.notdef /.notdef
/.notdef /.notdef /.notdef /.notdef /.notdef
/.notdef /.notdef /.notdef /.notdef /.notdef
/.notdef /.notdef /.notdef /.notdef /.notdef
/.notdef /.notdef /.notdef /.notdef /.notdef
/.notdef /.notdef /space /exclam /quotedbl
/numbersign /dollar /percent /ampersand /quotesingle
/parenleft /parenright /asterisk /plus /comma
/hyphen /period /slash /zero /one
/two /three /four /five /six
/seven /eight /nine /colon /semicolon
/less /equal /greater /question /at
/A /B /C /D /E
/F /G /H /I /J
/K /L /M /N /O
/P /Q /R /S /T
/U /V /W /X /Y
/Z /bracketleft /backslash /bracketright /asciicircum
/underscore /quoteleft /a /b /c
/d /e /f /g /h
/i /j /k /l /m
/n /o /p /q /r
/s /t /u /v /w
/x /y /z /braceleft /bar
/braceright /asciitilde /bullet /Euro /bullet
/quotesinglbase /florin /quotedblbase /ellipsis /dagger
/daggerdbl /circumflex /perthousand /Scaron /guilsinglleft
/OE /bullet /Zcaron /bullet /bullet
/quoteleft /quoteright /quotedblleft /quotedblright /bullet
/endash /emdash /asciitilde /trademark /scaron
/guilsinglright /oe /bullet /zcaron /Ydieresis
/space /exclamdown /cent /sterling /currency
/yen /brokenbar /section /dieresis /copyright
/ordfeminine /guillemotleft /logicalnot /sfthyphen /registered
/macron /degree /plusminus /twosuperior /threesuperior
/acute /mu /paragraph /middot /cedilla
/onesuperior /ordmasculine /guillemotright /onequarter /onehalf
/threequarters /questiondown /Agrave /Aacute /Acircumflex
/Atilde /Adieresis /Aring /AE /Ccedilla
/Egrave /Eacute /Ecircumflex /Edieresis /Igrave
/Iacute /Icircumflex /Idieresis /Eth /Ntilde
/Ograve /Oacute /Ocircumflex /Otilde /Odieresis
/multiply /Oslash /Ugrave /Uacute /Ucircumflex
/Udieresis /Yacute /Thorn /germandbls /agrave
/aacute /acircumflex /atilde /adieresis /aring
/ae /ccedilla /egrave /eacute /ecircumflex
/edieresis /igrave /iacute /icircumflex /idieresis
/eth /ntilde /ograve /oacute /ocircumflex
/otilde /odieresis /divide /oslash /ugrave
/uacute /ucircumflex /udieresis /yacute /thorn
/ydieresis
] def
%%EndResource
%FOPBeginFontReencode
/Courier-Oblique findfont
dup length dict begin
  {1 index /FID ne {def} {pop pop} ifelse} forall
  /Encoding WinAnsiEncoding def
  currentdict
end
/Courier-Oblique exch definefont pop
/Courier-BoldOblique findfont
dup length dict begin
  {1 index /FID ne {def} {pop pop} ifelse} forall
  /Encoding WinAnsiEncoding def
  currentdict
end
/Courier-BoldOblique exch definefont pop
/Courier-Bold findfont
dup length dict begin
  {1 index /FID ne {def} {pop pop} ifelse} forall
  /Encoding WinAnsiEncoding def
  currentdict
end
/Courier-Bold exch definefont pop
/Helvetica findfont
dup length dict begin
  {1 index /FID ne {def} {pop pop} ifelse} forall
  /Encoding WinAnsiEncoding def
  currentdict
end
/Helvetica exch definefont pop
/Helvetica-Oblique findfont
dup length dict begin
  {1 index /FID ne {def} {pop pop} ifelse} forall
  /Encoding WinAnsiEncoding def
  currentdict
end
/Helvetica-Oblique exch definefont pop
/Helvetica-Bold findfont
dup length dict begin
  {1 index /FID ne {def} {pop pop} ifelse} forall
  /Encoding WinAnsiEncoding def
  currentdict
end
/Helvetica-Bold exch definefont pop
/Helvetica-BoldOblique findfont
dup length dict begin
  {1 index /FID ne {def} {pop pop} ifelse} forall
  /Encoding WinAnsiEncoding def
  currentdict
end
/Helvetica-BoldOblique exch definefont pop
/Times-Roman findfont
dup length dict begin
  {1 index /FID ne {def} {pop pop} ifelse} forall
  /Encoding WinAnsiEncoding def
  currentdict
end
/Times-Roman exch definefont pop
/Times-Italic findfont
dup length dict begin
  {1 index /FID ne {def} {pop pop} ifelse} forall
  /Encoding WinAnsiEncoding def
  currentdict
end
/Times-Italic exch definefont pop
/Times-Bold findfont
dup length dict begin
  {1 index /FID ne {def} {pop pop} ifelse} forall
  /Encoding WinAnsiEncoding def
  currentdict
end
/Times-Bold exch definefont pop
/Times-BoldItalic findfont
dup length dict begin
  {1 index /FID ne {def} {pop pop} ifelse} forall
  /Encoding WinAnsiEncoding def
  currentdict
end
/Times-BoldItalic exch definefont pop
/Courier findfont
dup length dict begin
  {1 index /FID ne {def} {pop pop} ifelse} forall
  /Encoding WinAnsiEncoding def
  currentdict
end
/Courier exch definefont pop
%FOPEndFontReencode
%%EndProlog
%%Page: 1 1
%%PageBoundingBox: 0 0 500 400
%%BeginPageSetup
[1 0 0 -1 0 400] CT
%%EndPageSetup
GS
0.68 GC
N
0 0 500 400 re
f
GR
GS
0.678 GC
N
0 0 500 400 re
f
GR
GS
1 LJ
0.5 LW
N
0 400 M
0 1 L
500 1 L
500 400 L
0 400 L
S
GR
GS
[1 0 0 1 25 20] CT
/Times-BoldItalic 16 F
GS
[1 0 0 1 0 0] CT
0 5.5 moveto 
1 -1 scale
(Neural Network) t 
GR
GR
GS
[1 0 0 1 135 20] CT
/Times-Bold 16 F
GS
[1 0 0 1 0 0] CT
0 5.5 moveto 
1 -1 scale
(DESIGN) t 
GR
GR
GS
[1 0 0 1 415 20] CT
/Times-Bold 16 F
GS
[1 0 0 1 0 0] CT
-102 5.5 moveto 
1 -1 scale
(Generalization) t 
GR
GR
GS
0 0 0.302 RC
N
0 33 M
0 37 L
415 37 L
415 33 L
cp
382 60 M
378 60 L
378 378 L
382 378 L
cp
f
GR
GS
[1 0 0 1 390 85] CT
/Helvetica 10 F
GS
[1 0 0 1 0 0] CT
0 3.5 moveto 
1 -1 scale
(Click the [Train]) t 
GR
GR
GS
[1 0 0 1 390 97] CT
/Helvetica 10 F
GS
[1 0 0 1 0 0] CT
0 3.5 moveto 
1 -1 scale
(button to train the) t 
GR
GR
GS
[1 0 0 1 390 109] CT
/Helvetica 10 F
GS
[1 0 0 1 0 0] CT
0 3.5 moveto 
1 -1 scale
(logsig-linear) t 
GR
GR
GS
[1 0 0 1 390 121] CT
/Helvetica 10 F
GS
[1 0 0 1 0 0] CT
0 3.5 moveto 
1 -1 scale
(network on the) t 
GR
GR
GS
[1 0 0 1 390 133] CT
/Helvetica 10 F
GS
[1 0 0 1 0 0] CT
0 3.5 moveto 
1 -1 scale
(data points at left.) t 
GR
GR
GS
[1 0 0 1 390 151] CT
/Helvetica 10 F
GS
[1 0 0 1 0 0] CT
0 3.5 moveto 
1 -1 scale
(Use the slide bar) t 
GR
GR
GS
[1 0 0 1 390 163] CT
/Helvetica 10 F
GS
[1 0 0 1 0 0] CT
0 3.5 moveto 
1 -1 scale
(to choose the) t 
GR
GR
GS
[1 0 0 1 390 175] CT
/Helvetica 10 F
GS
[1 0 0 1 0 0] CT
0 3.5 moveto 
1 -1 scale
(number of neurons) t 
GR
GR
GS
[1 0 0 1 390 187] CT
/Helvetica 10 F
GS
[1 0 0 1 0 0] CT
0 3.5 moveto 
1 -1 scale
(in the hidden layer.) t 
GR
GR
GS
[1 0 0 1 410 362] CT
/Times-Bold 12 F
GS
[1 0 0 1 0 0] CT
0 4 moveto 
1 -1 scale
(Chapter 11) t 
GR
GR
GS
0 0 0.302 RC
N
410 374 M
410 378 L
500 378 L
500 377.956 L
500 374 L
cp
f
GR
GS
0.4 GC
N
437 66 M
487 66 L
487 16 L
437 16 L
cp
f
GR
GS
1 0.102 0.102 RC
N
433 62 M
483 62 L
483 12 L
433 12 L
cp
f
GR
GS
0 0 0.302 RC
N
438 57 M
478 57 L
478 17 L
438 17 L
cp
f
GR
GS
1 0.102 0.102 RC
N
473.5 38.5 M
473.5 35.5 L
470.5 35.5 L
442.5 35.5 L
442.5 38.5 L
445.5 38.5 L
cp
f
GR
GS
1 1 0 RC
N
445 53.999 M
445.75 53.998 L
445.75 49.998 L
441.75 49.998 L
441 49.999 L
441 53.999 L
cp
445.75 53.998 M
446.5 53.996 L
446.5 49.996 L
442.5 49.996 L
441.75 49.998 L
441.75 53.998 L
cp
446.5 53.996 M
447.25 53.994 L
447.25 49.994 L
443.25 49.994 L
442.5 49.996 L
442.5 53.996 L
cp
447.25 53.994 M
448 53.99 L
448 49.99 L
444 49.99 L
443.25 49.994 L
443.25 53.994 L
cp
448 53.99 M
448.75 53.983 L
448.75 49.983 L
444.75 49.983 L
444 49.99 L
444 53.99 L
cp
448.75 53.983 M
449.5 53.973 L
449.5 49.973 L
445.5 49.973 L
444.75 49.983 L
444.75 53.983 L
cp
449.5 53.973 M
450.25 53.955 L
450.25 49.955 L
446.25 49.955 L
445.5 49.973 L
445.5 53.973 L
cp
450.25 53.955 M
451 53.926 L
451 49.926 L
447 49.926 L
446.25 49.955 L
446.25 53.955 L
cp
451 53.926 M
451.75 53.878 L
451.75 49.878 L
447.75 49.878 L
447 49.926 L
447 53.926 L
cp
451.75 53.878 M
452.5 53.799 L
452.5 49.799 L
448.5 49.799 L
447.75 49.878 L
447.75 53.878 L
cp
452.5 53.799 M
453.25 53.67 L
453.25 49.67 L
449.25 49.67 L
448.5 49.799 L
448.5 53.799 L
cp
453.25 53.67 M
454 53.46 L
454 49.46 L
450 49.46 L
449.25 49.67 L
449.25 53.67 L
cp
454 53.46 M
454.75 53.121 L
454.75 49.121 L
450.75 49.121 L
450 49.46 L
450 53.46 L
cp
455.5 48.577 M
451.5 48.577 L
450.75 49.121 L
450.75 53.121 L
454.75 53.121 L
455.5 52.577 L
cp
452.25 47.724 M
451.5 48.577 L
451.5 52.577 L
455.5 52.577 L
456.25 51.724 L
456.25 47.724 L
cp
456.25 51.724 M
457 50.424 L
457 46.424 L
453 46.424 L
452.25 47.724 L
452.25 51.724 L
cp
453 50.424 M
457 50.424 L
457.75 48.527 L
457.75 44.527 L
453.75 44.527 L
453 46.424 L
cp
453.75 48.527 M
457.75 48.527 L
458.5 45.932 L
458.5 41.932 L
454.5 41.932 L
453.75 44.527 L
cp
458.5 45.932 M
459.25 42.674 L
459.25 38.674 L
455.25 38.674 L
454.5 41.932 L
454.5 45.932 L
cp
459.25 42.674 M
460 39 L
460 35 L
456 35 L
455.25 38.674 L
455.25 42.674 L
cp
460 39 M
460.75 35.326 L
460.75 31.326 L
456.75 31.326 L
456 35 L
456 39 L
cp
460.75 35.326 M
461.5 32.068 L
461.5 28.068 L
457.5 28.068 L
456.75 31.326 L
456.75 35.326 L
cp
457.5 32.068 M
461.5 32.068 L
462.25 29.473 L
462.25 25.473 L
458.25 25.473 L
457.5 28.068 L
cp
458.25 29.473 M
462.25 29.473 L
463 27.576 L
463 23.576 L
459 23.576 L
458.25 25.473 L
cp
463 27.576 M
463.75 26.276 L
463.75 22.276 L
459.75 22.276 L
459 23.576 L
459 27.576 L
cp
460.5 21.423 M
459.75 22.276 L
459.75 26.276 L
463.75 26.276 L
464.5 25.423 L
464.5 21.423 L
cp
465.25 20.879 M
461.25 20.879 L
460.5 21.423 L
460.5 25.423 L
464.5 25.423 L
465.25 24.879 L
cp
465.25 24.879 M
466 24.54 L
466 20.54 L
462 20.54 L
461.25 20.879 L
461.25 24.879 L
cp
466 24.54 M
466.75 24.33 L
466.75 20.33 L
462.75 20.33 L
462 20.54 L
462 24.54 L
cp
466.75 24.33 M
467.5 24.201 L
467.5 20.201 L
463.5 20.201 L
462.75 20.33 L
462.75 24.33 L
cp
467.5 24.201 M
468.25 24.122 L
468.25 20.122 L
464.25 20.122 L
463.5 20.201 L
463.5 24.201 L
cp
468.25 24.122 M
469 24.074 L
469 20.074 L
465 20.074 L
464.25 20.122 L
464.25 24.122 L
cp
469 24.074 M
469.75 24.045 L
469.75 20.045 L
465.75 20.045 L
465 20.074 L
465 24.074 L
cp
469.75 24.045 M
470.5 24.027 L
470.5 20.027 L
466.5 20.027 L
465.75 20.045 L
465.75 24.045 L
cp
470.5 24.027 M
471.25 24.017 L
471.25 20.017 L
467.25 20.017 L
466.5 20.027 L
466.5 24.027 L
cp
471.25 24.017 M
472 24.01 L
472 20.01 L
468 20.01 L
467.25 20.017 L
467.25 24.017 L
cp
472 24.01 M
472.75 24.006 L
472.75 20.006 L
468.75 20.006 L
468 20.01 L
468 24.01 L
cp
472.75 24.006 M
473.5 24.004 L
473.5 20.004 L
469.5 20.004 L
468.75 20.006 L
468.75 24.006 L
cp
473.5 24.004 M
474.25 24.002 L
474.25 20.002 L
470.25 20.002 L
469.5 20.004 L
469.5 24.004 L
cp
474.25 24.002 M
475 24.001 L
475 20.001 L
471 20.001 L
470.25 20.002 L
470.25 24.002 L
cp
f
GR
GS
[1 0 0 1 20 285] CT
0 0 0.302 RC
/Helvetica-Bold 12 F
GS
[1 0 0 1 0 0] CT
0 4.5 moveto 
1 -1 scale
(Number of Hidden Neurons S1:) t 
GR
GR
GS
[1 0 0 1 340 285] CT
0 0 0.302 RC
/Helvetica-Bold 12 F
GS
[1 0 0 1 0 0] CT
-7 4.5 moveto 
1 -1 scale
(1) t 
GR
GR
GS
[1 0 0 1 20 323] CT
0 0 0.302 RC
/Helvetica-Bold 12 F
GS
[1 0 0 1 0 0] CT
0 4.5 moveto 
1 -1 scale
(1) t 
GR
GR
GS
[1 0 0 1 340 323] CT
0 0 0.302 RC
/Helvetica-Bold 12 F
GS
[1 0 0 1 0 0] CT
-7 4.5 moveto 
1 -1 scale
(9) t 
GR
GR
GS
[1 0 0 1 20 345] CT
0 0 0.302 RC
/Helvetica-Bold 12 F
GS
[1 0 0 1 0 0] CT
0 4.5 moveto 
1 -1 scale
(Difficulty Index:) t 
GR
GR
GS
[1 0 0 1 340 345] CT
0 0 0.302 RC
/Helvetica-Bold 12 F
GS
[1 0 0 1 0 0] CT
-7 4.5 moveto 
1 -1 scale
(2) t 
GR
GR
GS
[1 0 0 1 20 383] CT
0 0 0.302 RC
/Helvetica-Bold 12 F
GS
[1 0 0 1 0 0] CT
0 4.5 moveto 
1 -1 scale
(1) t 
GR
GR
GS
[1 0 0 1 340 383] CT
0 0 0.302 RC
/Helvetica-Bold 12 F
GS
[1 0 0 1 0 0] CT
-7 4.5 moveto 
1 -1 scale
(9) t 
GR
GR
GS
0.949 0.949 0.569 RC
N
50 240 M
320 240 L
320 70 L
50 70 L
cp
f
GR
GS
0 0 0.302 RC
2 setlinecap
1 LJ
0.5 LW
N
50 240 M
320 240 L
S
GR
GS
0 0 0.302 RC
2 setlinecap
1 LJ
0.5 LW
N
50 70 M
320 70 L
S
GR
GS
0 0 0.302 RC
2 setlinecap
1 LJ
0.5 LW
N
50 240 M
50 237.3 L
S
GR
GS
0 0 0.302 RC
2 setlinecap
1 LJ
0.5 LW
N
83.75 240 M
83.75 237.3 L
S
GR
GS
0 0 0.302 RC
2 setlinecap
1 LJ
0.5 LW
N
117.5 240 M
117.5 237.3 L
S
GR
GS
0 0 0.302 RC
2 setlinecap
1 LJ
0.5 LW
N
151.25 240 M
151.25 237.3 L
S
GR
GS
0 0 0.302 RC
2 setlinecap
1 LJ
0.5 LW
N
185 240 M
185 237.3 L
S
GR
GS
0 0 0.302 RC
2 setlinecap
1 LJ
0.5 LW
N
218.75 240 M
218.75 237.3 L
S
GR
GS
0 0 0.302 RC
2 setlinecap
1 LJ
0.5 LW
N
252.5 240 M
252.5 237.3 L
S
GR
GS
0 0 0.302 RC
2 setlinecap
1 LJ
0.5 LW
N
286.25 240 M
286.25 237.3 L
S
GR
GS
0 0 0.302 RC
2 setlinecap
1 LJ
0.5 LW
N
320 240 M
320 237.3 L
S
GR
GS
0 0 0.302 RC
2 setlinecap
1 LJ
0.5 LW
N
50 70 M
50 72.7 L
S
GR
GS
0 0 0.302 RC
2 setlinecap
1 LJ
0.5 LW
N
83.75 70 M
83.75 72.7 L
S
GR
GS
0 0 0.302 RC
2 setlinecap
1 LJ
0.5 LW
N
117.5 70 M
117.5 72.7 L
S
GR
GS
0 0 0.302 RC
2 setlinecap
1 LJ
0.5 LW
N
151.25 70 M
151.25 72.7 L
S
GR
GS
0 0 0.302 RC
2 setlinecap
1 LJ
0.5 LW
N
185 70 M
185 72.7 L
S
GR
GS
0 0 0.302 RC
2 setlinecap
1 LJ
0.5 LW
N
218.75 70 M
218.75 72.7 L
S
GR
GS
0 0 0.302 RC
2 setlinecap
1 LJ
0.5 LW
N
252.5 70 M
252.5 72.7 L
S
GR
GS
0 0 0.302 RC
2 setlinecap
1 LJ
0.5 LW
N
286.25 70 M
286.25 72.7 L
S
GR
GS
0 0 0.302 RC
2 setlinecap
1 LJ
0.5 LW
N
320 70 M
320 72.7 L
S
GR
GS
[1 0 0 1 50 244] CT
0 0 0.302 RC
/Helvetica 10 F
GS
[1 0 0 1 0 0] CT
-5 10 moveto 
1 -1 scale
(-2) t 
GR
GR
GS
[1 0 0 1 83.75 244] CT
0 0 0.302 RC
/Helvetica 10 F
GS
[1 0 0 1 0 0] CT
-9 10 moveto 
1 -1 scale
(-1.5) t 
GR
GR
GS
[1 0 0 1 117.5 244] CT
0 0 0.302 RC
/Helvetica 10 F
GS
[1 0 0 1 0 0] CT
-5 10 moveto 
1 -1 scale
(-1) t 
GR
GR
GS
[1 0 0 1 151.25 244] CT
0 0 0.302 RC
/Helvetica 10 F
GS
[1 0 0 1 0 0] CT
-9 10 moveto 
1 -1 scale
(-0.5) t 
GR
GR
GS
[1 0 0 1 185 244] CT
0 0 0.302 RC
/Helvetica 10 F
GS
[1 0 0 1 0 0] CT
-3 10 moveto 
1 -1 scale
(0) t 
GR
GR
GS
[1 0 0 1 218.75 244] CT
0 0 0.302 RC
/Helvetica 10 F
GS
[1 0 0 1 0 0] CT
-7 10 moveto 
1 -1 scale
(0.5) t 
GR
GR
GS
[1 0 0 1 252.5 244] CT
0 0 0.302 RC
/Helvetica 10 F
GS
[1 0 0 1 0 0] CT
-3 10 moveto 
1 -1 scale
(1) t 
GR
GR
GS
[1 0 0 1 286.25 244] CT
0 0 0.302 RC
/Helvetica 10 F
GS
[1 0 0 1 0 0] CT
-7 10 moveto 
1 -1 scale
(1.5) t 
GR
GR
GS
[1 0 0 1 320 244] CT
0 0 0.302 RC
/Helvetica 10 F
GS
[1 0 0 1 0 0] CT
-3 10 moveto 
1 -1 scale
(2) t 
GR
GR
GS
[1 0 0 1 185.00012 257.5] CT
0 0 0.302 RC
/Helvetica-Bold 11 F
GS
[1 0 0 1 0 0] CT
-13.5 11 moveto 
1 -1 scale
(Input) t 
GR
GR
GS
0 0 0.302 RC
2 setlinecap
1 LJ
0.5 LW
N
50 240 M
50 70 L
S
GR
GS
0 0 0.302 RC
2 setlinecap
1 LJ
0.5 LW
N
320 240 M
320 70 L
S
GR
GS
0 0 0.302 RC
2 setlinecap
1 LJ
0.5 LW
N
50 240 M
52.7 240 L
S
GR
GS
0 0 0.302 RC
2 setlinecap
1 LJ
0.5 LW
N
50 197.5 M
52.7 197.5 L
S
GR
GS
0 0 0.302 RC
2 setlinecap
1 LJ
0.5 LW
N
50 155 M
52.7 155 L
S
GR
GS
0 0 0.302 RC
2 setlinecap
1 LJ
0.5 LW
N
50 112.5 M
52.7 112.5 L
S
GR
GS
0 0 0.302 RC
2 setlinecap
1 LJ
0.5 LW
N
50 70 M
52.7 70 L
S
GR
GS
0 0 0.302 RC
2 setlinecap
1 LJ
0.5 LW
N
320 240 M
317.3 240 L
S
GR
GS
0 0 0.302 RC
2 setlinecap
1 LJ
0.5 LW
N
320 197.5 M
317.3 197.5 L
S
GR
GS
0 0 0.302 RC
2 setlinecap
1 LJ
0.5 LW
N
320 155 M
317.3 155 L
S
GR
GS
0 0 0.302 RC
2 setlinecap
1 LJ
0.5 LW
N
320 112.5 M
317.3 112.5 L
S
GR
GS
0 0 0.302 RC
2 setlinecap
1 LJ
0.5 LW
N
320 70 M
317.3 70 L
S
GR
GS
[1 0 0 1 46 240] CT
0 0 0.302 RC
/Helvetica 10 F
GS
[1 0 0 1 0 0] CT
-6 3.5 moveto 
1 -1 scale
(0) t 
GR
GR
GS
[1 0 0 1 46 197.5] CT
0 0 0.302 RC
/Helvetica 10 F
GS
[1 0 0 1 0 0] CT
-14 3.5 moveto 
1 -1 scale
(0.5) t 
GR
GR
GS
[1 0 0 1 46 155] CT
0 0 0.302 RC
/Helvetica 10 F
GS
[1 0 0 1 0 0] CT
-6 3.5 moveto 
1 -1 scale
(1) t 
GR
GR
GS
[1 0 0 1 46 112.5] CT
0 0 0.302 RC
/Helvetica 10 F
GS
[1 0 0 1 0 0] CT
-14 3.5 moveto 
1 -1 scale
(1.5) t 
GR
GR
GS
[1 0 0 1 46 70] CT
0 0 0.302 RC
/Helvetica 10 F
GS
[1 0 0 1 0 0] CT
-6 3.5 moveto 
1 -1 scale
(2) t 
GR
GR
GS
[0 -1 1 0 28.99999 154.99992] CT
0 0 0.302 RC
/Helvetica-Bold 11 F
GS
[1 0 0 1 0 0] CT
-17.5 -3 moveto 
1 -1 scale
(Target) t 
GR
GR
GS
[1 0 0 1 185.00018 68.5] CT
0 0 0.302 RC
/Helvetica-Bold 12 F
GS
[1 0 0 1 0 0] CT
-69 -3 moveto 
1 -1 scale
(Function Approximation) t 
GR
GR
GS
[1 0 0 1 50 155] CT
1 0.102 0.102 RC
10.0 ML
N
0 -3 M
0 3 L
-3 0 M
3 0 L
S
GR
GS
[1 0 0 1 63.5 181.26645] CT
1 0.102 0.102 RC
10.0 ML
N
0 -3 M
0 3 L
-3 0 M
3 0 L
S
GR
GS
[1 0 0 1 77 204.96175] CT
1 0.102 0.102 RC
10.0 ML
N
0 -3 M
0 3 L
-3 0 M
3 0 L
S
GR
GS
[1 0 0 1 90.5 223.76645] CT
1 0.102 0.102 RC
10.0 ML
N
0 -3 M
0 3 L
-3 0 M
3 0 L
S
GR
GS
[1 0 0 1 104 235.8398] CT
1 0.102 0.102 RC
10.0 ML
N
0 -3 M
0 3 L
-3 0 M
3 0 L
S
GR
GS
[1 0 0 1 117.5 240] CT
1 0.102 0.102 RC
10.0 ML
N
0 -3 M
0 3 L
-3 0 M
3 0 L
S
GR
GS
[1 0 0 1 131 235.8398] CT
1 0.102 0.102 RC
10.0 ML
N
0 -3 M
0 3 L
-3 0 M
3 0 L
S
GR
GS
[1 0 0 1 144.5 223.76645] CT
1 0.102 0.102 RC
10.0 ML
N
0 -3 M
0 3 L
-3 0 M
3 0 L
S
GR
GS
[1 0 0 1 158 204.96175] CT
1 0.102 0.102 RC
10.0 ML
N
0 -3 M
0 3 L
-3 0 M
3 0 L
S
GR
GS
[1 0 0 1 171.5 181.26645] CT
1 0.102 0.102 RC
10.0 ML
N
0 -3 M
0 3 L
-3 0 M
3 0 L
S
GR
GS
[1 0 0 1 185 155] CT
1 0.102 0.102 RC
10.0 ML
N
0 -3 M
0 3 L
-3 0 M
3 0 L
S
GR
GS
[1 0 0 1 198.5 128.73357] CT
1 0.102 0.102 RC
10.0 ML
N
0 -3 M
0 3 L
-3 0 M
3 0 L
S
GR
GS
[1 0 0 1 212 105.03825] CT
1 0.102 0.102 RC
10.0 ML
N
0 -3 M
0 3 L
-3 0 M
3 0 L
S
GR
GS
[1 0 0 1 225.5 86.23356] CT
1 0.102 0.102 RC
10.0 ML
N
0 -3 M
0 3 L
-3 0 M
3 0 L
S
GR
GS
[1 0 0 1 239 74.1602] CT
1 0.102 0.102 RC
10.0 ML
N
0 -3 M
0 3 L
-3 0 M
3 0 L
S
GR
GS
[1 0 0 1 252.5 70] CT
1 0.102 0.102 RC
10.0 ML
N
0 -3 M
0 3 L
-3 0 M
3 0 L
S
GR
GS
[1 0 0 1 266 74.1602] CT
1 0.102 0.102 RC
10.0 ML
N
0 -3 M
0 3 L
-3 0 M
3 0 L
S
GR
GS
[1 0 0 1 279.5 86.23356] CT
1 0.102 0.102 RC
10.0 ML
N
0 -3 M
0 3 L
-3 0 M
3 0 L
S
GR
GS
[1 0 0 1 293 105.03825] CT
1 0.102 0.102 RC
10.0 ML
N
0 -3 M
0 3 L
-3 0 M
3 0 L
S
GR
GS
[1 0 0 1 306.5 128.73357] CT
1 0.102 0.102 RC
10.0 ML
N
0 -3 M
0 3 L
-3 0 M
3 0 L
S
GR
GS
[1 0 0 1 320 155] CT
1 0.102 0.102 RC
10.0 ML
N
0 -3 M
0 3 L
-3 0 M
3 0 L
S
GR
GS
0 0 0.302 RC
1 LJ
2 LW
N
50 212.129 M
51.35 212.129 L
52.7 212.129 L
54.05 212.128 L
55.4 212.128 L
56.75 212.128 L
58.1 212.128 L
59.45 212.128 L
60.8 212.128 L
62.15 212.128 L
63.5 212.128 L
64.85 212.128 L
66.2 212.128 L
67.55 212.128 L
68.9 212.128 L
70.25 212.128 L
71.6 212.128 L
72.95 212.127 L
74.3 212.127 L
75.65 212.127 L
77 212.127 L
78.35 212.127 L
79.7 212.126 L
81.05 212.126 L
82.4 212.126 L
83.75 212.125 L
85.1 212.125 L
86.45 212.124 L
87.8 212.123 L
89.15 212.122 L
90.5 212.121 L
91.85 212.12 L
93.2 212.119 L
94.55 212.118 L
95.9 212.116 L
97.25 212.114 L
98.6 212.112 L
99.95 212.11 L
101.3 212.107 L
102.65 212.104 L
104 212.1 L
105.35 212.096 L
106.7 212.091 L
108.05 212.085 L
109.4 212.079 L
110.75 212.071 L
112.1 212.063 L
113.45 212.053 L
114.8 212.042 L
116.15 212.029 L
117.5 212.015 L
118.85 211.998 L
120.2 211.978 L
121.55 211.956 L
122.9 211.93 L
124.25 211.901 L
125.6 211.868 L
126.95 211.829 L
128.3 211.785 L
129.65 211.734 L
131 211.676 L
132.35 211.609 L
133.7 211.532 L
135.05 211.444 L
136.4 211.344 L
137.75 211.228 L
139.1 211.096 L
140.45 210.945 L
141.8 210.771 L
143.15 210.573 L
144.5 210.346 L
145.85 210.087 L
147.2 209.79 L
148.55 209.452 L
149.9 209.066 L
151.25 208.626 L
152.6 208.126 L
153.95 207.556 L
155.3 206.91 L
156.65 206.177 L
158 205.348 L
159.35 204.411 L
160.7 203.355 L
162.05 202.169 L
163.4 200.839 L
164.75 199.353 L
166.1 197.699 L
167.45 195.866 L
168.8 193.842 L
170.15 191.619 L
171.5 189.191 L
172.85 186.553 L
174.2 183.706 L
175.55 180.655 L
176.9 177.409 L
178.25 173.983 L
179.6 170.396 L
180.95 166.672 L
182.3 162.843 L
183.65 158.94 L
185 155 L
186.35 151.06 L
187.7 147.157 L
189.05 143.328 L
190.4 139.604 L
191.75 136.017 L
193.1 132.591 L
194.45 129.345 L
195.8 126.294 L
197.15 123.447 L
198.5 120.809 L
199.85 118.381 L
201.2 116.158 L
202.55 114.134 L
203.9 112.301 L
205.25 110.647 L
206.6 109.161 L
207.95 107.831 L
209.3 106.645 L
210.65 105.589 L
212 104.652 L
213.35 103.823 L
214.7 103.09 L
216.05 102.444 L
217.4 101.874 L
218.75 101.374 L
220.1 100.934 L
221.45 100.548 L
222.8 100.21 L
224.15 99.913 L
225.5 99.654 L
226.85 99.427 L
228.2 99.229 L
229.55 99.055 L
230.9 98.904 L
232.25 98.772 L
233.6 98.656 L
234.95 98.556 L
236.3 98.468 L
237.65 98.391 L
239 98.324 L
240.35 98.266 L
241.7 98.215 L
243.05 98.171 L
244.4 98.132 L
245.75 98.099 L
247.1 98.07 L
248.45 98.044 L
249.8 98.022 L
251.15 98.002 L
252.5 97.985 L
253.85 97.971 L
255.2 97.958 L
256.55 97.947 L
257.9 97.937 L
259.25 97.929 L
260.6 97.921 L
261.95 97.915 L
263.3 97.909 L
264.65 97.904 L
266 97.9 L
267.35 97.896 L
268.7 97.893 L
270.05 97.89 L
271.4 97.888 L
272.75 97.886 L
274.1 97.884 L
275.45 97.882 L
276.8 97.881 L
278.15 97.88 L
279.5 97.879 L
280.85 97.878 L
282.2 97.877 L
283.55 97.876 L
284.9 97.875 L
286.25 97.875 L
287.6 97.874 L
288.95 97.874 L
290.3 97.874 L
291.65 97.873 L
293 97.873 L
294.35 97.873 L
295.7 97.873 L
297.05 97.873 L
298.4 97.872 L
299.75 97.872 L
301.1 97.872 L
302.45 97.872 L
303.8 97.872 L
305.15 97.872 L
306.5 97.872 L
307.85 97.872 L
309.2 97.872 L
310.55 97.872 L
311.9 97.872 L
313.25 97.872 L
314.6 97.872 L
315.95 97.872 L
317.3 97.871 L
318.65 97.871 L
320 97.871 L
S
GR
GS
[1 0 0 1 20 294] CT
[1 0 0 1 0 0] CT
N
0 0 M
0 15 L
320 15 L
320 0 L
cp
clip
GS
0 0 translate
320 15 scale
%AXGBeginBitmap: java.awt.image.BufferedImage
{{
/RawData currentfile /ASCII85Decode filter def
/Data RawData /FlateDecode filter def
/DeviceRGB setcolorspace
<<
  /ImageType 1
  /Decode [0 1 0 1 0 1]
  /DataSource Data
  /Height 15
  /ImageMatrix [320 0 0 15 0 0]
  /Width 320
  /BitsPerComponent 8
>> image
} stopped {handleerror} if
  RawData flushfile
} exec
Gb"0U5md];$p[[Nh@k-tSoG)h/H`j,`RJ&'[l%b@r2%FgTTh2ehV\#,:.>VK&(au$pA<P:"A\N6e1Y@U
lVYEYD,lYaOa\HXUr7/3jXiY\6,1bR`d#m@q$PEnd4_kmoVc-L+rFh!8,^=)77s*9;882EY=JOX[_*[S
$eb)se1Y@%kcom@qMejmhR<<hi*Jm"ghZY&&%ItRJmO79@9<~>

%AXGEndBitmap
GR
GR
GS
[1 0 0 1 20 354] CT
[1 0 0 1 0 0] CT
N
0 0 M
0 15 L
320 15 L
320 0 L
cp
clip
GS
0 0 translate
320 15 scale
%AXGBeginBitmap: java.awt.image.BufferedImage
{{
/RawData currentfile /ASCII85Decode filter def
/Data RawData /FlateDecode filter def
/DeviceRGB setcolorspace
<<
  /ImageType 1
  /Decode [0 1 0 1 0 1]
  /DataSource Data
  /Height 15
  /ImageMatrix [320 0 0 15 0 0]
  /Width 320
  /BitsPerComponent 8
>> image
} stopped {handleerror} if
  RawData flushfile
} exec
Gb"0U0b2&c&4=i.3[`!C39,TU8<F2+3&p4Qri;-D_SuEs"`k$j(q8f[McpMn>h&AJ^V"F<oDSRZ`('?N
!>kFA)s3f[)BK<sW9;tj#JJXV@),2ompAl*+42`\[7Z;Qo0.OY?;`f]RI0jeJ4hW:q7GPSOikKQn&iIs
Mq[4MjjPjo;2fMcr<r6r.<0jo%<FLsCMkiaU7QSH*;!.HK)le]]Gp"+QPpnR\>\TH0F,;@n6j%#4n&-+
U6Y].=2bCH/o$HI"b4?JYpqgPE)FsY!?cSp=9~>

%AXGEndBitmap
GR
GR
GS
[1 0 0 1 400 235] CT
[1 0 0 1 0 0] CT
N
0 0 M
0 20 L
60 20 L
60 0 L
cp
clip
GS
0 0 translate
60 20 scale
%AXGBeginBitmap: java.awt.image.BufferedImage
{{
/RawData currentfile /ASCII85Decode filter def
/Data RawData /FlateDecode filter def
/DeviceRGB setcolorspace
<<
  /ImageType 1
  /Decode [0 1 0 1 0 1]
  /DataSource Data
  /Height 20
  /ImageMatrix [60 0 0 20 0 0]
  /Width 60
  /BitsPerComponent 8
>> image
} stopped {handleerror} if
  RawData flushfile
} exec
Gb!=9]a]K7'EI+jVg1WIL^!qUK=2OSJq^aRJnm#+Bi1QaWR./8BO4\PhGe/@.Pt3AR[XZ/?%qF76M%?H
o:\MBWC$3Q6M"1H2W#u@5:W<!k!(LCCSf\~>

%AXGEndBitmap
GR
GR
GS
[1 0 0 1 400 235] CT
/Helvetica 10 F
GS
N
0 0 M
60 0 L
60 20 L
0 20 L
0 0 L
cp
clip
[1 0 0 1 0 0] CT
19 12 moveto 
1 -1 scale
(Train) t 
GR
GR
GS
[1 0 0 1 400 270] CT
[1 0 0 1 0 0] CT
N
0 0 M
0 20 L
60 20 L
60 0 L
cp
clip
GS
0 0 translate
60 20 scale
%AXGBeginBitmap: java.awt.image.BufferedImage
{{
/RawData currentfile /ASCII85Decode filter def
/Data RawData /FlateDecode filter def
/DeviceRGB setcolorspace
<<
  /ImageType 1
  /Decode [0 1 0 1 0 1]
  /DataSource Data
  /Height 20
  /ImageMatrix [60 0 0 20 0 0]
  /Width 60
  /BitsPerComponent 8
>> image
} stopped {handleerror} if
  RawData flushfile
} exec
Gb!=9]a]K7'EI+jVg1WIL^!qUK=2OSJq^aRJnm#+Bi1QaWR./8BO4\PhGe/@.Pt3AR[XZ/?%qF76M%?H
o:\MBWC$3Q6M"1H2W#u@5:W<!k!(LCCSf\~>

%AXGEndBitmap
GR
GR
GS
[1 0 0 1 400 270] CT
/Helvetica 10 F
GS
N
0 0 M
60 0 L
60 20 L
0 20 L
0 0 L
cp
clip
[1 0 0 1 0 0] CT
9 12 moveto 
1 -1 scale
(Contents) t 
GR
GR
GS
[1 0 0 1 400 305] CT
[1 0 0 1 0 0] CT
N
0 0 M
0 20 L
60 20 L
60 0 L
cp
clip
GS
0 0 translate
60 20 scale
%AXGBeginBitmap: java.awt.image.BufferedImage
{{
/RawData currentfile /ASCII85Decode filter def
/Data RawData /FlateDecode filter def
/DeviceRGB setcolorspace
<<
  /ImageType 1
  /Decode [0 1 0 1 0 1]
  /DataSource Data
  /Height 20
  /ImageMatrix [60 0 0 20 0 0]
  /Width 60
  /BitsPerComponent 8
>> image
} stopped {handleerror} if
  RawData flushfile
} exec
Gb!=9]a]K7'EI+jVg1WIL^!qUK=2OSJq^aRJnm#+Bi1QaWR./8BO4\PhGe/@.Pt3AR[XZ/?%qF76M%?H
o:\MBWC$3Q6M"1H2W#u@5:W<!k!(LCCSf\~>

%AXGEndBitmap
GR
GR
GS
[1 0 0 1 400 305] CT
/Helvetica 10 F
GS
N
0 0 M
60 0 L
60 20 L
0 20 L
0 0 L
cp
clip
[1 0 0 1 0 0] CT
17 12 moveto 
1 -1 scale
(Close) t 
GR
GR
%%Trailer
%%Pages: 1
%%EOF
