%!PS-Adobe-3.0 EPSF-3.0
%%Creator: (MATLAB, The Mathworks, Inc. Version 9.1.0.441655 \(R2016b\). Operating System: Windows 8)
%%Title: (C:/Users/Eigenaar/WIT/Data Mining/data-mining/Session 1/plots/earlystoppingperformance.eps)
%%CreationDate: 2017-11-10T22:40:21
%%Pages: (atend)
%%BoundingBox: 0 0 678 506
%%LanguageLevel: 3
%%EndComments
%%BeginProlog
%%BeginResource: procset (Apache XML Graphics Std ProcSet) 1.2 0
%%Version: 1.2 0
%%Copyright: (Copyright 2001-2003,2010 The Apache Software Foundation. License terms: http://www.apache.org/licenses/LICENSE-2.0)
/bd{bind def}bind def
/ld{load def}bd
/GR/grestore ld
/M/moveto ld
/LJ/setlinejoin ld
/C/curveto ld
/f/fill ld
/LW/setlinewidth ld
/GC/setgray ld
/t/show ld
/N/newpath ld
/CT/concat ld
/cp/closepath ld
/S/stroke ld
/L/lineto ld
/CC/setcmykcolor ld
/A/ashow ld
/GS/gsave ld
/RC/setrgbcolor ld
/RM/rmoveto ld
/ML/setmiterlimit ld
/re {4 2 roll M
1 index 0 rlineto
0 exch rlineto
neg 0 rlineto
cp } bd
/_ctm matrix def
/_tm matrix def
/BT { _ctm currentmatrix pop matrix _tm copy pop 0 0 moveto } bd
/ET { _ctm setmatrix } bd
/iTm { _ctm setmatrix _tm concat } bd
/Tm { _tm astore pop iTm 0 0 moveto } bd
/ux 0.0 def
/uy 0.0 def
/F {
  /Tp exch def
  /Tf exch def
  Tf findfont Tp scalefont setfont
  /cf Tf def  /cs Tp def
} bd
/ULS {currentpoint /uy exch def /ux exch def} bd
/ULE {
  /Tcx currentpoint pop def
  gsave
  newpath
  cf findfont cs scalefont dup
  /FontMatrix get 0 get /Ts exch def /FontInfo get dup
  /UnderlinePosition get Ts mul /To exch def
  /UnderlineThickness get Ts mul /Tt exch def
  ux uy To add moveto  Tcx uy To add lineto
  Tt setlinewidth stroke
  grestore
} bd
/OLE {
  /Tcx currentpoint pop def
  gsave
  newpath
  cf findfont cs scalefont dup
  /FontMatrix get 0 get /Ts exch def /FontInfo get dup
  /UnderlinePosition get Ts mul /To exch def
  /UnderlineThickness get Ts mul /Tt exch def
  ux uy To add cs add moveto Tcx uy To add cs add lineto
  Tt setlinewidth stroke
  grestore
} bd
/SOE {
  /Tcx currentpoint pop def
  gsave
  newpath
  cf findfont cs scalefont dup
  /FontMatrix get 0 get /Ts exch def /FontInfo get dup
  /UnderlinePosition get Ts mul /To exch def
  /UnderlineThickness get Ts mul /Tt exch def
  ux uy To add cs 10 mul 26 idiv add moveto Tcx uy To add cs 10 mul 26 idiv add lineto
  Tt setlinewidth stroke
  grestore
} bd
/QT {
/Y22 exch store
/X22 exch store
/Y21 exch store
/X21 exch store
currentpoint
/Y21 load 2 mul add 3 div exch
/X21 load 2 mul add 3 div exch
/X21 load 2 mul /X22 load add 3 div
/Y21 load 2 mul /Y22 load add 3 div
/X22 load /Y22 load curveto
} bd
/SSPD {
dup length /d exch dict def
{
/v exch def
/k exch def
currentpagedevice k known {
/cpdv currentpagedevice k get def
v cpdv ne {
/upd false def
/nullv v type /nulltype eq def
/nullcpdv cpdv type /nulltype eq def
nullv nullcpdv or
{
/upd true def
} {
/sametype v type cpdv type eq def
sametype {
v type /arraytype eq {
/vlen v length def
/cpdvlen cpdv length def
vlen cpdvlen eq {
0 1 vlen 1 sub {
/i exch def
/obj v i get def
/cpdobj cpdv i get def
obj cpdobj ne {
/upd true def
exit
} if
} for
} {
/upd true def
} ifelse
} {
v type /dicttype eq {
v {
/dv exch def
/dk exch def
/cpddv cpdv dk get def
dv cpddv ne {
/upd true def
exit
} if
} forall
} {
/upd true def
} ifelse
} ifelse
} if
} ifelse
upd true eq {
d k v put
} if
} if
} if
} forall
d length 0 gt {
d setpagedevice
} if
} bd
/RE { % /NewFontName [NewEncodingArray] /FontName RE -
  findfont dup length dict begin
  {
    1 index /FID ne
    {def} {pop pop} ifelse
  } forall
  /Encoding exch def
  /FontName 1 index def
  currentdict definefont pop
  end
} bind def
%%EndResource
%%BeginResource: procset (Apache XML Graphics EPS ProcSet) 1.0 0
%%Version: 1.0 0
%%Copyright: (Copyright 2002-2003 The Apache Software Foundation. License terms: http://www.apache.org/licenses/LICENSE-2.0)
/BeginEPSF { %def
/b4_Inc_state save def         % Save state for cleanup
/dict_count countdictstack def % Count objects on dict stack
/op_count count 1 sub def      % Count objects on operand stack
userdict begin                 % Push userdict on dict stack
/showpage { } def              % Redefine showpage, { } = null proc
0 setgray 0 setlinecap         % Prepare graphics state
1 setlinewidth 0 setlinejoin
10 setmiterlimit [ ] 0 setdash newpath
/languagelevel where           % If level not equal to 1 then
{pop languagelevel             % set strokeadjust and
1 ne                           % overprint to their defaults.
{false setstrokeadjust false setoverprint
} if
} if
} bd
/EndEPSF { %def
count op_count sub {pop} repeat            % Clean up stacks
countdictstack dict_count sub {end} repeat
b4_Inc_state restore
} bd
%%EndResource
%FOPBeginFontDict
%%IncludeResource: font Courier-Bold
%%IncludeResource: font Helvetica
%%IncludeResource: font Courier-BoldOblique
%%IncludeResource: font Courier-Oblique
%%IncludeResource: font Times-Roman
%%IncludeResource: font Helvetica-BoldOblique
%%IncludeResource: font Helvetica-Bold
%%IncludeResource: font Helvetica-Oblique
%%IncludeResource: font Times-BoldItalic
%%IncludeResource: font Courier
%%IncludeResource: font Times-Italic
%%IncludeResource: font Times-Bold
%%IncludeResource: font Symbol
%%IncludeResource: font ZapfDingbats
%FOPEndFontDict
%%BeginResource: encoding WinAnsiEncoding
/WinAnsiEncoding [
/.notdef /.notdef /.notdef /.notdef /.notdef
/.notdef /.notdef /.notdef /.notdef /.notdef
/.notdef /.notdef /.notdef /.notdef /.notdef
/.notdef /.notdef /.notdef /.notdef /.notdef
/.notdef /.notdef /.notdef /.notdef /.notdef
/.notdef /.notdef /.notdef /.notdef /.notdef
/.notdef /.notdef /space /exclam /quotedbl
/numbersign /dollar /percent /ampersand /quotesingle
/parenleft /parenright /asterisk /plus /comma
/hyphen /period /slash /zero /one
/two /three /four /five /six
/seven /eight /nine /colon /semicolon
/less /equal /greater /question /at
/A /B /C /D /E
/F /G /H /I /J
/K /L /M /N /O
/P /Q /R /S /T
/U /V /W /X /Y
/Z /bracketleft /backslash /bracketright /asciicircum
/underscore /quoteleft /a /b /c
/d /e /f /g /h
/i /j /k /l /m
/n /o /p /q /r
/s /t /u /v /w
/x /y /z /braceleft /bar
/braceright /asciitilde /bullet /Euro /bullet
/quotesinglbase /florin /quotedblbase /ellipsis /dagger
/daggerdbl /circumflex /perthousand /Scaron /guilsinglleft
/OE /bullet /Zcaron /bullet /bullet
/quoteleft /quoteright /quotedblleft /quotedblright /bullet
/endash /emdash /asciitilde /trademark /scaron
/guilsinglright /oe /bullet /zcaron /Ydieresis
/space /exclamdown /cent /sterling /currency
/yen /brokenbar /section /dieresis /copyright
/ordfeminine /guillemotleft /logicalnot /sfthyphen /registered
/macron /degree /plusminus /twosuperior /threesuperior
/acute /mu /paragraph /middot /cedilla
/onesuperior /ordmasculine /guillemotright /onequarter /onehalf
/threequarters /questiondown /Agrave /Aacute /Acircumflex
/Atilde /Adieresis /Aring /AE /Ccedilla
/Egrave /Eacute /Ecircumflex /Edieresis /Igrave
/Iacute /Icircumflex /Idieresis /Eth /Ntilde
/Ograve /Oacute /Ocircumflex /Otilde /Odieresis
/multiply /Oslash /Ugrave /Uacute /Ucircumflex
/Udieresis /Yacute /Thorn /germandbls /agrave
/aacute /acircumflex /atilde /adieresis /aring
/ae /ccedilla /egrave /eacute /ecircumflex
/edieresis /igrave /iacute /icircumflex /idieresis
/eth /ntilde /ograve /oacute /ocircumflex
/otilde /odieresis /divide /oslash /ugrave
/uacute /ucircumflex /udieresis /yacute /thorn
/ydieresis
] def
%%EndResource
%FOPBeginFontReencode
/Courier-Bold findfont
dup length dict begin
  {1 index /FID ne {def} {pop pop} ifelse} forall
  /Encoding WinAnsiEncoding def
  currentdict
end
/Courier-Bold exch definefont pop
/Helvetica findfont
dup length dict begin
  {1 index /FID ne {def} {pop pop} ifelse} forall
  /Encoding WinAnsiEncoding def
  currentdict
end
/Helvetica exch definefont pop
/Courier-BoldOblique findfont
dup length dict begin
  {1 index /FID ne {def} {pop pop} ifelse} forall
  /Encoding WinAnsiEncoding def
  currentdict
end
/Courier-BoldOblique exch definefont pop
/Courier-Oblique findfont
dup length dict begin
  {1 index /FID ne {def} {pop pop} ifelse} forall
  /Encoding WinAnsiEncoding def
  currentdict
end
/Courier-Oblique exch definefont pop
/Times-Roman findfont
dup length dict begin
  {1 index /FID ne {def} {pop pop} ifelse} forall
  /Encoding WinAnsiEncoding def
  currentdict
end
/Times-Roman exch definefont pop
/Helvetica-BoldOblique findfont
dup length dict begin
  {1 index /FID ne {def} {pop pop} ifelse} forall
  /Encoding WinAnsiEncoding def
  currentdict
end
/Helvetica-BoldOblique exch definefont pop
/Helvetica-Bold findfont
dup length dict begin
  {1 index /FID ne {def} {pop pop} ifelse} forall
  /Encoding WinAnsiEncoding def
  currentdict
end
/Helvetica-Bold exch definefont pop
/Helvetica-Oblique findfont
dup length dict begin
  {1 index /FID ne {def} {pop pop} ifelse} forall
  /Encoding WinAnsiEncoding def
  currentdict
end
/Helvetica-Oblique exch definefont pop
/Times-BoldItalic findfont
dup length dict begin
  {1 index /FID ne {def} {pop pop} ifelse} forall
  /Encoding WinAnsiEncoding def
  currentdict
end
/Times-BoldItalic exch definefont pop
/Courier findfont
dup length dict begin
  {1 index /FID ne {def} {pop pop} ifelse} forall
  /Encoding WinAnsiEncoding def
  currentdict
end
/Courier exch definefont pop
/Times-Italic findfont
dup length dict begin
  {1 index /FID ne {def} {pop pop} ifelse} forall
  /Encoding WinAnsiEncoding def
  currentdict
end
/Times-Italic exch definefont pop
/Times-Bold findfont
dup length dict begin
  {1 index /FID ne {def} {pop pop} ifelse} forall
  /Encoding WinAnsiEncoding def
  currentdict
end
/Times-Bold exch definefont pop
%FOPEndFontReencode
%%EndProlog
%%Page: 1 1
%%PageBoundingBox: 0 0 678 506
%%BeginPageSetup
[1 0 0 -1 0 506] CT
%%EndPageSetup
GS
[0.75 0 0 0.75 0 0.5] CT
1 GC
N
0 0 904 674 re
f
GR
GS
[0.75 0 0 0.75 0 0.5] CT
1 GC
N
0 0 904 674 re
f
GR
GS
[0.75 0 0 0.75 0 0.5] CT
1 GC
N
118 600 M
818 600 L
818 51 L
118 51 L
cp
f
GR
GS
[0.75 0 0 0.75 0 0.5] CT
0.149 GC
2 setlinecap
1 LJ
0.667 LW
N
118 600 M
818 600 L
S
GR
GS
[0.75 0 0 0.75 0 0.5] CT
0.149 GC
2 setlinecap
1 LJ
0.667 LW
N
118 600 M
118 593 L
S
GR
GS
[0.75 0 0 0.75 0 0.5] CT
0.149 GC
2 setlinecap
1 LJ
0.667 LW
N
195.778 600 M
195.778 593 L
S
GR
GS
[0.75 0 0 0.75 0 0.5] CT
0.149 GC
2 setlinecap
1 LJ
0.667 LW
N
273.556 600 M
273.556 593 L
S
GR
GS
[0.75 0 0 0.75 0 0.5] CT
0.149 GC
2 setlinecap
1 LJ
0.667 LW
N
351.333 600 M
351.333 593 L
S
GR
GS
[0.75 0 0 0.75 0 0.5] CT
0.149 GC
2 setlinecap
1 LJ
0.667 LW
N
429.111 600 M
429.111 593 L
S
GR
GS
[0.75 0 0 0.75 0 0.5] CT
0.149 GC
2 setlinecap
1 LJ
0.667 LW
N
506.889 600 M
506.889 593 L
S
GR
GS
[0.75 0 0 0.75 0 0.5] CT
0.149 GC
2 setlinecap
1 LJ
0.667 LW
N
584.667 600 M
584.667 593 L
S
GR
GS
[0.75 0 0 0.75 0 0.5] CT
0.149 GC
2 setlinecap
1 LJ
0.667 LW
N
662.444 600 M
662.444 593 L
S
GR
GS
[0.75 0 0 0.75 0 0.5] CT
0.149 GC
2 setlinecap
1 LJ
0.667 LW
N
740.222 600 M
740.222 593 L
S
GR
GS
[0.75 0 0 0.75 0 0.5] CT
0.149 GC
2 setlinecap
1 LJ
0.667 LW
N
818 600 M
818 593 L
S
GR
GS
[0.75 0 0 0.75 88.5 456.10001] CT
0.149 GC
/Helvetica 24 F
GS
[1 0 0 1 0 0] CT
-7 25 moveto 
1 -1 scale
(0) t 
GR
GR
GS
[0.75 0 0 0.75 146.83333 456.10001] CT
0.149 GC
/Helvetica 24 F
GS
[1 0 0 1 0 0] CT
-7 25 moveto 
1 -1 scale
(2) t 
GR
GR
GS
[0.75 0 0 0.75 205.16666 456.10001] CT
0.149 GC
/Helvetica 24 F
GS
[1 0 0 1 0 0] CT
-7 25 moveto 
1 -1 scale
(4) t 
GR
GR
GS
[0.75 0 0 0.75 263.50001 456.10001] CT
0.149 GC
/Helvetica 24 F
GS
[1 0 0 1 0 0] CT
-7 25 moveto 
1 -1 scale
(6) t 
GR
GR
GS
[0.75 0 0 0.75 321.83334 456.10001] CT
0.149 GC
/Helvetica 24 F
GS
[1 0 0 1 0 0] CT
-7 25 moveto 
1 -1 scale
(8) t 
GR
GR
GS
[0.75 0 0 0.75 380.16669 456.10001] CT
0.149 GC
/Helvetica 24 F
GS
[1 0 0 1 0 0] CT
-13.5 25 moveto 
1 -1 scale
(10) t 
GR
GR
GS
[0.75 0 0 0.75 438.50002 456.10001] CT
0.149 GC
/Helvetica 24 F
GS
[1 0 0 1 0 0] CT
-13.5 25 moveto 
1 -1 scale
(12) t 
GR
GR
GS
[0.75 0 0 0.75 496.83334 456.10001] CT
0.149 GC
/Helvetica 24 F
GS
[1 0 0 1 0 0] CT
-13.5 25 moveto 
1 -1 scale
(14) t 
GR
GR
GS
[0.75 0 0 0.75 555.16667 456.10001] CT
0.149 GC
/Helvetica 24 F
GS
[1 0 0 1 0 0] CT
-13.5 25 moveto 
1 -1 scale
(16) t 
GR
GR
GS
[0.75 0 0 0.75 613.5 456.10001] CT
0.149 GC
/Helvetica 24 F
GS
[1 0 0 1 0 0] CT
-13.5 25 moveto 
1 -1 scale
(18) t 
GR
GR
GS
[0.75 0 0 0.75 351.00025 480.34999] CT
0.149 GC
/Helvetica 26.4 F
GS
[1 0 0 1 0 0] CT
-61.5 27 moveto 
1 -1 scale
(18 Epochs) t 
GR
GR
GS
[0.75 0 0 0.75 0 0.5] CT
0.149 GC
2 setlinecap
1 LJ
0.667 LW
N
118 600 M
118 51 L
S
GR
GS
[0.75 0 0 0.75 0 0.5] CT
0.149 GC
2 setlinecap
1 LJ
0.667 LW
N
118 591.863 M
125 591.863 L
S
GR
GS
[0.75 0 0 0.75 0 0.5] CT
0.149 GC
2 setlinecap
1 LJ
0.667 LW
N
118 414.029 M
125 414.029 L
S
GR
GS
[0.75 0 0 0.75 0 0.5] CT
0.149 GC
2 setlinecap
1 LJ
0.667 LW
N
118 236.195 M
125 236.195 L
S
GR
GS
[0.75 0 0 0.75 0 0.5] CT
0.149 GC
2 setlinecap
1 LJ
0.667 LW
N
118 58.361 M
125 58.361 L
S
GR
GS
[0.75 0 0 0.75 0 0.5] CT
0.149 GC
2 setlinecap
1 LJ
0.667 LW
N
118 600 M
121.5 600 L
S
GR
GS
[0.75 0 0 0.75 0 0.5] CT
0.149 GC
2 setlinecap
1 LJ
0.667 LW
N
118 591.863 M
121.5 591.863 L
S
GR
GS
[0.75 0 0 0.75 0 0.5] CT
0.149 GC
2 setlinecap
1 LJ
0.667 LW
N
118 538.329 M
121.5 538.329 L
S
GR
GS
[0.75 0 0 0.75 0 0.5] CT
0.149 GC
2 setlinecap
1 LJ
0.667 LW
N
118 507.014 M
121.5 507.014 L
S
GR
GS
[0.75 0 0 0.75 0 0.5] CT
0.149 GC
2 setlinecap
1 LJ
0.667 LW
N
118 484.796 M
121.5 484.796 L
S
GR
GS
[0.75 0 0 0.75 0 0.5] CT
0.149 GC
2 setlinecap
1 LJ
0.667 LW
N
118 467.562 M
121.5 467.562 L
S
GR
GS
[0.75 0 0 0.75 0 0.5] CT
0.149 GC
2 setlinecap
1 LJ
0.667 LW
N
118 453.481 M
121.5 453.481 L
S
GR
GS
[0.75 0 0 0.75 0 0.5] CT
0.149 GC
2 setlinecap
1 LJ
0.667 LW
N
118 441.576 M
121.5 441.576 L
S
GR
GS
[0.75 0 0 0.75 0 0.5] CT
0.149 GC
2 setlinecap
1 LJ
0.667 LW
N
118 431.263 M
121.5 431.263 L
S
GR
GS
[0.75 0 0 0.75 0 0.5] CT
0.149 GC
2 setlinecap
1 LJ
0.667 LW
N
118 422.166 M
121.5 422.166 L
S
GR
GS
[0.75 0 0 0.75 0 0.5] CT
0.149 GC
2 setlinecap
1 LJ
0.667 LW
N
118 414.029 M
121.5 414.029 L
S
GR
GS
[0.75 0 0 0.75 0 0.5] CT
0.149 GC
2 setlinecap
1 LJ
0.667 LW
N
118 360.496 M
121.5 360.496 L
S
GR
GS
[0.75 0 0 0.75 0 0.5] CT
0.149 GC
2 setlinecap
1 LJ
0.667 LW
N
118 329.181 M
121.5 329.181 L
S
GR
GS
[0.75 0 0 0.75 0 0.5] CT
0.149 GC
2 setlinecap
1 LJ
0.667 LW
N
118 306.962 M
121.5 306.962 L
S
GR
GS
[0.75 0 0 0.75 0 0.5] CT
0.149 GC
2 setlinecap
1 LJ
0.667 LW
N
118 289.728 M
121.5 289.728 L
S
GR
GS
[0.75 0 0 0.75 0 0.5] CT
0.149 GC
2 setlinecap
1 LJ
0.667 LW
N
118 275.647 M
121.5 275.647 L
S
GR
GS
[0.75 0 0 0.75 0 0.5] CT
0.149 GC
2 setlinecap
1 LJ
0.667 LW
N
118 263.742 M
121.5 263.742 L
S
GR
GS
[0.75 0 0 0.75 0 0.5] CT
0.149 GC
2 setlinecap
1 LJ
0.667 LW
N
118 253.429 M
121.5 253.429 L
S
GR
GS
[0.75 0 0 0.75 0 0.5] CT
0.149 GC
2 setlinecap
1 LJ
0.667 LW
N
118 244.332 M
121.5 244.332 L
S
GR
GS
[0.75 0 0 0.75 0 0.5] CT
0.149 GC
2 setlinecap
1 LJ
0.667 LW
N
118 236.195 M
121.5 236.195 L
S
GR
GS
[0.75 0 0 0.75 0 0.5] CT
0.149 GC
2 setlinecap
1 LJ
0.667 LW
N
118 182.662 M
121.5 182.662 L
S
GR
GS
[0.75 0 0 0.75 0 0.5] CT
0.149 GC
2 setlinecap
1 LJ
0.667 LW
N
118 151.347 M
121.5 151.347 L
S
GR
GS
[0.75 0 0 0.75 0 0.5] CT
0.149 GC
2 setlinecap
1 LJ
0.667 LW
N
118 129.128 M
121.5 129.128 L
S
GR
GS
[0.75 0 0 0.75 0 0.5] CT
0.149 GC
2 setlinecap
1 LJ
0.667 LW
N
118 111.894 M
121.5 111.894 L
S
GR
GS
[0.75 0 0 0.75 0 0.5] CT
0.149 GC
2 setlinecap
1 LJ
0.667 LW
N
118 97.813 M
121.5 97.813 L
S
GR
GS
[0.75 0 0 0.75 0 0.5] CT
0.149 GC
2 setlinecap
1 LJ
0.667 LW
N
118 85.908 M
121.5 85.908 L
S
GR
GS
[0.75 0 0 0.75 0 0.5] CT
0.149 GC
2 setlinecap
1 LJ
0.667 LW
N
118 75.595 M
121.5 75.595 L
S
GR
GS
[0.75 0 0 0.75 0 0.5] CT
0.149 GC
2 setlinecap
1 LJ
0.667 LW
N
118 66.498 M
121.5 66.498 L
S
GR
GS
[0.75 0 0 0.75 0 0.5] CT
0.149 GC
2 setlinecap
1 LJ
0.667 LW
N
118 58.361 M
121.5 58.361 L
S
GR
GS
[0.75 0 0 0.75 50.25 454.25] CT
0.149 GC
/Helvetica 24 F
GS
[1 0 0 1 0 0] CT
0 0 moveto 
1 -1 scale
(10) t 
GR
GR
GS
[0.75 0 0 0.75 70.5 445.25] CT
0.149 GC
/Helvetica 19.2 F
GS
[1 0 0 1 0 0] CT
0 0 moveto 
1 -1 scale
(-2) t 
GR
GR
GS
[0.75 0 0 0.75 50.25 320.75] CT
0.149 GC
/Helvetica 24 F
GS
[1 0 0 1 0 0] CT
0 0 moveto 
1 -1 scale
(10) t 
GR
GR
GS
[0.75 0 0 0.75 70.5 311.75] CT
0.149 GC
/Helvetica 19.2 F
GS
[1 0 0 1 0 0] CT
0 0 moveto 
1 -1 scale
(-1) t 
GR
GR
GS
[0.75 0 0 0.75 54.75 187.25] CT
0.149 GC
/Helvetica 24 F
GS
[1 0 0 1 0 0] CT
0 0 moveto 
1 -1 scale
(10) t 
GR
GR
GS
[0.75 0 0 0.75 75 178.25] CT
0.149 GC
/Helvetica 19.2 F
GS
[1 0 0 1 0 0] CT
0 0 moveto 
1 -1 scale
(0) t 
GR
GR
GS
[0.75 0 0 0.75 54.75 53.75] CT
0.149 GC
/Helvetica 24 F
GS
[1 0 0 1 0 0] CT
0 0 moveto 
1 -1 scale
(10) t 
GR
GR
GS
[0.75 0 0 0.75 75 44.75] CT
0.149 GC
/Helvetica 19.2 F
GS
[1 0 0 1 0 0] CT
0 0 moveto 
1 -1 scale
(1) t 
GR
GR
GS
[0 -0.75 0.75 0 46.9 244.62479] CT
0.149 GC
/Helvetica 26.4 F
GS
[1 0 0 1 0 0] CT
-158.5 -6 moveto 
1 -1 scale
(Mean Squared Error  \(mse\)) t 
GR
GR
GS
[0.75 0 0 0.75 351.00034 35.0375] CT
/Helvetica-Bold 26.4 F
GS
[1 0 0 1 0 0] CT
-317.5 -6 moveto 
1 -1 scale
(Best Validation Performance is 0.10226 at epoch 12) t 
GR
GR
GS
[0.75 0 0 0.75 0 0.5] CT
0 0 1 RC
1 LJ
2.667 LW
N
118 114.93 M
156.889 211.543 L
195.778 251.122 L
234.667 269.494 L
273.556 275.721 L
312.444 281.583 L
351.333 289.09 L
390.222 316.55 L
429.111 341.305 L
468 356.219 L
506.889 367.351 L
545.778 379.565 L
584.667 380.254 L
623.556 392.197 L
662.444 392.379 L
701.333 400.045 L
740.222 407.544 L
779.111 407.971 L
818 412.379 L
S
GR
GS
[0.75 0 0 0.75 0 0.5] CT
0 0.8 0 RC
1 LJ
2.667 LW
N
118 123.077 M
156.889 210.369 L
195.778 256.869 L
234.667 286.078 L
273.556 283.774 L
312.444 288.86 L
351.333 294.309 L
390.222 313.699 L
429.111 343.345 L
468 357.11 L
506.889 366.857 L
545.778 382.817 L
584.667 412.303 L
623.556 395.107 L
662.444 394.036 L
701.333 402.007 L
740.222 408.744 L
779.111 406.036 L
818 411.921 L
S
GR
GS
[0.75 0 0 0.75 0 0.5] CT
1 0 0 RC
1 LJ
2.667 LW
N
118 123.072 M
156.889 216.873 L
195.778 261.444 L
234.667 289.992 L
273.556 291.674 L
312.444 296.244 L
351.333 303.045 L
390.222 325.133 L
429.111 359.44 L
468 379.393 L
506.889 383.903 L
545.778 399.412 L
584.667 425.812 L
623.556 403.427 L
662.444 410.819 L
701.333 414.891 L
740.222 426.674 L
779.111 425.953 L
818 431.123 L
S
GR
GS
[0.75 0 0 0.75 0 0.5] CT
0 0.478 0 RC
[1 3] 0 setdash
2 LJ
0.667 LW
N
584.667 600 M
584.667 51 L
S
GR
GS
[0.75 0 0 0.75 0 0.5] CT
0 0.478 0 RC
[1 3] 0 setdash
2 LJ
0.667 LW
N
118 412.303 M
818 412.303 L
S
GR
GS
[0.75 0 0 0.75 438.50002 309.72755] CT
0 0.478 0 RC
10.0 ML
2 LW
N
10.167 -0.5 M
10.167 -6.391 5.391 -11.167 -0.5 -11.167 C
-6.391 -11.167 -11.167 -6.391 -11.167 -0.5 C
-11.167 5.391 -6.391 10.167 -0.5 10.167 C
5.391 10.167 10.167 5.391 10.167 -0.5 C
S
GR
GS
[0.75 0 0 0.75 0 0.5] CT
1 GC
N
667 182 M
667 64 L
805 64 L
805 182 L
cp
f
GR
GS
[0.75 0 0 0.75 528 60.55106] CT
/Helvetica 21.6 F
GS
[1 0 0 1 0 0] CT
0 9 moveto 
1 -1 scale
(Train) t 
GR
GR
GS
[0.75 0 0 0.75 0 0.5] CT
0 0 1 RC
1 LJ
2.667 LW
N
671 80.068 M
701 80.068 L
S
GR
GS
[0.75 0 0 0.75 528 82.01702] CT
/Helvetica 21.6 F
GS
[1 0 0 1 0 0] CT
0 9 moveto 
1 -1 scale
(Validation) t 
GR
GR
GS
[0.75 0 0 0.75 0 0.5] CT
0 0.8 0 RC
1 LJ
2.667 LW
N
671 108.689 M
701 108.689 L
S
GR
GS
[0.75 0 0 0.75 528 103.48298] CT
/Helvetica 21.6 F
GS
[1 0 0 1 0 0] CT
0 9 moveto 
1 -1 scale
(Test) t 
GR
GR
GS
[0.75 0 0 0.75 0 0.5] CT
1 0 0 RC
1 LJ
2.667 LW
N
671 137.311 M
701 137.311 L
S
GR
GS
[0.75 0 0 0.75 528 124.94894] CT
/Helvetica 21.6 F
GS
[1 0 0 1 0 0] CT
0 9 moveto 
1 -1 scale
(Best) t 
GR
GR
GS
[0.75 0 0 0.75 0 0.5] CT
0 0.478 0 RC
[1 3] 0 setdash
2 LJ
0.667 LW
N
671 165.932 M
701 165.932 L
S
GR
GS
[0.75 0 0 0.75 0 0.5] CT
0.149 GC
10.0 ML
0.667 LW
N
667 182 M
667 64 L
805 64 L
805 182 L
cp
S
GR
%%Trailer
%%Pages: 1
%%EOF
