%!PS-Adobe-3.0 EPSF-3.0
%%Creator: (MATLAB, The Mathworks, Inc. Version 9.1.0.441655 \(R2016b\). Operating System: Windows 8)
%%Title: (C:/Users/Eigenaar/WIT/Data Mining/data-mining/Session 1/plots/earlystopping.eps)
%%CreationDate: 2017-11-10T22:37:24
%%Pages: (atend)
%%BoundingBox: 0 0 765 554
%%LanguageLevel: 3
%%EndComments
%%BeginProlog
%%BeginResource: procset (Apache XML Graphics Std ProcSet) 1.2 0
%%Version: 1.2 0
%%Copyright: (Copyright 2001-2003,2010 The Apache Software Foundation. License terms: http://www.apache.org/licenses/LICENSE-2.0)
/bd{bind def}bind def
/ld{load def}bd
/GR/grestore ld
/M/moveto ld
/LJ/setlinejoin ld
/C/curveto ld
/f/fill ld
/LW/setlinewidth ld
/GC/setgray ld
/t/show ld
/N/newpath ld
/CT/concat ld
/cp/closepath ld
/S/stroke ld
/L/lineto ld
/CC/setcmykcolor ld
/A/ashow ld
/GS/gsave ld
/RC/setrgbcolor ld
/RM/rmoveto ld
/ML/setmiterlimit ld
/re {4 2 roll M
1 index 0 rlineto
0 exch rlineto
neg 0 rlineto
cp } bd
/_ctm matrix def
/_tm matrix def
/BT { _ctm currentmatrix pop matrix _tm copy pop 0 0 moveto } bd
/ET { _ctm setmatrix } bd
/iTm { _ctm setmatrix _tm concat } bd
/Tm { _tm astore pop iTm 0 0 moveto } bd
/ux 0.0 def
/uy 0.0 def
/F {
  /Tp exch def
  /Tf exch def
  Tf findfont Tp scalefont setfont
  /cf Tf def  /cs Tp def
} bd
/ULS {currentpoint /uy exch def /ux exch def} bd
/ULE {
  /Tcx currentpoint pop def
  gsave
  newpath
  cf findfont cs scalefont dup
  /FontMatrix get 0 get /Ts exch def /FontInfo get dup
  /UnderlinePosition get Ts mul /To exch def
  /UnderlineThickness get Ts mul /Tt exch def
  ux uy To add moveto  Tcx uy To add lineto
  Tt setlinewidth stroke
  grestore
} bd
/OLE {
  /Tcx currentpoint pop def
  gsave
  newpath
  cf findfont cs scalefont dup
  /FontMatrix get 0 get /Ts exch def /FontInfo get dup
  /UnderlinePosition get Ts mul /To exch def
  /UnderlineThickness get Ts mul /Tt exch def
  ux uy To add cs add moveto Tcx uy To add cs add lineto
  Tt setlinewidth stroke
  grestore
} bd
/SOE {
  /Tcx currentpoint pop def
  gsave
  newpath
  cf findfont cs scalefont dup
  /FontMatrix get 0 get /Ts exch def /FontInfo get dup
  /UnderlinePosition get Ts mul /To exch def
  /UnderlineThickness get Ts mul /Tt exch def
  ux uy To add cs 10 mul 26 idiv add moveto Tcx uy To add cs 10 mul 26 idiv add lineto
  Tt setlinewidth stroke
  grestore
} bd
/QT {
/Y22 exch store
/X22 exch store
/Y21 exch store
/X21 exch store
currentpoint
/Y21 load 2 mul add 3 div exch
/X21 load 2 mul add 3 div exch
/X21 load 2 mul /X22 load add 3 div
/Y21 load 2 mul /Y22 load add 3 div
/X22 load /Y22 load curveto
} bd
/SSPD {
dup length /d exch dict def
{
/v exch def
/k exch def
currentpagedevice k known {
/cpdv currentpagedevice k get def
v cpdv ne {
/upd false def
/nullv v type /nulltype eq def
/nullcpdv cpdv type /nulltype eq def
nullv nullcpdv or
{
/upd true def
} {
/sametype v type cpdv type eq def
sametype {
v type /arraytype eq {
/vlen v length def
/cpdvlen cpdv length def
vlen cpdvlen eq {
0 1 vlen 1 sub {
/i exch def
/obj v i get def
/cpdobj cpdv i get def
obj cpdobj ne {
/upd true def
exit
} if
} for
} {
/upd true def
} ifelse
} {
v type /dicttype eq {
v {
/dv exch def
/dk exch def
/cpddv cpdv dk get def
dv cpddv ne {
/upd true def
exit
} if
} forall
} {
/upd true def
} ifelse
} ifelse
} if
} ifelse
upd true eq {
d k v put
} if
} if
} if
} forall
d length 0 gt {
d setpagedevice
} if
} bd
/RE { % /NewFontName [NewEncodingArray] /FontName RE -
  findfont dup length dict begin
  {
    1 index /FID ne
    {def} {pop pop} ifelse
  } forall
  /Encoding exch def
  /FontName 1 index def
  currentdict definefont pop
  end
} bind def
%%EndResource
%%BeginResource: procset (Apache XML Graphics EPS ProcSet) 1.0 0
%%Version: 1.0 0
%%Copyright: (Copyright 2002-2003 The Apache Software Foundation. License terms: http://www.apache.org/licenses/LICENSE-2.0)
/BeginEPSF { %def
/b4_Inc_state save def         % Save state for cleanup
/dict_count countdictstack def % Count objects on dict stack
/op_count count 1 sub def      % Count objects on operand stack
userdict begin                 % Push userdict on dict stack
/showpage { } def              % Redefine showpage, { } = null proc
0 setgray 0 setlinecap         % Prepare graphics state
1 setlinewidth 0 setlinejoin
10 setmiterlimit [ ] 0 setdash newpath
/languagelevel where           % If level not equal to 1 then
{pop languagelevel             % set strokeadjust and
1 ne                           % overprint to their defaults.
{false setstrokeadjust false setoverprint
} if
} if
} bd
/EndEPSF { %def
count op_count sub {pop} repeat            % Clean up stacks
countdictstack dict_count sub {end} repeat
b4_Inc_state restore
} bd
%%EndResource
%FOPBeginFontDict
%%IncludeResource: font Courier-Bold
%%IncludeResource: font Helvetica
%%IncludeResource: font Courier-BoldOblique
%%IncludeResource: font Courier-Oblique
%%IncludeResource: font Times-Roman
%%IncludeResource: font Helvetica-BoldOblique
%%IncludeResource: font Helvetica-Bold
%%IncludeResource: font Helvetica-Oblique
%%IncludeResource: font Times-BoldItalic
%%IncludeResource: font Courier
%%IncludeResource: font Times-Italic
%%IncludeResource: font Times-Bold
%%IncludeResource: font Symbol
%%IncludeResource: font ZapfDingbats
%FOPEndFontDict
%%BeginResource: encoding WinAnsiEncoding
/WinAnsiEncoding [
/.notdef /.notdef /.notdef /.notdef /.notdef
/.notdef /.notdef /.notdef /.notdef /.notdef
/.notdef /.notdef /.notdef /.notdef /.notdef
/.notdef /.notdef /.notdef /.notdef /.notdef
/.notdef /.notdef /.notdef /.notdef /.notdef
/.notdef /.notdef /.notdef /.notdef /.notdef
/.notdef /.notdef /space /exclam /quotedbl
/numbersign /dollar /percent /ampersand /quotesingle
/parenleft /parenright /asterisk /plus /comma
/hyphen /period /slash /zero /one
/two /three /four /five /six
/seven /eight /nine /colon /semicolon
/less /equal /greater /question /at
/A /B /C /D /E
/F /G /H /I /J
/K /L /M /N /O
/P /Q /R /S /T
/U /V /W /X /Y
/Z /bracketleft /backslash /bracketright /asciicircum
/underscore /quoteleft /a /b /c
/d /e /f /g /h
/i /j /k /l /m
/n /o /p /q /r
/s /t /u /v /w
/x /y /z /braceleft /bar
/braceright /asciitilde /bullet /Euro /bullet
/quotesinglbase /florin /quotedblbase /ellipsis /dagger
/daggerdbl /circumflex /perthousand /Scaron /guilsinglleft
/OE /bullet /Zcaron /bullet /bullet
/quoteleft /quoteright /quotedblleft /quotedblright /bullet
/endash /emdash /asciitilde /trademark /scaron
/guilsinglright /oe /bullet /zcaron /Ydieresis
/space /exclamdown /cent /sterling /currency
/yen /brokenbar /section /dieresis /copyright
/ordfeminine /guillemotleft /logicalnot /sfthyphen /registered
/macron /degree /plusminus /twosuperior /threesuperior
/acute /mu /paragraph /middot /cedilla
/onesuperior /ordmasculine /guillemotright /onequarter /onehalf
/threequarters /questiondown /Agrave /Aacute /Acircumflex
/Atilde /Adieresis /Aring /AE /Ccedilla
/Egrave /Eacute /Ecircumflex /Edieresis /Igrave
/Iacute /Icircumflex /Idieresis /Eth /Ntilde
/Ograve /Oacute /Ocircumflex /Otilde /Odieresis
/multiply /Oslash /Ugrave /Uacute /Ucircumflex
/Udieresis /Yacute /Thorn /germandbls /agrave
/aacute /acircumflex /atilde /adieresis /aring
/ae /ccedilla /egrave /eacute /ecircumflex
/edieresis /igrave /iacute /icircumflex /idieresis
/eth /ntilde /ograve /oacute /ocircumflex
/otilde /odieresis /divide /oslash /ugrave
/uacute /ucircumflex /udieresis /yacute /thorn
/ydieresis
] def
%%EndResource
%FOPBeginFontReencode
/Courier-Bold findfont
dup length dict begin
  {1 index /FID ne {def} {pop pop} ifelse} forall
  /Encoding WinAnsiEncoding def
  currentdict
end
/Courier-Bold exch definefont pop
/Helvetica findfont
dup length dict begin
  {1 index /FID ne {def} {pop pop} ifelse} forall
  /Encoding WinAnsiEncoding def
  currentdict
end
/Helvetica exch definefont pop
/Courier-BoldOblique findfont
dup length dict begin
  {1 index /FID ne {def} {pop pop} ifelse} forall
  /Encoding WinAnsiEncoding def
  currentdict
end
/Courier-BoldOblique exch definefont pop
/Courier-Oblique findfont
dup length dict begin
  {1 index /FID ne {def} {pop pop} ifelse} forall
  /Encoding WinAnsiEncoding def
  currentdict
end
/Courier-Oblique exch definefont pop
/Times-Roman findfont
dup length dict begin
  {1 index /FID ne {def} {pop pop} ifelse} forall
  /Encoding WinAnsiEncoding def
  currentdict
end
/Times-Roman exch definefont pop
/Helvetica-BoldOblique findfont
dup length dict begin
  {1 index /FID ne {def} {pop pop} ifelse} forall
  /Encoding WinAnsiEncoding def
  currentdict
end
/Helvetica-BoldOblique exch definefont pop
/Helvetica-Bold findfont
dup length dict begin
  {1 index /FID ne {def} {pop pop} ifelse} forall
  /Encoding WinAnsiEncoding def
  currentdict
end
/Helvetica-Bold exch definefont pop
/Helvetica-Oblique findfont
dup length dict begin
  {1 index /FID ne {def} {pop pop} ifelse} forall
  /Encoding WinAnsiEncoding def
  currentdict
end
/Helvetica-Oblique exch definefont pop
/Times-BoldItalic findfont
dup length dict begin
  {1 index /FID ne {def} {pop pop} ifelse} forall
  /Encoding WinAnsiEncoding def
  currentdict
end
/Times-BoldItalic exch definefont pop
/Courier findfont
dup length dict begin
  {1 index /FID ne {def} {pop pop} ifelse} forall
  /Encoding WinAnsiEncoding def
  currentdict
end
/Courier exch definefont pop
/Times-Italic findfont
dup length dict begin
  {1 index /FID ne {def} {pop pop} ifelse} forall
  /Encoding WinAnsiEncoding def
  currentdict
end
/Times-Italic exch definefont pop
/Times-Bold findfont
dup length dict begin
  {1 index /FID ne {def} {pop pop} ifelse} forall
  /Encoding WinAnsiEncoding def
  currentdict
end
/Times-Bold exch definefont pop
%FOPEndFontReencode
%%EndProlog
%%Page: 1 1
%%PageBoundingBox: 0 0 765 554
%%BeginPageSetup
[1 0 0 -1 0 554] CT
%%EndPageSetup
GS
[0.75 0 0 0.75 0 -0.25] CT
1 GC
N
0 0 1020 739 re
f
GR
GS
[0.75 0 0 0.75 0 -0.25] CT
1 GC
N
0 0 1020 739 re
f
GR
GS
[0.75 0 0 0.75 0 -0.25] CT
1 GC
N
133 658 M
923 658 L
923 55 L
133 55 L
cp
f
GR
GS
[0.75 0 0 0.75 0 -0.25] CT
0.149 GC
2 setlinecap
1 LJ
0.667 LW
N
133 658 M
923 658 L
S
GR
GS
[0.75 0 0 0.75 0 -0.25] CT
0.149 GC
2 setlinecap
1 LJ
0.667 LW
N
133 55 M
923 55 L
S
GR
GS
[0.75 0 0 0.75 0 -0.25] CT
0.149 GC
2 setlinecap
1 LJ
0.667 LW
N
133 658 M
133 650.1 L
S
GR
GS
[0.75 0 0 0.75 0 -0.25] CT
0.149 GC
2 setlinecap
1 LJ
0.667 LW
N
212 658 M
212 650.1 L
S
GR
GS
[0.75 0 0 0.75 0 -0.25] CT
0.149 GC
2 setlinecap
1 LJ
0.667 LW
N
291 658 M
291 650.1 L
S
GR
GS
[0.75 0 0 0.75 0 -0.25] CT
0.149 GC
2 setlinecap
1 LJ
0.667 LW
N
370 658 M
370 650.1 L
S
GR
GS
[0.75 0 0 0.75 0 -0.25] CT
0.149 GC
2 setlinecap
1 LJ
0.667 LW
N
449 658 M
449 650.1 L
S
GR
GS
[0.75 0 0 0.75 0 -0.25] CT
0.149 GC
2 setlinecap
1 LJ
0.667 LW
N
528 658 M
528 650.1 L
S
GR
GS
[0.75 0 0 0.75 0 -0.25] CT
0.149 GC
2 setlinecap
1 LJ
0.667 LW
N
607 658 M
607 650.1 L
S
GR
GS
[0.75 0 0 0.75 0 -0.25] CT
0.149 GC
2 setlinecap
1 LJ
0.667 LW
N
686 658 M
686 650.1 L
S
GR
GS
[0.75 0 0 0.75 0 -0.25] CT
0.149 GC
2 setlinecap
1 LJ
0.667 LW
N
765 658 M
765 650.1 L
S
GR
GS
[0.75 0 0 0.75 0 -0.25] CT
0.149 GC
2 setlinecap
1 LJ
0.667 LW
N
844 658 M
844 650.1 L
S
GR
GS
[0.75 0 0 0.75 0 -0.25] CT
0.149 GC
2 setlinecap
1 LJ
0.667 LW
N
923 658 M
923 650.1 L
S
GR
GS
[0.75 0 0 0.75 0 -0.25] CT
0.149 GC
2 setlinecap
1 LJ
0.667 LW
N
133 55 M
133 62.9 L
S
GR
GS
[0.75 0 0 0.75 0 -0.25] CT
0.149 GC
2 setlinecap
1 LJ
0.667 LW
N
212 55 M
212 62.9 L
S
GR
GS
[0.75 0 0 0.75 0 -0.25] CT
0.149 GC
2 setlinecap
1 LJ
0.667 LW
N
291 55 M
291 62.9 L
S
GR
GS
[0.75 0 0 0.75 0 -0.25] CT
0.149 GC
2 setlinecap
1 LJ
0.667 LW
N
370 55 M
370 62.9 L
S
GR
GS
[0.75 0 0 0.75 0 -0.25] CT
0.149 GC
2 setlinecap
1 LJ
0.667 LW
N
449 55 M
449 62.9 L
S
GR
GS
[0.75 0 0 0.75 0 -0.25] CT
0.149 GC
2 setlinecap
1 LJ
0.667 LW
N
528 55 M
528 62.9 L
S
GR
GS
[0.75 0 0 0.75 0 -0.25] CT
0.149 GC
2 setlinecap
1 LJ
0.667 LW
N
607 55 M
607 62.9 L
S
GR
GS
[0.75 0 0 0.75 0 -0.25] CT
0.149 GC
2 setlinecap
1 LJ
0.667 LW
N
686 55 M
686 62.9 L
S
GR
GS
[0.75 0 0 0.75 0 -0.25] CT
0.149 GC
2 setlinecap
1 LJ
0.667 LW
N
765 55 M
765 62.9 L
S
GR
GS
[0.75 0 0 0.75 0 -0.25] CT
0.149 GC
2 setlinecap
1 LJ
0.667 LW
N
844 55 M
844 62.9 L
S
GR
GS
[0.75 0 0 0.75 0 -0.25] CT
0.149 GC
2 setlinecap
1 LJ
0.667 LW
N
923 55 M
923 62.9 L
S
GR
GS
[0.75 0 0 0.75 99.75 498.85001] CT
0.149 GC
/Helvetica 24 F
GS
[1 0 0 1 0 0] CT
-11 25 moveto 
1 -1 scale
(-1) t 
GR
GR
GS
[0.75 0 0 0.75 159 498.85001] CT
0.149 GC
/Helvetica 24 F
GS
[1 0 0 1 0 0] CT
-21 25 moveto 
1 -1 scale
(-0.8) t 
GR
GR
GS
[0.75 0 0 0.75 218.25 498.85001] CT
0.149 GC
/Helvetica 24 F
GS
[1 0 0 1 0 0] CT
-21 25 moveto 
1 -1 scale
(-0.6) t 
GR
GR
GS
[0.75 0 0 0.75 277.5 498.85001] CT
0.149 GC
/Helvetica 24 F
GS
[1 0 0 1 0 0] CT
-21 25 moveto 
1 -1 scale
(-0.4) t 
GR
GR
GS
[0.75 0 0 0.75 336.75 498.85001] CT
0.149 GC
/Helvetica 24 F
GS
[1 0 0 1 0 0] CT
-21 25 moveto 
1 -1 scale
(-0.2) t 
GR
GR
GS
[0.75 0 0 0.75 396 498.85001] CT
0.149 GC
/Helvetica 24 F
GS
[1 0 0 1 0 0] CT
-7 25 moveto 
1 -1 scale
(0) t 
GR
GR
GS
[0.75 0 0 0.75 455.25 498.85001] CT
0.149 GC
/Helvetica 24 F
GS
[1 0 0 1 0 0] CT
-17 25 moveto 
1 -1 scale
(0.2) t 
GR
GR
GS
[0.75 0 0 0.75 514.5 498.85001] CT
0.149 GC
/Helvetica 24 F
GS
[1 0 0 1 0 0] CT
-17 25 moveto 
1 -1 scale
(0.4) t 
GR
GR
GS
[0.75 0 0 0.75 573.75 498.85001] CT
0.149 GC
/Helvetica 24 F
GS
[1 0 0 1 0 0] CT
-17 25 moveto 
1 -1 scale
(0.6) t 
GR
GR
GS
[0.75 0 0 0.75 633 498.85001] CT
0.149 GC
/Helvetica 24 F
GS
[1 0 0 1 0 0] CT
-17 25 moveto 
1 -1 scale
(0.8) t 
GR
GR
GS
[0.75 0 0 0.75 692.25 498.85001] CT
0.149 GC
/Helvetica 24 F
GS
[1 0 0 1 0 0] CT
-7 25 moveto 
1 -1 scale
(1) t 
GR
GR
GS
[0.75 0 0 0.75 396.00027 523.09999] CT
0.149 GC
/Helvetica 26.4 F
GS
[1 0 0 1 0 0] CT
-9 27 moveto 
1 -1 scale
(X) t 
GR
GR
GS
[0.75 0 0 0.75 0 -0.25] CT
0.149 GC
2 setlinecap
1 LJ
0.667 LW
N
133 658 M
133 55 L
S
GR
GS
[0.75 0 0 0.75 0 -0.25] CT
0.149 GC
2 setlinecap
1 LJ
0.667 LW
N
923 658 M
923 55 L
S
GR
GS
[0.75 0 0 0.75 0 -0.25] CT
0.149 GC
2 setlinecap
1 LJ
0.667 LW
N
133 658 M
140.9 658 L
S
GR
GS
[0.75 0 0 0.75 0 -0.25] CT
0.149 GC
2 setlinecap
1 LJ
0.667 LW
N
133 557.5 M
140.9 557.5 L
S
GR
GS
[0.75 0 0 0.75 0 -0.25] CT
0.149 GC
2 setlinecap
1 LJ
0.667 LW
N
133 457 M
140.9 457 L
S
GR
GS
[0.75 0 0 0.75 0 -0.25] CT
0.149 GC
2 setlinecap
1 LJ
0.667 LW
N
133 356.5 M
140.9 356.5 L
S
GR
GS
[0.75 0 0 0.75 0 -0.25] CT
0.149 GC
2 setlinecap
1 LJ
0.667 LW
N
133 256 M
140.9 256 L
S
GR
GS
[0.75 0 0 0.75 0 -0.25] CT
0.149 GC
2 setlinecap
1 LJ
0.667 LW
N
133 155.5 M
140.9 155.5 L
S
GR
GS
[0.75 0 0 0.75 0 -0.25] CT
0.149 GC
2 setlinecap
1 LJ
0.667 LW
N
133 55 M
140.9 55 L
S
GR
GS
[0.75 0 0 0.75 0 -0.25] CT
0.149 GC
2 setlinecap
1 LJ
0.667 LW
N
923 658 M
915.1 658 L
S
GR
GS
[0.75 0 0 0.75 0 -0.25] CT
0.149 GC
2 setlinecap
1 LJ
0.667 LW
N
923 557.5 M
915.1 557.5 L
S
GR
GS
[0.75 0 0 0.75 0 -0.25] CT
0.149 GC
2 setlinecap
1 LJ
0.667 LW
N
923 457 M
915.1 457 L
S
GR
GS
[0.75 0 0 0.75 0 -0.25] CT
0.149 GC
2 setlinecap
1 LJ
0.667 LW
N
923 356.5 M
915.1 356.5 L
S
GR
GS
[0.75 0 0 0.75 0 -0.25] CT
0.149 GC
2 setlinecap
1 LJ
0.667 LW
N
923 256 M
915.1 256 L
S
GR
GS
[0.75 0 0 0.75 0 -0.25] CT
0.149 GC
2 setlinecap
1 LJ
0.667 LW
N
923 155.5 M
915.1 155.5 L
S
GR
GS
[0.75 0 0 0.75 0 -0.25] CT
0.149 GC
2 setlinecap
1 LJ
0.667 LW
N
923 55 M
915.1 55 L
S
GR
GS
[0.75 0 0 0.75 94.15002 493.25] CT
0.149 GC
/Helvetica 24 F
GS
[1 0 0 1 0 0] CT
-42 9.5 moveto 
1 -1 scale
(-1.5) t 
GR
GR
GS
[0.75 0 0 0.75 94.15002 417.875] CT
0.149 GC
/Helvetica 24 F
GS
[1 0 0 1 0 0] CT
-22 9.5 moveto 
1 -1 scale
(-1) t 
GR
GR
GS
[0.75 0 0 0.75 94.15002 342.5] CT
0.149 GC
/Helvetica 24 F
GS
[1 0 0 1 0 0] CT
-42 9.5 moveto 
1 -1 scale
(-0.5) t 
GR
GR
GS
[0.75 0 0 0.75 94.15002 267.125] CT
0.149 GC
/Helvetica 24 F
GS
[1 0 0 1 0 0] CT
-14 9.5 moveto 
1 -1 scale
(0) t 
GR
GR
GS
[0.75 0 0 0.75 94.15002 191.75] CT
0.149 GC
/Helvetica 24 F
GS
[1 0 0 1 0 0] CT
-34 9.5 moveto 
1 -1 scale
(0.5) t 
GR
GR
GS
[0.75 0 0 0.75 94.15002 116.375] CT
0.149 GC
/Helvetica 24 F
GS
[1 0 0 1 0 0] CT
-14 9.5 moveto 
1 -1 scale
(1) t 
GR
GR
GS
[0.75 0 0 0.75 94.15002 41] CT
0.149 GC
/Helvetica 24 F
GS
[1 0 0 1 0 0] CT
-34 9.5 moveto 
1 -1 scale
(1.5) t 
GR
GR
GS
[0.75 0 0 0.75 0 -0.25] CT
0 0.447 0.741 RC
1 LJ
4 LW
N
133 172.883 M
138.302 174.751 L
143.604 177.026 L
148.906 179.788 L
154.208 183.133 L
159.51 187.169 L
164.812 192.016 L
170.114 197.806 L
175.416 204.68 L
180.718 212.778 L
186.02 222.234 L
191.322 233.161 L
196.624 245.637 L
201.926 259.688 L
207.228 275.27 L
212.53 292.258 L
217.832 310.436 L
223.134 329.504 L
228.436 349.092 L
233.738 368.785 L
239.04 388.159 L
244.342 406.817 L
249.644 424.418 L
254.946 440.7 L
260.248 455.486 L
265.55 468.688 L
270.852 480.294 L
276.154 490.351 L
281.456 498.95 L
286.758 506.206 L
292.06 512.249 L
297.362 517.208 L
302.664 521.204 L
307.966 524.346 L
313.268 526.726 L
318.57 528.42 L
323.872 529.482 L
329.174 529.95 L
334.477 529.841 L
339.779 529.152 L
345.081 527.864 L
350.383 525.937 L
355.685 523.314 L
360.987 519.92 L
366.289 515.663 L
371.591 510.44 L
376.893 504.136 L
382.195 496.636 L
387.497 487.829 L
392.799 477.621 L
398.101 465.951 L
403.403 452.8 L
408.705 438.212 L
414.007 422.297 L
419.309 405.242 L
424.611 387.299 L
429.913 368.775 L
435.215 350.009 L
440.517 331.341 L
445.819 313.089 L
451.121 295.524 L
456.423 278.856 L
461.725 263.231 L
467.027 248.738 L
472.329 235.414 L
477.631 223.264 L
482.933 212.271 L
488.235 202.407 L
493.537 193.642 L
498.839 185.948 L
504.141 179.303 L
509.443 173.688 L
514.745 169.093 L
520.047 165.515 L
525.349 162.956 L
530.651 161.431 L
535.953 160.964 L
541.255 161.596 L
546.557 163.379 L
551.859 166.386 L
557.161 170.701 L
562.463 176.423 L
567.765 183.656 L
573.067 192.505 L
578.369 203.06 L
583.671 215.385 L
588.973 229.501 L
594.275 245.368 L
599.577 262.871 L
604.879 281.807 L
610.181 301.892 L
615.483 322.764 L
620.785 344.005 L
626.087 365.173 L
631.389 385.838 L
636.691 405.608 L
641.993 424.161 L
647.295 441.258 L
652.597 456.752 L
657.899 470.576 L
663.201 482.737 L
668.503 493.298 L
673.805 502.359 L
679.107 510.043 L
684.409 516.485 L
689.711 521.817 L
695.013 526.163 L
700.315 529.636 L
705.617 532.331 L
710.919 534.326 L
716.221 535.68 L
721.523 536.434 L
726.826 536.607 L
732.128 536.201 L
737.43 535.199 L
742.732 533.561 L
748.034 531.229 L
753.336 528.124 L
758.638 524.15 L
763.94 519.188 L
769.242 513.107 L
774.544 505.766 L
779.846 497.019 L
785.148 486.732 L
790.45 474.791 L
795.752 461.129 L
801.054 445.735 L
806.356 428.682 L
811.658 410.136 L
816.96 390.359 L
822.262 369.708 L
827.564 348.609 L
832.866 327.524 L
838.168 306.914 L
843.47 287.198 L
848.772 268.725 L
854.074 251.747 L
859.376 236.418 L
864.678 222.8 L
869.98 210.872 L
875.282 200.555 L
880.584 191.728 L
885.886 184.246 L
891.188 177.953 L
896.49 172.695 L
901.792 168.326 L
907.094 164.713 L
912.396 161.736 L
917.698 159.291 L
923 157.288 L
S
GR
GS
[0.75 0 0 0.75 0 -0.25] CT
0.851 0.325 0.098 RC
1 LJ
4 LW
N
133 156.606 M
138.302 158.862 L
143.604 161.602 L
148.906 164.922 L
154.208 168.929 L
159.51 173.744 L
164.812 179.501 L
170.114 186.34 L
175.416 194.404 L
180.718 203.831 L
186.02 214.738 L
191.322 227.21 L
196.624 241.279 L
201.926 256.911 L
207.228 273.987 L
212.53 292.3 L
217.832 311.555 L
223.134 331.383 L
228.436 351.368 L
233.738 371.079 L
239.04 390.109 L
244.342 408.106 L
249.644 424.792 L
254.946 439.981 L
260.248 453.575 L
265.55 465.554 L
270.852 475.961 L
276.154 484.885 L
281.456 492.445 L
286.758 498.771 L
292.06 503.997 L
297.362 508.252 L
302.664 511.651 L
307.966 514.294 L
313.268 516.265 L
318.57 517.628 L
323.872 518.431 L
329.174 518.701 L
334.477 518.45 L
339.779 517.668 L
345.081 516.331 L
350.383 514.395 L
355.685 511.798 L
360.987 508.461 L
366.289 504.287 L
371.591 499.164 L
376.893 492.97 L
382.195 485.574 L
387.497 476.848 L
392.799 466.676 L
398.101 454.968 L
403.403 441.677 L
408.705 426.814 L
414.007 410.466 L
419.309 392.804 L
424.611 374.086 L
429.913 354.647 L
435.215 334.88 L
440.517 315.206 L
445.819 296.037 L
451.121 277.749 L
456.423 260.649 L
461.725 244.963 L
467.027 230.832 L
472.329 218.315 L
477.631 207.404 L
482.933 198.037 L
488.235 190.121 L
493.537 183.542 L
498.839 178.181 L
504.141 173.923 L
509.443 170.664 L
514.745 168.319 L
520.047 166.818 L
525.349 166.117 L
530.651 166.193 L
535.953 167.045 L
541.255 168.697 L
546.557 171.196 L
551.859 174.611 L
557.161 179.032 L
562.463 184.567 L
567.765 191.337 L
573.067 199.47 L
578.369 209.089 L
583.671 220.301 L
588.973 233.179 L
594.275 247.747 L
599.577 263.96 L
604.879 281.688 L
610.181 300.713 L
615.483 320.727 L
620.785 341.348 L
626.087 362.148 L
631.389 382.681 L
636.691 402.527 L
641.993 421.319 L
647.295 438.768 L
652.597 454.678 L
657.899 468.939 L
663.201 481.526 L
668.503 492.477 L
673.805 501.879 L
679.107 509.849 L
684.409 516.519 L
689.711 522.024 L
695.013 526.492 L
700.315 530.04 L
705.617 532.767 L
710.919 534.754 L
716.221 536.063 L
721.523 536.735 L
726.826 536.791 L
732.128 536.23 L
737.43 535.03 L
742.732 533.15 L
748.034 530.527 L
753.336 527.077 L
758.638 522.696 L
763.94 517.265 L
769.242 510.65 L
774.544 502.71 L
779.846 493.306 L
785.148 482.317 L
790.45 469.652 L
795.752 455.271 L
801.054 439.205 L
806.356 421.57 L
811.658 402.578 L
816.96 382.538 L
822.262 361.838 L
827.564 340.919 L
832.866 320.243 L
838.168 300.247 L
843.47 281.314 L
848.772 263.742 L
854.074 247.731 L
859.376 233.389 L
864.678 220.735 L
869.98 209.718 L
875.282 200.237 L
880.584 192.161 L
885.886 185.339 L
891.188 179.618 L
896.49 174.85 L
901.792 170.895 L
907.094 167.63 L
912.396 164.943 L
917.698 162.737 L
923 160.932 L
S
GR
GS
[0.75 0 0 0.75 0 -0.25] CT
0.929 0.694 0.125 RC
1 LJ
4 LW
N
133 177.159 M
138.302 178.867 L
143.604 180.952 L
148.906 183.489 L
154.208 186.57 L
159.51 190.298 L
164.812 194.788 L
170.114 200.17 L
175.416 206.583 L
180.718 214.169 L
186.02 223.065 L
191.322 233.395 L
196.624 245.251 L
201.926 258.68 L
207.228 273.661 L
212.53 290.096 L
217.832 307.798 L
223.134 326.489 L
228.436 345.815 L
233.738 365.368 L
239.04 384.721 L
244.342 403.461 L
249.644 421.225 L
254.946 437.724 L
260.248 452.757 L
265.55 466.211 L
270.852 478.054 L
276.154 488.317 L
281.456 497.082 L
286.758 504.458 L
292.06 510.57 L
297.362 515.545 L
302.664 519.504 L
307.966 522.557 L
313.268 524.796 L
318.57 526.295 L
323.872 527.11 L
329.174 527.277 L
334.477 526.813 L
339.779 525.715 L
345.081 523.966 L
350.383 521.529 L
355.685 518.351 L
360.987 514.367 L
366.289 509.5 L
371.591 503.662 L
376.893 496.765 L
382.195 488.72 L
387.497 479.45 L
392.799 468.892 L
398.101 457.015 L
403.403 443.821 L
408.705 429.357 L
414.007 413.72 L
419.309 397.059 L
424.611 379.573 L
429.913 361.505 L
435.215 343.132 L
440.517 324.748 L
445.819 306.648 L
451.121 289.115 L
456.423 272.399 L
461.725 256.707 L
467.027 242.197 L
472.329 228.974 L
477.631 217.094 L
482.933 206.569 L
488.235 197.375 L
493.537 189.464 L
498.839 182.77 L
504.141 177.221 L
509.443 172.747 L
514.745 169.282 L
520.047 166.773 L
525.349 165.181 L
530.651 164.485 L
535.953 164.683 L
541.255 165.793 L
546.557 167.854 L
551.859 170.925 L
557.161 175.083 L
562.463 180.423 L
567.765 187.048 L
573.067 195.07 L
578.369 204.591 L
583.671 215.7 L
588.973 228.454 L
594.275 242.862 L
599.577 258.87 L
604.879 276.351 L
610.181 295.096 L
615.483 314.814 L
620.785 335.153 L
626.087 355.711 L
631.389 376.074 L
636.691 395.844 L
641.993 414.668 L
647.295 432.261 L
652.597 448.418 L
657.899 463.018 L
663.201 476.016 L
668.503 487.427 L
673.805 497.319 L
679.107 505.792 L
684.409 512.961 L
689.711 518.954 L
695.013 523.89 L
700.315 527.885 L
705.617 531.038 L
710.919 533.432 L
716.221 535.135 L
721.523 536.191 L
726.826 536.631 L
732.128 536.461 L
737.43 535.67 L
742.732 534.225 L
748.034 532.074 L
753.336 529.142 L
758.638 525.337 L
763.94 520.546 L
769.242 514.64 L
774.544 507.478 L
779.846 498.918 L
785.148 488.822 L
790.45 477.075 L
795.752 463.602 L
801.054 448.387 L
806.356 431.492 L
811.658 413.072 L
816.96 393.381 L
822.262 372.766 L
827.564 351.648 L
832.866 330.49 L
838.168 309.755 L
843.47 289.872 L
848.772 271.199 L
854.074 254.001 L
859.376 238.445 L
864.678 224.601 L
869.98 212.458 L
875.282 201.941 L
880.584 192.934 L
885.886 185.292 L
891.188 178.86 L
896.49 173.482 L
901.792 169.012 L
907.094 165.314 L
912.396 162.266 L
917.698 159.762 L
923 157.71 L
S
GR
GS
[0.75 0 0 0.75 0 -0.25] CT
0.494 0.184 0.557 RC
1 LJ
4 LW
N
133 175.415 M
138.302 177.131 L
143.604 179.227 L
148.906 181.782 L
154.208 184.887 L
159.51 188.649 L
164.812 193.185 L
170.114 198.627 L
175.416 205.117 L
180.718 212.8 L
186.02 221.815 L
191.322 232.288 L
196.624 244.311 L
201.926 257.927 L
207.228 273.113 L
212.53 289.763 L
217.832 307.68 L
223.134 326.574 L
228.436 346.081 L
233.738 365.783 L
239.04 385.245 L
244.342 404.052 L
249.644 421.842 L
254.946 438.332 L
260.248 453.331 L
265.55 466.736 L
270.852 478.526 L
276.154 488.745 L
281.456 497.482 L
286.758 504.858 L
292.06 511.003 L
297.362 516.054 L
302.664 520.136 L
307.966 523.366 L
313.268 525.841 L
318.57 527.643 L
323.872 528.832 L
329.174 529.451 L
334.477 529.526 L
339.779 529.059 L
345.081 528.038 L
350.383 526.43 L
355.685 524.183 L
360.987 521.227 L
366.289 517.474 L
371.591 512.818 L
376.893 507.136 L
382.195 500.297 L
387.497 492.161 L
392.799 482.592 L
398.101 471.471 L
403.403 458.707 L
408.705 444.258 L
414.007 428.145 L
419.309 410.473 L
424.611 391.434 L
429.913 371.315 L
435.215 350.48 L
440.517 329.355 L
445.819 308.389 L
451.121 288.024 L
456.423 268.655 L
461.725 250.608 L
467.027 234.123 L
472.329 219.348 L
477.631 206.349 L
482.933 195.123 L
488.235 185.612 L
493.537 177.727 L
498.839 171.362 L
504.141 166.405 L
509.443 162.75 L
514.745 160.309 L
520.047 159.006 L
525.349 158.792 L
530.651 159.634 L
535.953 161.523 L
541.255 164.467 L
546.557 168.489 L
551.859 173.625 L
557.161 179.913 L
562.463 187.392 L
567.765 196.092 L
573.067 206.024 L
578.369 217.174 L
583.671 229.497 L
588.973 242.908 L
594.275 257.288 L
599.577 272.481 L
604.879 288.307 L
610.181 304.57 L
615.483 321.074 L
620.785 337.636 L
626.087 354.095 L
631.389 370.323 L
636.691 386.221 L
641.993 401.714 L
647.295 416.751 L
652.597 431.286 L
657.899 445.274 L
663.201 458.663 L
668.503 471.391 L
673.805 483.387 L
679.107 494.576 L
684.409 504.886 L
689.711 514.255 L
695.013 522.634 L
700.315 529.995 L
705.617 536.322 L
710.919 541.617 L
716.221 545.89 L
721.523 549.154 L
726.826 551.417 L
732.128 552.682 L
737.43 552.934 L
742.732 552.144 L
748.034 550.258 L
753.336 547.205 L
758.638 542.889 L
763.94 537.198 L
769.242 530.006 L
774.544 521.181 L
779.846 510.605 L
785.148 498.18 L
790.45 483.856 L
795.752 467.651 L
801.054 449.669 L
806.356 430.112 L
811.658 409.287 L
816.96 387.595 L
822.262 365.503 L
827.564 343.507 L
832.866 322.096 L
838.168 301.703 L
843.47 282.676 L
848.772 265.265 L
854.074 249.61 L
859.376 235.756 L
864.678 223.666 L
869.98 213.244 L
875.282 204.355 L
880.584 196.841 L
885.886 190.537 L
891.188 185.283 L
896.49 180.927 L
901.792 177.331 L
907.094 174.374 L
912.396 171.949 L
917.698 169.966 L
923 168.347 L
S
GR
GS
[0.75 0 0 0.75 0 -0.25] CT
0.467 0.675 0.188 RC
1 LJ
4 LW
N
133 177.66 M
138.302 179.282 L
143.604 181.266 L
148.906 183.685 L
154.208 186.627 L
159.51 190.193 L
164.812 194.497 L
170.114 199.666 L
175.416 205.836 L
180.718 213.148 L
186.02 221.739 L
191.322 231.732 L
196.624 243.221 L
201.926 256.254 L
207.228 270.815 L
212.53 286.809 L
217.832 304.051 L
223.134 322.271 L
228.436 341.119 L
233.738 360.191 L
239.04 379.067 L
244.342 397.34 L
249.644 414.653 L
254.946 430.726 L
260.248 445.364 L
265.55 458.463 L
270.852 469.997 L
276.154 480.005 L
281.456 488.571 L
286.758 495.811 L
292.06 501.854 L
297.362 506.83 L
302.664 510.866 L
307.966 514.074 L
313.268 516.553 L
318.57 518.384 L
323.872 519.629 L
329.174 520.333 L
334.477 520.523 L
339.779 520.207 L
345.081 519.376 L
350.383 518.003 L
355.685 516.041 L
360.987 513.428 L
366.289 510.08 L
371.591 505.897 L
376.893 500.762 L
382.195 494.544 L
387.497 487.1 L
392.799 478.287 L
398.101 467.968 L
403.403 456.028 L
408.705 442.387 L
414.007 427.023 L
419.309 409.988 L
424.611 391.422 L
429.913 371.562 L
435.215 350.737 L
440.517 329.358 L
445.819 307.884 L
451.121 286.791 L
456.423 266.535 L
461.725 247.516 L
467.027 230.055 L
472.329 214.384 L
477.631 200.642 L
482.933 188.889 L
488.235 179.12 L
493.537 171.282 L
498.839 165.295 L
504.141 161.06 L
509.443 158.477 L
514.745 157.446 L
520.047 157.871 L
525.349 159.663 L
530.651 162.732 L
535.953 166.992 L
541.255 172.349 L
546.557 178.707 L
551.859 185.963 L
557.161 194.011 L
562.463 202.751 L
567.765 212.09 L
573.067 221.954 L
578.369 232.294 L
583.671 243.091 L
588.973 254.354 L
594.275 266.123 L
599.577 278.455 L
604.879 291.416 L
610.181 305.065 L
615.483 319.44 L
620.785 334.538 L
626.087 350.305 L
631.389 366.628 L
636.691 383.331 L
641.993 400.187 L
647.295 416.931 L
652.597 433.285 L
657.899 448.976 L
663.201 463.766 L
668.503 477.462 L
673.805 489.929 L
679.107 501.09 L
684.409 510.922 L
689.711 519.446 L
695.013 526.712 L
700.315 532.793 L
705.617 537.771 L
710.919 541.724 L
716.221 544.726 L
721.523 546.835 L
726.826 548.095 L
732.128 548.526 L
737.43 548.129 L
742.732 546.88 L
748.034 544.732 L
753.336 541.614 L
758.638 537.433 L
763.94 532.073 L
769.242 525.404 L
774.544 517.286 L
779.846 507.581 L
785.148 496.163 L
790.45 482.942 L
795.752 467.878 L
801.054 451.007 L
806.356 432.453 L
811.658 412.444 L
816.96 391.308 L
822.262 369.459 L
827.564 347.369 L
832.866 325.529 L
838.168 304.406 L
843.47 284.407 L
848.772 265.849 L
854.074 248.946 L
859.376 233.81 L
864.678 220.462 L
869.98 208.848 L
875.282 198.859 L
880.584 190.355 L
885.886 183.176 L
891.188 177.16 L
896.49 172.149 L
901.792 167.996 L
907.094 164.569 L
912.396 161.75 L
917.698 159.438 L
923 157.547 L
S
GR
GS
[0.75 0 0 0.75 99.75 160.75721] CT
1 0 0 RC
10.0 ML
0.667 LW
N
0 -4 M
0 4 L
-4 0 M
4 0 L
-2.828 -2.828 M
2.828 2.828 L
-2.828 2.828 M
2.828 -2.828 L
S
GR
GS
[0.75 0 0 0.75 103.72651 106.1309] CT
1 0 0 RC
10.0 ML
0.667 LW
N
0 -4 M
0 4 L
-4 0 M
4 0 L
-2.828 -2.828 M
2.828 2.828 L
-2.828 2.828 M
2.828 -2.828 L
S
GR
GS
[0.75 0 0 0.75 107.70301 152.74931] CT
1 0 0 RC
10.0 ML
0.667 LW
N
0 -4 M
0 4 L
-4 0 M
4 0 L
-2.828 -2.828 M
2.828 2.828 L
-2.828 2.828 M
2.828 -2.828 L
S
GR
GS
[0.75 0 0 0.75 111.67954 120.75497] CT
1 0 0 RC
10.0 ML
0.667 LW
N
0 -4 M
0 4 L
-4 0 M
4 0 L
-2.828 -2.828 M
2.828 2.828 L
-2.828 2.828 M
2.828 -2.828 L
S
GR
GS
[0.75 0 0 0.75 115.65604 102.63137] CT
1 0 0 RC
10.0 ML
0.667 LW
N
0 -4 M
0 4 L
-4 0 M
4 0 L
-2.828 -2.828 M
2.828 2.828 L
-2.828 2.828 M
2.828 -2.828 L
S
GR
GS
[0.75 0 0 0.75 119.63255 92.86227] CT
1 0 0 RC
10.0 ML
0.667 LW
N
0 -4 M
0 4 L
-4 0 M
4 0 L
-2.828 -2.828 M
2.828 2.828 L
-2.828 2.828 M
2.828 -2.828 L
S
GR
GS
[0.75 0 0 0.75 123.60905 187.6386] CT
1 0 0 RC
10.0 ML
0.667 LW
N
0 -4 M
0 4 L
-4 0 M
4 0 L
-2.828 -2.828 M
2.828 2.828 L
-2.828 2.828 M
2.828 -2.828 L
S
GR
GS
[0.75 0 0 0.75 127.58558 156.29211] CT
1 0 0 RC
10.0 ML
0.667 LW
N
0 -4 M
0 4 L
-4 0 M
4 0 L
-2.828 -2.828 M
2.828 2.828 L
-2.828 2.828 M
2.828 -2.828 L
S
GR
GS
[0.75 0 0 0.75 131.56208 167.31218] CT
1 0 0 RC
10.0 ML
0.667 LW
N
0 -4 M
0 4 L
-4 0 M
4 0 L
-2.828 -2.828 M
2.828 2.828 L
-2.828 2.828 M
2.828 -2.828 L
S
GR
GS
[0.75 0 0 0.75 135.53859 137.21406] CT
1 0 0 RC
10.0 ML
0.667 LW
N
0 -4 M
0 4 L
-4 0 M
4 0 L
-2.828 -2.828 M
2.828 2.828 L
-2.828 2.828 M
2.828 -2.828 L
S
GR
GS
[0.75 0 0 0.75 139.51509 203.54781] CT
1 0 0 RC
10.0 ML
0.667 LW
N
0 -4 M
0 4 L
-4 0 M
4 0 L
-2.828 -2.828 M
2.828 2.828 L
-2.828 2.828 M
2.828 -2.828 L
S
GR
GS
[0.75 0 0 0.75 143.49162 200.64693] CT
1 0 0 RC
10.0 ML
0.667 LW
N
0 -4 M
0 4 L
-4 0 M
4 0 L
-2.828 -2.828 M
2.828 2.828 L
-2.828 2.828 M
2.828 -2.828 L
S
GR
GS
[0.75 0 0 0.75 147.46811 153.22391] CT
1 0 0 RC
10.0 ML
0.667 LW
N
0 -4 M
0 4 L
-4 0 M
4 0 L
-2.828 -2.828 M
2.828 2.828 L
-2.828 2.828 M
2.828 -2.828 L
S
GR
GS
[0.75 0 0 0.75 151.44463 184.57522] CT
1 0 0 RC
10.0 ML
0.667 LW
N
0 -4 M
0 4 L
-4 0 M
4 0 L
-2.828 -2.828 M
2.828 2.828 L
-2.828 2.828 M
2.828 -2.828 L
S
GR
GS
[0.75 0 0 0.75 155.42113 224.61331] CT
1 0 0 RC
10.0 ML
0.667 LW
N
0 -4 M
0 4 L
-4 0 M
4 0 L
-2.828 -2.828 M
2.828 2.828 L
-2.828 2.828 M
2.828 -2.828 L
S
GR
GS
[0.75 0 0 0.75 159.39765 210.69162] CT
1 0 0 RC
10.0 ML
0.667 LW
N
0 -4 M
0 4 L
-4 0 M
4 0 L
-2.828 -2.828 M
2.828 2.828 L
-2.828 2.828 M
2.828 -2.828 L
S
GR
GS
[0.75 0 0 0.75 163.37415 243.11685] CT
1 0 0 RC
10.0 ML
0.667 LW
N
0 -4 M
0 4 L
-4 0 M
4 0 L
-2.828 -2.828 M
2.828 2.828 L
-2.828 2.828 M
2.828 -2.828 L
S
GR
GS
[0.75 0 0 0.75 167.35067 260.31258] CT
1 0 0 RC
10.0 ML
0.667 LW
N
0 -4 M
0 4 L
-4 0 M
4 0 L
-2.828 -2.828 M
2.828 2.828 L
-2.828 2.828 M
2.828 -2.828 L
S
GR
GS
[0.75 0 0 0.75 171.32719 246.68684] CT
1 0 0 RC
10.0 ML
0.667 LW
N
0 -4 M
0 4 L
-4 0 M
4 0 L
-2.828 -2.828 M
2.828 2.828 L
-2.828 2.828 M
2.828 -2.828 L
S
GR
GS
[0.75 0 0 0.75 175.30369 253.39202] CT
1 0 0 RC
10.0 ML
0.667 LW
N
0 -4 M
0 4 L
-4 0 M
4 0 L
-2.828 -2.828 M
2.828 2.828 L
-2.828 2.828 M
2.828 -2.828 L
S
GR
GS
[0.75 0 0 0.75 179.28021 252.22294] CT
1 0 0 RC
10.0 ML
0.667 LW
N
0 -4 M
0 4 L
-4 0 M
4 0 L
-2.828 -2.828 M
2.828 2.828 L
-2.828 2.828 M
2.828 -2.828 L
S
GR
GS
[0.75 0 0 0.75 183.25671 332.52213] CT
1 0 0 RC
10.0 ML
0.667 LW
N
0 -4 M
0 4 L
-4 0 M
4 0 L
-2.828 -2.828 M
2.828 2.828 L
-2.828 2.828 M
2.828 -2.828 L
S
GR
GS
[0.75 0 0 0.75 187.23323 352.46609] CT
1 0 0 RC
10.0 ML
0.667 LW
N
0 -4 M
0 4 L
-4 0 M
4 0 L
-2.828 -2.828 M
2.828 2.828 L
-2.828 2.828 M
2.828 -2.828 L
S
GR
GS
[0.75 0 0 0.75 191.20973 338.04083] CT
1 0 0 RC
10.0 ML
0.667 LW
N
0 -4 M
0 4 L
-4 0 M
4 0 L
-2.828 -2.828 M
2.828 2.828 L
-2.828 2.828 M
2.828 -2.828 L
S
GR
GS
[0.75 0 0 0.75 195.18624 321.53893] CT
1 0 0 RC
10.0 ML
0.667 LW
N
0 -4 M
0 4 L
-4 0 M
4 0 L
-2.828 -2.828 M
2.828 2.828 L
-2.828 2.828 M
2.828 -2.828 L
S
GR
GS
[0.75 0 0 0.75 199.16274 296.05045] CT
1 0 0 RC
10.0 ML
0.667 LW
N
0 -4 M
0 4 L
-4 0 M
4 0 L
-2.828 -2.828 M
2.828 2.828 L
-2.828 2.828 M
2.828 -2.828 L
S
GR
GS
[0.75 0 0 0.75 203.13927 369.65569] CT
1 0 0 RC
10.0 ML
0.667 LW
N
0 -4 M
0 4 L
-4 0 M
4 0 L
-2.828 -2.828 M
2.828 2.828 L
-2.828 2.828 M
2.828 -2.828 L
S
GR
GS
[0.75 0 0 0.75 207.11577 357.98358] CT
1 0 0 RC
10.0 ML
0.667 LW
N
0 -4 M
0 4 L
-4 0 M
4 0 L
-2.828 -2.828 M
2.828 2.828 L
-2.828 2.828 M
2.828 -2.828 L
S
GR
GS
[0.75 0 0 0.75 211.09229 355.52379] CT
1 0 0 RC
10.0 ML
0.667 LW
N
0 -4 M
0 4 L
-4 0 M
4 0 L
-2.828 -2.828 M
2.828 2.828 L
-2.828 2.828 M
2.828 -2.828 L
S
GR
GS
[0.75 0 0 0.75 215.06879 371.13138] CT
1 0 0 RC
10.0 ML
0.667 LW
N
0 -4 M
0 4 L
-4 0 M
4 0 L
-2.828 -2.828 M
2.828 2.828 L
-2.828 2.828 M
2.828 -2.828 L
S
GR
GS
[0.75 0 0 0.75 219.0453 353.82457] CT
1 0 0 RC
10.0 ML
0.667 LW
N
0 -4 M
0 4 L
-4 0 M
4 0 L
-2.828 -2.828 M
2.828 2.828 L
-2.828 2.828 M
2.828 -2.828 L
S
GR
GS
[0.75 0 0 0.75 223.0218 356.34286] CT
1 0 0 RC
10.0 ML
0.667 LW
N
0 -4 M
0 4 L
-4 0 M
4 0 L
-2.828 -2.828 M
2.828 2.828 L
-2.828 2.828 M
2.828 -2.828 L
S
GR
GS
[0.75 0 0 0.75 226.99832 355.20965] CT
1 0 0 RC
10.0 ML
0.667 LW
N
0 -4 M
0 4 L
-4 0 M
4 0 L
-2.828 -2.828 M
2.828 2.828 L
-2.828 2.828 M
2.828 -2.828 L
S
GR
GS
[0.75 0 0 0.75 230.97482 418.67563] CT
1 0 0 RC
10.0 ML
0.667 LW
N
0 -4 M
0 4 L
-4 0 M
4 0 L
-2.828 -2.828 M
2.828 2.828 L
-2.828 2.828 M
2.828 -2.828 L
S
GR
GS
[0.75 0 0 0.75 234.95135 431.45895] CT
1 0 0 RC
10.0 ML
0.667 LW
N
0 -4 M
0 4 L
-4 0 M
4 0 L
-2.828 -2.828 M
2.828 2.828 L
-2.828 2.828 M
2.828 -2.828 L
S
GR
GS
[0.75 0 0 0.75 238.92785 447.93442] CT
1 0 0 RC
10.0 ML
0.667 LW
N
0 -4 M
0 4 L
-4 0 M
4 0 L
-2.828 -2.828 M
2.828 2.828 L
-2.828 2.828 M
2.828 -2.828 L
S
GR
GS
[0.75 0 0 0.75 242.90435 311.12483] CT
1 0 0 RC
10.0 ML
0.667 LW
N
0 -4 M
0 4 L
-4 0 M
4 0 L
-2.828 -2.828 M
2.828 2.828 L
-2.828 2.828 M
2.828 -2.828 L
S
GR
GS
[0.75 0 0 0.75 246.88087 410.24348] CT
1 0 0 RC
10.0 ML
0.667 LW
N
0 -4 M
0 4 L
-4 0 M
4 0 L
-2.828 -2.828 M
2.828 2.828 L
-2.828 2.828 M
2.828 -2.828 L
S
GR
GS
[0.75 0 0 0.75 250.85738 383.16097] CT
1 0 0 RC
10.0 ML
0.667 LW
N
0 -4 M
0 4 L
-4 0 M
4 0 L
-2.828 -2.828 M
2.828 2.828 L
-2.828 2.828 M
2.828 -2.828 L
S
GR
GS
[0.75 0 0 0.75 254.8339 471.22823] CT
1 0 0 RC
10.0 ML
0.667 LW
N
0 -4 M
0 4 L
-4 0 M
4 0 L
-2.828 -2.828 M
2.828 2.828 L
-2.828 2.828 M
2.828 -2.828 L
S
GR
GS
[0.75 0 0 0.75 258.8104 442.68044] CT
1 0 0 RC
10.0 ML
0.667 LW
N
0 -4 M
0 4 L
-4 0 M
4 0 L
-2.828 -2.828 M
2.828 2.828 L
-2.828 2.828 M
2.828 -2.828 L
S
GR
GS
[0.75 0 0 0.75 262.7869 400.58495] CT
1 0 0 RC
10.0 ML
0.667 LW
N
0 -4 M
0 4 L
-4 0 M
4 0 L
-2.828 -2.828 M
2.828 2.828 L
-2.828 2.828 M
2.828 -2.828 L
S
GR
GS
[0.75 0 0 0.75 266.76343 398.87744] CT
1 0 0 RC
10.0 ML
0.667 LW
N
0 -4 M
0 4 L
-4 0 M
4 0 L
-2.828 -2.828 M
2.828 2.828 L
-2.828 2.828 M
2.828 -2.828 L
S
GR
GS
[0.75 0 0 0.75 270.73993 380.39626] CT
1 0 0 RC
10.0 ML
0.667 LW
N
0 -4 M
0 4 L
-4 0 M
4 0 L
-2.828 -2.828 M
2.828 2.828 L
-2.828 2.828 M
2.828 -2.828 L
S
GR
GS
[0.75 0 0 0.75 274.71645 404.4151] CT
1 0 0 RC
10.0 ML
0.667 LW
N
0 -4 M
0 4 L
-4 0 M
4 0 L
-2.828 -2.828 M
2.828 2.828 L
-2.828 2.828 M
2.828 -2.828 L
S
GR
GS
[0.75 0 0 0.75 278.69296 347.82045] CT
1 0 0 RC
10.0 ML
0.667 LW
N
0 -4 M
0 4 L
-4 0 M
4 0 L
-2.828 -2.828 M
2.828 2.828 L
-2.828 2.828 M
2.828 -2.828 L
S
GR
GS
[0.75 0 0 0.75 282.66946 428.71173] CT
1 0 0 RC
10.0 ML
0.667 LW
N
0 -4 M
0 4 L
-4 0 M
4 0 L
-2.828 -2.828 M
2.828 2.828 L
-2.828 2.828 M
2.828 -2.828 L
S
GR
GS
[0.75 0 0 0.75 286.64598 343.01766] CT
1 0 0 RC
10.0 ML
0.667 LW
N
0 -4 M
0 4 L
-4 0 M
4 0 L
-2.828 -2.828 M
2.828 2.828 L
-2.828 2.828 M
2.828 -2.828 L
S
GR
GS
[0.75 0 0 0.75 290.62248 357.27956] CT
1 0 0 RC
10.0 ML
0.667 LW
N
0 -4 M
0 4 L
-4 0 M
4 0 L
-2.828 -2.828 M
2.828 2.828 L
-2.828 2.828 M
2.828 -2.828 L
S
GR
GS
[0.75 0 0 0.75 294.59898 361.87393] CT
1 0 0 RC
10.0 ML
0.667 LW
N
0 -4 M
0 4 L
-4 0 M
4 0 L
-2.828 -2.828 M
2.828 2.828 L
-2.828 2.828 M
2.828 -2.828 L
S
GR
GS
[0.75 0 0 0.75 298.57551 367.27785] CT
1 0 0 RC
10.0 ML
0.667 LW
N
0 -4 M
0 4 L
-4 0 M
4 0 L
-2.828 -2.828 M
2.828 2.828 L
-2.828 2.828 M
2.828 -2.828 L
S
GR
GS
[0.75 0 0 0.75 302.55201 270.69748] CT
1 0 0 RC
10.0 ML
0.667 LW
N
0 -4 M
0 4 L
-4 0 M
4 0 L
-2.828 -2.828 M
2.828 2.828 L
-2.828 2.828 M
2.828 -2.828 L
S
GR
GS
[0.75 0 0 0.75 306.52851 296.59596] CT
1 0 0 RC
10.0 ML
0.667 LW
N
0 -4 M
0 4 L
-4 0 M
4 0 L
-2.828 -2.828 M
2.828 2.828 L
-2.828 2.828 M
2.828 -2.828 L
S
GR
GS
[0.75 0 0 0.75 310.50504 324.7184] CT
1 0 0 RC
10.0 ML
0.667 LW
N
0 -4 M
0 4 L
-4 0 M
4 0 L
-2.828 -2.828 M
2.828 2.828 L
-2.828 2.828 M
2.828 -2.828 L
S
GR
GS
[0.75 0 0 0.75 314.48154 302.4449] CT
1 0 0 RC
10.0 ML
0.667 LW
N
0 -4 M
0 4 L
-4 0 M
4 0 L
-2.828 -2.828 M
2.828 2.828 L
-2.828 2.828 M
2.828 -2.828 L
S
GR
GS
[0.75 0 0 0.75 318.45806 350.69207] CT
1 0 0 RC
10.0 ML
0.667 LW
N
0 -4 M
0 4 L
-4 0 M
4 0 L
-2.828 -2.828 M
2.828 2.828 L
-2.828 2.828 M
2.828 -2.828 L
S
GR
GS
[0.75 0 0 0.75 322.43456 316.2936] CT
1 0 0 RC
10.0 ML
0.667 LW
N
0 -4 M
0 4 L
-4 0 M
4 0 L
-2.828 -2.828 M
2.828 2.828 L
-2.828 2.828 M
2.828 -2.828 L
S
GR
GS
[0.75 0 0 0.75 326.41106 248.53568] CT
1 0 0 RC
10.0 ML
0.667 LW
N
0 -4 M
0 4 L
-4 0 M
4 0 L
-2.828 -2.828 M
2.828 2.828 L
-2.828 2.828 M
2.828 -2.828 L
S
GR
GS
[0.75 0 0 0.75 330.38759 268.17632] CT
1 0 0 RC
10.0 ML
0.667 LW
N
0 -4 M
0 4 L
-4 0 M
4 0 L
-2.828 -2.828 M
2.828 2.828 L
-2.828 2.828 M
2.828 -2.828 L
S
GR
GS
[0.75 0 0 0.75 334.36409 178.3914] CT
1 0 0 RC
10.0 ML
0.667 LW
N
0 -4 M
0 4 L
-4 0 M
4 0 L
-2.828 -2.828 M
2.828 2.828 L
-2.828 2.828 M
2.828 -2.828 L
S
GR
GS
[0.75 0 0 0.75 338.34061 212.55009] CT
1 0 0 RC
10.0 ML
0.667 LW
N
0 -4 M
0 4 L
-4 0 M
4 0 L
-2.828 -2.828 M
2.828 2.828 L
-2.828 2.828 M
2.828 -2.828 L
S
GR
GS
[0.75 0 0 0.75 342.31712 149.34601] CT
1 0 0 RC
10.0 ML
0.667 LW
N
0 -4 M
0 4 L
-4 0 M
4 0 L
-2.828 -2.828 M
2.828 2.828 L
-2.828 2.828 M
2.828 -2.828 L
S
GR
GS
[0.75 0 0 0.75 346.29362 192.62884] CT
1 0 0 RC
10.0 ML
0.667 LW
N
0 -4 M
0 4 L
-4 0 M
4 0 L
-2.828 -2.828 M
2.828 2.828 L
-2.828 2.828 M
2.828 -2.828 L
S
GR
GS
[0.75 0 0 0.75 350.27014 214.46107] CT
1 0 0 RC
10.0 ML
0.667 LW
N
0 -4 M
0 4 L
-4 0 M
4 0 L
-2.828 -2.828 M
2.828 2.828 L
-2.828 2.828 M
2.828 -2.828 L
S
GR
GS
[0.75 0 0 0.75 354.24664 168.23823] CT
1 0 0 RC
10.0 ML
0.667 LW
N
0 -4 M
0 4 L
-4 0 M
4 0 L
-2.828 -2.828 M
2.828 2.828 L
-2.828 2.828 M
2.828 -2.828 L
S
GR
GS
[0.75 0 0 0.75 358.22314 179.04388] CT
1 0 0 RC
10.0 ML
0.667 LW
N
0 -4 M
0 4 L
-4 0 M
4 0 L
-2.828 -2.828 M
2.828 2.828 L
-2.828 2.828 M
2.828 -2.828 L
S
GR
GS
[0.75 0 0 0.75 362.19967 171.52254] CT
1 0 0 RC
10.0 ML
0.667 LW
N
0 -4 M
0 4 L
-4 0 M
4 0 L
-2.828 -2.828 M
2.828 2.828 L
-2.828 2.828 M
2.828 -2.828 L
S
GR
GS
[0.75 0 0 0.75 366.17617 157.52834] CT
1 0 0 RC
10.0 ML
0.667 LW
N
0 -4 M
0 4 L
-4 0 M
4 0 L
-2.828 -2.828 M
2.828 2.828 L
-2.828 2.828 M
2.828 -2.828 L
S
GR
GS
[0.75 0 0 0.75 370.15269 141.37125] CT
1 0 0 RC
10.0 ML
0.667 LW
N
0 -4 M
0 4 L
-4 0 M
4 0 L
-2.828 -2.828 M
2.828 2.828 L
-2.828 2.828 M
2.828 -2.828 L
S
GR
GS
[0.75 0 0 0.75 374.1292 126.12382] CT
1 0 0 RC
10.0 ML
0.667 LW
N
0 -4 M
0 4 L
-4 0 M
4 0 L
-2.828 -2.828 M
2.828 2.828 L
-2.828 2.828 M
2.828 -2.828 L
S
GR
GS
[0.75 0 0 0.75 378.1057 165.24694] CT
1 0 0 RC
10.0 ML
0.667 LW
N
0 -4 M
0 4 L
-4 0 M
4 0 L
-2.828 -2.828 M
2.828 2.828 L
-2.828 2.828 M
2.828 -2.828 L
S
GR
GS
[0.75 0 0 0.75 382.08222 138.75667] CT
1 0 0 RC
10.0 ML
0.667 LW
N
0 -4 M
0 4 L
-4 0 M
4 0 L
-2.828 -2.828 M
2.828 2.828 L
-2.828 2.828 M
2.828 -2.828 L
S
GR
GS
[0.75 0 0 0.75 386.05875 105.19308] CT
1 0 0 RC
10.0 ML
0.667 LW
N
0 -4 M
0 4 L
-4 0 M
4 0 L
-2.828 -2.828 M
2.828 2.828 L
-2.828 2.828 M
2.828 -2.828 L
S
GR
GS
[0.75 0 0 0.75 390.03525 61.297] CT
1 0 0 RC
10.0 ML
0.667 LW
N
0 -4 M
0 4 L
-4 0 M
4 0 L
-2.828 -2.828 M
2.828 2.828 L
-2.828 2.828 M
2.828 -2.828 L
S
GR
GS
[0.75 0 0 0.75 394.01175 123.30092] CT
1 0 0 RC
10.0 ML
0.667 LW
N
0 -4 M
0 4 L
-4 0 M
4 0 L
-2.828 -2.828 M
2.828 2.828 L
-2.828 2.828 M
2.828 -2.828 L
S
GR
GS
[0.75 0 0 0.75 397.98825 86.69081] CT
1 0 0 RC
10.0 ML
0.667 LW
N
0 -4 M
0 4 L
-4 0 M
4 0 L
-2.828 -2.828 M
2.828 2.828 L
-2.828 2.828 M
2.828 -2.828 L
S
GR
GS
[0.75 0 0 0.75 401.96475 80.83569] CT
1 0 0 RC
10.0 ML
0.667 LW
N
0 -4 M
0 4 L
-4 0 M
4 0 L
-2.828 -2.828 M
2.828 2.828 L
-2.828 2.828 M
2.828 -2.828 L
S
GR
GS
[0.75 0 0 0.75 405.94125 137.67045] CT
1 0 0 RC
10.0 ML
0.667 LW
N
0 -4 M
0 4 L
-4 0 M
4 0 L
-2.828 -2.828 M
2.828 2.828 L
-2.828 2.828 M
2.828 -2.828 L
S
GR
GS
[0.75 0 0 0.75 409.9178 151.62706] CT
1 0 0 RC
10.0 ML
0.667 LW
N
0 -4 M
0 4 L
-4 0 M
4 0 L
-2.828 -2.828 M
2.828 2.828 L
-2.828 2.828 M
2.828 -2.828 L
S
GR
GS
[0.75 0 0 0.75 413.8943 113.28012] CT
1 0 0 RC
10.0 ML
0.667 LW
N
0 -4 M
0 4 L
-4 0 M
4 0 L
-2.828 -2.828 M
2.828 2.828 L
-2.828 2.828 M
2.828 -2.828 L
S
GR
GS
[0.75 0 0 0.75 417.8708 109.8238] CT
1 0 0 RC
10.0 ML
0.667 LW
N
0 -4 M
0 4 L
-4 0 M
4 0 L
-2.828 -2.828 M
2.828 2.828 L
-2.828 2.828 M
2.828 -2.828 L
S
GR
GS
[0.75 0 0 0.75 421.84731 146.55116] CT
1 0 0 RC
10.0 ML
0.667 LW
N
0 -4 M
0 4 L
-4 0 M
4 0 L
-2.828 -2.828 M
2.828 2.828 L
-2.828 2.828 M
2.828 -2.828 L
S
GR
GS
[0.75 0 0 0.75 425.82381 144.47141] CT
1 0 0 RC
10.0 ML
0.667 LW
N
0 -4 M
0 4 L
-4 0 M
4 0 L
-2.828 -2.828 M
2.828 2.828 L
-2.828 2.828 M
2.828 -2.828 L
S
GR
GS
[0.75 0 0 0.75 429.80035 146.86228] CT
1 0 0 RC
10.0 ML
0.667 LW
N
0 -4 M
0 4 L
-4 0 M
4 0 L
-2.828 -2.828 M
2.828 2.828 L
-2.828 2.828 M
2.828 -2.828 L
S
GR
GS
[0.75 0 0 0.75 433.77686 188.71143] CT
1 0 0 RC
10.0 ML
0.667 LW
N
0 -4 M
0 4 L
-4 0 M
4 0 L
-2.828 -2.828 M
2.828 2.828 L
-2.828 2.828 M
2.828 -2.828 L
S
GR
GS
[0.75 0 0 0.75 437.75336 171.75099] CT
1 0 0 RC
10.0 ML
0.667 LW
N
0 -4 M
0 4 L
-4 0 M
4 0 L
-2.828 -2.828 M
2.828 2.828 L
-2.828 2.828 M
2.828 -2.828 L
S
GR
GS
[0.75 0 0 0.75 441.72986 193.48232] CT
1 0 0 RC
10.0 ML
0.667 LW
N
0 -4 M
0 4 L
-4 0 M
4 0 L
-2.828 -2.828 M
2.828 2.828 L
-2.828 2.828 M
2.828 -2.828 L
S
GR
GS
[0.75 0 0 0.75 445.70636 259.90037] CT
1 0 0 RC
10.0 ML
0.667 LW
N
0 -4 M
0 4 L
-4 0 M
4 0 L
-2.828 -2.828 M
2.828 2.828 L
-2.828 2.828 M
2.828 -2.828 L
S
GR
GS
[0.75 0 0 0.75 449.68291 212.42572] CT
1 0 0 RC
10.0 ML
0.667 LW
N
0 -4 M
0 4 L
-4 0 M
4 0 L
-2.828 -2.828 M
2.828 2.828 L
-2.828 2.828 M
2.828 -2.828 L
S
GR
GS
[0.75 0 0 0.75 453.65941 221.3493] CT
1 0 0 RC
10.0 ML
0.667 LW
N
0 -4 M
0 4 L
-4 0 M
4 0 L
-2.828 -2.828 M
2.828 2.828 L
-2.828 2.828 M
2.828 -2.828 L
S
GR
GS
[0.75 0 0 0.75 457.63591 203.53824] CT
1 0 0 RC
10.0 ML
0.667 LW
N
0 -4 M
0 4 L
-4 0 M
4 0 L
-2.828 -2.828 M
2.828 2.828 L
-2.828 2.828 M
2.828 -2.828 L
S
GR
GS
[0.75 0 0 0.75 461.61241 234.15631] CT
1 0 0 RC
10.0 ML
0.667 LW
N
0 -4 M
0 4 L
-4 0 M
4 0 L
-2.828 -2.828 M
2.828 2.828 L
-2.828 2.828 M
2.828 -2.828 L
S
GR
GS
[0.75 0 0 0.75 465.58891 240.04681] CT
1 0 0 RC
10.0 ML
0.667 LW
N
0 -4 M
0 4 L
-4 0 M
4 0 L
-2.828 -2.828 M
2.828 2.828 L
-2.828 2.828 M
2.828 -2.828 L
S
GR
GS
[0.75 0 0 0.75 469.56541 276.05588] CT
1 0 0 RC
10.0 ML
0.667 LW
N
0 -4 M
0 4 L
-4 0 M
4 0 L
-2.828 -2.828 M
2.828 2.828 L
-2.828 2.828 M
2.828 -2.828 L
S
GR
GS
[0.75 0 0 0.75 473.54196 263.5509] CT
1 0 0 RC
10.0 ML
0.667 LW
N
0 -4 M
0 4 L
-4 0 M
4 0 L
-2.828 -2.828 M
2.828 2.828 L
-2.828 2.828 M
2.828 -2.828 L
S
GR
GS
[0.75 0 0 0.75 477.51846 291.97704] CT
1 0 0 RC
10.0 ML
0.667 LW
N
0 -4 M
0 4 L
-4 0 M
4 0 L
-2.828 -2.828 M
2.828 2.828 L
-2.828 2.828 M
2.828 -2.828 L
S
GR
GS
[0.75 0 0 0.75 481.49496 277.36044] CT
1 0 0 RC
10.0 ML
0.667 LW
N
0 -4 M
0 4 L
-4 0 M
4 0 L
-2.828 -2.828 M
2.828 2.828 L
-2.828 2.828 M
2.828 -2.828 L
S
GR
GS
[0.75 0 0 0.75 485.47147 347.19709] CT
1 0 0 RC
10.0 ML
0.667 LW
N
0 -4 M
0 4 L
-4 0 M
4 0 L
-2.828 -2.828 M
2.828 2.828 L
-2.828 2.828 M
2.828 -2.828 L
S
GR
GS
[0.75 0 0 0.75 489.44797 323.78387] CT
1 0 0 RC
10.0 ML
0.667 LW
N
0 -4 M
0 4 L
-4 0 M
4 0 L
-2.828 -2.828 M
2.828 2.828 L
-2.828 2.828 M
2.828 -2.828 L
S
GR
GS
[0.75 0 0 0.75 493.42451 329.90658] CT
1 0 0 RC
10.0 ML
0.667 LW
N
0 -4 M
0 4 L
-4 0 M
4 0 L
-2.828 -2.828 M
2.828 2.828 L
-2.828 2.828 M
2.828 -2.828 L
S
GR
GS
[0.75 0 0 0.75 497.40102 281.84535] CT
1 0 0 RC
10.0 ML
0.667 LW
N
0 -4 M
0 4 L
-4 0 M
4 0 L
-2.828 -2.828 M
2.828 2.828 L
-2.828 2.828 M
2.828 -2.828 L
S
GR
GS
[0.75 0 0 0.75 501.37752 313.94241] CT
1 0 0 RC
10.0 ML
0.667 LW
N
0 -4 M
0 4 L
-4 0 M
4 0 L
-2.828 -2.828 M
2.828 2.828 L
-2.828 2.828 M
2.828 -2.828 L
S
GR
GS
[0.75 0 0 0.75 505.35402 380.39711] CT
1 0 0 RC
10.0 ML
0.667 LW
N
0 -4 M
0 4 L
-4 0 M
4 0 L
-2.828 -2.828 M
2.828 2.828 L
-2.828 2.828 M
2.828 -2.828 L
S
GR
GS
[0.75 0 0 0.75 509.33052 349.74704] CT
1 0 0 RC
10.0 ML
0.667 LW
N
0 -4 M
0 4 L
-4 0 M
4 0 L
-2.828 -2.828 M
2.828 2.828 L
-2.828 2.828 M
2.828 -2.828 L
S
GR
GS
[0.75 0 0 0.75 513.30702 384.35809] CT
1 0 0 RC
10.0 ML
0.667 LW
N
0 -4 M
0 4 L
-4 0 M
4 0 L
-2.828 -2.828 M
2.828 2.828 L
-2.828 2.828 M
2.828 -2.828 L
S
GR
GS
[0.75 0 0 0.75 517.28357 417.38387] CT
1 0 0 RC
10.0 ML
0.667 LW
N
0 -4 M
0 4 L
-4 0 M
4 0 L
-2.828 -2.828 M
2.828 2.828 L
-2.828 2.828 M
2.828 -2.828 L
S
GR
GS
[0.75 0 0 0.75 521.26007 393.45601] CT
1 0 0 RC
10.0 ML
0.667 LW
N
0 -4 M
0 4 L
-4 0 M
4 0 L
-2.828 -2.828 M
2.828 2.828 L
-2.828 2.828 M
2.828 -2.828 L
S
GR
GS
[0.75 0 0 0.75 525.23657 447.1017] CT
1 0 0 RC
10.0 ML
0.667 LW
N
0 -4 M
0 4 L
-4 0 M
4 0 L
-2.828 -2.828 M
2.828 2.828 L
-2.828 2.828 M
2.828 -2.828 L
S
GR
GS
[0.75 0 0 0.75 529.21307 397.77954] CT
1 0 0 RC
10.0 ML
0.667 LW
N
0 -4 M
0 4 L
-4 0 M
4 0 L
-2.828 -2.828 M
2.828 2.828 L
-2.828 2.828 M
2.828 -2.828 L
S
GR
GS
[0.75 0 0 0.75 533.18962 446.51654] CT
1 0 0 RC
10.0 ML
0.667 LW
N
0 -4 M
0 4 L
-4 0 M
4 0 L
-2.828 -2.828 M
2.828 2.828 L
-2.828 2.828 M
2.828 -2.828 L
S
GR
GS
[0.75 0 0 0.75 537.16612 404.27635] CT
1 0 0 RC
10.0 ML
0.667 LW
N
0 -4 M
0 4 L
-4 0 M
4 0 L
-2.828 -2.828 M
2.828 2.828 L
-2.828 2.828 M
2.828 -2.828 L
S
GR
GS
[0.75 0 0 0.75 541.14262 432.29227] CT
1 0 0 RC
10.0 ML
0.667 LW
N
0 -4 M
0 4 L
-4 0 M
4 0 L
-2.828 -2.828 M
2.828 2.828 L
-2.828 2.828 M
2.828 -2.828 L
S
GR
GS
[0.75 0 0 0.75 545.11913 405.76912] CT
1 0 0 RC
10.0 ML
0.667 LW
N
0 -4 M
0 4 L
-4 0 M
4 0 L
-2.828 -2.828 M
2.828 2.828 L
-2.828 2.828 M
2.828 -2.828 L
S
GR
GS
[0.75 0 0 0.75 549.09563 385.5822] CT
1 0 0 RC
10.0 ML
0.667 LW
N
0 -4 M
0 4 L
-4 0 M
4 0 L
-2.828 -2.828 M
2.828 2.828 L
-2.828 2.828 M
2.828 -2.828 L
S
GR
GS
[0.75 0 0 0.75 553.07213 391.05719] CT
1 0 0 RC
10.0 ML
0.667 LW
N
0 -4 M
0 4 L
-4 0 M
4 0 L
-2.828 -2.828 M
2.828 2.828 L
-2.828 2.828 M
2.828 -2.828 L
S
GR
GS
[0.75 0 0 0.75 557.04868 415.08287] CT
1 0 0 RC
10.0 ML
0.667 LW
N
0 -4 M
0 4 L
-4 0 M
4 0 L
-2.828 -2.828 M
2.828 2.828 L
-2.828 2.828 M
2.828 -2.828 L
S
GR
GS
[0.75 0 0 0.75 561.02518 399.27235] CT
1 0 0 RC
10.0 ML
0.667 LW
N
0 -4 M
0 4 L
-4 0 M
4 0 L
-2.828 -2.828 M
2.828 2.828 L
-2.828 2.828 M
2.828 -2.828 L
S
GR
GS
[0.75 0 0 0.75 565.00168 387.92329] CT
1 0 0 RC
10.0 ML
0.667 LW
N
0 -4 M
0 4 L
-4 0 M
4 0 L
-2.828 -2.828 M
2.828 2.828 L
-2.828 2.828 M
2.828 -2.828 L
S
GR
GS
[0.75 0 0 0.75 568.97818 418.40065] CT
1 0 0 RC
10.0 ML
0.667 LW
N
0 -4 M
0 4 L
-4 0 M
4 0 L
-2.828 -2.828 M
2.828 2.828 L
-2.828 2.828 M
2.828 -2.828 L
S
GR
GS
[0.75 0 0 0.75 572.95468 356.51528] CT
1 0 0 RC
10.0 ML
0.667 LW
N
0 -4 M
0 4 L
-4 0 M
4 0 L
-2.828 -2.828 M
2.828 2.828 L
-2.828 2.828 M
2.828 -2.828 L
S
GR
GS
[0.75 0 0 0.75 576.93123 456.49423] CT
1 0 0 RC
10.0 ML
0.667 LW
N
0 -4 M
0 4 L
-4 0 M
4 0 L
-2.828 -2.828 M
2.828 2.828 L
-2.828 2.828 M
2.828 -2.828 L
S
GR
GS
[0.75 0 0 0.75 580.90773 356.71091] CT
1 0 0 RC
10.0 ML
0.667 LW
N
0 -4 M
0 4 L
-4 0 M
4 0 L
-2.828 -2.828 M
2.828 2.828 L
-2.828 2.828 M
2.828 -2.828 L
S
GR
GS
[0.75 0 0 0.75 584.88423 382.84752] CT
1 0 0 RC
10.0 ML
0.667 LW
N
0 -4 M
0 4 L
-4 0 M
4 0 L
-2.828 -2.828 M
2.828 2.828 L
-2.828 2.828 M
2.828 -2.828 L
S
GR
GS
[0.75 0 0 0.75 588.86073 349.89508] CT
1 0 0 RC
10.0 ML
0.667 LW
N
0 -4 M
0 4 L
-4 0 M
4 0 L
-2.828 -2.828 M
2.828 2.828 L
-2.828 2.828 M
2.828 -2.828 L
S
GR
GS
[0.75 0 0 0.75 592.83723 327.18591] CT
1 0 0 RC
10.0 ML
0.667 LW
N
0 -4 M
0 4 L
-4 0 M
4 0 L
-2.828 -2.828 M
2.828 2.828 L
-2.828 2.828 M
2.828 -2.828 L
S
GR
GS
[0.75 0 0 0.75 596.81374 390.29387] CT
1 0 0 RC
10.0 ML
0.667 LW
N
0 -4 M
0 4 L
-4 0 M
4 0 L
-2.828 -2.828 M
2.828 2.828 L
-2.828 2.828 M
2.828 -2.828 L
S
GR
GS
[0.75 0 0 0.75 600.79028 353.44119] CT
1 0 0 RC
10.0 ML
0.667 LW
N
0 -4 M
0 4 L
-4 0 M
4 0 L
-2.828 -2.828 M
2.828 2.828 L
-2.828 2.828 M
2.828 -2.828 L
S
GR
GS
[0.75 0 0 0.75 604.76678 306.42696] CT
1 0 0 RC
10.0 ML
0.667 LW
N
0 -4 M
0 4 L
-4 0 M
4 0 L
-2.828 -2.828 M
2.828 2.828 L
-2.828 2.828 M
2.828 -2.828 L
S
GR
GS
[0.75 0 0 0.75 608.74329 267.76997] CT
1 0 0 RC
10.0 ML
0.667 LW
N
0 -4 M
0 4 L
-4 0 M
4 0 L
-2.828 -2.828 M
2.828 2.828 L
-2.828 2.828 M
2.828 -2.828 L
S
GR
GS
[0.75 0 0 0.75 612.71979 258.30225] CT
1 0 0 RC
10.0 ML
0.667 LW
N
0 -4 M
0 4 L
-4 0 M
4 0 L
-2.828 -2.828 M
2.828 2.828 L
-2.828 2.828 M
2.828 -2.828 L
S
GR
GS
[0.75 0 0 0.75 616.69629 297.88445] CT
1 0 0 RC
10.0 ML
0.667 LW
N
0 -4 M
0 4 L
-4 0 M
4 0 L
-2.828 -2.828 M
2.828 2.828 L
-2.828 2.828 M
2.828 -2.828 L
S
GR
GS
[0.75 0 0 0.75 620.67279 239.77506] CT
1 0 0 RC
10.0 ML
0.667 LW
N
0 -4 M
0 4 L
-4 0 M
4 0 L
-2.828 -2.828 M
2.828 2.828 L
-2.828 2.828 M
2.828 -2.828 L
S
GR
GS
[0.75 0 0 0.75 624.64934 232.05698] CT
1 0 0 RC
10.0 ML
0.667 LW
N
0 -4 M
0 4 L
-4 0 M
4 0 L
-2.828 -2.828 M
2.828 2.828 L
-2.828 2.828 M
2.828 -2.828 L
S
GR
GS
[0.75 0 0 0.75 628.62584 227.96563] CT
1 0 0 RC
10.0 ML
0.667 LW
N
0 -4 M
0 4 L
-4 0 M
4 0 L
-2.828 -2.828 M
2.828 2.828 L
-2.828 2.828 M
2.828 -2.828 L
S
GR
GS
[0.75 0 0 0.75 632.60234 203.97657] CT
1 0 0 RC
10.0 ML
0.667 LW
N
0 -4 M
0 4 L
-4 0 M
4 0 L
-2.828 -2.828 M
2.828 2.828 L
-2.828 2.828 M
2.828 -2.828 L
S
GR
GS
[0.75 0 0 0.75 636.57889 226.5483] CT
1 0 0 RC
10.0 ML
0.667 LW
N
0 -4 M
0 4 L
-4 0 M
4 0 L
-2.828 -2.828 M
2.828 2.828 L
-2.828 2.828 M
2.828 -2.828 L
S
GR
GS
[0.75 0 0 0.75 640.55539 210.67551] CT
1 0 0 RC
10.0 ML
0.667 LW
N
0 -4 M
0 4 L
-4 0 M
4 0 L
-2.828 -2.828 M
2.828 2.828 L
-2.828 2.828 M
2.828 -2.828 L
S
GR
GS
[0.75 0 0 0.75 644.53189 223.13856] CT
1 0 0 RC
10.0 ML
0.667 LW
N
0 -4 M
0 4 L
-4 0 M
4 0 L
-2.828 -2.828 M
2.828 2.828 L
-2.828 2.828 M
2.828 -2.828 L
S
GR
GS
[0.75 0 0 0.75 648.50839 197.29109] CT
1 0 0 RC
10.0 ML
0.667 LW
N
0 -4 M
0 4 L
-4 0 M
4 0 L
-2.828 -2.828 M
2.828 2.828 L
-2.828 2.828 M
2.828 -2.828 L
S
GR
GS
[0.75 0 0 0.75 652.48489 190.79378] CT
1 0 0 RC
10.0 ML
0.667 LW
N
0 -4 M
0 4 L
-4 0 M
4 0 L
-2.828 -2.828 M
2.828 2.828 L
-2.828 2.828 M
2.828 -2.828 L
S
GR
GS
[0.75 0 0 0.75 656.4614 173.39651] CT
1 0 0 RC
10.0 ML
0.667 LW
N
0 -4 M
0 4 L
-4 0 M
4 0 L
-2.828 -2.828 M
2.828 2.828 L
-2.828 2.828 M
2.828 -2.828 L
S
GR
GS
[0.75 0 0 0.75 660.43794 148.44975] CT
1 0 0 RC
10.0 ML
0.667 LW
N
0 -4 M
0 4 L
-4 0 M
4 0 L
-2.828 -2.828 M
2.828 2.828 L
-2.828 2.828 M
2.828 -2.828 L
S
GR
GS
[0.75 0 0 0.75 664.41444 86.17016] CT
1 0 0 RC
10.0 ML
0.667 LW
N
0 -4 M
0 4 L
-4 0 M
4 0 L
-2.828 -2.828 M
2.828 2.828 L
-2.828 2.828 M
2.828 -2.828 L
S
GR
GS
[0.75 0 0 0.75 668.39095 149.61812] CT
1 0 0 RC
10.0 ML
0.667 LW
N
0 -4 M
0 4 L
-4 0 M
4 0 L
-2.828 -2.828 M
2.828 2.828 L
-2.828 2.828 M
2.828 -2.828 L
S
GR
GS
[0.75 0 0 0.75 672.36745 136.45255] CT
1 0 0 RC
10.0 ML
0.667 LW
N
0 -4 M
0 4 L
-4 0 M
4 0 L
-2.828 -2.828 M
2.828 2.828 L
-2.828 2.828 M
2.828 -2.828 L
S
GR
GS
[0.75 0 0 0.75 676.34395 107.55941] CT
1 0 0 RC
10.0 ML
0.667 LW
N
0 -4 M
0 4 L
-4 0 M
4 0 L
-2.828 -2.828 M
2.828 2.828 L
-2.828 2.828 M
2.828 -2.828 L
S
GR
GS
[0.75 0 0 0.75 680.32045 97.93326] CT
1 0 0 RC
10.0 ML
0.667 LW
N
0 -4 M
0 4 L
-4 0 M
4 0 L
-2.828 -2.828 M
2.828 2.828 L
-2.828 2.828 M
2.828 -2.828 L
S
GR
GS
[0.75 0 0 0.75 684.297 128.43396] CT
1 0 0 RC
10.0 ML
0.667 LW
N
0 -4 M
0 4 L
-4 0 M
4 0 L
-2.828 -2.828 M
2.828 2.828 L
-2.828 2.828 M
2.828 -2.828 L
S
GR
GS
[0.75 0 0 0.75 688.2735 92.99799] CT
1 0 0 RC
10.0 ML
0.667 LW
N
0 -4 M
0 4 L
-4 0 M
4 0 L
-2.828 -2.828 M
2.828 2.828 L
-2.828 2.828 M
2.828 -2.828 L
S
GR
GS
[0.75 0 0 0.75 692.25 118.43351] CT
1 0 0 RC
10.0 ML
0.667 LW
N
0 -4 M
0 4 L
-4 0 M
4 0 L
-2.828 -2.828 M
2.828 2.828 L
-2.828 2.828 M
2.828 -2.828 L
S
GR
GS
[0.75 0 0 0.75 0 -0.25] CT
0.302 0.745 0.933 RC
1 LJ
4 LW
N
133 155.5 M
138.302 156.214 L
143.604 158.353 L
148.906 161.899 L
154.208 166.829 L
159.51 173.108 L
164.812 180.69 L
170.114 189.522 L
175.416 199.541 L
180.718 210.675 L
186.02 222.847 L
191.322 235.968 L
196.624 249.946 L
201.926 264.682 L
207.228 280.07 L
212.53 296.002 L
217.832 312.364 L
223.134 329.039 L
228.436 345.91 L
233.738 362.856 L
239.04 379.757 L
244.342 396.492 L
249.644 412.943 L
254.946 428.993 L
260.248 444.528 L
265.55 459.437 L
270.852 473.614 L
276.154 486.958 L
281.456 499.376 L
286.758 510.777 L
292.06 521.082 L
297.362 530.217 L
302.664 538.117 L
307.966 544.726 L
313.268 549.997 L
318.57 553.892 L
323.872 556.384 L
329.174 557.455 L
334.477 557.098 L
339.779 555.315 L
345.081 552.118 L
350.383 547.531 L
355.685 541.586 L
360.987 534.325 L
366.289 525.8 L
371.591 516.071 L
376.893 505.209 L
382.195 493.289 L
387.497 480.396 L
392.799 466.623 L
398.101 452.067 L
403.403 436.832 L
408.705 421.026 L
414.007 404.761 L
419.309 388.153 L
424.611 371.319 L
429.913 354.381 L
435.215 337.458 L
440.517 320.67 L
445.819 304.136 L
451.121 287.975 L
456.423 272.301 L
461.725 257.226 L
467.027 242.856 L
472.329 229.294 L
477.631 216.637 L
482.933 204.973 L
488.235 194.387 L
493.537 184.953 L
498.839 176.739 L
504.141 169.803 L
509.443 164.193 L
514.745 159.951 L
520.047 157.106 L
525.349 155.679 L
530.651 155.679 L
535.953 157.106 L
541.255 159.951 L
546.557 164.193 L
551.859 169.803 L
557.161 176.739 L
562.463 184.953 L
567.765 194.387 L
573.067 204.973 L
578.369 216.637 L
583.671 229.294 L
588.973 242.856 L
594.275 257.226 L
599.577 272.301 L
604.879 287.975 L
610.181 304.136 L
615.483 320.67 L
620.785 337.458 L
626.087 354.381 L
631.389 371.319 L
636.691 388.153 L
641.993 404.761 L
647.295 421.026 L
652.597 436.832 L
657.899 452.067 L
663.201 466.623 L
668.503 480.396 L
673.805 493.289 L
679.107 505.209 L
684.409 516.071 L
689.711 525.8 L
695.013 534.325 L
700.315 541.586 L
705.617 547.531 L
710.919 552.118 L
716.221 555.315 L
721.523 557.098 L
726.826 557.455 L
732.128 556.384 L
737.43 553.892 L
742.732 549.997 L
748.034 544.726 L
753.336 538.117 L
758.638 530.217 L
763.94 521.082 L
769.242 510.777 L
774.544 499.376 L
779.846 486.958 L
785.148 473.614 L
790.45 459.437 L
795.752 444.528 L
801.054 428.993 L
806.356 412.943 L
811.658 396.492 L
816.96 379.757 L
822.262 362.856 L
827.564 345.91 L
832.866 329.039 L
838.168 312.364 L
843.47 296.002 L
848.772 280.07 L
854.074 264.682 L
859.376 249.946 L
864.678 235.968 L
869.98 222.847 L
875.282 210.675 L
880.584 199.541 L
885.886 189.522 L
891.188 180.69 L
896.49 173.108 L
901.792 166.829 L
907.094 161.899 L
912.396 158.353 L
917.698 156.214 L
923 155.5 L
S
GR
GS
[0.75 0 0 0.75 0 -0.25] CT
1 GC
N
228 259 M
228 56 L
422 56 L
422 259 L
cp
f
GR
GS
[0.75 0 0 0.75 198.75 53.75] CT
/Helvetica 21.6 F
GS
[1 0 0 1 0 0] CT
0 9 moveto 
1 -1 scale
(Approximation1) t 
GR
GR
GS
[0.75 0 0 0.75 0 -0.25] CT
0 0.447 0.741 RC
1 LJ
4 LW
N
232 72 M
262 72 L
S
GR
GS
[0.75 0 0 0.75 198.75 75.125] CT
/Helvetica 21.6 F
GS
[1 0 0 1 0 0] CT
0 9 moveto 
1 -1 scale
(Approximation2) t 
GR
GR
GS
[0.75 0 0 0.75 0 -0.25] CT
0.851 0.325 0.098 RC
1 LJ
4 LW
N
232 100.5 M
262 100.5 L
S
GR
GS
[0.75 0 0 0.75 198.75 96.5] CT
/Helvetica 21.6 F
GS
[1 0 0 1 0 0] CT
0 9 moveto 
1 -1 scale
(Approximation3) t 
GR
GR
GS
[0.75 0 0 0.75 0 -0.25] CT
0.929 0.694 0.125 RC
1 LJ
4 LW
N
232 129 M
262 129 L
S
GR
GS
[0.75 0 0 0.75 198.75 117.875] CT
/Helvetica 21.6 F
GS
[1 0 0 1 0 0] CT
0 9 moveto 
1 -1 scale
(Approximation4) t 
GR
GR
GS
[0.75 0 0 0.75 0 -0.25] CT
0.494 0.184 0.557 RC
1 LJ
4 LW
N
232 157.5 M
262 157.5 L
S
GR
GS
[0.75 0 0 0.75 198.75 139.25] CT
/Helvetica 21.6 F
GS
[1 0 0 1 0 0] CT
0 9 moveto 
1 -1 scale
(Approximation5) t 
GR
GR
GS
[0.75 0 0 0.75 0 -0.25] CT
0.467 0.675 0.188 RC
1 LJ
4 LW
N
232 186 M
262 186 L
S
GR
GS
[0.75 0 0 0.75 198.75 160.625] CT
/Helvetica 21.6 F
GS
[1 0 0 1 0 0] CT
0 9 moveto 
1 -1 scale
(Training set) t 
GR
GR
GS
[0.75 0 0 0.75 185.25 160.625] CT
1 0 0 RC
10.0 ML
0.667 LW
N
0 -4 M
0 4 L
-4 0 M
4 0 L
-2.828 -2.828 M
2.828 2.828 L
-2.828 2.828 M
2.828 -2.828 L
S
GR
GS
[0.75 0 0 0.75 198.75 182] CT
/Helvetica 21.6 F
GS
[1 0 0 1 0 0] CT
0 9 moveto 
1 -1 scale
(True function) t 
GR
GR
GS
[0.75 0 0 0.75 0 -0.25] CT
0.302 0.745 0.933 RC
1 LJ
4 LW
N
232 243 M
262 243 L
S
GR
GS
[0.75 0 0 0.75 0 -0.25] CT
0.149 GC
10.0 ML
0.667 LW
N
228 259 M
228 56 L
422 56 L
422 259 L
cp
S
GR
%%Trailer
%%Pages: 1
%%EOF
