%!PS-Adobe-3.0 EPSF-3.0
%%Creator: (MATLAB, The Mathworks, Inc. Version 9.1.0.441655 \(R2016b\). Operating System: Windows 8)
%%Title: (C:/Users/Eigenaar/WIT/Data Mining/data-mining/Session 1/plots/m1h6.eps)
%%CreationDate: 2017-11-18T16:19:25
%%Pages: (atend)
%%BoundingBox: 0 0 859 625
%%LanguageLevel: 3
%%EndComments
%%BeginProlog
%%BeginResource: procset (Apache XML Graphics Std ProcSet) 1.2 0
%%Version: 1.2 0
%%Copyright: (Copyright 2001-2003,2010 The Apache Software Foundation. License terms: http://www.apache.org/licenses/LICENSE-2.0)
/bd{bind def}bind def
/ld{load def}bd
/GR/grestore ld
/M/moveto ld
/LJ/setlinejoin ld
/C/curveto ld
/f/fill ld
/LW/setlinewidth ld
/GC/setgray ld
/t/show ld
/N/newpath ld
/CT/concat ld
/cp/closepath ld
/S/stroke ld
/L/lineto ld
/CC/setcmykcolor ld
/A/ashow ld
/GS/gsave ld
/RC/setrgbcolor ld
/RM/rmoveto ld
/ML/setmiterlimit ld
/re {4 2 roll M
1 index 0 rlineto
0 exch rlineto
neg 0 rlineto
cp } bd
/_ctm matrix def
/_tm matrix def
/BT { _ctm currentmatrix pop matrix _tm copy pop 0 0 moveto } bd
/ET { _ctm setmatrix } bd
/iTm { _ctm setmatrix _tm concat } bd
/Tm { _tm astore pop iTm 0 0 moveto } bd
/ux 0.0 def
/uy 0.0 def
/F {
  /Tp exch def
  /Tf exch def
  Tf findfont Tp scalefont setfont
  /cf Tf def  /cs Tp def
} bd
/ULS {currentpoint /uy exch def /ux exch def} bd
/ULE {
  /Tcx currentpoint pop def
  gsave
  newpath
  cf findfont cs scalefont dup
  /FontMatrix get 0 get /Ts exch def /FontInfo get dup
  /UnderlinePosition get Ts mul /To exch def
  /UnderlineThickness get Ts mul /Tt exch def
  ux uy To add moveto  Tcx uy To add lineto
  Tt setlinewidth stroke
  grestore
} bd
/OLE {
  /Tcx currentpoint pop def
  gsave
  newpath
  cf findfont cs scalefont dup
  /FontMatrix get 0 get /Ts exch def /FontInfo get dup
  /UnderlinePosition get Ts mul /To exch def
  /UnderlineThickness get Ts mul /Tt exch def
  ux uy To add cs add moveto Tcx uy To add cs add lineto
  Tt setlinewidth stroke
  grestore
} bd
/SOE {
  /Tcx currentpoint pop def
  gsave
  newpath
  cf findfont cs scalefont dup
  /FontMatrix get 0 get /Ts exch def /FontInfo get dup
  /UnderlinePosition get Ts mul /To exch def
  /UnderlineThickness get Ts mul /Tt exch def
  ux uy To add cs 10 mul 26 idiv add moveto Tcx uy To add cs 10 mul 26 idiv add lineto
  Tt setlinewidth stroke
  grestore
} bd
/QT {
/Y22 exch store
/X22 exch store
/Y21 exch store
/X21 exch store
currentpoint
/Y21 load 2 mul add 3 div exch
/X21 load 2 mul add 3 div exch
/X21 load 2 mul /X22 load add 3 div
/Y21 load 2 mul /Y22 load add 3 div
/X22 load /Y22 load curveto
} bd
/SSPD {
dup length /d exch dict def
{
/v exch def
/k exch def
currentpagedevice k known {
/cpdv currentpagedevice k get def
v cpdv ne {
/upd false def
/nullv v type /nulltype eq def
/nullcpdv cpdv type /nulltype eq def
nullv nullcpdv or
{
/upd true def
} {
/sametype v type cpdv type eq def
sametype {
v type /arraytype eq {
/vlen v length def
/cpdvlen cpdv length def
vlen cpdvlen eq {
0 1 vlen 1 sub {
/i exch def
/obj v i get def
/cpdobj cpdv i get def
obj cpdobj ne {
/upd true def
exit
} if
} for
} {
/upd true def
} ifelse
} {
v type /dicttype eq {
v {
/dv exch def
/dk exch def
/cpddv cpdv dk get def
dv cpddv ne {
/upd true def
exit
} if
} forall
} {
/upd true def
} ifelse
} ifelse
} if
} ifelse
upd true eq {
d k v put
} if
} if
} if
} forall
d length 0 gt {
d setpagedevice
} if
} bd
/RE { % /NewFontName [NewEncodingArray] /FontName RE -
  findfont dup length dict begin
  {
    1 index /FID ne
    {def} {pop pop} ifelse
  } forall
  /Encoding exch def
  /FontName 1 index def
  currentdict definefont pop
  end
} bind def
%%EndResource
%%BeginResource: procset (Apache XML Graphics EPS ProcSet) 1.0 0
%%Version: 1.0 0
%%Copyright: (Copyright 2002-2003 The Apache Software Foundation. License terms: http://www.apache.org/licenses/LICENSE-2.0)
/BeginEPSF { %def
/b4_Inc_state save def         % Save state for cleanup
/dict_count countdictstack def % Count objects on dict stack
/op_count count 1 sub def      % Count objects on operand stack
userdict begin                 % Push userdict on dict stack
/showpage { } def              % Redefine showpage, { } = null proc
0 setgray 0 setlinecap         % Prepare graphics state
1 setlinewidth 0 setlinejoin
10 setmiterlimit [ ] 0 setdash newpath
/languagelevel where           % If level not equal to 1 then
{pop languagelevel             % set strokeadjust and
1 ne                           % overprint to their defaults.
{false setstrokeadjust false setoverprint
} if
} if
} bd
/EndEPSF { %def
count op_count sub {pop} repeat            % Clean up stacks
countdictstack dict_count sub {end} repeat
b4_Inc_state restore
} bd
%%EndResource
%FOPBeginFontDict
%%IncludeResource: font Courier-Bold
%%IncludeResource: font Helvetica
%%IncludeResource: font Courier-BoldOblique
%%IncludeResource: font Courier-Oblique
%%IncludeResource: font Times-Roman
%%IncludeResource: font Helvetica-BoldOblique
%%IncludeResource: font Helvetica-Bold
%%IncludeResource: font Helvetica-Oblique
%%IncludeResource: font Times-BoldItalic
%%IncludeResource: font Courier
%%IncludeResource: font Times-Italic
%%IncludeResource: font Times-Bold
%%IncludeResource: font Symbol
%%IncludeResource: font ZapfDingbats
%FOPEndFontDict
%%BeginResource: encoding WinAnsiEncoding
/WinAnsiEncoding [
/.notdef /.notdef /.notdef /.notdef /.notdef
/.notdef /.notdef /.notdef /.notdef /.notdef
/.notdef /.notdef /.notdef /.notdef /.notdef
/.notdef /.notdef /.notdef /.notdef /.notdef
/.notdef /.notdef /.notdef /.notdef /.notdef
/.notdef /.notdef /.notdef /.notdef /.notdef
/.notdef /.notdef /space /exclam /quotedbl
/numbersign /dollar /percent /ampersand /quotesingle
/parenleft /parenright /asterisk /plus /comma
/hyphen /period /slash /zero /one
/two /three /four /five /six
/seven /eight /nine /colon /semicolon
/less /equal /greater /question /at
/A /B /C /D /E
/F /G /H /I /J
/K /L /M /N /O
/P /Q /R /S /T
/U /V /W /X /Y
/Z /bracketleft /backslash /bracketright /asciicircum
/underscore /quoteleft /a /b /c
/d /e /f /g /h
/i /j /k /l /m
/n /o /p /q /r
/s /t /u /v /w
/x /y /z /braceleft /bar
/braceright /asciitilde /bullet /Euro /bullet
/quotesinglbase /florin /quotedblbase /ellipsis /dagger
/daggerdbl /circumflex /perthousand /Scaron /guilsinglleft
/OE /bullet /Zcaron /bullet /bullet
/quoteleft /quoteright /quotedblleft /quotedblright /bullet
/endash /emdash /asciitilde /trademark /scaron
/guilsinglright /oe /bullet /zcaron /Ydieresis
/space /exclamdown /cent /sterling /currency
/yen /brokenbar /section /dieresis /copyright
/ordfeminine /guillemotleft /logicalnot /sfthyphen /registered
/macron /degree /plusminus /twosuperior /threesuperior
/acute /mu /paragraph /middot /cedilla
/onesuperior /ordmasculine /guillemotright /onequarter /onehalf
/threequarters /questiondown /Agrave /Aacute /Acircumflex
/Atilde /Adieresis /Aring /AE /Ccedilla
/Egrave /Eacute /Ecircumflex /Edieresis /Igrave
/Iacute /Icircumflex /Idieresis /Eth /Ntilde
/Ograve /Oacute /Ocircumflex /Otilde /Odieresis
/multiply /Oslash /Ugrave /Uacute /Ucircumflex
/Udieresis /Yacute /Thorn /germandbls /agrave
/aacute /acircumflex /atilde /adieresis /aring
/ae /ccedilla /egrave /eacute /ecircumflex
/edieresis /igrave /iacute /icircumflex /idieresis
/eth /ntilde /ograve /oacute /ocircumflex
/otilde /odieresis /divide /oslash /ugrave
/uacute /ucircumflex /udieresis /yacute /thorn
/ydieresis
] def
%%EndResource
%FOPBeginFontReencode
/Courier-Bold findfont
dup length dict begin
  {1 index /FID ne {def} {pop pop} ifelse} forall
  /Encoding WinAnsiEncoding def
  currentdict
end
/Courier-Bold exch definefont pop
/Helvetica findfont
dup length dict begin
  {1 index /FID ne {def} {pop pop} ifelse} forall
  /Encoding WinAnsiEncoding def
  currentdict
end
/Helvetica exch definefont pop
/Courier-BoldOblique findfont
dup length dict begin
  {1 index /FID ne {def} {pop pop} ifelse} forall
  /Encoding WinAnsiEncoding def
  currentdict
end
/Courier-BoldOblique exch definefont pop
/Courier-Oblique findfont
dup length dict begin
  {1 index /FID ne {def} {pop pop} ifelse} forall
  /Encoding WinAnsiEncoding def
  currentdict
end
/Courier-Oblique exch definefont pop
/Times-Roman findfont
dup length dict begin
  {1 index /FID ne {def} {pop pop} ifelse} forall
  /Encoding WinAnsiEncoding def
  currentdict
end
/Times-Roman exch definefont pop
/Helvetica-BoldOblique findfont
dup length dict begin
  {1 index /FID ne {def} {pop pop} ifelse} forall
  /Encoding WinAnsiEncoding def
  currentdict
end
/Helvetica-BoldOblique exch definefont pop
/Helvetica-Bold findfont
dup length dict begin
  {1 index /FID ne {def} {pop pop} ifelse} forall
  /Encoding WinAnsiEncoding def
  currentdict
end
/Helvetica-Bold exch definefont pop
/Helvetica-Oblique findfont
dup length dict begin
  {1 index /FID ne {def} {pop pop} ifelse} forall
  /Encoding WinAnsiEncoding def
  currentdict
end
/Helvetica-Oblique exch definefont pop
/Times-BoldItalic findfont
dup length dict begin
  {1 index /FID ne {def} {pop pop} ifelse} forall
  /Encoding WinAnsiEncoding def
  currentdict
end
/Times-BoldItalic exch definefont pop
/Courier findfont
dup length dict begin
  {1 index /FID ne {def} {pop pop} ifelse} forall
  /Encoding WinAnsiEncoding def
  currentdict
end
/Courier exch definefont pop
/Times-Italic findfont
dup length dict begin
  {1 index /FID ne {def} {pop pop} ifelse} forall
  /Encoding WinAnsiEncoding def
  currentdict
end
/Times-Italic exch definefont pop
/Times-Bold findfont
dup length dict begin
  {1 index /FID ne {def} {pop pop} ifelse} forall
  /Encoding WinAnsiEncoding def
  currentdict
end
/Times-Bold exch definefont pop
%FOPEndFontReencode
%%EndProlog
%%Page: 1 1
%%PageBoundingBox: 0 0 859 625
%%BeginPageSetup
[1 0 0 -1 0 625] CT
%%EndPageSetup
GS
[0.75 0 0 0.75 0 0.25] CT
N
0 0 M
1145 0 L
1145 833 L
0 833 L
0 0 L
cp
clip
1 GC
N
0 0 1145 833 re
f
GR
GS
[0.75 0 0 0.75 0 0.25] CT
1 GC
N
0 0 1145 833 re
f
GR
GS
[0.75 0 0 0.75 0 0.25] CT
1 GC
N
149 741 M
1036 741 L
1036 62 L
149 62 L
cp
f
GR
GS
[0.75 0 0 0.75 0 0.25] CT
0.149 GC
2 setlinecap
1 LJ
0.667 LW
N
149 741 M
1036 741 L
S
GR
GS
[0.75 0 0 0.75 0 0.25] CT
0.149 GC
2 setlinecap
1 LJ
0.667 LW
N
149 62 M
1036 62 L
S
GR
GS
[0.75 0 0 0.75 0 0.25] CT
0.149 GC
2 setlinecap
1 LJ
0.667 LW
N
149 741 M
149 732.13 L
S
GR
GS
[0.75 0 0 0.75 0 0.25] CT
0.149 GC
2 setlinecap
1 LJ
0.667 LW
N
259.875 741 M
259.875 732.13 L
S
GR
GS
[0.75 0 0 0.75 0 0.25] CT
0.149 GC
2 setlinecap
1 LJ
0.667 LW
N
370.75 741 M
370.75 732.13 L
S
GR
GS
[0.75 0 0 0.75 0 0.25] CT
0.149 GC
2 setlinecap
1 LJ
0.667 LW
N
481.625 741 M
481.625 732.13 L
S
GR
GS
[0.75 0 0 0.75 0 0.25] CT
0.149 GC
2 setlinecap
1 LJ
0.667 LW
N
592.5 741 M
592.5 732.13 L
S
GR
GS
[0.75 0 0 0.75 0 0.25] CT
0.149 GC
2 setlinecap
1 LJ
0.667 LW
N
703.375 741 M
703.375 732.13 L
S
GR
GS
[0.75 0 0 0.75 0 0.25] CT
0.149 GC
2 setlinecap
1 LJ
0.667 LW
N
814.25 741 M
814.25 732.13 L
S
GR
GS
[0.75 0 0 0.75 0 0.25] CT
0.149 GC
2 setlinecap
1 LJ
0.667 LW
N
925.125 741 M
925.125 732.13 L
S
GR
GS
[0.75 0 0 0.75 0 0.25] CT
0.149 GC
2 setlinecap
1 LJ
0.667 LW
N
1036 741 M
1036 732.13 L
S
GR
GS
[0.75 0 0 0.75 0 0.25] CT
0.149 GC
2 setlinecap
1 LJ
0.667 LW
N
149 62 M
149 70.87 L
S
GR
GS
[0.75 0 0 0.75 0 0.25] CT
0.149 GC
2 setlinecap
1 LJ
0.667 LW
N
259.875 62 M
259.875 70.87 L
S
GR
GS
[0.75 0 0 0.75 0 0.25] CT
0.149 GC
2 setlinecap
1 LJ
0.667 LW
N
370.75 62 M
370.75 70.87 L
S
GR
GS
[0.75 0 0 0.75 0 0.25] CT
0.149 GC
2 setlinecap
1 LJ
0.667 LW
N
481.625 62 M
481.625 70.87 L
S
GR
GS
[0.75 0 0 0.75 0 0.25] CT
0.149 GC
2 setlinecap
1 LJ
0.667 LW
N
592.5 62 M
592.5 70.87 L
S
GR
GS
[0.75 0 0 0.75 0 0.25] CT
0.149 GC
2 setlinecap
1 LJ
0.667 LW
N
703.375 62 M
703.375 70.87 L
S
GR
GS
[0.75 0 0 0.75 0 0.25] CT
0.149 GC
2 setlinecap
1 LJ
0.667 LW
N
814.25 62 M
814.25 70.87 L
S
GR
GS
[0.75 0 0 0.75 0 0.25] CT
0.149 GC
2 setlinecap
1 LJ
0.667 LW
N
925.125 62 M
925.125 70.87 L
S
GR
GS
[0.75 0 0 0.75 0 0.25] CT
0.149 GC
2 setlinecap
1 LJ
0.667 LW
N
1036 62 M
1036 70.87 L
S
GR
GS
[0.75 0 0 0.75 111.75 561.60001] CT
0.149 GC
/Helvetica 24 F
GS
[1 0 0 1 0 0] CT
-11 25 moveto 
1 -1 scale
(-4) t 
GR
GR
GS
[0.75 0 0 0.75 194.90625 561.60001] CT
0.149 GC
/Helvetica 24 F
GS
[1 0 0 1 0 0] CT
-11 25 moveto 
1 -1 scale
(-3) t 
GR
GR
GS
[0.75 0 0 0.75 278.0625 561.60001] CT
0.149 GC
/Helvetica 24 F
GS
[1 0 0 1 0 0] CT
-11 25 moveto 
1 -1 scale
(-2) t 
GR
GR
GS
[0.75 0 0 0.75 361.21875 561.60001] CT
0.149 GC
/Helvetica 24 F
GS
[1 0 0 1 0 0] CT
-11 25 moveto 
1 -1 scale
(-1) t 
GR
GR
GS
[0.75 0 0 0.75 444.375 561.60001] CT
0.149 GC
/Helvetica 24 F
GS
[1 0 0 1 0 0] CT
-7 25 moveto 
1 -1 scale
(0) t 
GR
GR
GS
[0.75 0 0 0.75 527.53125 561.60001] CT
0.149 GC
/Helvetica 24 F
GS
[1 0 0 1 0 0] CT
-7 25 moveto 
1 -1 scale
(1) t 
GR
GR
GS
[0.75 0 0 0.75 610.6875 561.60001] CT
0.149 GC
/Helvetica 24 F
GS
[1 0 0 1 0 0] CT
-7 25 moveto 
1 -1 scale
(2) t 
GR
GR
GS
[0.75 0 0 0.75 693.84375 561.60001] CT
0.149 GC
/Helvetica 24 F
GS
[1 0 0 1 0 0] CT
-7 25 moveto 
1 -1 scale
(3) t 
GR
GR
GS
[0.75 0 0 0.75 777 561.60001] CT
0.149 GC
/Helvetica 24 F
GS
[1 0 0 1 0 0] CT
-7 25 moveto 
1 -1 scale
(4) t 
GR
GR
GS
[0.75 0 0 0.75 444.37532 585.84999] CT
0.149 GC
/Helvetica 26.4 F
GS
[1 0 0 1 0 0] CT
-9 27 moveto 
1 -1 scale
(X) t 
GR
GR
GS
[0.75 0 0 0.75 0 0.25] CT
0.149 GC
2 setlinecap
1 LJ
0.667 LW
N
149 741 M
149 62 L
S
GR
GS
[0.75 0 0 0.75 0 0.25] CT
0.149 GC
2 setlinecap
1 LJ
0.667 LW
N
1036 741 M
1036 62 L
S
GR
GS
[0.75 0 0 0.75 0 0.25] CT
0.149 GC
2 setlinecap
1 LJ
0.667 LW
N
149 741 M
157.87 741 L
S
GR
GS
[0.75 0 0 0.75 0 0.25] CT
0.149 GC
2 setlinecap
1 LJ
0.667 LW
N
149 644 M
157.87 644 L
S
GR
GS
[0.75 0 0 0.75 0 0.25] CT
0.149 GC
2 setlinecap
1 LJ
0.667 LW
N
149 547 M
157.87 547 L
S
GR
GS
[0.75 0 0 0.75 0 0.25] CT
0.149 GC
2 setlinecap
1 LJ
0.667 LW
N
149 450 M
157.87 450 L
S
GR
GS
[0.75 0 0 0.75 0 0.25] CT
0.149 GC
2 setlinecap
1 LJ
0.667 LW
N
149 353 M
157.87 353 L
S
GR
GS
[0.75 0 0 0.75 0 0.25] CT
0.149 GC
2 setlinecap
1 LJ
0.667 LW
N
149 256 M
157.87 256 L
S
GR
GS
[0.75 0 0 0.75 0 0.25] CT
0.149 GC
2 setlinecap
1 LJ
0.667 LW
N
149 159 M
157.87 159 L
S
GR
GS
[0.75 0 0 0.75 0 0.25] CT
0.149 GC
2 setlinecap
1 LJ
0.667 LW
N
149 62 M
157.87 62 L
S
GR
GS
[0.75 0 0 0.75 0 0.25] CT
0.149 GC
2 setlinecap
1 LJ
0.667 LW
N
1036 741 M
1027.13 741 L
S
GR
GS
[0.75 0 0 0.75 0 0.25] CT
0.149 GC
2 setlinecap
1 LJ
0.667 LW
N
1036 644 M
1027.13 644 L
S
GR
GS
[0.75 0 0 0.75 0 0.25] CT
0.149 GC
2 setlinecap
1 LJ
0.667 LW
N
1036 547 M
1027.13 547 L
S
GR
GS
[0.75 0 0 0.75 0 0.25] CT
0.149 GC
2 setlinecap
1 LJ
0.667 LW
N
1036 450 M
1027.13 450 L
S
GR
GS
[0.75 0 0 0.75 0 0.25] CT
0.149 GC
2 setlinecap
1 LJ
0.667 LW
N
1036 353 M
1027.13 353 L
S
GR
GS
[0.75 0 0 0.75 0 0.25] CT
0.149 GC
2 setlinecap
1 LJ
0.667 LW
N
1036 256 M
1027.13 256 L
S
GR
GS
[0.75 0 0 0.75 0 0.25] CT
0.149 GC
2 setlinecap
1 LJ
0.667 LW
N
1036 159 M
1027.13 159 L
S
GR
GS
[0.75 0 0 0.75 0 0.25] CT
0.149 GC
2 setlinecap
1 LJ
0.667 LW
N
1036 62 M
1027.13 62 L
S
GR
GS
[0.75 0 0 0.75 106.14999 556] CT
0.149 GC
/Helvetica 24 F
GS
[1 0 0 1 0 0] CT
-42 9.5 moveto 
1 -1 scale
(-0.4) t 
GR
GR
GS
[0.75 0 0 0.75 106.14999 483.25] CT
0.149 GC
/Helvetica 24 F
GS
[1 0 0 1 0 0] CT
-42 9.5 moveto 
1 -1 scale
(-0.2) t 
GR
GR
GS
[0.75 0 0 0.75 106.14999 410.5] CT
0.149 GC
/Helvetica 24 F
GS
[1 0 0 1 0 0] CT
-14 9.5 moveto 
1 -1 scale
(0) t 
GR
GR
GS
[0.75 0 0 0.75 106.14999 337.75] CT
0.149 GC
/Helvetica 24 F
GS
[1 0 0 1 0 0] CT
-34 9.5 moveto 
1 -1 scale
(0.2) t 
GR
GR
GS
[0.75 0 0 0.75 106.14999 265] CT
0.149 GC
/Helvetica 24 F
GS
[1 0 0 1 0 0] CT
-34 9.5 moveto 
1 -1 scale
(0.4) t 
GR
GR
GS
[0.75 0 0 0.75 106.14999 192.24999] CT
0.149 GC
/Helvetica 24 F
GS
[1 0 0 1 0 0] CT
-34 9.5 moveto 
1 -1 scale
(0.6) t 
GR
GR
GS
[0.75 0 0 0.75 106.14999 119.5] CT
0.149 GC
/Helvetica 24 F
GS
[1 0 0 1 0 0] CT
-34 9.5 moveto 
1 -1 scale
(0.8) t 
GR
GR
GS
[0.75 0 0 0.75 106.14999 46.75] CT
0.149 GC
/Helvetica 24 F
GS
[1 0 0 1 0 0] CT
-14 9.5 moveto 
1 -1 scale
(1) t 
GR
GR
GS
[0.75 0 0 0.75 444.37541 43.03749] CT
/Helvetica-Bold 26.4 F
GS
[1 0 0 1 0 0] CT
-111.5 -6 moveto 
1 -1 scale
(6 Hidden Neurons) t 
GR
GR
GS
[0.75 0 0 0.75 0 0.25] CT
0 0.447 0.741 RC
1 LJ
4 LW
N
154.544 575.616 M
172.42 575.582 L
190.295 575.447 L
208.171 574.929 L
226.047 573.031 L
243.923 566.625 L
261.798 548.976 L
279.674 518.238 L
297.55 492.571 L
315.426 485.078 L
333.301 492.265 L
351.177 511.357 L
369.053 542.348 L
386.929 582.484 L
404.804 622.279 L
422.68 648.303 L
440.556 650.288 L
458.432 623.879 L
476.308 568.65 L
494.183 487.099 L
512.059 386.201 L
529.935 278.615 L
547.811 180.569 L
565.686 107.036 L
583.562 68.017 L
601.438 68.023 L
619.314 107.054 L
637.189 180.599 L
655.065 278.657 L
672.941 386.253 L
690.817 487.164 L
708.693 568.736 L
726.568 623.994 L
744.444 650.419 L
762.32 648.406 L
780.196 622.294 L
798.071 582.414 L
815.947 542.273 L
833.823 511.334 L
851.699 492.22 L
869.574 484.786 L
887.45 491.97 L
905.326 518.153 L
923.202 549.709 L
941.077 567.171 L
958.953 573.161 L
976.829 574.834 L
994.705 575.262 L
1012.581 575.366 L
1030.456 575.391 L
S
GR
GS
[0.75 0 0 0.75 0 0.25] CT
0.851 0.325 0.098 RC
1 LJ
4 LW
N
154.544 553.035 M
172.42 571.873 L
190.295 586.202 L
208.171 591.495 L
226.047 585.386 L
243.923 568.401 L
261.798 543.965 L
279.674 517.689 L
297.55 496.148 L
315.426 485.412 L
333.301 489.607 L
351.177 509.773 L
369.053 543.219 L
386.929 583.593 L
404.804 621.732 L
422.68 647.255 L
440.556 650.622 L
458.432 625.27 L
476.308 569.299 L
494.183 486.318 L
512.059 385.186 L
529.935 278.699 L
547.811 181.466 L
565.686 107.42 L
583.562 67.428 L
601.438 67.428 L
619.314 107.42 L
637.189 181.466 L
655.065 278.699 L
672.941 385.186 L
690.817 486.318 L
708.693 569.299 L
726.568 625.27 L
744.444 650.622 L
762.32 647.255 L
780.196 621.732 L
798.071 583.593 L
815.947 543.219 L
833.823 509.773 L
851.699 489.607 L
869.574 485.412 L
887.45 496.148 L
905.326 517.689 L
923.202 543.965 L
941.077 568.401 L
958.953 585.386 L
976.829 591.495 L
994.705 586.202 L
1012.581 571.873 L
1030.456 553.035 L
S
GR
GS
[0.75 0 0 0.75 0 0.25] CT
0.929 0.694 0.125 RC
1 LJ
4 LW
N
154.544 575.451 M
172.42 575.425 L
190.295 575.315 L
208.171 574.867 L
226.047 573.145 L
243.923 567.061 L
261.798 549.546 L
279.674 518.151 L
297.55 492.06 L
315.426 484.799 L
333.301 492.183 L
351.177 511.308 L
369.053 542.277 L
386.929 582.434 L
404.804 622.304 L
422.68 648.395 L
440.556 650.401 L
458.432 623.984 L
476.308 568.737 L
494.183 487.167 L
512.059 386.245 L
529.935 278.635 L
547.811 180.572 L
565.686 107.033 L
583.562 68.011 L
601.438 68.009 L
619.314 107.028 L
637.189 180.571 L
655.065 278.639 L
672.941 386.25 L
690.817 487.166 L
708.693 568.729 L
726.568 623.978 L
744.444 650.408 L
762.32 648.409 L
780.196 622.306 L
798.071 582.415 L
815.947 542.261 L
833.823 511.322 L
851.699 492.22 L
869.574 484.799 L
887.45 491.979 L
905.326 518.137 L
923.202 549.685 L
941.077 567.161 L
958.953 573.162 L
976.829 574.84 L
994.705 575.27 L
1012.581 575.375 L
1030.456 575.399 L
S
GR
GS
[0.75 0 0 0.75 0 0.25] CT
0.494 0.184 0.557 RC
1 LJ
4 LW
N
154.544 575.444 M
172.42 575.419 L
190.295 575.309 L
208.171 574.86 L
226.047 573.133 L
243.923 567.047 L
261.798 549.57 L
279.674 518.227 L
297.55 492.057 L
315.426 484.715 L
333.301 492.123 L
351.177 511.315 L
369.053 542.315 L
386.929 582.419 L
404.804 622.201 L
422.68 648.259 L
440.556 650.309 L
458.432 623.957 L
476.308 568.75 L
494.183 487.188 L
512.059 386.269 L
529.935 278.682 L
547.811 180.668 L
565.686 107.186 L
583.562 68.204 L
601.438 68.204 L
619.314 107.186 L
637.189 180.669 L
655.065 278.685 L
672.941 386.274 L
690.817 487.193 L
708.693 568.754 L
726.568 623.961 L
744.444 650.315 L
762.32 648.267 L
780.196 622.208 L
798.071 582.422 L
815.947 542.314 L
833.823 511.312 L
851.699 492.122 L
869.574 484.719 L
887.45 492.063 L
905.326 518.223 L
923.202 549.556 L
941.077 567.039 L
958.953 573.132 L
976.829 574.863 L
994.705 575.313 L
1012.581 575.423 L
1030.456 575.449 L
S
GR
GS
[0.75 0 0 0.75 0 0.25] CT
0.467 0.675 0.188 RC
1 LJ
4 LW
N
154.544 553.842 M
172.42 571.935 L
190.295 585.857 L
208.171 591.599 L
226.047 585.621 L
243.923 568.369 L
261.798 543.699 L
279.674 517.47 L
297.55 496.18 L
315.426 485.671 L
333.301 489.903 L
351.177 509.901 L
369.053 543.094 L
386.929 583.292 L
404.804 621.435 L
422.68 647.135 L
440.556 650.75 L
458.432 625.575 L
476.308 569.612 L
494.183 486.462 L
512.059 385.076 L
529.935 278.385 L
547.811 181.113 L
565.686 107.22 L
583.562 67.495 L
601.438 67.734 L
619.314 107.804 L
637.189 181.716 L
655.065 278.67 L
672.941 384.884 L
690.817 485.903 L
708.693 569.003 L
726.568 625.262 L
744.444 650.909 L
762.32 647.666 L
780.196 622.017 L
798.071 583.572 L
815.947 542.899 L
833.823 509.35 L
851.699 489.348 L
869.574 485.48 L
887.45 496.488 L
905.326 518.052 L
923.202 544.078 L
941.077 568.178 L
958.953 585.014 L
976.829 591.307 L
994.705 586.373 L
1012.581 572.181 L
1030.456 552.995 L
S
GR
GS
[0.75 0 0 0.75 111.75 410.5] CT
1 0 0 RC
10.0 ML
0.667 LW
N
0 -4 M
0 4 L
-4 0 M
4 0 L
-2.828 -2.828 M
2.828 2.828 L
-2.828 2.828 M
2.828 -2.828 L
S
GR
GS
[0.75 0 0 0.75 125.32653 425.30888] CT
1 0 0 RC
10.0 ML
0.667 LW
N
0 -4 M
0 4 L
-4 0 M
4 0 L
-2.828 -2.828 M
2.828 2.828 L
-2.828 2.828 M
2.828 -2.828 L
S
GR
GS
[0.75 0 0 0.75 138.90306 437.45349] CT
1 0 0 RC
10.0 ML
0.667 LW
N
0 -4 M
0 4 L
-4 0 M
4 0 L
-2.828 -2.828 M
2.828 2.828 L
-2.828 2.828 M
2.828 -2.828 L
S
GR
GS
[0.75 0 0 0.75 152.47959 443.46837] CT
1 0 0 RC
10.0 ML
0.667 LW
N
0 -4 M
0 4 L
-4 0 M
4 0 L
-2.828 -2.828 M
2.828 2.828 L
-2.828 2.828 M
2.828 -2.828 L
S
GR
GS
[0.75 0 0 0.75 166.05612 441.17136] CT
1 0 0 RC
10.0 ML
0.667 LW
N
0 -4 M
0 4 L
-4 0 M
4 0 L
-2.828 -2.828 M
2.828 2.828 L
-2.828 2.828 M
2.828 -2.828 L
S
GR
GS
[0.75 0 0 0.75 179.63266 430.34026] CT
1 0 0 RC
10.0 ML
0.667 LW
N
0 -4 M
0 4 L
-4 0 M
4 0 L
-2.828 -2.828 M
2.828 2.828 L
-2.828 2.828 M
2.828 -2.828 L
S
GR
GS
[0.75 0 0 0.75 193.20918 412.95609] CT
1 0 0 RC
10.0 ML
0.667 LW
N
0 -4 M
0 4 L
-4 0 M
4 0 L
-2.828 -2.828 M
2.828 2.828 L
-2.828 2.828 M
2.828 -2.828 L
S
GR
GS
[0.75 0 0 0.75 206.7857 392.91693] CT
1 0 0 RC
10.0 ML
0.667 LW
N
0 -4 M
0 4 L
-4 0 M
4 0 L
-2.828 -2.828 M
2.828 2.828 L
-2.828 2.828 M
2.828 -2.828 L
S
GR
GS
[0.75 0 0 0.75 220.36226 375.24828] CT
1 0 0 RC
10.0 ML
0.667 LW
N
0 -4 M
0 4 L
-4 0 M
4 0 L
-2.828 -2.828 M
2.828 2.828 L
-2.828 2.828 M
2.828 -2.828 L
S
GR
GS
[0.75 0 0 0.75 233.93877 364.9576] CT
1 0 0 RC
10.0 ML
0.667 LW
N
0 -4 M
0 4 L
-4 0 M
4 0 L
-2.828 -2.828 M
2.828 2.828 L
-2.828 2.828 M
2.828 -2.828 L
S
GR
GS
[0.75 0 0 0.75 247.51531 365.77674] CT
1 0 0 RC
10.0 ML
0.667 LW
N
0 -4 M
0 4 L
-4 0 M
4 0 L
-2.828 -2.828 M
2.828 2.828 L
-2.828 2.828 M
2.828 -2.828 L
S
GR
GS
[0.75 0 0 0.75 261.09185 379.07995] CT
1 0 0 RC
10.0 ML
0.667 LW
N
0 -4 M
0 4 L
-4 0 M
4 0 L
-2.828 -2.828 M
2.828 2.828 L
-2.828 2.828 M
2.828 -2.828 L
S
GR
GS
[0.75 0 0 0.75 274.66837 403.2449] CT
1 0 0 RC
10.0 ML
0.667 LW
N
0 -4 M
0 4 L
-4 0 M
4 0 L
-2.828 -2.828 M
2.828 2.828 L
-2.828 2.828 M
2.828 -2.828 L
S
GR
GS
[0.75 0 0 0.75 288.2449 433.64206] CT
1 0 0 RC
10.0 ML
0.667 LW
N
0 -4 M
0 4 L
-4 0 M
4 0 L
-2.828 -2.828 M
2.828 2.828 L
-2.828 2.828 M
2.828 -2.828 L
S
GR
GS
[0.75 0 0 0.75 301.82142 463.30597] CT
1 0 0 RC
10.0 ML
0.667 LW
N
0 -4 M
0 4 L
-4 0 M
4 0 L
-2.828 -2.828 M
2.828 2.828 L
-2.828 2.828 M
2.828 -2.828 L
S
GR
GS
[0.75 0 0 0.75 315.39796 484.19409] CT
1 0 0 RC
10.0 ML
0.667 LW
N
0 -4 M
0 4 L
-4 0 M
4 0 L
-2.828 -2.828 M
2.828 2.828 L
-2.828 2.828 M
2.828 -2.828 L
S
GR
GS
[0.75 0 0 0.75 328.97449 488.7997] CT
1 0 0 RC
10.0 ML
0.667 LW
N
0 -4 M
0 4 L
-4 0 M
4 0 L
-2.828 -2.828 M
2.828 2.828 L
-2.828 2.828 M
2.828 -2.828 L
S
GR
GS
[0.75 0 0 0.75 342.55101 471.79515] CT
1 0 0 RC
10.0 ML
0.667 LW
N
0 -4 M
0 4 L
-4 0 M
4 0 L
-2.828 -2.828 M
2.828 2.828 L
-2.828 2.828 M
2.828 -2.828 L
S
GR
GS
[0.75 0 0 0.75 356.12755 431.3564] CT
1 0 0 RC
10.0 ML
0.667 LW
N
0 -4 M
0 4 L
-4 0 M
4 0 L
-2.828 -2.828 M
2.828 2.828 L
-2.828 2.828 M
2.828 -2.828 L
S
GR
GS
[0.75 0 0 0.75 369.70409 369.86913] CT
1 0 0 RC
10.0 ML
0.667 LW
N
0 -4 M
0 4 L
-4 0 M
4 0 L
-2.828 -2.828 M
2.828 2.828 L
-2.828 2.828 M
2.828 -2.828 L
S
GR
GS
[0.75 0 0 0.75 383.2806 293.83474] CT
1 0 0 RC
10.0 ML
0.667 LW
N
0 -4 M
0 4 L
-4 0 M
4 0 L
-2.828 -2.828 M
2.828 2.828 L
-2.828 2.828 M
2.828 -2.828 L
S
GR
GS
[0.75 0 0 0.75 396.85716 212.95607] CT
1 0 0 RC
10.0 ML
0.667 LW
N
0 -4 M
0 4 L
-4 0 M
4 0 L
-2.828 -2.828 M
2.828 2.828 L
-2.828 2.828 M
2.828 -2.828 L
S
GR
GS
[0.75 0 0 0.75 410.43365 138.55106] CT
1 0 0 RC
10.0 ML
0.667 LW
N
0 -4 M
0 4 L
-4 0 M
4 0 L
-2.828 -2.828 M
2.828 2.828 L
-2.828 2.828 M
2.828 -2.828 L
S
GR
GS
[0.75 0 0 0.75 424.01019 81.58848] CT
1 0 0 RC
10.0 ML
0.667 LW
N
0 -4 M
0 4 L
-4 0 M
4 0 L
-2.828 -2.828 M
2.828 2.828 L
-2.828 2.828 M
2.828 -2.828 L
S
GR
GS
[0.75 0 0 0.75 437.58673 50.72421] CT
1 0 0 RC
10.0 ML
0.667 LW
N
0 -4 M
0 4 L
-4 0 M
4 0 L
-2.828 -2.828 M
2.828 2.828 L
-2.828 2.828 M
2.828 -2.828 L
S
GR
GS
[0.75 0 0 0.75 451.16327 50.72421] CT
1 0 0 RC
10.0 ML
0.667 LW
N
0 -4 M
0 4 L
-4 0 M
4 0 L
-2.828 -2.828 M
2.828 2.828 L
-2.828 2.828 M
2.828 -2.828 L
S
GR
GS
[0.75 0 0 0.75 464.73981 81.58848] CT
1 0 0 RC
10.0 ML
0.667 LW
N
0 -4 M
0 4 L
-4 0 M
4 0 L
-2.828 -2.828 M
2.828 2.828 L
-2.828 2.828 M
2.828 -2.828 L
S
GR
GS
[0.75 0 0 0.75 478.31635 138.55106] CT
1 0 0 RC
10.0 ML
0.667 LW
N
0 -4 M
0 4 L
-4 0 M
4 0 L
-2.828 -2.828 M
2.828 2.828 L
-2.828 2.828 M
2.828 -2.828 L
S
GR
GS
[0.75 0 0 0.75 491.89284 212.95607] CT
1 0 0 RC
10.0 ML
0.667 LW
N
0 -4 M
0 4 L
-4 0 M
4 0 L
-2.828 -2.828 M
2.828 2.828 L
-2.828 2.828 M
2.828 -2.828 L
S
GR
GS
[0.75 0 0 0.75 505.46938 293.83474] CT
1 0 0 RC
10.0 ML
0.667 LW
N
0 -4 M
0 4 L
-4 0 M
4 0 L
-2.828 -2.828 M
2.828 2.828 L
-2.828 2.828 M
2.828 -2.828 L
S
GR
GS
[0.75 0 0 0.75 519.04591 369.86913] CT
1 0 0 RC
10.0 ML
0.667 LW
N
0 -4 M
0 4 L
-4 0 M
4 0 L
-2.828 -2.828 M
2.828 2.828 L
-2.828 2.828 M
2.828 -2.828 L
S
GR
GS
[0.75 0 0 0.75 532.62245 431.3564] CT
1 0 0 RC
10.0 ML
0.667 LW
N
0 -4 M
0 4 L
-4 0 M
4 0 L
-2.828 -2.828 M
2.828 2.828 L
-2.828 2.828 M
2.828 -2.828 L
S
GR
GS
[0.75 0 0 0.75 546.19899 471.79515] CT
1 0 0 RC
10.0 ML
0.667 LW
N
0 -4 M
0 4 L
-4 0 M
4 0 L
-2.828 -2.828 M
2.828 2.828 L
-2.828 2.828 M
2.828 -2.828 L
S
GR
GS
[0.75 0 0 0.75 559.77553 488.7997] CT
1 0 0 RC
10.0 ML
0.667 LW
N
0 -4 M
0 4 L
-4 0 M
4 0 L
-2.828 -2.828 M
2.828 2.828 L
-2.828 2.828 M
2.828 -2.828 L
S
GR
GS
[0.75 0 0 0.75 573.35202 484.19409] CT
1 0 0 RC
10.0 ML
0.667 LW
N
0 -4 M
0 4 L
-4 0 M
4 0 L
-2.828 -2.828 M
2.828 2.828 L
-2.828 2.828 M
2.828 -2.828 L
S
GR
GS
[0.75 0 0 0.75 586.92856 463.30597] CT
1 0 0 RC
10.0 ML
0.667 LW
N
0 -4 M
0 4 L
-4 0 M
4 0 L
-2.828 -2.828 M
2.828 2.828 L
-2.828 2.828 M
2.828 -2.828 L
S
GR
GS
[0.75 0 0 0.75 600.5051 433.64206] CT
1 0 0 RC
10.0 ML
0.667 LW
N
0 -4 M
0 4 L
-4 0 M
4 0 L
-2.828 -2.828 M
2.828 2.828 L
-2.828 2.828 M
2.828 -2.828 L
S
GR
GS
[0.75 0 0 0.75 614.08163 403.2449] CT
1 0 0 RC
10.0 ML
0.667 LW
N
0 -4 M
0 4 L
-4 0 M
4 0 L
-2.828 -2.828 M
2.828 2.828 L
-2.828 2.828 M
2.828 -2.828 L
S
GR
GS
[0.75 0 0 0.75 627.65817 379.07995] CT
1 0 0 RC
10.0 ML
0.667 LW
N
0 -4 M
0 4 L
-4 0 M
4 0 L
-2.828 -2.828 M
2.828 2.828 L
-2.828 2.828 M
2.828 -2.828 L
S
GR
GS
[0.75 0 0 0.75 641.23471 365.77674] CT
1 0 0 RC
10.0 ML
0.667 LW
N
0 -4 M
0 4 L
-4 0 M
4 0 L
-2.828 -2.828 M
2.828 2.828 L
-2.828 2.828 M
2.828 -2.828 L
S
GR
GS
[0.75 0 0 0.75 654.8112 364.9576] CT
1 0 0 RC
10.0 ML
0.667 LW
N
0 -4 M
0 4 L
-4 0 M
4 0 L
-2.828 -2.828 M
2.828 2.828 L
-2.828 2.828 M
2.828 -2.828 L
S
GR
GS
[0.75 0 0 0.75 668.38774 375.24828] CT
1 0 0 RC
10.0 ML
0.667 LW
N
0 -4 M
0 4 L
-4 0 M
4 0 L
-2.828 -2.828 M
2.828 2.828 L
-2.828 2.828 M
2.828 -2.828 L
S
GR
GS
[0.75 0 0 0.75 681.96428 392.91693] CT
1 0 0 RC
10.0 ML
0.667 LW
N
0 -4 M
0 4 L
-4 0 M
4 0 L
-2.828 -2.828 M
2.828 2.828 L
-2.828 2.828 M
2.828 -2.828 L
S
GR
GS
[0.75 0 0 0.75 695.54082 412.95609] CT
1 0 0 RC
10.0 ML
0.667 LW
N
0 -4 M
0 4 L
-4 0 M
4 0 L
-2.828 -2.828 M
2.828 2.828 L
-2.828 2.828 M
2.828 -2.828 L
S
GR
GS
[0.75 0 0 0.75 709.11736 430.34026] CT
1 0 0 RC
10.0 ML
0.667 LW
N
0 -4 M
0 4 L
-4 0 M
4 0 L
-2.828 -2.828 M
2.828 2.828 L
-2.828 2.828 M
2.828 -2.828 L
S
GR
GS
[0.75 0 0 0.75 722.69389 441.17136] CT
1 0 0 RC
10.0 ML
0.667 LW
N
0 -4 M
0 4 L
-4 0 M
4 0 L
-2.828 -2.828 M
2.828 2.828 L
-2.828 2.828 M
2.828 -2.828 L
S
GR
GS
[0.75 0 0 0.75 736.27039 443.46837] CT
1 0 0 RC
10.0 ML
0.667 LW
N
0 -4 M
0 4 L
-4 0 M
4 0 L
-2.828 -2.828 M
2.828 2.828 L
-2.828 2.828 M
2.828 -2.828 L
S
GR
GS
[0.75 0 0 0.75 749.84692 437.45349] CT
1 0 0 RC
10.0 ML
0.667 LW
N
0 -4 M
0 4 L
-4 0 M
4 0 L
-2.828 -2.828 M
2.828 2.828 L
-2.828 2.828 M
2.828 -2.828 L
S
GR
GS
[0.75 0 0 0.75 763.42346 425.30888] CT
1 0 0 RC
10.0 ML
0.667 LW
N
0 -4 M
0 4 L
-4 0 M
4 0 L
-2.828 -2.828 M
2.828 2.828 L
-2.828 2.828 M
2.828 -2.828 L
S
GR
GS
[0.75 0 0 0.75 777 410.5] CT
1 0 0 RC
10.0 ML
0.667 LW
N
0 -4 M
0 4 L
-4 0 M
4 0 L
-2.828 -2.828 M
2.828 2.828 L
-2.828 2.828 M
2.828 -2.828 L
S
GR
GS
[0.75 0 0 0.75 0 0.25] CT
0.302 0.745 0.933 RC
1 LJ
4 LW
N
154.544 553.114 M
172.42 572.098 L
190.295 586.186 L
208.171 591.288 L
226.047 585.224 L
243.923 568.448 L
261.798 544.181 L
279.674 517.889 L
297.55 496.163 L
315.426 485.223 L
333.301 489.356 L
351.177 509.649 L
369.053 543.318 L
386.929 583.847 L
404.804 621.963 L
422.68 647.297 L
440.556 650.445 L
458.432 624.993 L
476.308 569.112 L
494.183 486.349 L
512.059 385.416 L
529.935 278.975 L
547.811 181.605 L
565.686 107.331 L
583.562 67.168 L
601.438 67.168 L
619.314 107.331 L
637.189 181.605 L
655.065 278.975 L
672.941 385.416 L
690.817 486.349 L
708.693 569.112 L
726.568 624.993 L
744.444 650.445 L
762.32 647.297 L
780.196 621.963 L
798.071 583.847 L
815.947 543.318 L
833.823 509.649 L
851.699 489.356 L
869.574 485.223 L
887.45 496.163 L
905.326 517.889 L
923.202 544.181 L
941.077 568.448 L
958.953 585.224 L
976.829 591.288 L
994.705 586.186 L
1012.581 572.098 L
1030.456 553.114 L
S
GR
GS
[0.75 0 0 0.75 0 0.25] CT
1 GC
N
829 278 M
829 75 L
1023 75 L
1023 278 L
cp
f
GR
GS
[0.75 0 0 0.75 649.5 68.5] CT
/Helvetica 21.6 F
GS
[1 0 0 1 0 0] CT
0 9 moveto 
1 -1 scale
(Approximation1) t 
GR
GR
GS
[0.75 0 0 0.75 0 0.25] CT
0 0.447 0.741 RC
1 LJ
4 LW
N
833 91 M
863 91 L
S
GR
GS
[0.75 0 0 0.75 649.5 89.875] CT
/Helvetica 21.6 F
GS
[1 0 0 1 0 0] CT
0 9 moveto 
1 -1 scale
(Approximation2) t 
GR
GR
GS
[0.75 0 0 0.75 0 0.25] CT
0.851 0.325 0.098 RC
1 LJ
4 LW
N
833 119.5 M
863 119.5 L
S
GR
GS
[0.75 0 0 0.75 649.5 111.25] CT
/Helvetica 21.6 F
GS
[1 0 0 1 0 0] CT
0 9 moveto 
1 -1 scale
(Approximation3) t 
GR
GR
GS
[0.75 0 0 0.75 0 0.25] CT
0.929 0.694 0.125 RC
1 LJ
4 LW
N
833 148 M
863 148 L
S
GR
GS
[0.75 0 0 0.75 649.5 132.625] CT
/Helvetica 21.6 F
GS
[1 0 0 1 0 0] CT
0 9 moveto 
1 -1 scale
(Approximation4) t 
GR
GR
GS
[0.75 0 0 0.75 0 0.25] CT
0.494 0.184 0.557 RC
1 LJ
4 LW
N
833 176.5 M
863 176.5 L
S
GR
GS
[0.75 0 0 0.75 649.5 154] CT
/Helvetica 21.6 F
GS
[1 0 0 1 0 0] CT
0 9 moveto 
1 -1 scale
(Approximation5) t 
GR
GR
GS
[0.75 0 0 0.75 0 0.25] CT
0.467 0.675 0.188 RC
1 LJ
4 LW
N
833 205 M
863 205 L
S
GR
GS
[0.75 0 0 0.75 649.5 175.375] CT
/Helvetica 21.6 F
GS
[1 0 0 1 0 0] CT
0 9 moveto 
1 -1 scale
(Training set) t 
GR
GR
GS
[0.75 0 0 0.75 636 175.375] CT
1 0 0 RC
10.0 ML
0.667 LW
N
0 -4 M
0 4 L
-4 0 M
4 0 L
-2.828 -2.828 M
2.828 2.828 L
-2.828 2.828 M
2.828 -2.828 L
S
GR
GS
[0.75 0 0 0.75 649.5 196.75] CT
/Helvetica 21.6 F
GS
[1 0 0 1 0 0] CT
0 9 moveto 
1 -1 scale
(True function) t 
GR
GR
GS
[0.75 0 0 0.75 0 0.25] CT
0.302 0.745 0.933 RC
1 LJ
4 LW
N
833 262 M
863 262 L
S
GR
GS
[0.75 0 0 0.75 0 0.25] CT
0.149 GC
10.0 ML
0.667 LW
N
829 278 M
829 75 L
1023 75 L
1023 278 L
cp
S
GR
%%Trailer
%%Pages: 1
%%EOF
