%!PS-Adobe-3.0 EPSF-3.0
%%Creator: (MATLAB, The Mathworks, Inc. Version 9.1.0.441655 \(R2016b\). Operating System: Windows 8)
%%Title: (C:/Users/Eigenaar/WIT/Data Mining/data-mining/Session 1/plots/noise02.eps)
%%CreationDate: 2017-11-10T19:59:45
%%Pages: (atend)
%%BoundingBox: 0 0 740 570
%%LanguageLevel: 3
%%EndComments
%%BeginProlog
%%BeginResource: procset (Apache XML Graphics Std ProcSet) 1.2 0
%%Version: 1.2 0
%%Copyright: (Copyright 2001-2003,2010 The Apache Software Foundation. License terms: http://www.apache.org/licenses/LICENSE-2.0)
/bd{bind def}bind def
/ld{load def}bd
/GR/grestore ld
/M/moveto ld
/LJ/setlinejoin ld
/C/curveto ld
/f/fill ld
/LW/setlinewidth ld
/GC/setgray ld
/t/show ld
/N/newpath ld
/CT/concat ld
/cp/closepath ld
/S/stroke ld
/L/lineto ld
/CC/setcmykcolor ld
/A/ashow ld
/GS/gsave ld
/RC/setrgbcolor ld
/RM/rmoveto ld
/ML/setmiterlimit ld
/re {4 2 roll M
1 index 0 rlineto
0 exch rlineto
neg 0 rlineto
cp } bd
/_ctm matrix def
/_tm matrix def
/BT { _ctm currentmatrix pop matrix _tm copy pop 0 0 moveto } bd
/ET { _ctm setmatrix } bd
/iTm { _ctm setmatrix _tm concat } bd
/Tm { _tm astore pop iTm 0 0 moveto } bd
/ux 0.0 def
/uy 0.0 def
/F {
  /Tp exch def
  /Tf exch def
  Tf findfont Tp scalefont setfont
  /cf Tf def  /cs Tp def
} bd
/ULS {currentpoint /uy exch def /ux exch def} bd
/ULE {
  /Tcx currentpoint pop def
  gsave
  newpath
  cf findfont cs scalefont dup
  /FontMatrix get 0 get /Ts exch def /FontInfo get dup
  /UnderlinePosition get Ts mul /To exch def
  /UnderlineThickness get Ts mul /Tt exch def
  ux uy To add moveto  Tcx uy To add lineto
  Tt setlinewidth stroke
  grestore
} bd
/OLE {
  /Tcx currentpoint pop def
  gsave
  newpath
  cf findfont cs scalefont dup
  /FontMatrix get 0 get /Ts exch def /FontInfo get dup
  /UnderlinePosition get Ts mul /To exch def
  /UnderlineThickness get Ts mul /Tt exch def
  ux uy To add cs add moveto Tcx uy To add cs add lineto
  Tt setlinewidth stroke
  grestore
} bd
/SOE {
  /Tcx currentpoint pop def
  gsave
  newpath
  cf findfont cs scalefont dup
  /FontMatrix get 0 get /Ts exch def /FontInfo get dup
  /UnderlinePosition get Ts mul /To exch def
  /UnderlineThickness get Ts mul /Tt exch def
  ux uy To add cs 10 mul 26 idiv add moveto Tcx uy To add cs 10 mul 26 idiv add lineto
  Tt setlinewidth stroke
  grestore
} bd
/QT {
/Y22 exch store
/X22 exch store
/Y21 exch store
/X21 exch store
currentpoint
/Y21 load 2 mul add 3 div exch
/X21 load 2 mul add 3 div exch
/X21 load 2 mul /X22 load add 3 div
/Y21 load 2 mul /Y22 load add 3 div
/X22 load /Y22 load curveto
} bd
/SSPD {
dup length /d exch dict def
{
/v exch def
/k exch def
currentpagedevice k known {
/cpdv currentpagedevice k get def
v cpdv ne {
/upd false def
/nullv v type /nulltype eq def
/nullcpdv cpdv type /nulltype eq def
nullv nullcpdv or
{
/upd true def
} {
/sametype v type cpdv type eq def
sametype {
v type /arraytype eq {
/vlen v length def
/cpdvlen cpdv length def
vlen cpdvlen eq {
0 1 vlen 1 sub {
/i exch def
/obj v i get def
/cpdobj cpdv i get def
obj cpdobj ne {
/upd true def
exit
} if
} for
} {
/upd true def
} ifelse
} {
v type /dicttype eq {
v {
/dv exch def
/dk exch def
/cpddv cpdv dk get def
dv cpddv ne {
/upd true def
exit
} if
} forall
} {
/upd true def
} ifelse
} ifelse
} if
} ifelse
upd true eq {
d k v put
} if
} if
} if
} forall
d length 0 gt {
d setpagedevice
} if
} bd
/RE { % /NewFontName [NewEncodingArray] /FontName RE -
  findfont dup length dict begin
  {
    1 index /FID ne
    {def} {pop pop} ifelse
  } forall
  /Encoding exch def
  /FontName 1 index def
  currentdict definefont pop
  end
} bind def
%%EndResource
%%BeginResource: procset (Apache XML Graphics EPS ProcSet) 1.0 0
%%Version: 1.0 0
%%Copyright: (Copyright 2002-2003 The Apache Software Foundation. License terms: http://www.apache.org/licenses/LICENSE-2.0)
/BeginEPSF { %def
/b4_Inc_state save def         % Save state for cleanup
/dict_count countdictstack def % Count objects on dict stack
/op_count count 1 sub def      % Count objects on operand stack
userdict begin                 % Push userdict on dict stack
/showpage { } def              % Redefine showpage, { } = null proc
0 setgray 0 setlinecap         % Prepare graphics state
1 setlinewidth 0 setlinejoin
10 setmiterlimit [ ] 0 setdash newpath
/languagelevel where           % If level not equal to 1 then
{pop languagelevel             % set strokeadjust and
1 ne                           % overprint to their defaults.
{false setstrokeadjust false setoverprint
} if
} if
} bd
/EndEPSF { %def
count op_count sub {pop} repeat            % Clean up stacks
countdictstack dict_count sub {end} repeat
b4_Inc_state restore
} bd
%%EndResource
%FOPBeginFontDict
%%IncludeResource: font Courier-Bold
%%IncludeResource: font Helvetica
%%IncludeResource: font Courier-BoldOblique
%%IncludeResource: font Courier-Oblique
%%IncludeResource: font Times-Roman
%%IncludeResource: font Helvetica-BoldOblique
%%IncludeResource: font Helvetica-Bold
%%IncludeResource: font Helvetica-Oblique
%%IncludeResource: font Times-BoldItalic
%%IncludeResource: font Courier
%%IncludeResource: font Times-Italic
%%IncludeResource: font Times-Bold
%%IncludeResource: font Symbol
%%IncludeResource: font ZapfDingbats
%FOPEndFontDict
%%BeginResource: encoding WinAnsiEncoding
/WinAnsiEncoding [
/.notdef /.notdef /.notdef /.notdef /.notdef
/.notdef /.notdef /.notdef /.notdef /.notdef
/.notdef /.notdef /.notdef /.notdef /.notdef
/.notdef /.notdef /.notdef /.notdef /.notdef
/.notdef /.notdef /.notdef /.notdef /.notdef
/.notdef /.notdef /.notdef /.notdef /.notdef
/.notdef /.notdef /space /exclam /quotedbl
/numbersign /dollar /percent /ampersand /quotesingle
/parenleft /parenright /asterisk /plus /comma
/hyphen /period /slash /zero /one
/two /three /four /five /six
/seven /eight /nine /colon /semicolon
/less /equal /greater /question /at
/A /B /C /D /E
/F /G /H /I /J
/K /L /M /N /O
/P /Q /R /S /T
/U /V /W /X /Y
/Z /bracketleft /backslash /bracketright /asciicircum
/underscore /quoteleft /a /b /c
/d /e /f /g /h
/i /j /k /l /m
/n /o /p /q /r
/s /t /u /v /w
/x /y /z /braceleft /bar
/braceright /asciitilde /bullet /Euro /bullet
/quotesinglbase /florin /quotedblbase /ellipsis /dagger
/daggerdbl /circumflex /perthousand /Scaron /guilsinglleft
/OE /bullet /Zcaron /bullet /bullet
/quoteleft /quoteright /quotedblleft /quotedblright /bullet
/endash /emdash /asciitilde /trademark /scaron
/guilsinglright /oe /bullet /zcaron /Ydieresis
/space /exclamdown /cent /sterling /currency
/yen /brokenbar /section /dieresis /copyright
/ordfeminine /guillemotleft /logicalnot /sfthyphen /registered
/macron /degree /plusminus /twosuperior /threesuperior
/acute /mu /paragraph /middot /cedilla
/onesuperior /ordmasculine /guillemotright /onequarter /onehalf
/threequarters /questiondown /Agrave /Aacute /Acircumflex
/Atilde /Adieresis /Aring /AE /Ccedilla
/Egrave /Eacute /Ecircumflex /Edieresis /Igrave
/Iacute /Icircumflex /Idieresis /Eth /Ntilde
/Ograve /Oacute /Ocircumflex /Otilde /Odieresis
/multiply /Oslash /Ugrave /Uacute /Ucircumflex
/Udieresis /Yacute /Thorn /germandbls /agrave
/aacute /acircumflex /atilde /adieresis /aring
/ae /ccedilla /egrave /eacute /ecircumflex
/edieresis /igrave /iacute /icircumflex /idieresis
/eth /ntilde /ograve /oacute /ocircumflex
/otilde /odieresis /divide /oslash /ugrave
/uacute /ucircumflex /udieresis /yacute /thorn
/ydieresis
] def
%%EndResource
%FOPBeginFontReencode
/Courier-Bold findfont
dup length dict begin
  {1 index /FID ne {def} {pop pop} ifelse} forall
  /Encoding WinAnsiEncoding def
  currentdict
end
/Courier-Bold exch definefont pop
/Helvetica findfont
dup length dict begin
  {1 index /FID ne {def} {pop pop} ifelse} forall
  /Encoding WinAnsiEncoding def
  currentdict
end
/Helvetica exch definefont pop
/Courier-BoldOblique findfont
dup length dict begin
  {1 index /FID ne {def} {pop pop} ifelse} forall
  /Encoding WinAnsiEncoding def
  currentdict
end
/Courier-BoldOblique exch definefont pop
/Courier-Oblique findfont
dup length dict begin
  {1 index /FID ne {def} {pop pop} ifelse} forall
  /Encoding WinAnsiEncoding def
  currentdict
end
/Courier-Oblique exch definefont pop
/Times-Roman findfont
dup length dict begin
  {1 index /FID ne {def} {pop pop} ifelse} forall
  /Encoding WinAnsiEncoding def
  currentdict
end
/Times-Roman exch definefont pop
/Helvetica-BoldOblique findfont
dup length dict begin
  {1 index /FID ne {def} {pop pop} ifelse} forall
  /Encoding WinAnsiEncoding def
  currentdict
end
/Helvetica-BoldOblique exch definefont pop
/Helvetica-Bold findfont
dup length dict begin
  {1 index /FID ne {def} {pop pop} ifelse} forall
  /Encoding WinAnsiEncoding def
  currentdict
end
/Helvetica-Bold exch definefont pop
/Helvetica-Oblique findfont
dup length dict begin
  {1 index /FID ne {def} {pop pop} ifelse} forall
  /Encoding WinAnsiEncoding def
  currentdict
end
/Helvetica-Oblique exch definefont pop
/Times-BoldItalic findfont
dup length dict begin
  {1 index /FID ne {def} {pop pop} ifelse} forall
  /Encoding WinAnsiEncoding def
  currentdict
end
/Times-BoldItalic exch definefont pop
/Courier findfont
dup length dict begin
  {1 index /FID ne {def} {pop pop} ifelse} forall
  /Encoding WinAnsiEncoding def
  currentdict
end
/Courier exch definefont pop
/Times-Italic findfont
dup length dict begin
  {1 index /FID ne {def} {pop pop} ifelse} forall
  /Encoding WinAnsiEncoding def
  currentdict
end
/Times-Italic exch definefont pop
/Times-Bold findfont
dup length dict begin
  {1 index /FID ne {def} {pop pop} ifelse} forall
  /Encoding WinAnsiEncoding def
  currentdict
end
/Times-Bold exch definefont pop
%FOPEndFontReencode
%%EndProlog
%%Page: 1 1
%%PageBoundingBox: 0 0 740 570
%%BeginPageSetup
[1 0 0 -1 0 570] CT
%%EndPageSetup
GS
[0.75 0 0 0.75 0 0] CT
1 GC
N
0 0 987 760 re
f
GR
GS
[0.75 0 0 0.75 0 0] CT
1 GC
N
0 0 987 760 re
f
GR
GS
[0.75 0 0 0.75 0 0] CT
1 GC
N
128 676 M
893 676 L
893 57 L
128 57 L
cp
f
GR
GS
[0.75 0 0 0.75 0 0] CT
0.149 GC
2 setlinecap
1 LJ
0.667 LW
N
128 676 M
893 676 L
S
GR
GS
[0.75 0 0 0.75 0 0] CT
0.149 GC
2 setlinecap
1 LJ
0.667 LW
N
128 57 M
893 57 L
S
GR
GS
[0.75 0 0 0.75 0 0] CT
0.149 GC
2 setlinecap
1 LJ
0.667 LW
N
128 676 M
128 668.35 L
S
GR
GS
[0.75 0 0 0.75 0 0] CT
0.149 GC
2 setlinecap
1 LJ
0.667 LW
N
319.25 676 M
319.25 668.35 L
S
GR
GS
[0.75 0 0 0.75 0 0] CT
0.149 GC
2 setlinecap
1 LJ
0.667 LW
N
510.5 676 M
510.5 668.35 L
S
GR
GS
[0.75 0 0 0.75 0 0] CT
0.149 GC
2 setlinecap
1 LJ
0.667 LW
N
701.75 676 M
701.75 668.35 L
S
GR
GS
[0.75 0 0 0.75 0 0] CT
0.149 GC
2 setlinecap
1 LJ
0.667 LW
N
893 676 M
893 668.35 L
S
GR
GS
[0.75 0 0 0.75 0 0] CT
0.149 GC
2 setlinecap
1 LJ
0.667 LW
N
128 57 M
128 64.65 L
S
GR
GS
[0.75 0 0 0.75 0 0] CT
0.149 GC
2 setlinecap
1 LJ
0.667 LW
N
319.25 57 M
319.25 64.65 L
S
GR
GS
[0.75 0 0 0.75 0 0] CT
0.149 GC
2 setlinecap
1 LJ
0.667 LW
N
510.5 57 M
510.5 64.65 L
S
GR
GS
[0.75 0 0 0.75 0 0] CT
0.149 GC
2 setlinecap
1 LJ
0.667 LW
N
701.75 57 M
701.75 64.65 L
S
GR
GS
[0.75 0 0 0.75 0 0] CT
0.149 GC
2 setlinecap
1 LJ
0.667 LW
N
893 57 M
893 64.65 L
S
GR
GS
[0.75 0 0 0.75 96 512.60001] CT
0.149 GC
/Helvetica 24 F
GS
[1 0 0 1 0 0] CT
-11 25 moveto 
1 -1 scale
(-1) t 
GR
GR
GS
[0.75 0 0 0.75 239.4375 512.60001] CT
0.149 GC
/Helvetica 24 F
GS
[1 0 0 1 0 0] CT
-21 25 moveto 
1 -1 scale
(-0.5) t 
GR
GR
GS
[0.75 0 0 0.75 382.875 512.60001] CT
0.149 GC
/Helvetica 24 F
GS
[1 0 0 1 0 0] CT
-7 25 moveto 
1 -1 scale
(0) t 
GR
GR
GS
[0.75 0 0 0.75 526.3125 512.60001] CT
0.149 GC
/Helvetica 24 F
GS
[1 0 0 1 0 0] CT
-17 25 moveto 
1 -1 scale
(0.5) t 
GR
GR
GS
[0.75 0 0 0.75 669.75 512.60001] CT
0.149 GC
/Helvetica 24 F
GS
[1 0 0 1 0 0] CT
-7 25 moveto 
1 -1 scale
(1) t 
GR
GR
GS
[0.75 0 0 0.75 382.87527 536.84999] CT
0.149 GC
/Helvetica 26.4 F
GS
[1 0 0 1 0 0] CT
-9 27 moveto 
1 -1 scale
(X) t 
GR
GR
GS
[0.75 0 0 0.75 0 0] CT
0.149 GC
2 setlinecap
1 LJ
0.667 LW
N
128 676 M
128 57 L
S
GR
GS
[0.75 0 0 0.75 0 0] CT
0.149 GC
2 setlinecap
1 LJ
0.667 LW
N
893 676 M
893 57 L
S
GR
GS
[0.75 0 0 0.75 0 0] CT
0.149 GC
2 setlinecap
1 LJ
0.667 LW
N
128 676 M
135.65 676 L
S
GR
GS
[0.75 0 0 0.75 0 0] CT
0.149 GC
2 setlinecap
1 LJ
0.667 LW
N
128 572.833 M
135.65 572.833 L
S
GR
GS
[0.75 0 0 0.75 0 0] CT
0.149 GC
2 setlinecap
1 LJ
0.667 LW
N
128 469.667 M
135.65 469.667 L
S
GR
GS
[0.75 0 0 0.75 0 0] CT
0.149 GC
2 setlinecap
1 LJ
0.667 LW
N
128 366.5 M
135.65 366.5 L
S
GR
GS
[0.75 0 0 0.75 0 0] CT
0.149 GC
2 setlinecap
1 LJ
0.667 LW
N
128 263.333 M
135.65 263.333 L
S
GR
GS
[0.75 0 0 0.75 0 0] CT
0.149 GC
2 setlinecap
1 LJ
0.667 LW
N
128 160.167 M
135.65 160.167 L
S
GR
GS
[0.75 0 0 0.75 0 0] CT
0.149 GC
2 setlinecap
1 LJ
0.667 LW
N
128 57 M
135.65 57 L
S
GR
GS
[0.75 0 0 0.75 0 0] CT
0.149 GC
2 setlinecap
1 LJ
0.667 LW
N
893 676 M
885.35 676 L
S
GR
GS
[0.75 0 0 0.75 0 0] CT
0.149 GC
2 setlinecap
1 LJ
0.667 LW
N
893 572.833 M
885.35 572.833 L
S
GR
GS
[0.75 0 0 0.75 0 0] CT
0.149 GC
2 setlinecap
1 LJ
0.667 LW
N
893 469.667 M
885.35 469.667 L
S
GR
GS
[0.75 0 0 0.75 0 0] CT
0.149 GC
2 setlinecap
1 LJ
0.667 LW
N
893 366.5 M
885.35 366.5 L
S
GR
GS
[0.75 0 0 0.75 0 0] CT
0.149 GC
2 setlinecap
1 LJ
0.667 LW
N
893 263.333 M
885.35 263.333 L
S
GR
GS
[0.75 0 0 0.75 0 0] CT
0.149 GC
2 setlinecap
1 LJ
0.667 LW
N
893 160.167 M
885.35 160.167 L
S
GR
GS
[0.75 0 0 0.75 0 0] CT
0.149 GC
2 setlinecap
1 LJ
0.667 LW
N
893 57 M
885.35 57 L
S
GR
GS
[0.75 0 0 0.75 90.40002 507] CT
0.149 GC
/Helvetica 24 F
GS
[1 0 0 1 0 0] CT
-42 9.5 moveto 
1 -1 scale
(-1.5) t 
GR
GR
GS
[0.75 0 0 0.75 90.40002 429.62498] CT
0.149 GC
/Helvetica 24 F
GS
[1 0 0 1 0 0] CT
-22 9.5 moveto 
1 -1 scale
(-1) t 
GR
GR
GS
[0.75 0 0 0.75 90.40002 352.24999] CT
0.149 GC
/Helvetica 24 F
GS
[1 0 0 1 0 0] CT
-42 9.5 moveto 
1 -1 scale
(-0.5) t 
GR
GR
GS
[0.75 0 0 0.75 90.40002 274.875] CT
0.149 GC
/Helvetica 24 F
GS
[1 0 0 1 0 0] CT
-14 9.5 moveto 
1 -1 scale
(0) t 
GR
GR
GS
[0.75 0 0 0.75 90.40002 197.50001] CT
0.149 GC
/Helvetica 24 F
GS
[1 0 0 1 0 0] CT
-34 9.5 moveto 
1 -1 scale
(0.5) t 
GR
GR
GS
[0.75 0 0 0.75 90.40002 120.125] CT
0.149 GC
/Helvetica 24 F
GS
[1 0 0 1 0 0] CT
-14 9.5 moveto 
1 -1 scale
(1) t 
GR
GR
GS
[0.75 0 0 0.75 90.40002 42.75] CT
0.149 GC
/Helvetica 24 F
GS
[1 0 0 1 0 0] CT
-34 9.5 moveto 
1 -1 scale
(1.5) t 
GR
GR
GS
[0.75 0 0 0.75 382.87537 39.03751] CT
/Helvetica-Bold 26.4 F
GS
[1 0 0 1 0 0] CT
-90 -6 moveto 
1 -1 scale
(Noise level 0.2) t 
GR
GR
GS
[0.75 0 0 0.75 0 0] CT
0 0.447 0.741 RC
1 LJ
4 LW
N
128 175.929 M
133.134 184.585 L
138.268 193.295 L
143.403 202.057 L
148.537 210.869 L
153.671 219.729 L
158.805 228.635 L
163.94 237.586 L
169.074 246.579 L
174.208 255.614 L
179.342 264.687 L
184.477 273.797 L
189.611 282.941 L
194.745 292.119 L
199.879 301.327 L
205.013 310.564 L
210.148 319.827 L
215.282 329.114 L
220.416 338.423 L
225.55 347.752 L
230.685 357.099 L
235.819 366.461 L
240.953 375.836 L
246.087 385.221 L
251.221 394.615 L
256.356 404.015 L
261.49 413.419 L
266.624 422.825 L
271.758 432.23 L
276.893 441.631 L
282.027 451.027 L
287.161 460.416 L
292.295 469.794 L
297.43 479.159 L
302.564 488.51 L
307.698 497.843 L
312.832 507.155 L
317.966 516.443 L
323.101 525.702 L
328.235 534.926 L
333.369 544.105 L
338.503 553.222 L
343.638 562.247 L
348.772 571.13 L
353.906 579.778 L
359.04 588.026 L
364.174 595.574 L
369.309 601.881 L
374.443 605.994 L
379.577 606.265 L
384.711 599.995 L
389.846 583.178 L
394.98 550.945 L
400.114 499.757 L
405.248 431.555 L
410.383 356.44 L
415.517 288.614 L
420.651 237.902 L
425.785 205.971 L
430.919 189.168 L
436.054 182.632 L
441.188 182.402 L
446.322 185.827 L
451.456 191.291 L
456.591 197.859 L
461.725 205.003 L
466.859 212.432 L
471.993 219.983 L
477.128 227.568 L
482.262 235.138 L
487.396 242.665 L
492.53 250.135 L
497.664 257.539 L
502.799 264.873 L
507.933 272.132 L
513.067 279.316 L
518.201 286.423 L
523.336 293.452 L
528.47 300.403 L
533.604 307.275 L
538.738 314.068 L
543.872 320.781 L
549.007 327.415 L
554.141 333.969 L
559.275 340.442 L
564.409 346.836 L
569.544 353.149 L
574.678 359.382 L
579.812 365.534 L
584.946 371.607 L
590.081 377.599 L
595.215 383.511 L
600.349 389.344 L
605.483 395.096 L
610.617 400.77 L
615.752 406.364 L
620.886 411.88 L
626.02 417.317 L
631.154 422.675 L
636.289 427.956 L
641.423 433.16 L
646.557 438.287 L
651.691 443.337 L
656.826 448.311 L
661.96 453.209 L
667.094 458.032 L
672.228 462.78 L
677.362 467.454 L
682.497 472.053 L
687.631 476.577 L
692.765 481.026 L
697.899 485.398 L
703.034 489.69 L
708.168 493.898 L
713.302 498.014 L
718.436 502.023 L
723.57 505.903 L
728.705 509.618 L
733.839 513.108 L
738.973 516.277 L
744.107 518.973 L
749.242 520.949 L
754.376 521.824 L
759.51 521.006 L
764.644 517.615 L
769.779 510.405 L
774.913 497.766 L
780.047 477.937 L
785.181 449.598 L
790.315 412.859 L
795.45 370.148 L
800.584 326.059 L
805.718 285.725 L
810.852 252.777 L
815.987 228.418 L
821.121 211.907 L
826.255 201.602 L
831.389 195.77 L
836.523 192.973 L
841.658 192.156 L
846.792 192.593 L
851.926 193.806 L
857.06 195.489 L
862.195 197.447 L
867.329 199.559 L
872.463 201.749 L
877.597 203.971 L
882.732 206.196 L
887.866 208.407 L
893 210.592 L
S
GR
GS
[0.75 0 0 0.75 0 0] CT
0.851 0.325 0.098 RC
1 LJ
4 LW
N
128 127.396 M
133.134 138.639 L
138.268 149.241 L
143.403 159.342 L
148.537 169.095 L
153.671 178.661 L
158.805 188.208 L
163.94 197.902 L
169.074 207.905 L
174.208 218.371 L
179.342 229.441 L
184.477 241.234 L
189.611 253.847 L
194.745 267.342 L
199.879 281.746 L
205.013 297.04 L
210.148 313.157 L
215.282 329.983 L
220.416 347.358 L
225.55 365.083 L
230.685 382.931 L
235.819 400.658 L
240.953 418.021 L
246.087 434.789 L
251.221 450.758 L
256.356 465.759 L
261.49 479.662 L
266.624 492.381 L
271.758 503.868 L
276.893 514.108 L
282.027 523.114 L
287.161 530.922 L
292.295 537.577 L
297.43 543.133 L
302.564 547.642 L
307.698 551.154 L
312.832 553.709 L
317.966 555.336 L
323.101 556.05 L
328.235 555.853 L
333.369 554.73 L
338.503 552.649 L
343.638 549.566 L
348.772 545.421 L
353.906 540.146 L
359.04 533.664 L
364.174 525.899 L
369.309 516.777 L
374.443 506.244 L
379.577 494.268 L
384.711 480.852 L
389.846 466.046 L
394.98 449.954 L
400.114 432.738 L
405.248 414.617 L
410.383 395.861 L
415.517 376.777 L
420.651 357.692 L
425.785 338.932 L
430.919 320.8 L
436.054 303.559 L
441.188 287.421 L
446.322 272.538 L
451.456 259.004 L
456.591 246.859 L
461.725 236.096 L
466.859 226.674 L
471.993 218.527 L
477.128 211.574 L
482.262 205.727 L
487.396 200.901 L
492.53 197.018 L
497.664 194.008 L
502.799 191.818 L
507.933 190.41 L
513.067 189.765 L
518.201 189.882 L
523.336 190.781 L
528.47 192.503 L
533.604 195.106 L
538.738 198.673 L
543.872 203.303 L
549.007 209.11 L
554.141 216.218 L
559.275 224.753 L
564.409 234.835 L
569.544 246.559 L
574.678 259.981 L
579.812 275.099 L
584.946 291.84 L
590.081 310.041 L
595.215 329.45 L
600.349 349.73 L
605.483 370.478 L
610.617 391.255 L
615.752 411.62 L
620.886 431.165 L
626.02 449.548 L
631.154 466.51 L
636.289 481.882 L
641.423 495.584 L
646.557 507.612 L
651.691 518.021 L
656.826 526.908 L
661.96 534.394 L
667.094 540.611 L
672.228 545.689 L
677.362 549.75 L
682.497 552.901 L
687.631 555.233 L
692.765 556.814 L
697.899 557.694 L
703.034 557.899 L
708.168 557.437 L
713.302 556.291 L
718.436 554.422 L
723.57 551.771 L
728.705 548.257 L
733.839 543.777 L
738.973 538.21 L
744.107 531.42 L
749.242 523.262 L
754.376 513.588 L
759.51 502.264 L
764.644 489.179 L
769.779 474.27 L
774.913 457.537 L
780.047 439.063 L
785.181 419.026 L
790.315 397.705 L
795.45 375.47 L
800.584 352.76 L
805.718 330.056 L
810.852 307.833 L
815.987 286.528 L
821.121 266.506 L
826.255 248.039 L
831.389 231.297 L
836.523 216.355 L
841.658 203.204 L
846.792 191.772 L
851.926 181.939 L
857.06 173.559 L
862.195 166.474 L
867.329 160.524 L
872.463 155.553 L
877.597 151.421 L
882.732 147.999 L
887.866 145.175 L
893 142.849 L
S
GR
GS
[0.75 0 0 0.75 0 0] CT
0.929 0.694 0.125 RC
1 LJ
4 LW
N
128 164.705 M
133.134 166.57 L
138.268 168.845 L
143.403 171.615 L
148.537 174.978 L
153.671 179.047 L
158.805 183.95 L
163.94 189.827 L
169.074 196.83 L
174.208 205.114 L
179.342 214.831 L
184.477 226.115 L
189.611 239.067 L
194.745 253.74 L
199.879 270.112 L
205.013 288.077 L
210.148 307.429 L
215.282 327.868 L
220.416 349.007 L
225.55 370.401 L
230.685 391.582 L
235.819 412.101 L
240.953 431.561 L
246.087 449.647 L
251.221 466.14 L
256.356 480.916 L
261.49 493.942 L
266.624 505.254 L
271.758 514.942 L
276.893 523.129 L
282.027 529.952 L
287.161 535.555 L
292.295 540.073 L
297.43 543.628 L
302.564 546.325 L
307.698 548.249 L
312.832 549.464 L
317.966 550.012 L
323.101 549.915 L
328.235 549.174 L
333.369 547.766 L
338.503 545.651 L
343.638 542.768 L
348.772 539.035 L
353.906 534.355 L
359.04 528.615 L
364.174 521.695 L
369.309 513.471 L
374.443 503.825 L
379.577 492.663 L
384.711 479.925 L
389.846 465.603 L
394.98 449.758 L
400.114 432.53 L
405.248 414.144 L
410.383 394.904 L
415.517 375.176 L
420.651 355.365 L
425.785 335.878 L
430.919 317.093 L
436.054 299.333 L
441.188 282.842 L
446.322 267.781 L
451.456 254.227 L
456.591 242.187 L
461.725 231.611 L
466.859 222.411 L
471.993 214.475 L
477.128 207.684 L
482.262 201.924 L
487.396 197.092 L
492.53 193.103 L
497.664 189.895 L
502.799 187.431 L
507.933 185.697 L
513.067 184.703 L
518.201 184.481 L
523.336 185.085 L
528.47 186.588 L
533.604 189.08 L
538.738 192.666 L
543.872 197.464 L
549.007 203.601 L
554.141 211.206 L
559.275 220.4 L
564.409 231.285 L
569.544 243.933 L
574.678 258.362 L
579.812 274.525 L
584.946 292.292 L
590.081 311.446 L
595.215 331.682 L
600.349 352.618 L
605.483 373.825 L
610.617 394.853 L
615.752 415.271 L
620.886 434.696 L
626.02 452.823 L
631.154 469.432 L
636.289 484.397 L
641.423 497.671 L
646.557 509.279 L
651.691 519.295 L
656.826 527.83 L
661.96 535.011 L
667.094 540.972 L
672.228 545.843 L
677.362 549.743 L
682.497 552.776 L
687.631 555.027 L
692.765 556.564 L
697.899 557.43 L
703.034 557.652 L
708.168 557.232 L
713.302 556.153 L
718.436 554.376 L
723.57 551.839 L
728.705 548.458 L
733.839 544.13 L
738.973 538.73 L
744.107 532.117 L
749.242 524.14 L
754.376 514.642 L
759.51 503.48 L
764.644 490.53 L
769.779 475.717 L
774.913 459.028 L
780.047 440.534 L
785.181 420.408 L
790.315 398.925 L
795.45 376.462 L
800.584 353.47 L
805.718 330.446 L
810.852 307.887 L
815.987 286.251 L
821.121 265.922 L
826.255 247.183 L
831.389 230.215 L
836.523 215.096 L
841.658 201.815 L
846.792 190.296 L
851.926 180.413 L
857.06 172.013 L
862.195 164.931 L
867.329 158.999 L
872.463 154.059 L
877.597 149.965 L
882.732 146.584 L
887.866 143.802 L
893 141.518 L
S
GR
GS
[0.75 0 0 0.75 0 0] CT
0.494 0.184 0.557 RC
1 LJ
4 LW
N
128 134.96 M
133.134 138.546 L
138.268 142.862 L
143.403 148.033 L
148.537 154.196 L
153.671 161.493 L
158.805 170.069 L
163.94 180.059 L
169.074 191.576 L
174.208 204.698 L
179.342 219.448 L
184.477 235.78 L
189.611 253.567 L
194.745 272.594 L
199.879 292.564 L
205.013 313.115 L
210.148 333.848 L
215.282 354.357 L
220.416 374.267 L
225.55 393.265 L
230.685 411.115 L
235.819 427.669 L
240.953 442.865 L
246.087 456.712 L
251.221 469.276 L
256.356 480.657 L
261.49 490.974 L
266.624 500.348 L
271.758 508.887 L
276.893 516.68 L
282.027 523.788 L
287.161 530.248 L
292.295 536.068 L
297.43 541.231 L
302.564 545.705 L
307.698 549.439 L
312.832 552.375 L
317.966 554.447 L
323.101 555.586 L
328.235 555.719 L
333.369 554.771 L
338.503 552.663 L
343.638 549.314 L
348.772 544.641 L
353.906 538.56 L
359.04 530.992 L
364.174 521.868 L
369.309 511.139 L
374.443 498.783 L
379.577 484.819 L
384.711 469.315 L
389.846 452.397 L
394.98 434.253 L
400.114 415.134 L
405.248 395.34 L
410.383 375.21 L
415.517 355.101 L
420.651 335.362 L
425.785 316.318 L
430.919 298.247 L
436.054 281.369 L
441.188 265.84 L
446.322 251.753 L
451.456 239.142 L
456.591 227.997 L
461.725 218.268 L
466.859 209.881 L
471.993 202.75 L
477.128 196.783 L
482.262 191.888 L
487.396 187.985 L
492.53 185.004 L
497.664 182.894 L
502.799 181.617 L
507.933 181.16 L
513.067 181.528 L
518.201 182.747 L
523.336 184.868 L
528.47 187.961 L
533.604 192.116 L
538.738 197.442 L
543.872 204.059 L
549.007 212.096 L
554.141 221.672 L
559.275 232.892 L
564.409 245.825 L
569.544 260.485 L
574.678 276.816 L
579.812 294.677 L
584.946 313.832 L
590.081 333.957 L
595.215 354.656 L
600.349 375.485 L
605.483 395.995 L
610.617 415.762 L
615.752 434.424 L
620.886 451.701 L
626.02 467.407 L
631.154 481.449 L
636.289 493.814 L
641.423 504.553 L
646.557 513.763 L
651.691 521.57 L
656.826 528.115 L
661.96 533.537 L
667.094 537.973 L
672.228 541.543 L
677.362 544.355 L
682.497 546.498 L
687.631 548.044 L
692.765 549.046 L
697.899 549.539 L
703.034 549.541 L
708.168 549.053 L
713.302 548.058 L
718.436 546.522 L
723.57 544.392 L
728.705 541.598 L
733.839 538.052 L
738.973 533.647 L
744.107 528.262 L
749.242 521.762 L
754.376 514.005 L
759.51 504.848 L
764.644 494.16 L
769.779 481.835 L
774.913 467.811 L
780.047 452.086 L
785.181 434.736 L
790.315 415.929 L
795.45 395.925 L
800.584 375.072 L
805.718 353.783 L
810.852 332.507 L
815.987 311.69 L
821.121 291.743 L
826.255 273.006 L
831.389 255.732 L
836.523 240.078 L
841.658 226.114 L
846.792 213.83 L
851.926 203.156 L
857.06 193.979 L
862.195 186.162 L
867.329 179.555 L
872.463 174.009 L
877.597 169.377 L
882.732 165.529 L
887.866 162.343 L
893 159.714 L
S
GR
GS
[0.75 0 0 0.75 0 0] CT
0.467 0.675 0.188 RC
1 LJ
4 LW
N
128 165.76 M
133.134 167.614 L
138.268 169.878 L
143.403 172.637 L
148.537 175.99 L
153.671 180.051 L
158.805 184.949 L
163.94 190.827 L
169.074 197.838 L
174.208 206.143 L
179.342 215.897 L
184.477 227.239 L
189.611 240.276 L
194.745 255.064 L
199.879 271.588 L
205.013 289.745 L
210.148 309.331 L
215.282 330.042 L
220.416 351.487 L
225.55 373.212 L
230.685 394.738 L
235.819 415.604 L
240.953 435.398 L
246.087 453.793 L
251.221 470.561 L
256.356 485.571 L
261.49 498.784 L
266.624 510.233 L
271.758 520.005 L
276.893 528.223 L
282.027 535.024 L
287.161 540.547 L
292.295 544.927 L
297.43 548.281 L
302.564 550.709 L
307.698 552.287 L
312.832 553.072 L
317.966 553.095 L
323.101 552.367 L
328.235 550.876 L
333.369 548.59 L
338.503 545.459 L
343.638 541.416 L
348.772 536.383 L
353.906 530.276 L
359.04 523.013 L
364.174 514.519 L
369.309 504.743 L
374.443 493.668 L
379.577 481.317 L
384.711 467.77 L
389.846 453.159 L
394.98 437.674 L
400.114 421.543 L
405.248 405.022 L
410.383 388.37 L
415.517 371.825 L
420.651 355.593 L
425.785 339.827 L
430.919 324.634 L
436.054 310.07 L
441.188 296.16 L
446.322 282.903 L
451.456 270.292 L
456.591 258.325 L
461.725 247.011 L
466.859 236.375 L
471.993 226.455 L
477.128 217.304 L
482.262 208.977 L
487.396 201.531 L
492.53 195.021 L
497.664 189.493 L
502.799 184.987 L
507.933 181.54 L
513.067 179.189 L
518.201 177.971 L
523.336 177.935 L
528.47 179.141 L
533.604 181.66 L
538.738 185.582 L
543.872 191.006 L
549.007 198.042 L
554.141 206.799 L
559.275 217.374 L
564.409 229.835 L
569.544 244.207 L
574.678 260.451 L
579.812 278.443 L
584.946 297.972 L
590.081 318.732 L
595.215 340.332 L
600.349 362.325 L
605.483 384.236 L
610.617 405.601 L
615.752 426.004 L
620.886 445.104 L
626.02 462.652 L
631.154 478.499 L
636.289 492.582 L
641.423 504.918 L
646.557 515.579 L
651.691 524.677 L
656.826 532.348 L
661.96 538.735 L
667.094 543.976 L
672.228 548.204 L
677.362 551.531 L
682.497 554.056 L
687.631 555.855 L
692.765 556.985 L
697.899 557.48 L
703.034 557.357 L
708.168 556.608 L
713.302 555.207 L
718.436 553.104 L
723.57 550.228 L
728.705 546.489 L
733.839 541.773 L
738.973 535.951 L
744.107 528.875 L
749.242 520.393 L
754.376 510.35 L
759.51 498.607 L
764.644 485.053 L
769.779 469.628 L
774.913 452.344 L
780.047 433.299 L
785.181 412.696 L
790.315 390.839 L
795.45 368.127 L
800.584 345.026 L
805.718 322.035 L
810.852 299.643 L
815.987 278.286 L
821.121 258.323 L
826.255 240.008 L
831.389 223.491 L
836.523 208.826 L
841.658 195.983 L
846.792 184.871 L
851.926 175.357 L
857.06 167.284 L
862.195 160.485 L
867.329 154.796 L
872.463 150.061 L
877.597 146.138 L
882.732 142.9 L
887.866 140.235 L
893 138.047 L
S
GR
GS
[0.75 0 0 0.75 96 150.23217] CT
1 0 0 RC
10.0 ML
0.667 LW
N
0 -4 M
0 4 L
-4 0 M
4 0 L
-2.828 -2.828 M
2.828 2.828 L
-2.828 2.828 M
2.828 -2.828 L
S
GR
GS
[0.75 0 0 0.75 99.85067 108.27785] CT
1 0 0 RC
10.0 ML
0.667 LW
N
0 -4 M
0 4 L
-4 0 M
4 0 L
-2.828 -2.828 M
2.828 2.828 L
-2.828 2.828 M
2.828 -2.828 L
S
GR
GS
[0.75 0 0 0.75 103.70134 91.69973] CT
1 0 0 RC
10.0 ML
0.667 LW
N
0 -4 M
0 4 L
-4 0 M
4 0 L
-2.828 -2.828 M
2.828 2.828 L
-2.828 2.828 M
2.828 -2.828 L
S
GR
GS
[0.75 0 0 0.75 107.55202 143.12022] CT
1 0 0 RC
10.0 ML
0.667 LW
N
0 -4 M
0 4 L
-4 0 M
4 0 L
-2.828 -2.828 M
2.828 2.828 L
-2.828 2.828 M
2.828 -2.828 L
S
GR
GS
[0.75 0 0 0.75 111.40268 73.15189] CT
1 0 0 RC
10.0 ML
0.667 LW
N
0 -4 M
0 4 L
-4 0 M
4 0 L
-2.828 -2.828 M
2.828 2.828 L
-2.828 2.828 M
2.828 -2.828 L
S
GR
GS
[0.75 0 0 0.75 115.25336 184.90312] CT
1 0 0 RC
10.0 ML
0.667 LW
N
0 -4 M
0 4 L
-4 0 M
4 0 L
-2.828 -2.828 M
2.828 2.828 L
-2.828 2.828 M
2.828 -2.828 L
S
GR
GS
[0.75 0 0 0.75 119.10402 89.34099] CT
1 0 0 RC
10.0 ML
0.667 LW
N
0 -4 M
0 4 L
-4 0 M
4 0 L
-2.828 -2.828 M
2.828 2.828 L
-2.828 2.828 M
2.828 -2.828 L
S
GR
GS
[0.75 0 0 0.75 122.9547 112.32893] CT
1 0 0 RC
10.0 ML
0.667 LW
N
0 -4 M
0 4 L
-4 0 M
4 0 L
-2.828 -2.828 M
2.828 2.828 L
-2.828 2.828 M
2.828 -2.828 L
S
GR
GS
[0.75 0 0 0.75 126.80537 143.14975] CT
1 0 0 RC
10.0 ML
0.667 LW
N
0 -4 M
0 4 L
-4 0 M
4 0 L
-2.828 -2.828 M
2.828 2.828 L
-2.828 2.828 M
2.828 -2.828 L
S
GR
GS
[0.75 0 0 0.75 130.65604 124.15366] CT
1 0 0 RC
10.0 ML
0.667 LW
N
0 -4 M
0 4 L
-4 0 M
4 0 L
-2.828 -2.828 M
2.828 2.828 L
-2.828 2.828 M
2.828 -2.828 L
S
GR
GS
[0.75 0 0 0.75 134.5067 180.55317] CT
1 0 0 RC
10.0 ML
0.667 LW
N
0 -4 M
0 4 L
-4 0 M
4 0 L
-2.828 -2.828 M
2.828 2.828 L
-2.828 2.828 M
2.828 -2.828 L
S
GR
GS
[0.75 0 0 0.75 138.35739 236.50765] CT
1 0 0 RC
10.0 ML
0.667 LW
N
0 -4 M
0 4 L
-4 0 M
4 0 L
-2.828 -2.828 M
2.828 2.828 L
-2.828 2.828 M
2.828 -2.828 L
S
GR
GS
[0.75 0 0 0.75 142.20805 176.67912] CT
1 0 0 RC
10.0 ML
0.667 LW
N
0 -4 M
0 4 L
-4 0 M
4 0 L
-2.828 -2.828 M
2.828 2.828 L
-2.828 2.828 M
2.828 -2.828 L
S
GR
GS
[0.75 0 0 0.75 146.05872 240.11723] CT
1 0 0 RC
10.0 ML
0.667 LW
N
0 -4 M
0 4 L
-4 0 M
4 0 L
-2.828 -2.828 M
2.828 2.828 L
-2.828 2.828 M
2.828 -2.828 L
S
GR
GS
[0.75 0 0 0.75 149.90939 237.31899] CT
1 0 0 RC
10.0 ML
0.667 LW
N
0 -4 M
0 4 L
-4 0 M
4 0 L
-2.828 -2.828 M
2.828 2.828 L
-2.828 2.828 M
2.828 -2.828 L
S
GR
GS
[0.75 0 0 0.75 153.76007 220.6674] CT
1 0 0 RC
10.0 ML
0.667 LW
N
0 -4 M
0 4 L
-4 0 M
4 0 L
-2.828 -2.828 M
2.828 2.828 L
-2.828 2.828 M
2.828 -2.828 L
S
GR
GS
[0.75 0 0 0.75 157.61073 240.28255] CT
1 0 0 RC
10.0 ML
0.667 LW
N
0 -4 M
0 4 L
-4 0 M
4 0 L
-2.828 -2.828 M
2.828 2.828 L
-2.828 2.828 M
2.828 -2.828 L
S
GR
GS
[0.75 0 0 0.75 161.46141 237.73528] CT
1 0 0 RC
10.0 ML
0.667 LW
N
0 -4 M
0 4 L
-4 0 M
4 0 L
-2.828 -2.828 M
2.828 2.828 L
-2.828 2.828 M
2.828 -2.828 L
S
GR
GS
[0.75 0 0 0.75 165.31209 230.18752] CT
1 0 0 RC
10.0 ML
0.667 LW
N
0 -4 M
0 4 L
-4 0 M
4 0 L
-2.828 -2.828 M
2.828 2.828 L
-2.828 2.828 M
2.828 -2.828 L
S
GR
GS
[0.75 0 0 0.75 169.16275 230.90673] CT
1 0 0 RC
10.0 ML
0.667 LW
N
0 -4 M
0 4 L
-4 0 M
4 0 L
-2.828 -2.828 M
2.828 2.828 L
-2.828 2.828 M
2.828 -2.828 L
S
GR
GS
[0.75 0 0 0.75 173.01343 301.00074] CT
1 0 0 RC
10.0 ML
0.667 LW
N
0 -4 M
0 4 L
-4 0 M
4 0 L
-2.828 -2.828 M
2.828 2.828 L
-2.828 2.828 M
2.828 -2.828 L
S
GR
GS
[0.75 0 0 0.75 176.86409 337.07824] CT
1 0 0 RC
10.0 ML
0.667 LW
N
0 -4 M
0 4 L
-4 0 M
4 0 L
-2.828 -2.828 M
2.828 2.828 L
-2.828 2.828 M
2.828 -2.828 L
S
GR
GS
[0.75 0 0 0.75 180.71478 297.07885] CT
1 0 0 RC
10.0 ML
0.667 LW
N
0 -4 M
0 4 L
-4 0 M
4 0 L
-2.828 -2.828 M
2.828 2.828 L
-2.828 2.828 M
2.828 -2.828 L
S
GR
GS
[0.75 0 0 0.75 184.56544 327.86089] CT
1 0 0 RC
10.0 ML
0.667 LW
N
0 -4 M
0 4 L
-4 0 M
4 0 L
-2.828 -2.828 M
2.828 2.828 L
-2.828 2.828 M
2.828 -2.828 L
S
GR
GS
[0.75 0 0 0.75 188.41611 369.50697] CT
1 0 0 RC
10.0 ML
0.667 LW
N
0 -4 M
0 4 L
-4 0 M
4 0 L
-2.828 -2.828 M
2.828 2.828 L
-2.828 2.828 M
2.828 -2.828 L
S
GR
GS
[0.75 0 0 0.75 192.26678 341.14641] CT
1 0 0 RC
10.0 ML
0.667 LW
N
0 -4 M
0 4 L
-4 0 M
4 0 L
-2.828 -2.828 M
2.828 2.828 L
-2.828 2.828 M
2.828 -2.828 L
S
GR
GS
[0.75 0 0 0.75 196.11745 391.91267] CT
1 0 0 RC
10.0 ML
0.667 LW
N
0 -4 M
0 4 L
-4 0 M
4 0 L
-2.828 -2.828 M
2.828 2.828 L
-2.828 2.828 M
2.828 -2.828 L
S
GR
GS
[0.75 0 0 0.75 199.96811 388.54143] CT
1 0 0 RC
10.0 ML
0.667 LW
N
0 -4 M
0 4 L
-4 0 M
4 0 L
-2.828 -2.828 M
2.828 2.828 L
-2.828 2.828 M
2.828 -2.828 L
S
GR
GS
[0.75 0 0 0.75 203.81879 371.79151] CT
1 0 0 RC
10.0 ML
0.667 LW
N
0 -4 M
0 4 L
-4 0 M
4 0 L
-2.828 -2.828 M
2.828 2.828 L
-2.828 2.828 M
2.828 -2.828 L
S
GR
GS
[0.75 0 0 0.75 207.66946 326.00368] CT
1 0 0 RC
10.0 ML
0.667 LW
N
0 -4 M
0 4 L
-4 0 M
4 0 L
-2.828 -2.828 M
2.828 2.828 L
-2.828 2.828 M
2.828 -2.828 L
S
GR
GS
[0.75 0 0 0.75 211.52014 418.16579] CT
1 0 0 RC
10.0 ML
0.667 LW
N
0 -4 M
0 4 L
-4 0 M
4 0 L
-2.828 -2.828 M
2.828 2.828 L
-2.828 2.828 M
2.828 -2.828 L
S
GR
GS
[0.75 0 0 0.75 215.3708 317.81211] CT
1 0 0 RC
10.0 ML
0.667 LW
N
0 -4 M
0 4 L
-4 0 M
4 0 L
-2.828 -2.828 M
2.828 2.828 L
-2.828 2.828 M
2.828 -2.828 L
S
GR
GS
[0.75 0 0 0.75 219.22147 458.74338] CT
1 0 0 RC
10.0 ML
0.667 LW
N
0 -4 M
0 4 L
-4 0 M
4 0 L
-2.828 -2.828 M
2.828 2.828 L
-2.828 2.828 M
2.828 -2.828 L
S
GR
GS
[0.75 0 0 0.75 223.07213 387.37889] CT
1 0 0 RC
10.0 ML
0.667 LW
N
0 -4 M
0 4 L
-4 0 M
4 0 L
-2.828 -2.828 M
2.828 2.828 L
-2.828 2.828 M
2.828 -2.828 L
S
GR
GS
[0.75 0 0 0.75 226.92281 502.75795] CT
1 0 0 RC
10.0 ML
0.667 LW
N
0 -4 M
0 4 L
-4 0 M
4 0 L
-2.828 -2.828 M
2.828 2.828 L
-2.828 2.828 M
2.828 -2.828 L
S
GR
GS
[0.75 0 0 0.75 230.7735 359.89625] CT
1 0 0 RC
10.0 ML
0.667 LW
N
0 -4 M
0 4 L
-4 0 M
4 0 L
-2.828 -2.828 M
2.828 2.828 L
-2.828 2.828 M
2.828 -2.828 L
S
GR
GS
[0.75 0 0 0.75 234.62416 386.91211] CT
1 0 0 RC
10.0 ML
0.667 LW
N
0 -4 M
0 4 L
-4 0 M
4 0 L
-2.828 -2.828 M
2.828 2.828 L
-2.828 2.828 M
2.828 -2.828 L
S
GR
GS
[0.75 0 0 0.75 238.47485 371.54974] CT
1 0 0 RC
10.0 ML
0.667 LW
N
0 -4 M
0 4 L
-4 0 M
4 0 L
-2.828 -2.828 M
2.828 2.828 L
-2.828 2.828 M
2.828 -2.828 L
S
GR
GS
[0.75 0 0 0.75 242.32551 443.70799] CT
1 0 0 RC
10.0 ML
0.667 LW
N
0 -4 M
0 4 L
-4 0 M
4 0 L
-2.828 -2.828 M
2.828 2.828 L
-2.828 2.828 M
2.828 -2.828 L
S
GR
GS
[0.75 0 0 0.75 246.17617 394.23798] CT
1 0 0 RC
10.0 ML
0.667 LW
N
0 -4 M
0 4 L
-4 0 M
4 0 L
-2.828 -2.828 M
2.828 2.828 L
-2.828 2.828 M
2.828 -2.828 L
S
GR
GS
[0.75 0 0 0.75 250.02683 415.98573] CT
1 0 0 RC
10.0 ML
0.667 LW
N
0 -4 M
0 4 L
-4 0 M
4 0 L
-2.828 -2.828 M
2.828 2.828 L
-2.828 2.828 M
2.828 -2.828 L
S
GR
GS
[0.75 0 0 0.75 253.87752 442.71437] CT
1 0 0 RC
10.0 ML
0.667 LW
N
0 -4 M
0 4 L
-4 0 M
4 0 L
-2.828 -2.828 M
2.828 2.828 L
-2.828 2.828 M
2.828 -2.828 L
S
GR
GS
[0.75 0 0 0.75 257.7282 384.03438] CT
1 0 0 RC
10.0 ML
0.667 LW
N
0 -4 M
0 4 L
-4 0 M
4 0 L
-2.828 -2.828 M
2.828 2.828 L
-2.828 2.828 M
2.828 -2.828 L
S
GR
GS
[0.75 0 0 0.75 261.57887 425.16243] CT
1 0 0 RC
10.0 ML
0.667 LW
N
0 -4 M
0 4 L
-4 0 M
4 0 L
-2.828 -2.828 M
2.828 2.828 L
-2.828 2.828 M
2.828 -2.828 L
S
GR
GS
[0.75 0 0 0.75 265.42953 425.21159] CT
1 0 0 RC
10.0 ML
0.667 LW
N
0 -4 M
0 4 L
-4 0 M
4 0 L
-2.828 -2.828 M
2.828 2.828 L
-2.828 2.828 M
2.828 -2.828 L
S
GR
GS
[0.75 0 0 0.75 269.28021 403.49602] CT
1 0 0 RC
10.0 ML
0.667 LW
N
0 -4 M
0 4 L
-4 0 M
4 0 L
-2.828 -2.828 M
2.828 2.828 L
-2.828 2.828 M
2.828 -2.828 L
S
GR
GS
[0.75 0 0 0.75 273.13087 383.17037] CT
1 0 0 RC
10.0 ML
0.667 LW
N
0 -4 M
0 4 L
-4 0 M
4 0 L
-2.828 -2.828 M
2.828 2.828 L
-2.828 2.828 M
2.828 -2.828 L
S
GR
GS
[0.75 0 0 0.75 276.98154 423.85519] CT
1 0 0 RC
10.0 ML
0.667 LW
N
0 -4 M
0 4 L
-4 0 M
4 0 L
-2.828 -2.828 M
2.828 2.828 L
-2.828 2.828 M
2.828 -2.828 L
S
GR
GS
[0.75 0 0 0.75 280.83222 404.64088] CT
1 0 0 RC
10.0 ML
0.667 LW
N
0 -4 M
0 4 L
-4 0 M
4 0 L
-2.828 -2.828 M
2.828 2.828 L
-2.828 2.828 M
2.828 -2.828 L
S
GR
GS
[0.75 0 0 0.75 284.68288 326.07877] CT
1 0 0 RC
10.0 ML
0.667 LW
N
0 -4 M
0 4 L
-4 0 M
4 0 L
-2.828 -2.828 M
2.828 2.828 L
-2.828 2.828 M
2.828 -2.828 L
S
GR
GS
[0.75 0 0 0.75 288.53355 384.26491] CT
1 0 0 RC
10.0 ML
0.667 LW
N
0 -4 M
0 4 L
-4 0 M
4 0 L
-2.828 -2.828 M
2.828 2.828 L
-2.828 2.828 M
2.828 -2.828 L
S
GR
GS
[0.75 0 0 0.75 292.38423 353.56689] CT
1 0 0 RC
10.0 ML
0.667 LW
N
0 -4 M
0 4 L
-4 0 M
4 0 L
-2.828 -2.828 M
2.828 2.828 L
-2.828 2.828 M
2.828 -2.828 L
S
GR
GS
[0.75 0 0 0.75 296.23489 344.28175] CT
1 0 0 RC
10.0 ML
0.667 LW
N
0 -4 M
0 4 L
-4 0 M
4 0 L
-2.828 -2.828 M
2.828 2.828 L
-2.828 2.828 M
2.828 -2.828 L
S
GR
GS
[0.75 0 0 0.75 300.08558 272.51816] CT
1 0 0 RC
10.0 ML
0.667 LW
N
0 -4 M
0 4 L
-4 0 M
4 0 L
-2.828 -2.828 M
2.828 2.828 L
-2.828 2.828 M
2.828 -2.828 L
S
GR
GS
[0.75 0 0 0.75 303.93624 281.70589] CT
1 0 0 RC
10.0 ML
0.667 LW
N
0 -4 M
0 4 L
-4 0 M
4 0 L
-2.828 -2.828 M
2.828 2.828 L
-2.828 2.828 M
2.828 -2.828 L
S
GR
GS
[0.75 0 0 0.75 307.7869 304.8045] CT
1 0 0 RC
10.0 ML
0.667 LW
N
0 -4 M
0 4 L
-4 0 M
4 0 L
-2.828 -2.828 M
2.828 2.828 L
-2.828 2.828 M
2.828 -2.828 L
S
GR
GS
[0.75 0 0 0.75 311.63759 288.57433] CT
1 0 0 RC
10.0 ML
0.667 LW
N
0 -4 M
0 4 L
-4 0 M
4 0 L
-2.828 -2.828 M
2.828 2.828 L
-2.828 2.828 M
2.828 -2.828 L
S
GR
GS
[0.75 0 0 0.75 315.48825 293.97549] CT
1 0 0 RC
10.0 ML
0.667 LW
N
0 -4 M
0 4 L
-4 0 M
4 0 L
-2.828 -2.828 M
2.828 2.828 L
-2.828 2.828 M
2.828 -2.828 L
S
GR
GS
[0.75 0 0 0.75 319.33894 257.36414] CT
1 0 0 RC
10.0 ML
0.667 LW
N
0 -4 M
0 4 L
-4 0 M
4 0 L
-2.828 -2.828 M
2.828 2.828 L
-2.828 2.828 M
2.828 -2.828 L
S
GR
GS
[0.75 0 0 0.75 323.1896 247.37991] CT
1 0 0 RC
10.0 ML
0.667 LW
N
0 -4 M
0 4 L
-4 0 M
4 0 L
-2.828 -2.828 M
2.828 2.828 L
-2.828 2.828 M
2.828 -2.828 L
S
GR
GS
[0.75 0 0 0.75 327.04026 182.70499] CT
1 0 0 RC
10.0 ML
0.667 LW
N
0 -4 M
0 4 L
-4 0 M
4 0 L
-2.828 -2.828 M
2.828 2.828 L
-2.828 2.828 M
2.828 -2.828 L
S
GR
GS
[0.75 0 0 0.75 330.89095 234.93741] CT
1 0 0 RC
10.0 ML
0.667 LW
N
0 -4 M
0 4 L
-4 0 M
4 0 L
-2.828 -2.828 M
2.828 2.828 L
-2.828 2.828 M
2.828 -2.828 L
S
GR
GS
[0.75 0 0 0.75 334.74161 237.7852] CT
1 0 0 RC
10.0 ML
0.667 LW
N
0 -4 M
0 4 L
-4 0 M
4 0 L
-2.828 -2.828 M
2.828 2.828 L
-2.828 2.828 M
2.828 -2.828 L
S
GR
GS
[0.75 0 0 0.75 338.59229 209.29992] CT
1 0 0 RC
10.0 ML
0.667 LW
N
0 -4 M
0 4 L
-4 0 M
4 0 L
-2.828 -2.828 M
2.828 2.828 L
-2.828 2.828 M
2.828 -2.828 L
S
GR
GS
[0.75 0 0 0.75 342.44296 255.37475] CT
1 0 0 RC
10.0 ML
0.667 LW
N
0 -4 M
0 4 L
-4 0 M
4 0 L
-2.828 -2.828 M
2.828 2.828 L
-2.828 2.828 M
2.828 -2.828 L
S
GR
GS
[0.75 0 0 0.75 346.29362 158.10467] CT
1 0 0 RC
10.0 ML
0.667 LW
N
0 -4 M
0 4 L
-4 0 M
4 0 L
-2.828 -2.828 M
2.828 2.828 L
-2.828 2.828 M
2.828 -2.828 L
S
GR
GS
[0.75 0 0 0.75 350.1443 120.17449] CT
1 0 0 RC
10.0 ML
0.667 LW
N
0 -4 M
0 4 L
-4 0 M
4 0 L
-2.828 -2.828 M
2.828 2.828 L
-2.828 2.828 M
2.828 -2.828 L
S
GR
GS
[0.75 0 0 0.75 353.99496 172.78419] CT
1 0 0 RC
10.0 ML
0.667 LW
N
0 -4 M
0 4 L
-4 0 M
4 0 L
-2.828 -2.828 M
2.828 2.828 L
-2.828 2.828 M
2.828 -2.828 L
S
GR
GS
[0.75 0 0 0.75 357.84563 208.41751] CT
1 0 0 RC
10.0 ML
0.667 LW
N
0 -4 M
0 4 L
-4 0 M
4 0 L
-2.828 -2.828 M
2.828 2.828 L
-2.828 2.828 M
2.828 -2.828 L
S
GR
GS
[0.75 0 0 0.75 361.69631 142.15467] CT
1 0 0 RC
10.0 ML
0.667 LW
N
0 -4 M
0 4 L
-4 0 M
4 0 L
-2.828 -2.828 M
2.828 2.828 L
-2.828 2.828 M
2.828 -2.828 L
S
GR
GS
[0.75 0 0 0.75 365.54697 105.25517] CT
1 0 0 RC
10.0 ML
0.667 LW
N
0 -4 M
0 4 L
-4 0 M
4 0 L
-2.828 -2.828 M
2.828 2.828 L
-2.828 2.828 M
2.828 -2.828 L
S
GR
GS
[0.75 0 0 0.75 369.39766 156.85057] CT
1 0 0 RC
10.0 ML
0.667 LW
N
0 -4 M
0 4 L
-4 0 M
4 0 L
-2.828 -2.828 M
2.828 2.828 L
-2.828 2.828 M
2.828 -2.828 L
S
GR
GS
[0.75 0 0 0.75 373.24832 133.07078] CT
1 0 0 RC
10.0 ML
0.667 LW
N
0 -4 M
0 4 L
-4 0 M
4 0 L
-2.828 -2.828 M
2.828 2.828 L
-2.828 2.828 M
2.828 -2.828 L
S
GR
GS
[0.75 0 0 0.75 377.09898 163.13444] CT
1 0 0 RC
10.0 ML
0.667 LW
N
0 -4 M
0 4 L
-4 0 M
4 0 L
-2.828 -2.828 M
2.828 2.828 L
-2.828 2.828 M
2.828 -2.828 L
S
GR
GS
[0.75 0 0 0.75 380.94967 143.74656] CT
1 0 0 RC
10.0 ML
0.667 LW
N
0 -4 M
0 4 L
-4 0 M
4 0 L
-2.828 -2.828 M
2.828 2.828 L
-2.828 2.828 M
2.828 -2.828 L
S
GR
GS
[0.75 0 0 0.75 384.80035 114.31588] CT
1 0 0 RC
10.0 ML
0.667 LW
N
0 -4 M
0 4 L
-4 0 M
4 0 L
-2.828 -2.828 M
2.828 2.828 L
-2.828 2.828 M
2.828 -2.828 L
S
GR
GS
[0.75 0 0 0.75 388.65102 127.37525] CT
1 0 0 RC
10.0 ML
0.667 LW
N
0 -4 M
0 4 L
-4 0 M
4 0 L
-2.828 -2.828 M
2.828 2.828 L
-2.828 2.828 M
2.828 -2.828 L
S
GR
GS
[0.75 0 0 0.75 392.50168 131.46701] CT
1 0 0 RC
10.0 ML
0.667 LW
N
0 -4 M
0 4 L
-4 0 M
4 0 L
-2.828 -2.828 M
2.828 2.828 L
-2.828 2.828 M
2.828 -2.828 L
S
GR
GS
[0.75 0 0 0.75 396.35234 121.82986] CT
1 0 0 RC
10.0 ML
0.667 LW
N
0 -4 M
0 4 L
-4 0 M
4 0 L
-2.828 -2.828 M
2.828 2.828 L
-2.828 2.828 M
2.828 -2.828 L
S
GR
GS
[0.75 0 0 0.75 400.203 146.82887] CT
1 0 0 RC
10.0 ML
0.667 LW
N
0 -4 M
0 4 L
-4 0 M
4 0 L
-2.828 -2.828 M
2.828 2.828 L
-2.828 2.828 M
2.828 -2.828 L
S
GR
GS
[0.75 0 0 0.75 404.05371 130.17977] CT
1 0 0 RC
10.0 ML
0.667 LW
N
0 -4 M
0 4 L
-4 0 M
4 0 L
-2.828 -2.828 M
2.828 2.828 L
-2.828 2.828 M
2.828 -2.828 L
S
GR
GS
[0.75 0 0 0.75 407.90437 160.80899] CT
1 0 0 RC
10.0 ML
0.667 LW
N
0 -4 M
0 4 L
-4 0 M
4 0 L
-2.828 -2.828 M
2.828 2.828 L
-2.828 2.828 M
2.828 -2.828 L
S
GR
GS
[0.75 0 0 0.75 411.75504 142.98596] CT
1 0 0 RC
10.0 ML
0.667 LW
N
0 -4 M
0 4 L
-4 0 M
4 0 L
-2.828 -2.828 M
2.828 2.828 L
-2.828 2.828 M
2.828 -2.828 L
S
GR
GS
[0.75 0 0 0.75 415.6057 194.59733] CT
1 0 0 RC
10.0 ML
0.667 LW
N
0 -4 M
0 4 L
-4 0 M
4 0 L
-2.828 -2.828 M
2.828 2.828 L
-2.828 2.828 M
2.828 -2.828 L
S
GR
GS
[0.75 0 0 0.75 419.45636 96.92583] CT
1 0 0 RC
10.0 ML
0.667 LW
N
0 -4 M
0 4 L
-4 0 M
4 0 L
-2.828 -2.828 M
2.828 2.828 L
-2.828 2.828 M
2.828 -2.828 L
S
GR
GS
[0.75 0 0 0.75 423.30707 215.62177] CT
1 0 0 RC
10.0 ML
0.667 LW
N
0 -4 M
0 4 L
-4 0 M
4 0 L
-2.828 -2.828 M
2.828 2.828 L
-2.828 2.828 M
2.828 -2.828 L
S
GR
GS
[0.75 0 0 0.75 427.15773 152.85737] CT
1 0 0 RC
10.0 ML
0.667 LW
N
0 -4 M
0 4 L
-4 0 M
4 0 L
-2.828 -2.828 M
2.828 2.828 L
-2.828 2.828 M
2.828 -2.828 L
S
GR
GS
[0.75 0 0 0.75 431.00839 221.52134] CT
1 0 0 RC
10.0 ML
0.667 LW
N
0 -4 M
0 4 L
-4 0 M
4 0 L
-2.828 -2.828 M
2.828 2.828 L
-2.828 2.828 M
2.828 -2.828 L
S
GR
GS
[0.75 0 0 0.75 434.85905 263.51775] CT
1 0 0 RC
10.0 ML
0.667 LW
N
0 -4 M
0 4 L
-4 0 M
4 0 L
-2.828 -2.828 M
2.828 2.828 L
-2.828 2.828 M
2.828 -2.828 L
S
GR
GS
[0.75 0 0 0.75 438.70972 253.34434] CT
1 0 0 RC
10.0 ML
0.667 LW
N
0 -4 M
0 4 L
-4 0 M
4 0 L
-2.828 -2.828 M
2.828 2.828 L
-2.828 2.828 M
2.828 -2.828 L
S
GR
GS
[0.75 0 0 0.75 442.56042 243.31339] CT
1 0 0 RC
10.0 ML
0.667 LW
N
0 -4 M
0 4 L
-4 0 M
4 0 L
-2.828 -2.828 M
2.828 2.828 L
-2.828 2.828 M
2.828 -2.828 L
S
GR
GS
[0.75 0 0 0.75 446.41109 250.45619] CT
1 0 0 RC
10.0 ML
0.667 LW
N
0 -4 M
0 4 L
-4 0 M
4 0 L
-2.828 -2.828 M
2.828 2.828 L
-2.828 2.828 M
2.828 -2.828 L
S
GR
GS
[0.75 0 0 0.75 450.26175 290.85738] CT
1 0 0 RC
10.0 ML
0.667 LW
N
0 -4 M
0 4 L
-4 0 M
4 0 L
-2.828 -2.828 M
2.828 2.828 L
-2.828 2.828 M
2.828 -2.828 L
S
GR
GS
[0.75 0 0 0.75 454.11241 315.10474] CT
1 0 0 RC
10.0 ML
0.667 LW
N
0 -4 M
0 4 L
-4 0 M
4 0 L
-2.828 -2.828 M
2.828 2.828 L
-2.828 2.828 M
2.828 -2.828 L
S
GR
GS
[0.75 0 0 0.75 457.96307 226.46896] CT
1 0 0 RC
10.0 ML
0.667 LW
N
0 -4 M
0 4 L
-4 0 M
4 0 L
-2.828 -2.828 M
2.828 2.828 L
-2.828 2.828 M
2.828 -2.828 L
S
GR
GS
[0.75 0 0 0.75 461.81378 291.65996] CT
1 0 0 RC
10.0 ML
0.667 LW
N
0 -4 M
0 4 L
-4 0 M
4 0 L
-2.828 -2.828 M
2.828 2.828 L
-2.828 2.828 M
2.828 -2.828 L
S
GR
GS
[0.75 0 0 0.75 465.66444 290.71369] CT
1 0 0 RC
10.0 ML
0.667 LW
N
0 -4 M
0 4 L
-4 0 M
4 0 L
-2.828 -2.828 M
2.828 2.828 L
-2.828 2.828 M
2.828 -2.828 L
S
GR
GS
[0.75 0 0 0.75 469.51511 369.67772] CT
1 0 0 RC
10.0 ML
0.667 LW
N
0 -4 M
0 4 L
-4 0 M
4 0 L
-2.828 -2.828 M
2.828 2.828 L
-2.828 2.828 M
2.828 -2.828 L
S
GR
GS
[0.75 0 0 0.75 473.36577 362.53404] CT
1 0 0 RC
10.0 ML
0.667 LW
N
0 -4 M
0 4 L
-4 0 M
4 0 L
-2.828 -2.828 M
2.828 2.828 L
-2.828 2.828 M
2.828 -2.828 L
S
GR
GS
[0.75 0 0 0.75 477.21643 375.89944] CT
1 0 0 RC
10.0 ML
0.667 LW
N
0 -4 M
0 4 L
-4 0 M
4 0 L
-2.828 -2.828 M
2.828 2.828 L
-2.828 2.828 M
2.828 -2.828 L
S
GR
GS
[0.75 0 0 0.75 481.06709 319.25494] CT
1 0 0 RC
10.0 ML
0.667 LW
N
0 -4 M
0 4 L
-4 0 M
4 0 L
-2.828 -2.828 M
2.828 2.828 L
-2.828 2.828 M
2.828 -2.828 L
S
GR
GS
[0.75 0 0 0.75 484.9178 387.80045] CT
1 0 0 RC
10.0 ML
0.667 LW
N
0 -4 M
0 4 L
-4 0 M
4 0 L
-2.828 -2.828 M
2.828 2.828 L
-2.828 2.828 M
2.828 -2.828 L
S
GR
GS
[0.75 0 0 0.75 488.76846 325.47098] CT
1 0 0 RC
10.0 ML
0.667 LW
N
0 -4 M
0 4 L
-4 0 M
4 0 L
-2.828 -2.828 M
2.828 2.828 L
-2.828 2.828 M
2.828 -2.828 L
S
GR
GS
[0.75 0 0 0.75 492.61913 419.69559] CT
1 0 0 RC
10.0 ML
0.667 LW
N
0 -4 M
0 4 L
-4 0 M
4 0 L
-2.828 -2.828 M
2.828 2.828 L
-2.828 2.828 M
2.828 -2.828 L
S
GR
GS
[0.75 0 0 0.75 496.46979 386.618] CT
1 0 0 RC
10.0 ML
0.667 LW
N
0 -4 M
0 4 L
-4 0 M
4 0 L
-2.828 -2.828 M
2.828 2.828 L
-2.828 2.828 M
2.828 -2.828 L
S
GR
GS
[0.75 0 0 0.75 500.32045 378.88474] CT
1 0 0 RC
10.0 ML
0.667 LW
N
0 -4 M
0 4 L
-4 0 M
4 0 L
-2.828 -2.828 M
2.828 2.828 L
-2.828 2.828 M
2.828 -2.828 L
S
GR
GS
[0.75 0 0 0.75 504.17116 343.93144] CT
1 0 0 RC
10.0 ML
0.667 LW
N
0 -4 M
0 4 L
-4 0 M
4 0 L
-2.828 -2.828 M
2.828 2.828 L
-2.828 2.828 M
2.828 -2.828 L
S
GR
GS
[0.75 0 0 0.75 508.02182 442.40414] CT
1 0 0 RC
10.0 ML
0.667 LW
N
0 -4 M
0 4 L
-4 0 M
4 0 L
-2.828 -2.828 M
2.828 2.828 L
-2.828 2.828 M
2.828 -2.828 L
S
GR
GS
[0.75 0 0 0.75 511.87248 413.80289] CT
1 0 0 RC
10.0 ML
0.667 LW
N
0 -4 M
0 4 L
-4 0 M
4 0 L
-2.828 -2.828 M
2.828 2.828 L
-2.828 2.828 M
2.828 -2.828 L
S
GR
GS
[0.75 0 0 0.75 515.72314 444.00266] CT
1 0 0 RC
10.0 ML
0.667 LW
N
0 -4 M
0 4 L
-4 0 M
4 0 L
-2.828 -2.828 M
2.828 2.828 L
-2.828 2.828 M
2.828 -2.828 L
S
GR
GS
[0.75 0 0 0.75 519.57381 417.61629] CT
1 0 0 RC
10.0 ML
0.667 LW
N
0 -4 M
0 4 L
-4 0 M
4 0 L
-2.828 -2.828 M
2.828 2.828 L
-2.828 2.828 M
2.828 -2.828 L
S
GR
GS
[0.75 0 0 0.75 523.42451 452.33501] CT
1 0 0 RC
10.0 ML
0.667 LW
N
0 -4 M
0 4 L
-4 0 M
4 0 L
-2.828 -2.828 M
2.828 2.828 L
-2.828 2.828 M
2.828 -2.828 L
S
GR
GS
[0.75 0 0 0.75 527.27518 420.81711] CT
1 0 0 RC
10.0 ML
0.667 LW
N
0 -4 M
0 4 L
-4 0 M
4 0 L
-2.828 -2.828 M
2.828 2.828 L
-2.828 2.828 M
2.828 -2.828 L
S
GR
GS
[0.75 0 0 0.75 531.12584 454.42305] CT
1 0 0 RC
10.0 ML
0.667 LW
N
0 -4 M
0 4 L
-4 0 M
4 0 L
-2.828 -2.828 M
2.828 2.828 L
-2.828 2.828 M
2.828 -2.828 L
S
GR
GS
[0.75 0 0 0.75 534.9765 438.51595] CT
1 0 0 RC
10.0 ML
0.667 LW
N
0 -4 M
0 4 L
-4 0 M
4 0 L
-2.828 -2.828 M
2.828 2.828 L
-2.828 2.828 M
2.828 -2.828 L
S
GR
GS
[0.75 0 0 0.75 538.82716 406.9758] CT
1 0 0 RC
10.0 ML
0.667 LW
N
0 -4 M
0 4 L
-4 0 M
4 0 L
-2.828 -2.828 M
2.828 2.828 L
-2.828 2.828 M
2.828 -2.828 L
S
GR
GS
[0.75 0 0 0.75 542.67787 439.35493] CT
1 0 0 RC
10.0 ML
0.667 LW
N
0 -4 M
0 4 L
-4 0 M
4 0 L
-2.828 -2.828 M
2.828 2.828 L
-2.828 2.828 M
2.828 -2.828 L
S
GR
GS
[0.75 0 0 0.75 546.52853 451.31557] CT
1 0 0 RC
10.0 ML
0.667 LW
N
0 -4 M
0 4 L
-4 0 M
4 0 L
-2.828 -2.828 M
2.828 2.828 L
-2.828 2.828 M
2.828 -2.828 L
S
GR
GS
[0.75 0 0 0.75 550.3792 391.72719] CT
1 0 0 RC
10.0 ML
0.667 LW
N
0 -4 M
0 4 L
-4 0 M
4 0 L
-2.828 -2.828 M
2.828 2.828 L
-2.828 2.828 M
2.828 -2.828 L
S
GR
GS
[0.75 0 0 0.75 554.22986 394.33347] CT
1 0 0 RC
10.0 ML
0.667 LW
N
0 -4 M
0 4 L
-4 0 M
4 0 L
-2.828 -2.828 M
2.828 2.828 L
-2.828 2.828 M
2.828 -2.828 L
S
GR
GS
[0.75 0 0 0.75 558.08052 470.23018] CT
1 0 0 RC
10.0 ML
0.667 LW
N
0 -4 M
0 4 L
-4 0 M
4 0 L
-2.828 -2.828 M
2.828 2.828 L
-2.828 2.828 M
2.828 -2.828 L
S
GR
GS
[0.75 0 0 0.75 561.93118 359.24258] CT
1 0 0 RC
10.0 ML
0.667 LW
N
0 -4 M
0 4 L
-4 0 M
4 0 L
-2.828 -2.828 M
2.828 2.828 L
-2.828 2.828 M
2.828 -2.828 L
S
GR
GS
[0.75 0 0 0.75 565.78189 359.94695] CT
1 0 0 RC
10.0 ML
0.667 LW
N
0 -4 M
0 4 L
-4 0 M
4 0 L
-2.828 -2.828 M
2.828 2.828 L
-2.828 2.828 M
2.828 -2.828 L
S
GR
GS
[0.75 0 0 0.75 569.63255 337.30389] CT
1 0 0 RC
10.0 ML
0.667 LW
N
0 -4 M
0 4 L
-4 0 M
4 0 L
-2.828 -2.828 M
2.828 2.828 L
-2.828 2.828 M
2.828 -2.828 L
S
GR
GS
[0.75 0 0 0.75 573.48322 348.15864] CT
1 0 0 RC
10.0 ML
0.667 LW
N
0 -4 M
0 4 L
-4 0 M
4 0 L
-2.828 -2.828 M
2.828 2.828 L
-2.828 2.828 M
2.828 -2.828 L
S
GR
GS
[0.75 0 0 0.75 577.33388 360.96746] CT
1 0 0 RC
10.0 ML
0.667 LW
N
0 -4 M
0 4 L
-4 0 M
4 0 L
-2.828 -2.828 M
2.828 2.828 L
-2.828 2.828 M
2.828 -2.828 L
S
GR
GS
[0.75 0 0 0.75 581.18459 345.1666] CT
1 0 0 RC
10.0 ML
0.667 LW
N
0 -4 M
0 4 L
-4 0 M
4 0 L
-2.828 -2.828 M
2.828 2.828 L
-2.828 2.828 M
2.828 -2.828 L
S
GR
GS
[0.75 0 0 0.75 585.03525 308.90829] CT
1 0 0 RC
10.0 ML
0.667 LW
N
0 -4 M
0 4 L
-4 0 M
4 0 L
-2.828 -2.828 M
2.828 2.828 L
-2.828 2.828 M
2.828 -2.828 L
S
GR
GS
[0.75 0 0 0.75 588.88591 333.20432] CT
1 0 0 RC
10.0 ML
0.667 LW
N
0 -4 M
0 4 L
-4 0 M
4 0 L
-2.828 -2.828 M
2.828 2.828 L
-2.828 2.828 M
2.828 -2.828 L
S
GR
GS
[0.75 0 0 0.75 592.73657 263.74175] CT
1 0 0 RC
10.0 ML
0.667 LW
N
0 -4 M
0 4 L
-4 0 M
4 0 L
-2.828 -2.828 M
2.828 2.828 L
-2.828 2.828 M
2.828 -2.828 L
S
GR
GS
[0.75 0 0 0.75 596.58723 249.96043] CT
1 0 0 RC
10.0 ML
0.667 LW
N
0 -4 M
0 4 L
-4 0 M
4 0 L
-2.828 -2.828 M
2.828 2.828 L
-2.828 2.828 M
2.828 -2.828 L
S
GR
GS
[0.75 0 0 0.75 600.4379 264.16811] CT
1 0 0 RC
10.0 ML
0.667 LW
N
0 -4 M
0 4 L
-4 0 M
4 0 L
-2.828 -2.828 M
2.828 2.828 L
-2.828 2.828 M
2.828 -2.828 L
S
GR
GS
[0.75 0 0 0.75 604.2886 239.4096] CT
1 0 0 RC
10.0 ML
0.667 LW
N
0 -4 M
0 4 L
-4 0 M
4 0 L
-2.828 -2.828 M
2.828 2.828 L
-2.828 2.828 M
2.828 -2.828 L
S
GR
GS
[0.75 0 0 0.75 608.13927 202.10655] CT
1 0 0 RC
10.0 ML
0.667 LW
N
0 -4 M
0 4 L
-4 0 M
4 0 L
-2.828 -2.828 M
2.828 2.828 L
-2.828 2.828 M
2.828 -2.828 L
S
GR
GS
[0.75 0 0 0.75 611.98993 253.08032] CT
1 0 0 RC
10.0 ML
0.667 LW
N
0 -4 M
0 4 L
-4 0 M
4 0 L
-2.828 -2.828 M
2.828 2.828 L
-2.828 2.828 M
2.828 -2.828 L
S
GR
GS
[0.75 0 0 0.75 615.84059 228.38074] CT
1 0 0 RC
10.0 ML
0.667 LW
N
0 -4 M
0 4 L
-4 0 M
4 0 L
-2.828 -2.828 M
2.828 2.828 L
-2.828 2.828 M
2.828 -2.828 L
S
GR
GS
[0.75 0 0 0.75 619.69125 207.51954] CT
1 0 0 RC
10.0 ML
0.667 LW
N
0 -4 M
0 4 L
-4 0 M
4 0 L
-2.828 -2.828 M
2.828 2.828 L
-2.828 2.828 M
2.828 -2.828 L
S
GR
GS
[0.75 0 0 0.75 623.54196 223.53912] CT
1 0 0 RC
10.0 ML
0.667 LW
N
0 -4 M
0 4 L
-4 0 M
4 0 L
-2.828 -2.828 M
2.828 2.828 L
-2.828 2.828 M
2.828 -2.828 L
S
GR
GS
[0.75 0 0 0.75 627.39262 209.37009] CT
1 0 0 RC
10.0 ML
0.667 LW
N
0 -4 M
0 4 L
-4 0 M
4 0 L
-2.828 -2.828 M
2.828 2.828 L
-2.828 2.828 M
2.828 -2.828 L
S
GR
GS
[0.75 0 0 0.75 631.24329 117.81421] CT
1 0 0 RC
10.0 ML
0.667 LW
N
0 -4 M
0 4 L
-4 0 M
4 0 L
-2.828 -2.828 M
2.828 2.828 L
-2.828 2.828 M
2.828 -2.828 L
S
GR
GS
[0.75 0 0 0.75 635.09395 106.56981] CT
1 0 0 RC
10.0 ML
0.667 LW
N
0 -4 M
0 4 L
-4 0 M
4 0 L
-2.828 -2.828 M
2.828 2.828 L
-2.828 2.828 M
2.828 -2.828 L
S
GR
GS
[0.75 0 0 0.75 638.94466 142.00854] CT
1 0 0 RC
10.0 ML
0.667 LW
N
0 -4 M
0 4 L
-4 0 M
4 0 L
-2.828 -2.828 M
2.828 2.828 L
-2.828 2.828 M
2.828 -2.828 L
S
GR
GS
[0.75 0 0 0.75 642.79532 180.70895] CT
1 0 0 RC
10.0 ML
0.667 LW
N
0 -4 M
0 4 L
-4 0 M
4 0 L
-2.828 -2.828 M
2.828 2.828 L
-2.828 2.828 M
2.828 -2.828 L
S
GR
GS
[0.75 0 0 0.75 646.64598 188.05464] CT
1 0 0 RC
10.0 ML
0.667 LW
N
0 -4 M
0 4 L
-4 0 M
4 0 L
-2.828 -2.828 M
2.828 2.828 L
-2.828 2.828 M
2.828 -2.828 L
S
GR
GS
[0.75 0 0 0.75 650.49664 88.76516] CT
1 0 0 RC
10.0 ML
0.667 LW
N
0 -4 M
0 4 L
-4 0 M
4 0 L
-2.828 -2.828 M
2.828 2.828 L
-2.828 2.828 M
2.828 -2.828 L
S
GR
GS
[0.75 0 0 0.75 654.34731 82.14807] CT
1 0 0 RC
10.0 ML
0.667 LW
N
0 -4 M
0 4 L
-4 0 M
4 0 L
-2.828 -2.828 M
2.828 2.828 L
-2.828 2.828 M
2.828 -2.828 L
S
GR
GS
[0.75 0 0 0.75 658.19797 117.07028] CT
1 0 0 RC
10.0 ML
0.667 LW
N
0 -4 M
0 4 L
-4 0 M
4 0 L
-2.828 -2.828 M
2.828 2.828 L
-2.828 2.828 M
2.828 -2.828 L
S
GR
GS
[0.75 0 0 0.75 662.04868 53.15571] CT
1 0 0 RC
10.0 ML
0.667 LW
N
0 -4 M
0 4 L
-4 0 M
4 0 L
-2.828 -2.828 M
2.828 2.828 L
-2.828 2.828 M
2.828 -2.828 L
S
GR
GS
[0.75 0 0 0.75 665.89934 107.66013] CT
1 0 0 RC
10.0 ML
0.667 LW
N
0 -4 M
0 4 L
-4 0 M
4 0 L
-2.828 -2.828 M
2.828 2.828 L
-2.828 2.828 M
2.828 -2.828 L
S
GR
GS
[0.75 0 0 0.75 669.75 87.65909] CT
1 0 0 RC
10.0 ML
0.667 LW
N
0 -4 M
0 4 L
-4 0 M
4 0 L
-2.828 -2.828 M
2.828 2.828 L
-2.828 2.828 M
2.828 -2.828 L
S
GR
GS
[0.75 0 0 0.75 0 0] CT
0.302 0.745 0.933 RC
1 LJ
4 LW
N
128 160.167 M
133.134 160.9 L
138.268 163.095 L
143.403 166.736 L
148.537 171.797 L
153.671 178.242 L
158.805 186.025 L
163.94 195.091 L
169.074 205.376 L
174.208 216.806 L
179.342 229.3 L
184.477 242.77 L
189.611 257.119 L
194.745 272.246 L
199.879 288.042 L
205.013 304.397 L
210.148 321.193 L
215.282 338.311 L
220.416 355.629 L
225.55 373.025 L
230.685 390.374 L
235.819 407.553 L
240.953 424.441 L
246.087 440.917 L
251.221 456.864 L
256.356 472.168 L
261.49 486.721 L
266.624 500.42 L
271.758 513.167 L
276.893 524.871 L
282.027 535.449 L
287.161 544.826 L
292.295 552.936 L
297.43 559.72 L
302.564 565.131 L
307.698 569.13 L
312.832 571.688 L
317.966 572.787 L
323.101 572.421 L
328.235 570.59 L
333.369 567.309 L
338.503 562.6 L
343.638 556.497 L
348.772 549.043 L
353.906 540.292 L
359.04 530.306 L
364.174 519.154 L
369.309 506.918 L
374.443 493.684 L
379.577 479.545 L
384.711 464.603 L
389.846 448.964 L
394.98 432.738 L
400.114 416.041 L
405.248 398.992 L
410.383 381.713 L
415.517 364.325 L
420.651 346.952 L
425.785 329.719 L
430.919 312.747 L
436.054 296.157 L
441.188 280.067 L
446.322 264.592 L
451.456 249.841 L
456.591 235.919 L
461.725 222.926 L
466.859 210.953 L
471.993 200.086 L
477.128 190.402 L
482.262 181.969 L
487.396 174.849 L
492.53 169.091 L
497.664 164.736 L
502.799 161.816 L
507.933 160.35 L
513.067 160.35 L
518.201 161.816 L
523.336 164.736 L
528.47 169.091 L
533.604 174.849 L
538.738 181.969 L
543.872 190.402 L
549.007 200.086 L
554.141 210.953 L
559.275 222.926 L
564.409 235.919 L
569.544 249.841 L
574.678 264.592 L
579.812 280.067 L
584.946 296.157 L
590.081 312.747 L
595.215 329.719 L
600.349 346.952 L
605.483 364.325 L
610.617 381.713 L
615.752 398.992 L
620.886 416.041 L
626.02 432.738 L
631.154 448.964 L
636.289 464.603 L
641.423 479.545 L
646.557 493.684 L
651.691 506.918 L
656.826 519.154 L
661.96 530.306 L
667.094 540.292 L
672.228 549.043 L
677.362 556.497 L
682.497 562.6 L
687.631 567.309 L
692.765 570.59 L
697.899 572.421 L
703.034 572.787 L
708.168 571.688 L
713.302 569.13 L
718.436 565.131 L
723.57 559.72 L
728.705 552.936 L
733.839 544.826 L
738.973 535.449 L
744.107 524.871 L
749.242 513.167 L
754.376 500.42 L
759.51 486.721 L
764.644 472.168 L
769.779 456.864 L
774.913 440.917 L
780.047 424.441 L
785.181 407.553 L
790.315 390.374 L
795.45 373.025 L
800.584 355.629 L
805.718 338.311 L
810.852 321.193 L
815.987 304.397 L
821.121 288.042 L
826.255 272.246 L
831.389 257.119 L
836.523 242.77 L
841.658 229.3 L
846.792 216.806 L
851.926 205.376 L
857.06 195.091 L
862.195 186.025 L
867.329 178.242 L
872.463 171.797 L
877.597 166.736 L
882.732 163.095 L
887.866 160.9 L
893 160.167 L
S
GR
GS
[0.75 0 0 0.75 0 0] CT
1 GC
N
613 274 M
613 71 L
807 71 L
807 274 L
cp
f
GR
GS
[0.75 0 0 0.75 487.5 65.25] CT
/Helvetica 21.6 F
GS
[1 0 0 1 0 0] CT
0 9 moveto 
1 -1 scale
(Approximation1) t 
GR
GR
GS
[0.75 0 0 0.75 0 0] CT
0 0.447 0.741 RC
1 LJ
4 LW
N
617 87 M
647 87 L
S
GR
GS
[0.75 0 0 0.75 487.5 86.625] CT
/Helvetica 21.6 F
GS
[1 0 0 1 0 0] CT
0 9 moveto 
1 -1 scale
(Approximation2) t 
GR
GR
GS
[0.75 0 0 0.75 0 0] CT
0.851 0.325 0.098 RC
1 LJ
4 LW
N
617 115.5 M
647 115.5 L
S
GR
GS
[0.75 0 0 0.75 487.5 108] CT
/Helvetica 21.6 F
GS
[1 0 0 1 0 0] CT
0 9 moveto 
1 -1 scale
(Approximation3) t 
GR
GR
GS
[0.75 0 0 0.75 0 0] CT
0.929 0.694 0.125 RC
1 LJ
4 LW
N
617 144 M
647 144 L
S
GR
GS
[0.75 0 0 0.75 487.5 129.375] CT
/Helvetica 21.6 F
GS
[1 0 0 1 0 0] CT
0 9 moveto 
1 -1 scale
(Approximation4) t 
GR
GR
GS
[0.75 0 0 0.75 0 0] CT
0.494 0.184 0.557 RC
1 LJ
4 LW
N
617 172.5 M
647 172.5 L
S
GR
GS
[0.75 0 0 0.75 487.5 150.75] CT
/Helvetica 21.6 F
GS
[1 0 0 1 0 0] CT
0 9 moveto 
1 -1 scale
(Approximation5) t 
GR
GR
GS
[0.75 0 0 0.75 0 0] CT
0.467 0.675 0.188 RC
1 LJ
4 LW
N
617 201 M
647 201 L
S
GR
GS
[0.75 0 0 0.75 487.5 172.125] CT
/Helvetica 21.6 F
GS
[1 0 0 1 0 0] CT
0 9 moveto 
1 -1 scale
(Training set) t 
GR
GR
GS
[0.75 0 0 0.75 474 172.125] CT
1 0 0 RC
10.0 ML
0.667 LW
N
0 -4 M
0 4 L
-4 0 M
4 0 L
-2.828 -2.828 M
2.828 2.828 L
-2.828 2.828 M
2.828 -2.828 L
S
GR
GS
[0.75 0 0 0.75 487.5 193.5] CT
/Helvetica 21.6 F
GS
[1 0 0 1 0 0] CT
0 9 moveto 
1 -1 scale
(True function) t 
GR
GR
GS
[0.75 0 0 0.75 0 0] CT
0.302 0.745 0.933 RC
1 LJ
4 LW
N
617 258 M
647 258 L
S
GR
GS
[0.75 0 0 0.75 0 0] CT
0.149 GC
10.0 ML
0.667 LW
N
613 274 M
613 71 L
807 71 L
807 274 L
cp
S
GR
%%Trailer
%%Pages: 1
%%EOF
