%!PS-Adobe-3.0 EPSF-3.0
%%Creator: (MATLAB, The Mathworks, Inc. Version 9.1.0.441655 \(R2016b\). Operating System: Windows 8)
%%Title: (C:/Users/Eigenaar/WIT/Data Mining/data-mining/Session 1/plots/reg05.eps)
%%CreationDate: 2017-11-11T14:04:18
%%Pages: (atend)
%%BoundingBox: 0 0 802 627
%%LanguageLevel: 3
%%EndComments
%%BeginProlog
%%BeginResource: procset (Apache XML Graphics Std ProcSet) 1.2 0
%%Version: 1.2 0
%%Copyright: (Copyright 2001-2003,2010 The Apache Software Foundation. License terms: http://www.apache.org/licenses/LICENSE-2.0)
/bd{bind def}bind def
/ld{load def}bd
/GR/grestore ld
/M/moveto ld
/LJ/setlinejoin ld
/C/curveto ld
/f/fill ld
/LW/setlinewidth ld
/GC/setgray ld
/t/show ld
/N/newpath ld
/CT/concat ld
/cp/closepath ld
/S/stroke ld
/L/lineto ld
/CC/setcmykcolor ld
/A/ashow ld
/GS/gsave ld
/RC/setrgbcolor ld
/RM/rmoveto ld
/ML/setmiterlimit ld
/re {4 2 roll M
1 index 0 rlineto
0 exch rlineto
neg 0 rlineto
cp } bd
/_ctm matrix def
/_tm matrix def
/BT { _ctm currentmatrix pop matrix _tm copy pop 0 0 moveto } bd
/ET { _ctm setmatrix } bd
/iTm { _ctm setmatrix _tm concat } bd
/Tm { _tm astore pop iTm 0 0 moveto } bd
/ux 0.0 def
/uy 0.0 def
/F {
  /Tp exch def
  /Tf exch def
  Tf findfont Tp scalefont setfont
  /cf Tf def  /cs Tp def
} bd
/ULS {currentpoint /uy exch def /ux exch def} bd
/ULE {
  /Tcx currentpoint pop def
  gsave
  newpath
  cf findfont cs scalefont dup
  /FontMatrix get 0 get /Ts exch def /FontInfo get dup
  /UnderlinePosition get Ts mul /To exch def
  /UnderlineThickness get Ts mul /Tt exch def
  ux uy To add moveto  Tcx uy To add lineto
  Tt setlinewidth stroke
  grestore
} bd
/OLE {
  /Tcx currentpoint pop def
  gsave
  newpath
  cf findfont cs scalefont dup
  /FontMatrix get 0 get /Ts exch def /FontInfo get dup
  /UnderlinePosition get Ts mul /To exch def
  /UnderlineThickness get Ts mul /Tt exch def
  ux uy To add cs add moveto Tcx uy To add cs add lineto
  Tt setlinewidth stroke
  grestore
} bd
/SOE {
  /Tcx currentpoint pop def
  gsave
  newpath
  cf findfont cs scalefont dup
  /FontMatrix get 0 get /Ts exch def /FontInfo get dup
  /UnderlinePosition get Ts mul /To exch def
  /UnderlineThickness get Ts mul /Tt exch def
  ux uy To add cs 10 mul 26 idiv add moveto Tcx uy To add cs 10 mul 26 idiv add lineto
  Tt setlinewidth stroke
  grestore
} bd
/QT {
/Y22 exch store
/X22 exch store
/Y21 exch store
/X21 exch store
currentpoint
/Y21 load 2 mul add 3 div exch
/X21 load 2 mul add 3 div exch
/X21 load 2 mul /X22 load add 3 div
/Y21 load 2 mul /Y22 load add 3 div
/X22 load /Y22 load curveto
} bd
/SSPD {
dup length /d exch dict def
{
/v exch def
/k exch def
currentpagedevice k known {
/cpdv currentpagedevice k get def
v cpdv ne {
/upd false def
/nullv v type /nulltype eq def
/nullcpdv cpdv type /nulltype eq def
nullv nullcpdv or
{
/upd true def
} {
/sametype v type cpdv type eq def
sametype {
v type /arraytype eq {
/vlen v length def
/cpdvlen cpdv length def
vlen cpdvlen eq {
0 1 vlen 1 sub {
/i exch def
/obj v i get def
/cpdobj cpdv i get def
obj cpdobj ne {
/upd true def
exit
} if
} for
} {
/upd true def
} ifelse
} {
v type /dicttype eq {
v {
/dv exch def
/dk exch def
/cpddv cpdv dk get def
dv cpddv ne {
/upd true def
exit
} if
} forall
} {
/upd true def
} ifelse
} ifelse
} if
} ifelse
upd true eq {
d k v put
} if
} if
} if
} forall
d length 0 gt {
d setpagedevice
} if
} bd
/RE { % /NewFontName [NewEncodingArray] /FontName RE -
  findfont dup length dict begin
  {
    1 index /FID ne
    {def} {pop pop} ifelse
  } forall
  /Encoding exch def
  /FontName 1 index def
  currentdict definefont pop
  end
} bind def
%%EndResource
%%BeginResource: procset (Apache XML Graphics EPS ProcSet) 1.0 0
%%Version: 1.0 0
%%Copyright: (Copyright 2002-2003 The Apache Software Foundation. License terms: http://www.apache.org/licenses/LICENSE-2.0)
/BeginEPSF { %def
/b4_Inc_state save def         % Save state for cleanup
/dict_count countdictstack def % Count objects on dict stack
/op_count count 1 sub def      % Count objects on operand stack
userdict begin                 % Push userdict on dict stack
/showpage { } def              % Redefine showpage, { } = null proc
0 setgray 0 setlinecap         % Prepare graphics state
1 setlinewidth 0 setlinejoin
10 setmiterlimit [ ] 0 setdash newpath
/languagelevel where           % If level not equal to 1 then
{pop languagelevel             % set strokeadjust and
1 ne                           % overprint to their defaults.
{false setstrokeadjust false setoverprint
} if
} if
} bd
/EndEPSF { %def
count op_count sub {pop} repeat            % Clean up stacks
countdictstack dict_count sub {end} repeat
b4_Inc_state restore
} bd
%%EndResource
%FOPBeginFontDict
%%IncludeResource: font Courier-Bold
%%IncludeResource: font Helvetica
%%IncludeResource: font Courier-BoldOblique
%%IncludeResource: font Courier-Oblique
%%IncludeResource: font Times-Roman
%%IncludeResource: font Helvetica-BoldOblique
%%IncludeResource: font Helvetica-Bold
%%IncludeResource: font Helvetica-Oblique
%%IncludeResource: font Times-BoldItalic
%%IncludeResource: font Courier
%%IncludeResource: font Times-Italic
%%IncludeResource: font Times-Bold
%%IncludeResource: font Symbol
%%IncludeResource: font ZapfDingbats
%FOPEndFontDict
%%BeginResource: encoding WinAnsiEncoding
/WinAnsiEncoding [
/.notdef /.notdef /.notdef /.notdef /.notdef
/.notdef /.notdef /.notdef /.notdef /.notdef
/.notdef /.notdef /.notdef /.notdef /.notdef
/.notdef /.notdef /.notdef /.notdef /.notdef
/.notdef /.notdef /.notdef /.notdef /.notdef
/.notdef /.notdef /.notdef /.notdef /.notdef
/.notdef /.notdef /space /exclam /quotedbl
/numbersign /dollar /percent /ampersand /quotesingle
/parenleft /parenright /asterisk /plus /comma
/hyphen /period /slash /zero /one
/two /three /four /five /six
/seven /eight /nine /colon /semicolon
/less /equal /greater /question /at
/A /B /C /D /E
/F /G /H /I /J
/K /L /M /N /O
/P /Q /R /S /T
/U /V /W /X /Y
/Z /bracketleft /backslash /bracketright /asciicircum
/underscore /quoteleft /a /b /c
/d /e /f /g /h
/i /j /k /l /m
/n /o /p /q /r
/s /t /u /v /w
/x /y /z /braceleft /bar
/braceright /asciitilde /bullet /Euro /bullet
/quotesinglbase /florin /quotedblbase /ellipsis /dagger
/daggerdbl /circumflex /perthousand /Scaron /guilsinglleft
/OE /bullet /Zcaron /bullet /bullet
/quoteleft /quoteright /quotedblleft /quotedblright /bullet
/endash /emdash /asciitilde /trademark /scaron
/guilsinglright /oe /bullet /zcaron /Ydieresis
/space /exclamdown /cent /sterling /currency
/yen /brokenbar /section /dieresis /copyright
/ordfeminine /guillemotleft /logicalnot /sfthyphen /registered
/macron /degree /plusminus /twosuperior /threesuperior
/acute /mu /paragraph /middot /cedilla
/onesuperior /ordmasculine /guillemotright /onequarter /onehalf
/threequarters /questiondown /Agrave /Aacute /Acircumflex
/Atilde /Adieresis /Aring /AE /Ccedilla
/Egrave /Eacute /Ecircumflex /Edieresis /Igrave
/Iacute /Icircumflex /Idieresis /Eth /Ntilde
/Ograve /Oacute /Ocircumflex /Otilde /Odieresis
/multiply /Oslash /Ugrave /Uacute /Ucircumflex
/Udieresis /Yacute /Thorn /germandbls /agrave
/aacute /acircumflex /atilde /adieresis /aring
/ae /ccedilla /egrave /eacute /ecircumflex
/edieresis /igrave /iacute /icircumflex /idieresis
/eth /ntilde /ograve /oacute /ocircumflex
/otilde /odieresis /divide /oslash /ugrave
/uacute /ucircumflex /udieresis /yacute /thorn
/ydieresis
] def
%%EndResource
%FOPBeginFontReencode
/Courier-Bold findfont
dup length dict begin
  {1 index /FID ne {def} {pop pop} ifelse} forall
  /Encoding WinAnsiEncoding def
  currentdict
end
/Courier-Bold exch definefont pop
/Helvetica findfont
dup length dict begin
  {1 index /FID ne {def} {pop pop} ifelse} forall
  /Encoding WinAnsiEncoding def
  currentdict
end
/Helvetica exch definefont pop
/Courier-BoldOblique findfont
dup length dict begin
  {1 index /FID ne {def} {pop pop} ifelse} forall
  /Encoding WinAnsiEncoding def
  currentdict
end
/Courier-BoldOblique exch definefont pop
/Courier-Oblique findfont
dup length dict begin
  {1 index /FID ne {def} {pop pop} ifelse} forall
  /Encoding WinAnsiEncoding def
  currentdict
end
/Courier-Oblique exch definefont pop
/Times-Roman findfont
dup length dict begin
  {1 index /FID ne {def} {pop pop} ifelse} forall
  /Encoding WinAnsiEncoding def
  currentdict
end
/Times-Roman exch definefont pop
/Helvetica-BoldOblique findfont
dup length dict begin
  {1 index /FID ne {def} {pop pop} ifelse} forall
  /Encoding WinAnsiEncoding def
  currentdict
end
/Helvetica-BoldOblique exch definefont pop
/Helvetica-Bold findfont
dup length dict begin
  {1 index /FID ne {def} {pop pop} ifelse} forall
  /Encoding WinAnsiEncoding def
  currentdict
end
/Helvetica-Bold exch definefont pop
/Helvetica-Oblique findfont
dup length dict begin
  {1 index /FID ne {def} {pop pop} ifelse} forall
  /Encoding WinAnsiEncoding def
  currentdict
end
/Helvetica-Oblique exch definefont pop
/Times-BoldItalic findfont
dup length dict begin
  {1 index /FID ne {def} {pop pop} ifelse} forall
  /Encoding WinAnsiEncoding def
  currentdict
end
/Times-BoldItalic exch definefont pop
/Courier findfont
dup length dict begin
  {1 index /FID ne {def} {pop pop} ifelse} forall
  /Encoding WinAnsiEncoding def
  currentdict
end
/Courier exch definefont pop
/Times-Italic findfont
dup length dict begin
  {1 index /FID ne {def} {pop pop} ifelse} forall
  /Encoding WinAnsiEncoding def
  currentdict
end
/Times-Italic exch definefont pop
/Times-Bold findfont
dup length dict begin
  {1 index /FID ne {def} {pop pop} ifelse} forall
  /Encoding WinAnsiEncoding def
  currentdict
end
/Times-Bold exch definefont pop
%FOPEndFontReencode
%%EndProlog
%%Page: 1 1
%%PageBoundingBox: 0 0 802 627
%%BeginPageSetup
[1 0 0 -1 0 627] CT
%%EndPageSetup
GS
[0.75 0 0 0.75 0 0] CT
1 GC
N
0 0 1069 836 re
f
GR
GS
[0.75 0 0 0.75 0 0] CT
1 GC
N
0 0 1069 836 re
f
GR
GS
[0.75 0 0 0.75 0 0] CT
1 GC
N
139 744 M
967 744 L
967 63 L
139 63 L
cp
f
GR
GS
[0.75 0 0 0.75 0 0] CT
0.149 GC
2 setlinecap
1 LJ
0.667 LW
N
139 744 M
967 744 L
S
GR
GS
[0.75 0 0 0.75 0 0] CT
0.149 GC
2 setlinecap
1 LJ
0.667 LW
N
139 63 M
967 63 L
S
GR
GS
[0.75 0 0 0.75 0 0] CT
0.149 GC
2 setlinecap
1 LJ
0.667 LW
N
139 744 M
139 735.72 L
S
GR
GS
[0.75 0 0 0.75 0 0] CT
0.149 GC
2 setlinecap
1 LJ
0.667 LW
N
221.8 744 M
221.8 735.72 L
S
GR
GS
[0.75 0 0 0.75 0 0] CT
0.149 GC
2 setlinecap
1 LJ
0.667 LW
N
304.6 744 M
304.6 735.72 L
S
GR
GS
[0.75 0 0 0.75 0 0] CT
0.149 GC
2 setlinecap
1 LJ
0.667 LW
N
387.4 744 M
387.4 735.72 L
S
GR
GS
[0.75 0 0 0.75 0 0] CT
0.149 GC
2 setlinecap
1 LJ
0.667 LW
N
470.2 744 M
470.2 735.72 L
S
GR
GS
[0.75 0 0 0.75 0 0] CT
0.149 GC
2 setlinecap
1 LJ
0.667 LW
N
553 744 M
553 735.72 L
S
GR
GS
[0.75 0 0 0.75 0 0] CT
0.149 GC
2 setlinecap
1 LJ
0.667 LW
N
635.8 744 M
635.8 735.72 L
S
GR
GS
[0.75 0 0 0.75 0 0] CT
0.149 GC
2 setlinecap
1 LJ
0.667 LW
N
718.6 744 M
718.6 735.72 L
S
GR
GS
[0.75 0 0 0.75 0 0] CT
0.149 GC
2 setlinecap
1 LJ
0.667 LW
N
801.4 744 M
801.4 735.72 L
S
GR
GS
[0.75 0 0 0.75 0 0] CT
0.149 GC
2 setlinecap
1 LJ
0.667 LW
N
884.2 744 M
884.2 735.72 L
S
GR
GS
[0.75 0 0 0.75 0 0] CT
0.149 GC
2 setlinecap
1 LJ
0.667 LW
N
967 744 M
967 735.72 L
S
GR
GS
[0.75 0 0 0.75 0 0] CT
0.149 GC
2 setlinecap
1 LJ
0.667 LW
N
139 63 M
139 71.28 L
S
GR
GS
[0.75 0 0 0.75 0 0] CT
0.149 GC
2 setlinecap
1 LJ
0.667 LW
N
221.8 63 M
221.8 71.28 L
S
GR
GS
[0.75 0 0 0.75 0 0] CT
0.149 GC
2 setlinecap
1 LJ
0.667 LW
N
304.6 63 M
304.6 71.28 L
S
GR
GS
[0.75 0 0 0.75 0 0] CT
0.149 GC
2 setlinecap
1 LJ
0.667 LW
N
387.4 63 M
387.4 71.28 L
S
GR
GS
[0.75 0 0 0.75 0 0] CT
0.149 GC
2 setlinecap
1 LJ
0.667 LW
N
470.2 63 M
470.2 71.28 L
S
GR
GS
[0.75 0 0 0.75 0 0] CT
0.149 GC
2 setlinecap
1 LJ
0.667 LW
N
553 63 M
553 71.28 L
S
GR
GS
[0.75 0 0 0.75 0 0] CT
0.149 GC
2 setlinecap
1 LJ
0.667 LW
N
635.8 63 M
635.8 71.28 L
S
GR
GS
[0.75 0 0 0.75 0 0] CT
0.149 GC
2 setlinecap
1 LJ
0.667 LW
N
718.6 63 M
718.6 71.28 L
S
GR
GS
[0.75 0 0 0.75 0 0] CT
0.149 GC
2 setlinecap
1 LJ
0.667 LW
N
801.4 63 M
801.4 71.28 L
S
GR
GS
[0.75 0 0 0.75 0 0] CT
0.149 GC
2 setlinecap
1 LJ
0.667 LW
N
884.2 63 M
884.2 71.28 L
S
GR
GS
[0.75 0 0 0.75 0 0] CT
0.149 GC
2 setlinecap
1 LJ
0.667 LW
N
967 63 M
967 71.28 L
S
GR
GS
[0.75 0 0 0.75 104.25 563.60001] CT
0.149 GC
/Helvetica 24 F
GS
[1 0 0 1 0 0] CT
-11 25 moveto 
1 -1 scale
(-1) t 
GR
GR
GS
[0.75 0 0 0.75 166.34999 563.60001] CT
0.149 GC
/Helvetica 24 F
GS
[1 0 0 1 0 0] CT
-21 25 moveto 
1 -1 scale
(-0.8) t 
GR
GR
GS
[0.75 0 0 0.75 228.44998 563.60001] CT
0.149 GC
/Helvetica 24 F
GS
[1 0 0 1 0 0] CT
-21 25 moveto 
1 -1 scale
(-0.6) t 
GR
GR
GS
[0.75 0 0 0.75 290.55 563.60001] CT
0.149 GC
/Helvetica 24 F
GS
[1 0 0 1 0 0] CT
-21 25 moveto 
1 -1 scale
(-0.4) t 
GR
GR
GS
[0.75 0 0 0.75 352.65001 563.60001] CT
0.149 GC
/Helvetica 24 F
GS
[1 0 0 1 0 0] CT
-21 25 moveto 
1 -1 scale
(-0.2) t 
GR
GR
GS
[0.75 0 0 0.75 414.75 563.60001] CT
0.149 GC
/Helvetica 24 F
GS
[1 0 0 1 0 0] CT
-7 25 moveto 
1 -1 scale
(0) t 
GR
GR
GS
[0.75 0 0 0.75 476.84999 563.60001] CT
0.149 GC
/Helvetica 24 F
GS
[1 0 0 1 0 0] CT
-17 25 moveto 
1 -1 scale
(0.2) t 
GR
GR
GS
[0.75 0 0 0.75 538.94998 563.60001] CT
0.149 GC
/Helvetica 24 F
GS
[1 0 0 1 0 0] CT
-17 25 moveto 
1 -1 scale
(0.4) t 
GR
GR
GS
[0.75 0 0 0.75 601.05002 563.60001] CT
0.149 GC
/Helvetica 24 F
GS
[1 0 0 1 0 0] CT
-17 25 moveto 
1 -1 scale
(0.6) t 
GR
GR
GS
[0.75 0 0 0.75 663.15001 563.60001] CT
0.149 GC
/Helvetica 24 F
GS
[1 0 0 1 0 0] CT
-17 25 moveto 
1 -1 scale
(0.8) t 
GR
GR
GS
[0.75 0 0 0.75 725.25 563.60001] CT
0.149 GC
/Helvetica 24 F
GS
[1 0 0 1 0 0] CT
-7 25 moveto 
1 -1 scale
(1) t 
GR
GR
GS
[0.75 0 0 0.75 414.75027 587.84999] CT
0.149 GC
/Helvetica 26.4 F
GS
[1 0 0 1 0 0] CT
-9 27 moveto 
1 -1 scale
(X) t 
GR
GR
GS
[0.75 0 0 0.75 0 0] CT
0.149 GC
2 setlinecap
1 LJ
0.667 LW
N
139 744 M
139 63 L
S
GR
GS
[0.75 0 0 0.75 0 0] CT
0.149 GC
2 setlinecap
1 LJ
0.667 LW
N
967 744 M
967 63 L
S
GR
GS
[0.75 0 0 0.75 0 0] CT
0.149 GC
2 setlinecap
1 LJ
0.667 LW
N
139 744 M
147.28 744 L
S
GR
GS
[0.75 0 0 0.75 0 0] CT
0.149 GC
2 setlinecap
1 LJ
0.667 LW
N
139 630.5 M
147.28 630.5 L
S
GR
GS
[0.75 0 0 0.75 0 0] CT
0.149 GC
2 setlinecap
1 LJ
0.667 LW
N
139 517 M
147.28 517 L
S
GR
GS
[0.75 0 0 0.75 0 0] CT
0.149 GC
2 setlinecap
1 LJ
0.667 LW
N
139 403.5 M
147.28 403.5 L
S
GR
GS
[0.75 0 0 0.75 0 0] CT
0.149 GC
2 setlinecap
1 LJ
0.667 LW
N
139 290 M
147.28 290 L
S
GR
GS
[0.75 0 0 0.75 0 0] CT
0.149 GC
2 setlinecap
1 LJ
0.667 LW
N
139 176.5 M
147.28 176.5 L
S
GR
GS
[0.75 0 0 0.75 0 0] CT
0.149 GC
2 setlinecap
1 LJ
0.667 LW
N
139 63 M
147.28 63 L
S
GR
GS
[0.75 0 0 0.75 0 0] CT
0.149 GC
2 setlinecap
1 LJ
0.667 LW
N
967 744 M
958.72 744 L
S
GR
GS
[0.75 0 0 0.75 0 0] CT
0.149 GC
2 setlinecap
1 LJ
0.667 LW
N
967 630.5 M
958.72 630.5 L
S
GR
GS
[0.75 0 0 0.75 0 0] CT
0.149 GC
2 setlinecap
1 LJ
0.667 LW
N
967 517 M
958.72 517 L
S
GR
GS
[0.75 0 0 0.75 0 0] CT
0.149 GC
2 setlinecap
1 LJ
0.667 LW
N
967 403.5 M
958.72 403.5 L
S
GR
GS
[0.75 0 0 0.75 0 0] CT
0.149 GC
2 setlinecap
1 LJ
0.667 LW
N
967 290 M
958.72 290 L
S
GR
GS
[0.75 0 0 0.75 0 0] CT
0.149 GC
2 setlinecap
1 LJ
0.667 LW
N
967 176.5 M
958.72 176.5 L
S
GR
GS
[0.75 0 0 0.75 0 0] CT
0.149 GC
2 setlinecap
1 LJ
0.667 LW
N
967 63 M
958.72 63 L
S
GR
GS
[0.75 0 0 0.75 98.65001 558] CT
0.149 GC
/Helvetica 24 F
GS
[1 0 0 1 0 0] CT
-42 9.5 moveto 
1 -1 scale
(-1.5) t 
GR
GR
GS
[0.75 0 0 0.75 98.65001 472.875] CT
0.149 GC
/Helvetica 24 F
GS
[1 0 0 1 0 0] CT
-22 9.5 moveto 
1 -1 scale
(-1) t 
GR
GR
GS
[0.75 0 0 0.75 98.65001 387.75] CT
0.149 GC
/Helvetica 24 F
GS
[1 0 0 1 0 0] CT
-42 9.5 moveto 
1 -1 scale
(-0.5) t 
GR
GR
GS
[0.75 0 0 0.75 98.65001 302.625] CT
0.149 GC
/Helvetica 24 F
GS
[1 0 0 1 0 0] CT
-14 9.5 moveto 
1 -1 scale
(0) t 
GR
GR
GS
[0.75 0 0 0.75 98.65001 217.5] CT
0.149 GC
/Helvetica 24 F
GS
[1 0 0 1 0 0] CT
-34 9.5 moveto 
1 -1 scale
(0.5) t 
GR
GR
GS
[0.75 0 0 0.75 98.65001 132.375] CT
0.149 GC
/Helvetica 24 F
GS
[1 0 0 1 0 0] CT
-14 9.5 moveto 
1 -1 scale
(1) t 
GR
GR
GS
[0.75 0 0 0.75 98.65001 47.25] CT
0.149 GC
/Helvetica 24 F
GS
[1 0 0 1 0 0] CT
-34 9.5 moveto 
1 -1 scale
(1.5) t 
GR
GR
GS
[0.75 0 0 0.75 414.75041 43.53751] CT
/Helvetica-Bold 26.4 F
GS
[1 0 0 1 0 0] CT
-111.5 -6 moveto 
1 -1 scale
(Regularization 0.5) t 
GR
GR
GS
[0.75 0 0 0.75 0 0] CT
0 0.447 0.741 RC
1 LJ
4 LW
N
139 406.308 M
144.557 406.308 L
150.114 406.307 L
155.671 406.306 L
161.228 406.305 L
166.785 406.304 L
172.342 406.304 L
177.899 406.303 L
183.456 406.302 L
189.013 406.301 L
194.57 406.3 L
200.128 406.299 L
205.685 406.299 L
211.242 406.298 L
216.799 406.297 L
222.356 406.296 L
227.913 406.295 L
233.47 406.295 L
239.027 406.294 L
244.584 406.293 L
250.141 406.292 L
255.698 406.291 L
261.255 406.29 L
266.812 406.29 L
272.369 406.289 L
277.926 406.288 L
283.483 406.287 L
289.04 406.286 L
294.597 406.286 L
300.154 406.285 L
305.711 406.284 L
311.268 406.283 L
316.826 406.282 L
322.383 406.281 L
327.94 406.281 L
333.497 406.28 L
339.054 406.279 L
344.611 406.278 L
350.168 406.277 L
355.725 406.276 L
361.282 406.276 L
366.839 406.275 L
372.396 406.274 L
377.953 406.273 L
383.51 406.272 L
389.067 406.272 L
394.624 406.271 L
400.181 406.27 L
405.738 406.269 L
411.295 406.268 L
416.852 406.267 L
422.409 406.267 L
427.966 406.266 L
433.523 406.265 L
439.081 406.264 L
444.638 406.263 L
450.195 406.263 L
455.752 406.262 L
461.309 406.261 L
466.866 406.26 L
472.423 406.259 L
477.98 406.258 L
483.537 406.258 L
489.094 406.257 L
494.651 406.256 L
500.208 406.255 L
505.765 406.254 L
511.322 406.254 L
516.879 406.253 L
522.436 406.252 L
527.993 406.251 L
533.55 406.25 L
539.107 406.249 L
544.664 406.249 L
550.221 406.248 L
555.779 406.247 L
561.336 406.246 L
566.893 406.245 L
572.45 406.244 L
578.007 406.244 L
583.564 406.243 L
589.121 406.242 L
594.678 406.241 L
600.235 406.24 L
605.792 406.24 L
611.349 406.239 L
616.906 406.238 L
622.463 406.237 L
628.02 406.236 L
633.577 406.235 L
639.134 406.235 L
644.691 406.234 L
650.248 406.233 L
655.805 406.232 L
661.362 406.231 L
666.919 406.231 L
672.477 406.23 L
678.034 406.229 L
683.591 406.228 L
689.148 406.227 L
694.705 406.226 L
700.262 406.226 L
705.819 406.225 L
711.376 406.224 L
716.933 406.223 L
722.49 406.222 L
728.047 406.222 L
733.604 406.221 L
739.161 406.22 L
744.718 406.219 L
750.275 406.218 L
755.832 406.217 L
761.389 406.217 L
766.946 406.216 L
772.503 406.215 L
778.06 406.214 L
783.617 406.213 L
789.174 406.212 L
794.732 406.212 L
800.289 406.211 L
805.846 406.21 L
811.403 406.209 L
816.96 406.208 L
822.517 406.208 L
828.074 406.207 L
833.631 406.206 L
839.188 406.205 L
844.745 406.204 L
850.302 406.203 L
855.859 406.203 L
861.416 406.202 L
866.973 406.201 L
872.53 406.2 L
878.087 406.199 L
883.644 406.199 L
889.201 406.198 L
894.758 406.197 L
900.315 406.196 L
905.872 406.195 L
911.43 406.194 L
916.987 406.194 L
922.544 406.193 L
928.101 406.192 L
933.658 406.191 L
939.215 406.19 L
944.772 406.19 L
950.329 406.189 L
955.886 406.188 L
961.443 406.187 L
967 406.186 L
S
GR
GS
[0.75 0 0 0.75 0 0] CT
0.851 0.325 0.098 RC
1 LJ
4 LW
N
139 407.53 M
144.557 407.523 L
150.114 407.517 L
155.671 407.51 L
161.228 407.504 L
166.785 407.498 L
172.342 407.491 L
177.899 407.485 L
183.456 407.478 L
189.013 407.472 L
194.57 407.465 L
200.128 407.459 L
205.685 407.453 L
211.242 407.446 L
216.799 407.44 L
222.356 407.433 L
227.913 407.427 L
233.47 407.42 L
239.027 407.414 L
244.584 407.407 L
250.141 407.401 L
255.698 407.395 L
261.255 407.388 L
266.812 407.382 L
272.369 407.375 L
277.926 407.369 L
283.483 407.362 L
289.04 407.356 L
294.597 407.349 L
300.154 407.343 L
305.711 407.337 L
311.268 407.33 L
316.826 407.324 L
322.383 407.317 L
327.94 407.311 L
333.497 407.304 L
339.054 407.298 L
344.611 407.291 L
350.168 407.285 L
355.725 407.279 L
361.282 407.272 L
366.839 407.266 L
372.396 407.259 L
377.953 407.253 L
383.51 407.246 L
389.067 407.24 L
394.624 407.233 L
400.181 407.227 L
405.738 407.221 L
411.295 407.214 L
416.852 407.208 L
422.409 407.201 L
427.966 407.195 L
433.523 407.188 L
439.081 407.182 L
444.638 407.175 L
450.195 407.169 L
455.752 407.163 L
461.309 407.156 L
466.866 407.15 L
472.423 407.143 L
477.98 407.137 L
483.537 407.13 L
489.094 407.124 L
494.651 407.117 L
500.208 407.111 L
505.765 407.104 L
511.322 407.098 L
516.879 407.092 L
522.436 407.085 L
527.993 407.079 L
533.55 407.072 L
539.107 407.066 L
544.664 407.059 L
550.221 407.053 L
555.779 407.046 L
561.336 407.04 L
566.893 407.034 L
572.45 407.027 L
578.007 407.021 L
583.564 407.014 L
589.121 407.008 L
594.678 407.001 L
600.235 406.995 L
605.792 406.988 L
611.349 406.982 L
616.906 406.975 L
622.463 406.969 L
628.02 406.963 L
633.577 406.956 L
639.134 406.95 L
644.691 406.943 L
650.248 406.937 L
655.805 406.93 L
661.362 406.924 L
666.919 406.917 L
672.477 406.911 L
678.034 406.905 L
683.591 406.898 L
689.148 406.892 L
694.705 406.885 L
700.262 406.879 L
705.819 406.872 L
711.376 406.866 L
716.933 406.859 L
722.49 406.853 L
728.047 406.847 L
733.604 406.84 L
739.161 406.834 L
744.718 406.827 L
750.275 406.821 L
755.832 406.814 L
761.389 406.808 L
766.946 406.802 L
772.503 406.795 L
778.06 406.789 L
783.617 406.782 L
789.174 406.776 L
794.732 406.769 L
800.289 406.763 L
805.846 406.756 L
811.403 406.75 L
816.96 406.744 L
822.517 406.737 L
828.074 406.731 L
833.631 406.724 L
839.188 406.718 L
844.745 406.711 L
850.302 406.705 L
855.859 406.699 L
861.416 406.692 L
866.973 406.686 L
872.53 406.679 L
878.087 406.673 L
883.644 406.666 L
889.201 406.66 L
894.758 406.654 L
900.315 406.647 L
905.872 406.641 L
911.43 406.634 L
916.987 406.628 L
922.544 406.621 L
928.101 406.615 L
933.658 406.609 L
939.215 406.602 L
944.772 406.596 L
950.329 406.589 L
955.886 406.583 L
961.443 406.577 L
967 406.57 L
S
GR
GS
[0.75 0 0 0.75 0 0] CT
0.929 0.694 0.125 RC
1 LJ
4 LW
N
139 406.688 M
144.557 406.687 L
150.114 406.686 L
155.671 406.686 L
161.228 406.685 L
166.785 406.684 L
172.342 406.683 L
177.899 406.682 L
183.456 406.681 L
189.013 406.681 L
194.57 406.68 L
200.128 406.679 L
205.685 406.678 L
211.242 406.677 L
216.799 406.676 L
222.356 406.676 L
227.913 406.675 L
233.47 406.674 L
239.027 406.673 L
244.584 406.672 L
250.141 406.671 L
255.698 406.671 L
261.255 406.67 L
266.812 406.669 L
272.369 406.668 L
277.926 406.667 L
283.483 406.667 L
289.04 406.666 L
294.597 406.665 L
300.154 406.664 L
305.711 406.663 L
311.268 406.662 L
316.826 406.662 L
322.383 406.661 L
327.94 406.66 L
333.497 406.659 L
339.054 406.658 L
344.611 406.657 L
350.168 406.657 L
355.725 406.656 L
361.282 406.655 L
366.839 406.654 L
372.396 406.653 L
377.953 406.652 L
383.51 406.652 L
389.067 406.651 L
394.624 406.65 L
400.181 406.649 L
405.738 406.648 L
411.295 406.647 L
416.852 406.647 L
422.409 406.646 L
427.966 406.645 L
433.523 406.644 L
439.081 406.643 L
444.638 406.643 L
450.195 406.642 L
455.752 406.641 L
461.309 406.64 L
466.866 406.639 L
472.423 406.638 L
477.98 406.638 L
483.537 406.637 L
489.094 406.636 L
494.651 406.635 L
500.208 406.634 L
505.765 406.633 L
511.322 406.633 L
516.879 406.632 L
522.436 406.631 L
527.993 406.63 L
533.55 406.629 L
539.107 406.628 L
544.664 406.628 L
550.221 406.627 L
555.779 406.626 L
561.336 406.625 L
566.893 406.624 L
572.45 406.624 L
578.007 406.623 L
583.564 406.622 L
589.121 406.621 L
594.678 406.62 L
600.235 406.619 L
605.792 406.619 L
611.349 406.618 L
616.906 406.617 L
622.463 406.616 L
628.02 406.615 L
633.577 406.614 L
639.134 406.614 L
644.691 406.613 L
650.248 406.612 L
655.805 406.611 L
661.362 406.61 L
666.919 406.609 L
672.477 406.609 L
678.034 406.608 L
683.591 406.607 L
689.148 406.606 L
694.705 406.605 L
700.262 406.604 L
705.819 406.604 L
711.376 406.603 L
716.933 406.602 L
722.49 406.601 L
728.047 406.6 L
733.604 406.6 L
739.161 406.599 L
744.718 406.598 L
750.275 406.597 L
755.832 406.596 L
761.389 406.595 L
766.946 406.595 L
772.503 406.594 L
778.06 406.593 L
783.617 406.592 L
789.174 406.591 L
794.732 406.59 L
800.289 406.59 L
805.846 406.589 L
811.403 406.588 L
816.96 406.587 L
822.517 406.586 L
828.074 406.585 L
833.631 406.585 L
839.188 406.584 L
844.745 406.583 L
850.302 406.582 L
855.859 406.581 L
861.416 406.581 L
866.973 406.58 L
872.53 406.579 L
878.087 406.578 L
883.644 406.577 L
889.201 406.576 L
894.758 406.576 L
900.315 406.575 L
905.872 406.574 L
911.43 406.573 L
916.987 406.572 L
922.544 406.571 L
928.101 406.571 L
933.658 406.57 L
939.215 406.569 L
944.772 406.568 L
950.329 406.567 L
955.886 406.566 L
961.443 406.566 L
967 406.565 L
S
GR
GS
[0.75 0 0 0.75 0 0] CT
0.494 0.184 0.557 RC
1 LJ
4 LW
N
139 409.04 M
144.557 409.035 L
150.114 409.029 L
155.671 409.023 L
161.228 409.017 L
166.785 409.012 L
172.342 409.006 L
177.899 409 L
183.456 408.994 L
189.013 408.989 L
194.57 408.983 L
200.128 408.977 L
205.685 408.971 L
211.242 408.966 L
216.799 408.96 L
222.356 408.954 L
227.913 408.948 L
233.47 408.942 L
239.027 408.937 L
244.584 408.931 L
250.141 408.925 L
255.698 408.919 L
261.255 408.914 L
266.812 408.908 L
272.369 408.902 L
277.926 408.896 L
283.483 408.891 L
289.04 408.885 L
294.597 408.879 L
300.154 408.873 L
305.711 408.868 L
311.268 408.862 L
316.826 408.856 L
322.383 408.85 L
327.94 408.845 L
333.497 408.839 L
339.054 408.833 L
344.611 408.827 L
350.168 408.821 L
355.725 408.816 L
361.282 408.81 L
366.839 408.804 L
372.396 408.798 L
377.953 408.793 L
383.51 408.787 L
389.067 408.781 L
394.624 408.775 L
400.181 408.77 L
405.738 408.764 L
411.295 408.758 L
416.852 408.752 L
422.409 408.747 L
427.966 408.741 L
433.523 408.735 L
439.081 408.729 L
444.638 408.724 L
450.195 408.718 L
455.752 408.712 L
461.309 408.706 L
466.866 408.7 L
472.423 408.695 L
477.98 408.689 L
483.537 408.683 L
489.094 408.677 L
494.651 408.672 L
500.208 408.666 L
505.765 408.66 L
511.322 408.654 L
516.879 408.649 L
522.436 408.643 L
527.993 408.637 L
533.55 408.631 L
539.107 408.626 L
544.664 408.62 L
550.221 408.614 L
555.779 408.608 L
561.336 408.603 L
566.893 408.597 L
572.45 408.591 L
578.007 408.585 L
583.564 408.58 L
589.121 408.574 L
594.678 408.568 L
600.235 408.562 L
605.792 408.556 L
611.349 408.551 L
616.906 408.545 L
622.463 408.539 L
628.02 408.533 L
633.577 408.528 L
639.134 408.522 L
644.691 408.516 L
650.248 408.51 L
655.805 408.505 L
661.362 408.499 L
666.919 408.493 L
672.477 408.487 L
678.034 408.482 L
683.591 408.476 L
689.148 408.47 L
694.705 408.464 L
700.262 408.459 L
705.819 408.453 L
711.376 408.447 L
716.933 408.441 L
722.49 408.436 L
728.047 408.43 L
733.604 408.424 L
739.161 408.418 L
744.718 408.413 L
750.275 408.407 L
755.832 408.401 L
761.389 408.395 L
766.946 408.39 L
772.503 408.384 L
778.06 408.378 L
783.617 408.372 L
789.174 408.367 L
794.732 408.361 L
800.289 408.355 L
805.846 408.349 L
811.403 408.344 L
816.96 408.338 L
822.517 408.332 L
828.074 408.326 L
833.631 408.32 L
839.188 408.315 L
844.745 408.309 L
850.302 408.303 L
855.859 408.297 L
861.416 408.292 L
866.973 408.286 L
872.53 408.28 L
878.087 408.274 L
883.644 408.269 L
889.201 408.263 L
894.758 408.257 L
900.315 408.251 L
905.872 408.246 L
911.43 408.24 L
916.987 408.234 L
922.544 408.228 L
928.101 408.223 L
933.658 408.217 L
939.215 408.211 L
944.772 408.205 L
950.329 408.2 L
955.886 408.194 L
961.443 408.188 L
967 408.182 L
S
GR
GS
[0.75 0 0 0.75 0 0] CT
0.467 0.675 0.188 RC
1 LJ
4 LW
N
139 406.694 M
144.557 406.696 L
150.114 406.697 L
155.671 406.699 L
161.228 406.7 L
166.785 406.702 L
172.342 406.703 L
177.899 406.704 L
183.456 406.706 L
189.013 406.707 L
194.57 406.709 L
200.128 406.71 L
205.685 406.712 L
211.242 406.713 L
216.799 406.714 L
222.356 406.716 L
227.913 406.717 L
233.47 406.719 L
239.027 406.72 L
244.584 406.722 L
250.141 406.723 L
255.698 406.724 L
261.255 406.726 L
266.812 406.727 L
272.369 406.729 L
277.926 406.73 L
283.483 406.732 L
289.04 406.733 L
294.597 406.734 L
300.154 406.736 L
305.711 406.737 L
311.268 406.739 L
316.826 406.74 L
322.383 406.742 L
327.94 406.743 L
333.497 406.744 L
339.054 406.746 L
344.611 406.747 L
350.168 406.749 L
355.725 406.75 L
361.282 406.752 L
366.839 406.753 L
372.396 406.754 L
377.953 406.756 L
383.51 406.757 L
389.067 406.759 L
394.624 406.76 L
400.181 406.762 L
405.738 406.763 L
411.295 406.764 L
416.852 406.766 L
422.409 406.767 L
427.966 406.769 L
433.523 406.77 L
439.081 406.772 L
444.638 406.773 L
450.195 406.774 L
455.752 406.776 L
461.309 406.777 L
466.866 406.779 L
472.423 406.78 L
477.98 406.782 L
483.537 406.783 L
489.094 406.784 L
494.651 406.786 L
500.208 406.787 L
505.765 406.789 L
511.322 406.79 L
516.879 406.792 L
522.436 406.793 L
527.993 406.794 L
533.55 406.796 L
539.107 406.797 L
544.664 406.799 L
550.221 406.8 L
555.779 406.802 L
561.336 406.803 L
566.893 406.804 L
572.45 406.806 L
578.007 406.807 L
583.564 406.809 L
589.121 406.81 L
594.678 406.812 L
600.235 406.813 L
605.792 406.814 L
611.349 406.816 L
616.906 406.817 L
622.463 406.819 L
628.02 406.82 L
633.577 406.822 L
639.134 406.823 L
644.691 406.824 L
650.248 406.826 L
655.805 406.827 L
661.362 406.829 L
666.919 406.83 L
672.477 406.832 L
678.034 406.833 L
683.591 406.834 L
689.148 406.836 L
694.705 406.837 L
700.262 406.839 L
705.819 406.84 L
711.376 406.842 L
716.933 406.843 L
722.49 406.844 L
728.047 406.846 L
733.604 406.847 L
739.161 406.849 L
744.718 406.85 L
750.275 406.852 L
755.832 406.853 L
761.389 406.854 L
766.946 406.856 L
772.503 406.857 L
778.06 406.859 L
783.617 406.86 L
789.174 406.862 L
794.732 406.863 L
800.289 406.864 L
805.846 406.866 L
811.403 406.867 L
816.96 406.869 L
822.517 406.87 L
828.074 406.872 L
833.631 406.873 L
839.188 406.874 L
844.745 406.876 L
850.302 406.877 L
855.859 406.879 L
861.416 406.88 L
866.973 406.882 L
872.53 406.883 L
878.087 406.884 L
883.644 406.886 L
889.201 406.887 L
894.758 406.889 L
900.315 406.89 L
905.872 406.892 L
911.43 406.893 L
916.987 406.894 L
922.544 406.896 L
928.101 406.897 L
933.658 406.899 L
939.215 406.9 L
944.772 406.902 L
950.329 406.903 L
955.886 406.904 L
961.443 406.906 L
967 406.907 L
S
GR
GS
[0.75 0 0 0.75 104.25 106.01479] CT
1 0 0 RC
10.0 ML
0.667 LW
N
0 -4 M
0 4 L
-4 0 M
4 0 L
-2.828 -2.828 M
2.828 2.828 L
-2.828 2.828 M
2.828 -2.828 L
S
GR
GS
[0.75 0 0 0.75 108.41779 123.93458] CT
1 0 0 RC
10.0 ML
0.667 LW
N
0 -4 M
0 4 L
-4 0 M
4 0 L
-2.828 -2.828 M
2.828 2.828 L
-2.828 2.828 M
2.828 -2.828 L
S
GR
GS
[0.75 0 0 0.75 112.58557 142.79656] CT
1 0 0 RC
10.0 ML
0.667 LW
N
0 -4 M
0 4 L
-4 0 M
4 0 L
-2.828 -2.828 M
2.828 2.828 L
-2.828 2.828 M
2.828 -2.828 L
S
GR
GS
[0.75 0 0 0.75 116.75337 73.87356] CT
1 0 0 RC
10.0 ML
0.667 LW
N
0 -4 M
0 4 L
-4 0 M
4 0 L
-2.828 -2.828 M
2.828 2.828 L
-2.828 2.828 M
2.828 -2.828 L
S
GR
GS
[0.75 0 0 0.75 120.92113 121.22665] CT
1 0 0 RC
10.0 ML
0.667 LW
N
0 -4 M
0 4 L
-4 0 M
4 0 L
-2.828 -2.828 M
2.828 2.828 L
-2.828 2.828 M
2.828 -2.828 L
S
GR
GS
[0.75 0 0 0.75 125.08894 151.044] CT
1 0 0 RC
10.0 ML
0.667 LW
N
0 -4 M
0 4 L
-4 0 M
4 0 L
-2.828 -2.828 M
2.828 2.828 L
-2.828 2.828 M
2.828 -2.828 L
S
GR
GS
[0.75 0 0 0.75 129.2567 144.2639] CT
1 0 0 RC
10.0 ML
0.667 LW
N
0 -4 M
0 4 L
-4 0 M
4 0 L
-2.828 -2.828 M
2.828 2.828 L
-2.828 2.828 M
2.828 -2.828 L
S
GR
GS
[0.75 0 0 0.75 133.4245 158.22815] CT
1 0 0 RC
10.0 ML
0.667 LW
N
0 -4 M
0 4 L
-4 0 M
4 0 L
-2.828 -2.828 M
2.828 2.828 L
-2.828 2.828 M
2.828 -2.828 L
S
GR
GS
[0.75 0 0 0.75 137.59228 163.76736] CT
1 0 0 RC
10.0 ML
0.667 LW
N
0 -4 M
0 4 L
-4 0 M
4 0 L
-2.828 -2.828 M
2.828 2.828 L
-2.828 2.828 M
2.828 -2.828 L
S
GR
GS
[0.75 0 0 0.75 141.76007 163.66465] CT
1 0 0 RC
10.0 ML
0.667 LW
N
0 -4 M
0 4 L
-4 0 M
4 0 L
-2.828 -2.828 M
2.828 2.828 L
-2.828 2.828 M
2.828 -2.828 L
S
GR
GS
[0.75 0 0 0.75 145.92785 209.96846] CT
1 0 0 RC
10.0 ML
0.667 LW
N
0 -4 M
0 4 L
-4 0 M
4 0 L
-2.828 -2.828 M
2.828 2.828 L
-2.828 2.828 M
2.828 -2.828 L
S
GR
GS
[0.75 0 0 0.75 150.09564 227.67135] CT
1 0 0 RC
10.0 ML
0.667 LW
N
0 -4 M
0 4 L
-4 0 M
4 0 L
-2.828 -2.828 M
2.828 2.828 L
-2.828 2.828 M
2.828 -2.828 L
S
GR
GS
[0.75 0 0 0.75 154.26342 200.09232] CT
1 0 0 RC
10.0 ML
0.667 LW
N
0 -4 M
0 4 L
-4 0 M
4 0 L
-2.828 -2.828 M
2.828 2.828 L
-2.828 2.828 M
2.828 -2.828 L
S
GR
GS
[0.75 0 0 0.75 158.43121 160.66637] CT
1 0 0 RC
10.0 ML
0.667 LW
N
0 -4 M
0 4 L
-4 0 M
4 0 L
-2.828 -2.828 M
2.828 2.828 L
-2.828 2.828 M
2.828 -2.828 L
S
GR
GS
[0.75 0 0 0.75 162.59898 248.33521] CT
1 0 0 RC
10.0 ML
0.667 LW
N
0 -4 M
0 4 L
-4 0 M
4 0 L
-2.828 -2.828 M
2.828 2.828 L
-2.828 2.828 M
2.828 -2.828 L
S
GR
GS
[0.75 0 0 0.75 166.76678 285.86554] CT
1 0 0 RC
10.0 ML
0.667 LW
N
0 -4 M
0 4 L
-4 0 M
4 0 L
-2.828 -2.828 M
2.828 2.828 L
-2.828 2.828 M
2.828 -2.828 L
S
GR
GS
[0.75 0 0 0.75 170.93455 273.3634] CT
1 0 0 RC
10.0 ML
0.667 LW
N
0 -4 M
0 4 L
-4 0 M
4 0 L
-2.828 -2.828 M
2.828 2.828 L
-2.828 2.828 M
2.828 -2.828 L
S
GR
GS
[0.75 0 0 0.75 175.10235 295.84602] CT
1 0 0 RC
10.0 ML
0.667 LW
N
0 -4 M
0 4 L
-4 0 M
4 0 L
-2.828 -2.828 M
2.828 2.828 L
-2.828 2.828 M
2.828 -2.828 L
S
GR
GS
[0.75 0 0 0.75 179.27014 304.80114] CT
1 0 0 RC
10.0 ML
0.667 LW
N
0 -4 M
0 4 L
-4 0 M
4 0 L
-2.828 -2.828 M
2.828 2.828 L
-2.828 2.828 M
2.828 -2.828 L
S
GR
GS
[0.75 0 0 0.75 183.43792 291.81718] CT
1 0 0 RC
10.0 ML
0.667 LW
N
0 -4 M
0 4 L
-4 0 M
4 0 L
-2.828 -2.828 M
2.828 2.828 L
-2.828 2.828 M
2.828 -2.828 L
S
GR
GS
[0.75 0 0 0.75 187.60571 326.75045] CT
1 0 0 RC
10.0 ML
0.667 LW
N
0 -4 M
0 4 L
-4 0 M
4 0 L
-2.828 -2.828 M
2.828 2.828 L
-2.828 2.828 M
2.828 -2.828 L
S
GR
GS
[0.75 0 0 0.75 191.77349 356.73672] CT
1 0 0 RC
10.0 ML
0.667 LW
N
0 -4 M
0 4 L
-4 0 M
4 0 L
-2.828 -2.828 M
2.828 2.828 L
-2.828 2.828 M
2.828 -2.828 L
S
GR
GS
[0.75 0 0 0.75 195.94128 365.54366] CT
1 0 0 RC
10.0 ML
0.667 LW
N
0 -4 M
0 4 L
-4 0 M
4 0 L
-2.828 -2.828 M
2.828 2.828 L
-2.828 2.828 M
2.828 -2.828 L
S
GR
GS
[0.75 0 0 0.75 200.10905 409.06009] CT
1 0 0 RC
10.0 ML
0.667 LW
N
0 -4 M
0 4 L
-4 0 M
4 0 L
-2.828 -2.828 M
2.828 2.828 L
-2.828 2.828 M
2.828 -2.828 L
S
GR
GS
[0.75 0 0 0.75 204.27686 406.45267] CT
1 0 0 RC
10.0 ML
0.667 LW
N
0 -4 M
0 4 L
-4 0 M
4 0 L
-2.828 -2.828 M
2.828 2.828 L
-2.828 2.828 M
2.828 -2.828 L
S
GR
GS
[0.75 0 0 0.75 208.44463 437.92667] CT
1 0 0 RC
10.0 ML
0.667 LW
N
0 -4 M
0 4 L
-4 0 M
4 0 L
-2.828 -2.828 M
2.828 2.828 L
-2.828 2.828 M
2.828 -2.828 L
S
GR
GS
[0.75 0 0 0.75 212.61241 419.39154] CT
1 0 0 RC
10.0 ML
0.667 LW
N
0 -4 M
0 4 L
-4 0 M
4 0 L
-2.828 -2.828 M
2.828 2.828 L
-2.828 2.828 M
2.828 -2.828 L
S
GR
GS
[0.75 0 0 0.75 216.78019 450.07288] CT
1 0 0 RC
10.0 ML
0.667 LW
N
0 -4 M
0 4 L
-4 0 M
4 0 L
-2.828 -2.828 M
2.828 2.828 L
-2.828 2.828 M
2.828 -2.828 L
S
GR
GS
[0.75 0 0 0.75 220.94799 447.72157] CT
1 0 0 RC
10.0 ML
0.667 LW
N
0 -4 M
0 4 L
-4 0 M
4 0 L
-2.828 -2.828 M
2.828 2.828 L
-2.828 2.828 M
2.828 -2.828 L
S
GR
GS
[0.75 0 0 0.75 225.11577 443.57144] CT
1 0 0 RC
10.0 ML
0.667 LW
N
0 -4 M
0 4 L
-4 0 M
4 0 L
-2.828 -2.828 M
2.828 2.828 L
-2.828 2.828 M
2.828 -2.828 L
S
GR
GS
[0.75 0 0 0.75 229.28357 482.90341] CT
1 0 0 RC
10.0 ML
0.667 LW
N
0 -4 M
0 4 L
-4 0 M
4 0 L
-2.828 -2.828 M
2.828 2.828 L
-2.828 2.828 M
2.828 -2.828 L
S
GR
GS
[0.75 0 0 0.75 233.45132 450.42508] CT
1 0 0 RC
10.0 ML
0.667 LW
N
0 -4 M
0 4 L
-4 0 M
4 0 L
-2.828 -2.828 M
2.828 2.828 L
-2.828 2.828 M
2.828 -2.828 L
S
GR
GS
[0.75 0 0 0.75 237.61913 444.86755] CT
1 0 0 RC
10.0 ML
0.667 LW
N
0 -4 M
0 4 L
-4 0 M
4 0 L
-2.828 -2.828 M
2.828 2.828 L
-2.828 2.828 M
2.828 -2.828 L
S
GR
GS
[0.75 0 0 0.75 241.7869 494.85301] CT
1 0 0 RC
10.0 ML
0.667 LW
N
0 -4 M
0 4 L
-4 0 M
4 0 L
-2.828 -2.828 M
2.828 2.828 L
-2.828 2.828 M
2.828 -2.828 L
S
GR
GS
[0.75 0 0 0.75 245.9547 428.59044] CT
1 0 0 RC
10.0 ML
0.667 LW
N
0 -4 M
0 4 L
-4 0 M
4 0 L
-2.828 -2.828 M
2.828 2.828 L
-2.828 2.828 M
2.828 -2.828 L
S
GR
GS
[0.75 0 0 0.75 250.12248 523.82579] CT
1 0 0 RC
10.0 ML
0.667 LW
N
0 -4 M
0 4 L
-4 0 M
4 0 L
-2.828 -2.828 M
2.828 2.828 L
-2.828 2.828 M
2.828 -2.828 L
S
GR
GS
[0.75 0 0 0.75 254.29026 485.27042] CT
1 0 0 RC
10.0 ML
0.667 LW
N
0 -4 M
0 4 L
-4 0 M
4 0 L
-2.828 -2.828 M
2.828 2.828 L
-2.828 2.828 M
2.828 -2.828 L
S
GR
GS
[0.75 0 0 0.75 258.45806 523.39073] CT
1 0 0 RC
10.0 ML
0.667 LW
N
0 -4 M
0 4 L
-4 0 M
4 0 L
-2.828 -2.828 M
2.828 2.828 L
-2.828 2.828 M
2.828 -2.828 L
S
GR
GS
[0.75 0 0 0.75 262.62584 484.2691] CT
1 0 0 RC
10.0 ML
0.667 LW
N
0 -4 M
0 4 L
-4 0 M
4 0 L
-2.828 -2.828 M
2.828 2.828 L
-2.828 2.828 M
2.828 -2.828 L
S
GR
GS
[0.75 0 0 0.75 266.79362 516.10341] CT
1 0 0 RC
10.0 ML
0.667 LW
N
0 -4 M
0 4 L
-4 0 M
4 0 L
-2.828 -2.828 M
2.828 2.828 L
-2.828 2.828 M
2.828 -2.828 L
S
GR
GS
[0.75 0 0 0.75 270.9614 487.8896] CT
1 0 0 RC
10.0 ML
0.667 LW
N
0 -4 M
0 4 L
-4 0 M
4 0 L
-2.828 -2.828 M
2.828 2.828 L
-2.828 2.828 M
2.828 -2.828 L
S
GR
GS
[0.75 0 0 0.75 275.1292 489.65218] CT
1 0 0 RC
10.0 ML
0.667 LW
N
0 -4 M
0 4 L
-4 0 M
4 0 L
-2.828 -2.828 M
2.828 2.828 L
-2.828 2.828 M
2.828 -2.828 L
S
GR
GS
[0.75 0 0 0.75 279.29697 499.74477] CT
1 0 0 RC
10.0 ML
0.667 LW
N
0 -4 M
0 4 L
-4 0 M
4 0 L
-2.828 -2.828 M
2.828 2.828 L
-2.828 2.828 M
2.828 -2.828 L
S
GR
GS
[0.75 0 0 0.75 283.46478 523.55383] CT
1 0 0 RC
10.0 ML
0.667 LW
N
0 -4 M
0 4 L
-4 0 M
4 0 L
-2.828 -2.828 M
2.828 2.828 L
-2.828 2.828 M
2.828 -2.828 L
S
GR
GS
[0.75 0 0 0.75 287.63255 426.78429] CT
1 0 0 RC
10.0 ML
0.667 LW
N
0 -4 M
0 4 L
-4 0 M
4 0 L
-2.828 -2.828 M
2.828 2.828 L
-2.828 2.828 M
2.828 -2.828 L
S
GR
GS
[0.75 0 0 0.75 291.80033 369.67955] CT
1 0 0 RC
10.0 ML
0.667 LW
N
0 -4 M
0 4 L
-4 0 M
4 0 L
-2.828 -2.828 M
2.828 2.828 L
-2.828 2.828 M
2.828 -2.828 L
S
GR
GS
[0.75 0 0 0.75 295.96813 352.87912] CT
1 0 0 RC
10.0 ML
0.667 LW
N
0 -4 M
0 4 L
-4 0 M
4 0 L
-2.828 -2.828 M
2.828 2.828 L
-2.828 2.828 M
2.828 -2.828 L
S
GR
GS
[0.75 0 0 0.75 300.13591 435.24568] CT
1 0 0 RC
10.0 ML
0.667 LW
N
0 -4 M
0 4 L
-4 0 M
4 0 L
-2.828 -2.828 M
2.828 2.828 L
-2.828 2.828 M
2.828 -2.828 L
S
GR
GS
[0.75 0 0 0.75 304.30369 409.13342] CT
1 0 0 RC
10.0 ML
0.667 LW
N
0 -4 M
0 4 L
-4 0 M
4 0 L
-2.828 -2.828 M
2.828 2.828 L
-2.828 2.828 M
2.828 -2.828 L
S
GR
GS
[0.75 0 0 0.75 308.47147 411.7597] CT
1 0 0 RC
10.0 ML
0.667 LW
N
0 -4 M
0 4 L
-4 0 M
4 0 L
-2.828 -2.828 M
2.828 2.828 L
-2.828 2.828 M
2.828 -2.828 L
S
GR
GS
[0.75 0 0 0.75 312.63927 380.98595] CT
1 0 0 RC
10.0 ML
0.667 LW
N
0 -4 M
0 4 L
-4 0 M
4 0 L
-2.828 -2.828 M
2.828 2.828 L
-2.828 2.828 M
2.828 -2.828 L
S
GR
GS
[0.75 0 0 0.75 316.80704 401.95157] CT
1 0 0 RC
10.0 ML
0.667 LW
N
0 -4 M
0 4 L
-4 0 M
4 0 L
-2.828 -2.828 M
2.828 2.828 L
-2.828 2.828 M
2.828 -2.828 L
S
GR
GS
[0.75 0 0 0.75 320.97482 422.63708] CT
1 0 0 RC
10.0 ML
0.667 LW
N
0 -4 M
0 4 L
-4 0 M
4 0 L
-2.828 -2.828 M
2.828 2.828 L
-2.828 2.828 M
2.828 -2.828 L
S
GR
GS
[0.75 0 0 0.75 325.14262 344.74342] CT
1 0 0 RC
10.0 ML
0.667 LW
N
0 -4 M
0 4 L
-4 0 M
4 0 L
-2.828 -2.828 M
2.828 2.828 L
-2.828 2.828 M
2.828 -2.828 L
S
GR
GS
[0.75 0 0 0.75 329.3104 371.15076] CT
1 0 0 RC
10.0 ML
0.667 LW
N
0 -4 M
0 4 L
-4 0 M
4 0 L
-2.828 -2.828 M
2.828 2.828 L
-2.828 2.828 M
2.828 -2.828 L
S
GR
GS
[0.75 0 0 0.75 333.47818 379.95522] CT
1 0 0 RC
10.0 ML
0.667 LW
N
0 -4 M
0 4 L
-4 0 M
4 0 L
-2.828 -2.828 M
2.828 2.828 L
-2.828 2.828 M
2.828 -2.828 L
S
GR
GS
[0.75 0 0 0.75 337.64598 219.98705] CT
1 0 0 RC
10.0 ML
0.667 LW
N
0 -4 M
0 4 L
-4 0 M
4 0 L
-2.828 -2.828 M
2.828 2.828 L
-2.828 2.828 M
2.828 -2.828 L
S
GR
GS
[0.75 0 0 0.75 341.81376 294.44128] CT
1 0 0 RC
10.0 ML
0.667 LW
N
0 -4 M
0 4 L
-4 0 M
4 0 L
-2.828 -2.828 M
2.828 2.828 L
-2.828 2.828 M
2.828 -2.828 L
S
GR
GS
[0.75 0 0 0.75 345.98154 258.524] CT
1 0 0 RC
10.0 ML
0.667 LW
N
0 -4 M
0 4 L
-4 0 M
4 0 L
-2.828 -2.828 M
2.828 2.828 L
-2.828 2.828 M
2.828 -2.828 L
S
GR
GS
[0.75 0 0 0.75 350.14934 217.66862] CT
1 0 0 RC
10.0 ML
0.667 LW
N
0 -4 M
0 4 L
-4 0 M
4 0 L
-2.828 -2.828 M
2.828 2.828 L
-2.828 2.828 M
2.828 -2.828 L
S
GR
GS
[0.75 0 0 0.75 354.31712 301.94955] CT
1 0 0 RC
10.0 ML
0.667 LW
N
0 -4 M
0 4 L
-4 0 M
4 0 L
-2.828 -2.828 M
2.828 2.828 L
-2.828 2.828 M
2.828 -2.828 L
S
GR
GS
[0.75 0 0 0.75 358.48489 217.23972] CT
1 0 0 RC
10.0 ML
0.667 LW
N
0 -4 M
0 4 L
-4 0 M
4 0 L
-2.828 -2.828 M
2.828 2.828 L
-2.828 2.828 M
2.828 -2.828 L
S
GR
GS
[0.75 0 0 0.75 362.65267 201.45392] CT
1 0 0 RC
10.0 ML
0.667 LW
N
0 -4 M
0 4 L
-4 0 M
4 0 L
-2.828 -2.828 M
2.828 2.828 L
-2.828 2.828 M
2.828 -2.828 L
S
GR
GS
[0.75 0 0 0.75 366.82047 203.53864] CT
1 0 0 RC
10.0 ML
0.667 LW
N
0 -4 M
0 4 L
-4 0 M
4 0 L
-2.828 -2.828 M
2.828 2.828 L
-2.828 2.828 M
2.828 -2.828 L
S
GR
GS
[0.75 0 0 0.75 370.98825 189.50687] CT
1 0 0 RC
10.0 ML
0.667 LW
N
0 -4 M
0 4 L
-4 0 M
4 0 L
-2.828 -2.828 M
2.828 2.828 L
-2.828 2.828 M
2.828 -2.828 L
S
GR
GS
[0.75 0 0 0.75 375.15605 202.13519] CT
1 0 0 RC
10.0 ML
0.667 LW
N
0 -4 M
0 4 L
-4 0 M
4 0 L
-2.828 -2.828 M
2.828 2.828 L
-2.828 2.828 M
2.828 -2.828 L
S
GR
GS
[0.75 0 0 0.75 379.32383 149.6595] CT
1 0 0 RC
10.0 ML
0.667 LW
N
0 -4 M
0 4 L
-4 0 M
4 0 L
-2.828 -2.828 M
2.828 2.828 L
-2.828 2.828 M
2.828 -2.828 L
S
GR
GS
[0.75 0 0 0.75 383.49161 194.25357] CT
1 0 0 RC
10.0 ML
0.667 LW
N
0 -4 M
0 4 L
-4 0 M
4 0 L
-2.828 -2.828 M
2.828 2.828 L
-2.828 2.828 M
2.828 -2.828 L
S
GR
GS
[0.75 0 0 0.75 387.65941 184.4394] CT
1 0 0 RC
10.0 ML
0.667 LW
N
0 -4 M
0 4 L
-4 0 M
4 0 L
-2.828 -2.828 M
2.828 2.828 L
-2.828 2.828 M
2.828 -2.828 L
S
GR
GS
[0.75 0 0 0.75 391.82716 125.66715] CT
1 0 0 RC
10.0 ML
0.667 LW
N
0 -4 M
0 4 L
-4 0 M
4 0 L
-2.828 -2.828 M
2.828 2.828 L
-2.828 2.828 M
2.828 -2.828 L
S
GR
GS
[0.75 0 0 0.75 395.99496 87.0628] CT
1 0 0 RC
10.0 ML
0.667 LW
N
0 -4 M
0 4 L
-4 0 M
4 0 L
-2.828 -2.828 M
2.828 2.828 L
-2.828 2.828 M
2.828 -2.828 L
S
GR
GS
[0.75 0 0 0.75 400.16277 152.89523] CT
1 0 0 RC
10.0 ML
0.667 LW
N
0 -4 M
0 4 L
-4 0 M
4 0 L
-2.828 -2.828 M
2.828 2.828 L
-2.828 2.828 M
2.828 -2.828 L
S
GR
GS
[0.75 0 0 0.75 404.33052 153.34321] CT
1 0 0 RC
10.0 ML
0.667 LW
N
0 -4 M
0 4 L
-4 0 M
4 0 L
-2.828 -2.828 M
2.828 2.828 L
-2.828 2.828 M
2.828 -2.828 L
S
GR
GS
[0.75 0 0 0.75 408.49832 119.84062] CT
1 0 0 RC
10.0 ML
0.667 LW
N
0 -4 M
0 4 L
-4 0 M
4 0 L
-2.828 -2.828 M
2.828 2.828 L
-2.828 2.828 M
2.828 -2.828 L
S
GR
GS
[0.75 0 0 0.75 412.66612 96.01262] CT
1 0 0 RC
10.0 ML
0.667 LW
N
0 -4 M
0 4 L
-4 0 M
4 0 L
-2.828 -2.828 M
2.828 2.828 L
-2.828 2.828 M
2.828 -2.828 L
S
GR
GS
[0.75 0 0 0.75 416.83388 99.56654] CT
1 0 0 RC
10.0 ML
0.667 LW
N
0 -4 M
0 4 L
-4 0 M
4 0 L
-2.828 -2.828 M
2.828 2.828 L
-2.828 2.828 M
2.828 -2.828 L
S
GR
GS
[0.75 0 0 0.75 421.00168 124.53707] CT
1 0 0 RC
10.0 ML
0.667 LW
N
0 -4 M
0 4 L
-4 0 M
4 0 L
-2.828 -2.828 M
2.828 2.828 L
-2.828 2.828 M
2.828 -2.828 L
S
GR
GS
[0.75 0 0 0.75 425.16948 157.74684] CT
1 0 0 RC
10.0 ML
0.667 LW
N
0 -4 M
0 4 L
-4 0 M
4 0 L
-2.828 -2.828 M
2.828 2.828 L
-2.828 2.828 M
2.828 -2.828 L
S
GR
GS
[0.75 0 0 0.75 429.33723 118.29508] CT
1 0 0 RC
10.0 ML
0.667 LW
N
0 -4 M
0 4 L
-4 0 M
4 0 L
-2.828 -2.828 M
2.828 2.828 L
-2.828 2.828 M
2.828 -2.828 L
S
GR
GS
[0.75 0 0 0.75 433.50504 147.18755] CT
1 0 0 RC
10.0 ML
0.667 LW
N
0 -4 M
0 4 L
-4 0 M
4 0 L
-2.828 -2.828 M
2.828 2.828 L
-2.828 2.828 M
2.828 -2.828 L
S
GR
GS
[0.75 0 0 0.75 437.67284 103.47978] CT
1 0 0 RC
10.0 ML
0.667 LW
N
0 -4 M
0 4 L
-4 0 M
4 0 L
-2.828 -2.828 M
2.828 2.828 L
-2.828 2.828 M
2.828 -2.828 L
S
GR
GS
[0.75 0 0 0.75 441.84059 205.27217] CT
1 0 0 RC
10.0 ML
0.667 LW
N
0 -4 M
0 4 L
-4 0 M
4 0 L
-2.828 -2.828 M
2.828 2.828 L
-2.828 2.828 M
2.828 -2.828 L
S
GR
GS
[0.75 0 0 0.75 446.00839 160.50412] CT
1 0 0 RC
10.0 ML
0.667 LW
N
0 -4 M
0 4 L
-4 0 M
4 0 L
-2.828 -2.828 M
2.828 2.828 L
-2.828 2.828 M
2.828 -2.828 L
S
GR
GS
[0.75 0 0 0.75 450.17619 130.36477] CT
1 0 0 RC
10.0 ML
0.667 LW
N
0 -4 M
0 4 L
-4 0 M
4 0 L
-2.828 -2.828 M
2.828 2.828 L
-2.828 2.828 M
2.828 -2.828 L
S
GR
GS
[0.75 0 0 0.75 454.34395 201.01133] CT
1 0 0 RC
10.0 ML
0.667 LW
N
0 -4 M
0 4 L
-4 0 M
4 0 L
-2.828 -2.828 M
2.828 2.828 L
-2.828 2.828 M
2.828 -2.828 L
S
GR
GS
[0.75 0 0 0.75 458.51175 216.15518] CT
1 0 0 RC
10.0 ML
0.667 LW
N
0 -4 M
0 4 L
-4 0 M
4 0 L
-2.828 -2.828 M
2.828 2.828 L
-2.828 2.828 M
2.828 -2.828 L
S
GR
GS
[0.75 0 0 0.75 462.67955 238.15723] CT
1 0 0 RC
10.0 ML
0.667 LW
N
0 -4 M
0 4 L
-4 0 M
4 0 L
-2.828 -2.828 M
2.828 2.828 L
-2.828 2.828 M
2.828 -2.828 L
S
GR
GS
[0.75 0 0 0.75 466.84731 228.02891] CT
1 0 0 RC
10.0 ML
0.667 LW
N
0 -4 M
0 4 L
-4 0 M
4 0 L
-2.828 -2.828 M
2.828 2.828 L
-2.828 2.828 M
2.828 -2.828 L
S
GR
GS
[0.75 0 0 0.75 471.01511 238.1353] CT
1 0 0 RC
10.0 ML
0.667 LW
N
0 -4 M
0 4 L
-4 0 M
4 0 L
-2.828 -2.828 M
2.828 2.828 L
-2.828 2.828 M
2.828 -2.828 L
S
GR
GS
[0.75 0 0 0.75 475.18291 239.92747] CT
1 0 0 RC
10.0 ML
0.667 LW
N
0 -4 M
0 4 L
-4 0 M
4 0 L
-2.828 -2.828 M
2.828 2.828 L
-2.828 2.828 M
2.828 -2.828 L
S
GR
GS
[0.75 0 0 0.75 479.35066 288.35021] CT
1 0 0 RC
10.0 ML
0.667 LW
N
0 -4 M
0 4 L
-4 0 M
4 0 L
-2.828 -2.828 M
2.828 2.828 L
-2.828 2.828 M
2.828 -2.828 L
S
GR
GS
[0.75 0 0 0.75 483.51846 269.46572] CT
1 0 0 RC
10.0 ML
0.667 LW
N
0 -4 M
0 4 L
-4 0 M
4 0 L
-2.828 -2.828 M
2.828 2.828 L
-2.828 2.828 M
2.828 -2.828 L
S
GR
GS
[0.75 0 0 0.75 487.68622 307.0578] CT
1 0 0 RC
10.0 ML
0.667 LW
N
0 -4 M
0 4 L
-4 0 M
4 0 L
-2.828 -2.828 M
2.828 2.828 L
-2.828 2.828 M
2.828 -2.828 L
S
GR
GS
[0.75 0 0 0.75 491.85402 313.38542] CT
1 0 0 RC
10.0 ML
0.667 LW
N
0 -4 M
0 4 L
-4 0 M
4 0 L
-2.828 -2.828 M
2.828 2.828 L
-2.828 2.828 M
2.828 -2.828 L
S
GR
GS
[0.75 0 0 0.75 496.02182 343.71705] CT
1 0 0 RC
10.0 ML
0.667 LW
N
0 -4 M
0 4 L
-4 0 M
4 0 L
-2.828 -2.828 M
2.828 2.828 L
-2.828 2.828 M
2.828 -2.828 L
S
GR
GS
[0.75 0 0 0.75 500.18962 339.05349] CT
1 0 0 RC
10.0 ML
0.667 LW
N
0 -4 M
0 4 L
-4 0 M
4 0 L
-2.828 -2.828 M
2.828 2.828 L
-2.828 2.828 M
2.828 -2.828 L
S
GR
GS
[0.75 0 0 0.75 504.35738 221.94852] CT
1 0 0 RC
10.0 ML
0.667 LW
N
0 -4 M
0 4 L
-4 0 M
4 0 L
-2.828 -2.828 M
2.828 2.828 L
-2.828 2.828 M
2.828 -2.828 L
S
GR
GS
[0.75 0 0 0.75 508.52518 241.25276] CT
1 0 0 RC
10.0 ML
0.667 LW
N
0 -4 M
0 4 L
-4 0 M
4 0 L
-2.828 -2.828 M
2.828 2.828 L
-2.828 2.828 M
2.828 -2.828 L
S
GR
GS
[0.75 0 0 0.75 512.69293 331.6149] CT
1 0 0 RC
10.0 ML
0.667 LW
N
0 -4 M
0 4 L
-4 0 M
4 0 L
-2.828 -2.828 M
2.828 2.828 L
-2.828 2.828 M
2.828 -2.828 L
S
GR
GS
[0.75 0 0 0.75 516.86073 356.76583] CT
1 0 0 RC
10.0 ML
0.667 LW
N
0 -4 M
0 4 L
-4 0 M
4 0 L
-2.828 -2.828 M
2.828 2.828 L
-2.828 2.828 M
2.828 -2.828 L
S
GR
GS
[0.75 0 0 0.75 521.02853 439.42159] CT
1 0 0 RC
10.0 ML
0.667 LW
N
0 -4 M
0 4 L
-4 0 M
4 0 L
-2.828 -2.828 M
2.828 2.828 L
-2.828 2.828 M
2.828 -2.828 L
S
GR
GS
[0.75 0 0 0.75 525.19629 427.47244] CT
1 0 0 RC
10.0 ML
0.667 LW
N
0 -4 M
0 4 L
-4 0 M
4 0 L
-2.828 -2.828 M
2.828 2.828 L
-2.828 2.828 M
2.828 -2.828 L
S
GR
GS
[0.75 0 0 0.75 529.36409 439.57782] CT
1 0 0 RC
10.0 ML
0.667 LW
N
0 -4 M
0 4 L
-4 0 M
4 0 L
-2.828 -2.828 M
2.828 2.828 L
-2.828 2.828 M
2.828 -2.828 L
S
GR
GS
[0.75 0 0 0.75 533.53189 410.35643] CT
1 0 0 RC
10.0 ML
0.667 LW
N
0 -4 M
0 4 L
-4 0 M
4 0 L
-2.828 -2.828 M
2.828 2.828 L
-2.828 2.828 M
2.828 -2.828 L
S
GR
GS
[0.75 0 0 0.75 537.69965 421.33868] CT
1 0 0 RC
10.0 ML
0.667 LW
N
0 -4 M
0 4 L
-4 0 M
4 0 L
-2.828 -2.828 M
2.828 2.828 L
-2.828 2.828 M
2.828 -2.828 L
S
GR
GS
[0.75 0 0 0.75 541.86745 442.33099] CT
1 0 0 RC
10.0 ML
0.667 LW
N
0 -4 M
0 4 L
-4 0 M
4 0 L
-2.828 -2.828 M
2.828 2.828 L
-2.828 2.828 M
2.828 -2.828 L
S
GR
GS
[0.75 0 0 0.75 546.03525 464.83205] CT
1 0 0 RC
10.0 ML
0.667 LW
N
0 -4 M
0 4 L
-4 0 M
4 0 L
-2.828 -2.828 M
2.828 2.828 L
-2.828 2.828 M
2.828 -2.828 L
S
GR
GS
[0.75 0 0 0.75 550.203 490.92059] CT
1 0 0 RC
10.0 ML
0.667 LW
N
0 -4 M
0 4 L
-4 0 M
4 0 L
-2.828 -2.828 M
2.828 2.828 L
-2.828 2.828 M
2.828 -2.828 L
S
GR
GS
[0.75 0 0 0.75 554.3708 464.24986] CT
1 0 0 RC
10.0 ML
0.667 LW
N
0 -4 M
0 4 L
-4 0 M
4 0 L
-2.828 -2.828 M
2.828 2.828 L
-2.828 2.828 M
2.828 -2.828 L
S
GR
GS
[0.75 0 0 0.75 558.5386 429.52844] CT
1 0 0 RC
10.0 ML
0.667 LW
N
0 -4 M
0 4 L
-4 0 M
4 0 L
-2.828 -2.828 M
2.828 2.828 L
-2.828 2.828 M
2.828 -2.828 L
S
GR
GS
[0.75 0 0 0.75 562.70636 456.47241] CT
1 0 0 RC
10.0 ML
0.667 LW
N
0 -4 M
0 4 L
-4 0 M
4 0 L
-2.828 -2.828 M
2.828 2.828 L
-2.828 2.828 M
2.828 -2.828 L
S
GR
GS
[0.75 0 0 0.75 566.87416 466.37036] CT
1 0 0 RC
10.0 ML
0.667 LW
N
0 -4 M
0 4 L
-4 0 M
4 0 L
-2.828 -2.828 M
2.828 2.828 L
-2.828 2.828 M
2.828 -2.828 L
S
GR
GS
[0.75 0 0 0.75 571.04196 450.44998] CT
1 0 0 RC
10.0 ML
0.667 LW
N
0 -4 M
0 4 L
-4 0 M
4 0 L
-2.828 -2.828 M
2.828 2.828 L
-2.828 2.828 M
2.828 -2.828 L
S
GR
GS
[0.75 0 0 0.75 575.20972 452.03622] CT
1 0 0 RC
10.0 ML
0.667 LW
N
0 -4 M
0 4 L
-4 0 M
4 0 L
-2.828 -2.828 M
2.828 2.828 L
-2.828 2.828 M
2.828 -2.828 L
S
GR
GS
[0.75 0 0 0.75 579.37752 524.8591] CT
1 0 0 RC
10.0 ML
0.667 LW
N
0 -4 M
0 4 L
-4 0 M
4 0 L
-2.828 -2.828 M
2.828 2.828 L
-2.828 2.828 M
2.828 -2.828 L
S
GR
GS
[0.75 0 0 0.75 583.54532 465.88023] CT
1 0 0 RC
10.0 ML
0.667 LW
N
0 -4 M
0 4 L
-4 0 M
4 0 L
-2.828 -2.828 M
2.828 2.828 L
-2.828 2.828 M
2.828 -2.828 L
S
GR
GS
[0.75 0 0 0.75 587.71307 476.55894] CT
1 0 0 RC
10.0 ML
0.667 LW
N
0 -4 M
0 4 L
-4 0 M
4 0 L
-2.828 -2.828 M
2.828 2.828 L
-2.828 2.828 M
2.828 -2.828 L
S
GR
GS
[0.75 0 0 0.75 591.88087 525.71581] CT
1 0 0 RC
10.0 ML
0.667 LW
N
0 -4 M
0 4 L
-4 0 M
4 0 L
-2.828 -2.828 M
2.828 2.828 L
-2.828 2.828 M
2.828 -2.828 L
S
GR
GS
[0.75 0 0 0.75 596.04868 495.00298] CT
1 0 0 RC
10.0 ML
0.667 LW
N
0 -4 M
0 4 L
-4 0 M
4 0 L
-2.828 -2.828 M
2.828 2.828 L
-2.828 2.828 M
2.828 -2.828 L
S
GR
GS
[0.75 0 0 0.75 600.21643 452.92053] CT
1 0 0 RC
10.0 ML
0.667 LW
N
0 -4 M
0 4 L
-4 0 M
4 0 L
-2.828 -2.828 M
2.828 2.828 L
-2.828 2.828 M
2.828 -2.828 L
S
GR
GS
[0.75 0 0 0.75 604.38423 405.19418] CT
1 0 0 RC
10.0 ML
0.667 LW
N
0 -4 M
0 4 L
-4 0 M
4 0 L
-2.828 -2.828 M
2.828 2.828 L
-2.828 2.828 M
2.828 -2.828 L
S
GR
GS
[0.75 0 0 0.75 608.55203 431.45023] CT
1 0 0 RC
10.0 ML
0.667 LW
N
0 -4 M
0 4 L
-4 0 M
4 0 L
-2.828 -2.828 M
2.828 2.828 L
-2.828 2.828 M
2.828 -2.828 L
S
GR
GS
[0.75 0 0 0.75 612.71979 404.19562] CT
1 0 0 RC
10.0 ML
0.667 LW
N
0 -4 M
0 4 L
-4 0 M
4 0 L
-2.828 -2.828 M
2.828 2.828 L
-2.828 2.828 M
2.828 -2.828 L
S
GR
GS
[0.75 0 0 0.75 616.88759 432.39844] CT
1 0 0 RC
10.0 ML
0.667 LW
N
0 -4 M
0 4 L
-4 0 M
4 0 L
-2.828 -2.828 M
2.828 2.828 L
-2.828 2.828 M
2.828 -2.828 L
S
GR
GS
[0.75 0 0 0.75 621.05539 463.27016] CT
1 0 0 RC
10.0 ML
0.667 LW
N
0 -4 M
0 4 L
-4 0 M
4 0 L
-2.828 -2.828 M
2.828 2.828 L
-2.828 2.828 M
2.828 -2.828 L
S
GR
GS
[0.75 0 0 0.75 625.22314 373.98811] CT
1 0 0 RC
10.0 ML
0.667 LW
N
0 -4 M
0 4 L
-4 0 M
4 0 L
-2.828 -2.828 M
2.828 2.828 L
-2.828 2.828 M
2.828 -2.828 L
S
GR
GS
[0.75 0 0 0.75 629.39095 396.41565] CT
1 0 0 RC
10.0 ML
0.667 LW
N
0 -4 M
0 4 L
-4 0 M
4 0 L
-2.828 -2.828 M
2.828 2.828 L
-2.828 2.828 M
2.828 -2.828 L
S
GR
GS
[0.75 0 0 0.75 633.5587 310.50671] CT
1 0 0 RC
10.0 ML
0.667 LW
N
0 -4 M
0 4 L
-4 0 M
4 0 L
-2.828 -2.828 M
2.828 2.828 L
-2.828 2.828 M
2.828 -2.828 L
S
GR
GS
[0.75 0 0 0.75 637.7265 277.41898] CT
1 0 0 RC
10.0 ML
0.667 LW
N
0 -4 M
0 4 L
-4 0 M
4 0 L
-2.828 -2.828 M
2.828 2.828 L
-2.828 2.828 M
2.828 -2.828 L
S
GR
GS
[0.75 0 0 0.75 641.8943 334.98003] CT
1 0 0 RC
10.0 ML
0.667 LW
N
0 -4 M
0 4 L
-4 0 M
4 0 L
-2.828 -2.828 M
2.828 2.828 L
-2.828 2.828 M
2.828 -2.828 L
S
GR
GS
[0.75 0 0 0.75 646.0621 267.39155] CT
1 0 0 RC
10.0 ML
0.667 LW
N
0 -4 M
0 4 L
-4 0 M
4 0 L
-2.828 -2.828 M
2.828 2.828 L
-2.828 2.828 M
2.828 -2.828 L
S
GR
GS
[0.75 0 0 0.75 650.22986 261.18333] CT
1 0 0 RC
10.0 ML
0.667 LW
N
0 -4 M
0 4 L
-4 0 M
4 0 L
-2.828 -2.828 M
2.828 2.828 L
-2.828 2.828 M
2.828 -2.828 L
S
GR
GS
[0.75 0 0 0.75 654.39766 327.5476] CT
1 0 0 RC
10.0 ML
0.667 LW
N
0 -4 M
0 4 L
-4 0 M
4 0 L
-2.828 -2.828 M
2.828 2.828 L
-2.828 2.828 M
2.828 -2.828 L
S
GR
GS
[0.75 0 0 0.75 658.56546 266.37671] CT
1 0 0 RC
10.0 ML
0.667 LW
N
0 -4 M
0 4 L
-4 0 M
4 0 L
-2.828 -2.828 M
2.828 2.828 L
-2.828 2.828 M
2.828 -2.828 L
S
GR
GS
[0.75 0 0 0.75 662.73322 242.49124] CT
1 0 0 RC
10.0 ML
0.667 LW
N
0 -4 M
0 4 L
-4 0 M
4 0 L
-2.828 -2.828 M
2.828 2.828 L
-2.828 2.828 M
2.828 -2.828 L
S
GR
GS
[0.75 0 0 0.75 666.90102 220.07996] CT
1 0 0 RC
10.0 ML
0.667 LW
N
0 -4 M
0 4 L
-4 0 M
4 0 L
-2.828 -2.828 M
2.828 2.828 L
-2.828 2.828 M
2.828 -2.828 L
S
GR
GS
[0.75 0 0 0.75 671.06877 201.80914] CT
1 0 0 RC
10.0 ML
0.667 LW
N
0 -4 M
0 4 L
-4 0 M
4 0 L
-2.828 -2.828 M
2.828 2.828 L
-2.828 2.828 M
2.828 -2.828 L
S
GR
GS
[0.75 0 0 0.75 675.23657 189.40925] CT
1 0 0 RC
10.0 ML
0.667 LW
N
0 -4 M
0 4 L
-4 0 M
4 0 L
-2.828 -2.828 M
2.828 2.828 L
-2.828 2.828 M
2.828 -2.828 L
S
GR
GS
[0.75 0 0 0.75 679.40437 177.43319] CT
1 0 0 RC
10.0 ML
0.667 LW
N
0 -4 M
0 4 L
-4 0 M
4 0 L
-2.828 -2.828 M
2.828 2.828 L
-2.828 2.828 M
2.828 -2.828 L
S
GR
GS
[0.75 0 0 0.75 683.57217 200.06202] CT
1 0 0 RC
10.0 ML
0.667 LW
N
0 -4 M
0 4 L
-4 0 M
4 0 L
-2.828 -2.828 M
2.828 2.828 L
-2.828 2.828 M
2.828 -2.828 L
S
GR
GS
[0.75 0 0 0.75 687.73993 166.19618] CT
1 0 0 RC
10.0 ML
0.667 LW
N
0 -4 M
0 4 L
-4 0 M
4 0 L
-2.828 -2.828 M
2.828 2.828 L
-2.828 2.828 M
2.828 -2.828 L
S
GR
GS
[0.75 0 0 0.75 691.90773 246.3894] CT
1 0 0 RC
10.0 ML
0.667 LW
N
0 -4 M
0 4 L
-4 0 M
4 0 L
-2.828 -2.828 M
2.828 2.828 L
-2.828 2.828 M
2.828 -2.828 L
S
GR
GS
[0.75 0 0 0.75 696.07549 200.97441] CT
1 0 0 RC
10.0 ML
0.667 LW
N
0 -4 M
0 4 L
-4 0 M
4 0 L
-2.828 -2.828 M
2.828 2.828 L
-2.828 2.828 M
2.828 -2.828 L
S
GR
GS
[0.75 0 0 0.75 700.24329 112.7844] CT
1 0 0 RC
10.0 ML
0.667 LW
N
0 -4 M
0 4 L
-4 0 M
4 0 L
-2.828 -2.828 M
2.828 2.828 L
-2.828 2.828 M
2.828 -2.828 L
S
GR
GS
[0.75 0 0 0.75 704.41109 169.78733] CT
1 0 0 RC
10.0 ML
0.667 LW
N
0 -4 M
0 4 L
-4 0 M
4 0 L
-2.828 -2.828 M
2.828 2.828 L
-2.828 2.828 M
2.828 -2.828 L
S
GR
GS
[0.75 0 0 0.75 708.57884 130.81786] CT
1 0 0 RC
10.0 ML
0.667 LW
N
0 -4 M
0 4 L
-4 0 M
4 0 L
-2.828 -2.828 M
2.828 2.828 L
-2.828 2.828 M
2.828 -2.828 L
S
GR
GS
[0.75 0 0 0.75 712.74664 86.44365] CT
1 0 0 RC
10.0 ML
0.667 LW
N
0 -4 M
0 4 L
-4 0 M
4 0 L
-2.828 -2.828 M
2.828 2.828 L
-2.828 2.828 M
2.828 -2.828 L
S
GR
GS
[0.75 0 0 0.75 716.91444 165.05856] CT
1 0 0 RC
10.0 ML
0.667 LW
N
0 -4 M
0 4 L
-4 0 M
4 0 L
-2.828 -2.828 M
2.828 2.828 L
-2.828 2.828 M
2.828 -2.828 L
S
GR
GS
[0.75 0 0 0.75 721.0822 165.64376] CT
1 0 0 RC
10.0 ML
0.667 LW
N
0 -4 M
0 4 L
-4 0 M
4 0 L
-2.828 -2.828 M
2.828 2.828 L
-2.828 2.828 M
2.828 -2.828 L
S
GR
GS
[0.75 0 0 0.75 725.25 149.1521] CT
1 0 0 RC
10.0 ML
0.667 LW
N
0 -4 M
0 4 L
-4 0 M
4 0 L
-2.828 -2.828 M
2.828 2.828 L
-2.828 2.828 M
2.828 -2.828 L
S
GR
GS
[0.75 0 0 0.75 0 0] CT
0.302 0.745 0.933 RC
1 LJ
4 LW
N
139 176.5 M
144.557 177.307 L
150.114 179.722 L
155.671 183.727 L
161.228 189.295 L
166.785 196.386 L
172.342 204.948 L
177.899 214.923 L
183.456 226.238 L
189.013 238.813 L
194.57 252.558 L
200.128 267.377 L
205.685 283.163 L
211.242 299.805 L
216.799 317.184 L
222.356 335.176 L
227.913 353.655 L
233.47 372.487 L
239.027 391.54 L
244.584 410.678 L
250.141 429.765 L
255.698 448.665 L
261.255 467.245 L
266.812 485.371 L
272.369 502.915 L
277.926 519.752 L
283.483 535.763 L
289.04 550.834 L
294.597 564.857 L
300.154 577.733 L
305.711 589.371 L
311.268 599.688 L
316.826 608.61 L
322.383 616.073 L
327.94 622.026 L
333.497 626.425 L
339.054 629.24 L
344.611 630.45 L
350.168 630.046 L
355.725 628.032 L
361.282 624.422 L
366.839 619.241 L
372.396 612.527 L
377.953 604.327 L
383.51 594.699 L
389.067 583.713 L
394.624 571.445 L
400.181 557.983 L
405.738 543.423 L
411.295 527.868 L
416.852 511.429 L
422.409 494.223 L
427.966 476.372 L
433.523 458.003 L
439.081 439.247 L
444.638 420.236 L
450.195 401.107 L
455.752 381.994 L
461.309 363.035 L
466.866 344.363 L
472.423 326.111 L
477.98 308.41 L
483.537 291.384 L
489.094 275.156 L
494.651 259.84 L
500.208 245.545 L
505.765 232.373 L
511.322 220.417 L
516.879 209.763 L
522.436 200.487 L
527.993 192.653 L
533.55 186.318 L
539.107 181.527 L
544.664 178.314 L
550.221 176.702 L
555.779 176.702 L
561.336 178.314 L
566.893 181.527 L
572.45 186.318 L
578.007 192.653 L
583.564 200.487 L
589.121 209.763 L
594.678 220.417 L
600.235 232.373 L
605.792 245.545 L
611.349 259.84 L
616.906 275.156 L
622.463 291.384 L
628.02 308.41 L
633.577 326.111 L
639.134 344.363 L
644.691 363.035 L
650.248 381.994 L
655.805 401.107 L
661.362 420.236 L
666.919 439.247 L
672.477 458.003 L
678.034 476.372 L
683.591 494.223 L
689.148 511.429 L
694.705 527.868 L
700.262 543.423 L
705.819 557.983 L
711.376 571.445 L
716.933 583.713 L
722.49 594.699 L
728.047 604.327 L
733.604 612.527 L
739.161 619.241 L
744.718 624.422 L
750.275 628.032 L
755.832 630.046 L
761.389 630.45 L
766.946 629.24 L
772.503 626.425 L
778.06 622.026 L
783.617 616.073 L
789.174 608.61 L
794.732 599.688 L
800.289 589.371 L
805.846 577.733 L
811.403 564.857 L
816.96 550.834 L
822.517 535.763 L
828.074 519.752 L
833.631 502.915 L
839.188 485.371 L
844.745 467.245 L
850.302 448.665 L
855.859 429.765 L
861.416 410.678 L
866.973 391.54 L
872.53 372.487 L
878.087 353.655 L
883.644 335.176 L
889.201 317.184 L
894.758 299.805 L
900.315 283.163 L
905.872 267.377 L
911.43 252.558 L
916.987 238.813 L
922.544 226.238 L
928.101 214.923 L
933.658 204.948 L
939.215 196.386 L
944.772 189.295 L
950.329 183.727 L
955.886 179.722 L
961.443 177.307 L
967 176.5 L
S
GR
GS
[0.75 0 0 0.75 0 0] CT
1 GC
N
248 267 M
248 64 L
442 64 L
442 267 L
cp
f
GR
GS
[0.75 0 0 0.75 213.75 60] CT
/Helvetica 21.6 F
GS
[1 0 0 1 0 0] CT
0 9 moveto 
1 -1 scale
(Approximation1) t 
GR
GR
GS
[0.75 0 0 0.75 0 0] CT
0 0.447 0.741 RC
1 LJ
4 LW
N
252 80 M
282 80 L
S
GR
GS
[0.75 0 0 0.75 213.75 81.375] CT
/Helvetica 21.6 F
GS
[1 0 0 1 0 0] CT
0 9 moveto 
1 -1 scale
(Approximation2) t 
GR
GR
GS
[0.75 0 0 0.75 0 0] CT
0.851 0.325 0.098 RC
1 LJ
4 LW
N
252 108.5 M
282 108.5 L
S
GR
GS
[0.75 0 0 0.75 213.75 102.75] CT
/Helvetica 21.6 F
GS
[1 0 0 1 0 0] CT
0 9 moveto 
1 -1 scale
(Approximation3) t 
GR
GR
GS
[0.75 0 0 0.75 0 0] CT
0.929 0.694 0.125 RC
1 LJ
4 LW
N
252 137 M
282 137 L
S
GR
GS
[0.75 0 0 0.75 213.75 124.125] CT
/Helvetica 21.6 F
GS
[1 0 0 1 0 0] CT
0 9 moveto 
1 -1 scale
(Approximation4) t 
GR
GR
GS
[0.75 0 0 0.75 0 0] CT
0.494 0.184 0.557 RC
1 LJ
4 LW
N
252 165.5 M
282 165.5 L
S
GR
GS
[0.75 0 0 0.75 213.75 145.5] CT
/Helvetica 21.6 F
GS
[1 0 0 1 0 0] CT
0 9 moveto 
1 -1 scale
(Approximation5) t 
GR
GR
GS
[0.75 0 0 0.75 0 0] CT
0.467 0.675 0.188 RC
1 LJ
4 LW
N
252 194 M
282 194 L
S
GR
GS
[0.75 0 0 0.75 213.75 166.875] CT
/Helvetica 21.6 F
GS
[1 0 0 1 0 0] CT
0 9 moveto 
1 -1 scale
(Training set) t 
GR
GR
GS
[0.75 0 0 0.75 200.25 166.875] CT
1 0 0 RC
10.0 ML
0.667 LW
N
0 -4 M
0 4 L
-4 0 M
4 0 L
-2.828 -2.828 M
2.828 2.828 L
-2.828 2.828 M
2.828 -2.828 L
S
GR
GS
[0.75 0 0 0.75 213.75 188.25] CT
/Helvetica 21.6 F
GS
[1 0 0 1 0 0] CT
0 9 moveto 
1 -1 scale
(True function) t 
GR
GR
GS
[0.75 0 0 0.75 0 0] CT
0.302 0.745 0.933 RC
1 LJ
4 LW
N
252 251 M
282 251 L
S
GR
GS
[0.75 0 0 0.75 0 0] CT
0.149 GC
10.0 ML
0.667 LW
N
248 267 M
248 64 L
442 64 L
442 267 L
cp
S
GR
%%Trailer
%%Pages: 1
%%EOF
