\relax 
\providecommand\hyper@newdestlabel[2]{}
\providecommand\HyperFirstAtBeginDocument{\AtBeginDocument}
\HyperFirstAtBeginDocument{\ifx\hyper@anchor\@undefined
\global\let\oldcontentsline\contentsline
\gdef\contentsline#1#2#3#4{\oldcontentsline{#1}{#2}{#3}}
\global\let\oldnewlabel\newlabel
\gdef\newlabel#1#2{\newlabelxx{#1}#2}
\gdef\newlabelxx#1#2#3#4#5#6{\oldnewlabel{#1}{{#2}{#3}}}
\AtEndDocument{\ifx\hyper@anchor\@undefined
\let\contentsline\oldcontentsline
\let\newlabel\oldnewlabel
\fi}
\fi}
\global\let\hyper@last\relax 
\gdef\HyperFirstAtBeginDocument#1{#1}
\providecommand\HyField@AuxAddToFields[1]{}
\providecommand\HyField@AuxAddToCoFields[2]{}
\select@language{english}
\@writefile{toc}{\select@language{english}}
\@writefile{lof}{\select@language{english}}
\@writefile{lot}{\select@language{english}}
\pgfsyspdfmark {pgfid2}{0}{0}
\pgfsyspdfmark {pgfid1}{6577079}{47493192}
\@writefile{toc}{\contentsline {section}{\numberline {1}Santa Fe laser data - time-series prediction}{1}{section.1}}
\@writefile{toc}{\contentsline {subsection}{\numberline {1.1}Choice of the optimal delay parameter}{1}{subsection.1.1}}
\providecommand*\caption@xref[2]{\@setref\relax\@undefined{#1}}
\newlabel{fig:autocorrelation}{{1a}{2}{Autocorrelation of the training data.\relax }{figure.caption.2}{}}
\newlabel{sub@fig:autocorrelation}{{a}{2}{Autocorrelation of the training data.\relax }{figure.caption.2}{}}
\newlabel{fig:autocorrelationzoom}{{1b}{2}{Zoom of the autocorrelation to relevant small values of the delay.\relax }{figure.caption.2}{}}
\newlabel{sub@fig:autocorrelationzoom}{{b}{2}{Zoom of the autocorrelation to relevant small values of the delay.\relax }{figure.caption.2}{}}
\@writefile{lot}{\contentsline {table}{\numberline {1}{\ignorespaces MSE's for different sizes of the hidden layer for $p=22$.\relax }}{2}{table.caption.4}}
\newlabel{tab:hiddenneurons}{{1}{2}{MSE's for different sizes of the hidden layer for $p=22$.\relax }{table.caption.4}{}}
\@writefile{toc}{\contentsline {subsection}{\numberline {1.2}Effect of the number of internal neurons}{2}{subsection.1.2}}
\@writefile{toc}{\contentsline {subsection}{\numberline {1.3}Comparison of different training algorithms}{2}{subsection.1.3}}
\newlabel{fig:p15}{{2a}{3}{Delay $p=15$.\relax }{figure.caption.3}{}}
\newlabel{sub@fig:p15}{{a}{3}{Delay $p=15$.\relax }{figure.caption.3}{}}
\newlabel{fig:p22}{{2b}{3}{Delay $p=22$.\relax }{figure.caption.3}{}}
\newlabel{sub@fig:p22}{{b}{3}{Delay $p=22$.\relax }{figure.caption.3}{}}
\newlabel{fig:p30}{{2c}{3}{Delay $p=30$.\relax }{figure.caption.3}{}}
\newlabel{sub@fig:p30}{{c}{3}{Delay $p=30$.\relax }{figure.caption.3}{}}
\@writefile{lot}{\contentsline {table}{\numberline {2}{\ignorespaces MSE's for different training algorithms.\relax }}{3}{table.caption.6}}
\newlabel{tab:trainingalgorithms}{{2}{3}{MSE's for different training algorithms.\relax }{table.caption.6}{}}
\newlabel{fig:p22h11}{{3a}{4}{11 Hidden Neurons.\relax }{figure.caption.5}{}}
\newlabel{sub@fig:p22h11}{{a}{4}{11 Hidden Neurons.\relax }{figure.caption.5}{}}
\newlabel{fig:p22h16}{{3b}{4}{16 Hidden Neurons\relax }{figure.caption.5}{}}
\newlabel{sub@fig:p22h16}{{b}{4}{16 Hidden Neurons\relax }{figure.caption.5}{}}
\newlabel{fig:p22h22}{{3c}{4}{22 Hidden Neurons\relax }{figure.caption.5}{}}
\newlabel{sub@fig:p22h22}{{c}{4}{22 Hidden Neurons\relax }{figure.caption.5}{}}
\newlabel{fig:p22h27}{{3d}{4}{27 Hidden Neurons.\relax }{figure.caption.5}{}}
\newlabel{sub@fig:p22h27}{{d}{4}{27 Hidden Neurons.\relax }{figure.caption.5}{}}
\newlabel{fig:p22h44}{{3e}{4}{44 Hidden Neurons.\relax }{figure.caption.5}{}}
\newlabel{sub@fig:p22h44}{{e}{4}{44 Hidden Neurons.\relax }{figure.caption.5}{}}
\newlabel{fig:p22h66}{{3f}{4}{66 Hidden Neurons.\relax }{figure.caption.5}{}}
\newlabel{sub@fig:p22h66}{{f}{4}{66 Hidden Neurons.\relax }{figure.caption.5}{}}
\newlabel{fig:bayes}{{4a}{5}{Bayesian Regularization.\relax }{figure.caption.7}{}}
\newlabel{sub@fig:bayes}{{a}{5}{Bayesian Regularization.\relax }{figure.caption.7}{}}
\newlabel{fig:bfgs}{{4b}{5}{BFGS.\relax }{figure.caption.7}{}}
\newlabel{sub@fig:bfgs}{{b}{5}{BFGS.\relax }{figure.caption.7}{}}
\newlabel{fig:lm}{{4c}{5}{Levenberg-Marquardt.\relax }{figure.caption.7}{}}
\newlabel{sub@fig:lm}{{c}{5}{Levenberg-Marquardt.\relax }{figure.caption.7}{}}
\newlabel{fig:scg}{{4d}{5}{Scaled Conjugate Gradients.\relax }{figure.caption.7}{}}
\newlabel{sub@fig:scg}{{d}{5}{Scaled Conjugate Gradients.\relax }{figure.caption.7}{}}
\@writefile{lot}{\contentsline {table}{\numberline {3}{\ignorespaces MSE's for different regularization parameters.\relax }}{6}{table.caption.8}}
\newlabel{tab:regularization}{{3}{6}{MSE's for different regularization parameters.\relax }{table.caption.8}{}}
\@writefile{lot}{\contentsline {table}{\numberline {4}{\ignorespaces MSE's for different number of peaks in the autocorrelation as inputs in the neural network.\relax }}{6}{table.caption.10}}
\newlabel{tab:delays}{{4}{6}{MSE's for different number of peaks in the autocorrelation as inputs in the neural network.\relax }{table.caption.10}{}}
\@writefile{toc}{\contentsline {subsection}{\numberline {1.4}Impact of regularization}{6}{subsection.1.4}}
\@writefile{toc}{\contentsline {subsection}{\numberline {1.5}Rearranging inputs}{6}{subsection.1.5}}
\@writefile{toc}{\contentsline {subsection}{\numberline {1.6}Conclusion on the Santa Fe model}{6}{subsection.1.6}}
\newlabel{fig:mu7}{{5a}{7}{Regularization parameter $10^{-7}$.\relax }{figure.caption.9}{}}
\newlabel{sub@fig:mu7}{{a}{7}{Regularization parameter $10^{-7}$.\relax }{figure.caption.9}{}}
\newlabel{fig:mu5}{{5b}{7}{Regularization parameter $10^{-5}$.\relax }{figure.caption.9}{}}
\newlabel{sub@fig:mu5}{{b}{7}{Regularization parameter $10^{-5}$.\relax }{figure.caption.9}{}}
\newlabel{fig:mu3}{{5c}{7}{Regularization parameter $10^{-3}$.\relax }{figure.caption.9}{}}
\newlabel{sub@fig:mu3}{{c}{7}{Regularization parameter $10^{-3}$.\relax }{figure.caption.9}{}}
\newlabel{fig:mu1}{{5d}{7}{Regularization parameter $10^{-1}$.\relax }{figure.caption.9}{}}
\newlabel{sub@fig:mu1}{{d}{7}{Regularization parameter $10^{-1}$.\relax }{figure.caption.9}{}}
\newlabel{fig:delay5}{{6a}{8}{5 peaks.\relax }{figure.caption.11}{}}
\newlabel{sub@fig:delay5}{{a}{8}{5 peaks.\relax }{figure.caption.11}{}}
\newlabel{fig:delay10}{{6b}{8}{10 peaks.\relax }{figure.caption.11}{}}
\newlabel{sub@fig:delay10}{{b}{8}{10 peaks.\relax }{figure.caption.11}{}}
\newlabel{fig:delay15}{{6c}{8}{15 peaks.\relax }{figure.caption.11}{}}
\newlabel{sub@fig:delay15}{{c}{8}{15 peaks.\relax }{figure.caption.11}{}}
\newlabel{fig:delay20}{{6d}{8}{20 peaks.\relax }{figure.caption.11}{}}
\newlabel{sub@fig:delay20}{{d}{8}{20 peaks.\relax }{figure.caption.11}{}}
\@writefile{lof}{\contentsline {figure}{\numberline {7}{\ignorespaces Percentage of misclassifications as a function of the noise level for the two different networks.\relax }}{9}{figure.caption.12}}
\newlabel{fig:standardalphabet}{{7}{9}{Percentage of misclassifications as a function of the noise level for the two different networks.\relax }{figure.caption.12}{}}
\@writefile{toc}{\contentsline {section}{\numberline {2}Alfabet recognition}{9}{section.2}}
\@writefile{toc}{\contentsline {subsection}{\numberline {2.1}Impact of the noise level for the second network}{9}{subsection.2.1}}
\@writefile{toc}{\contentsline {subsection}{\numberline {2.2}Impact of the number of hidden neurons}{9}{subsection.2.2}}
\@writefile{lof}{\contentsline {figure}{\numberline {8}{\ignorespaces Error plot of the second network where this network was trained with inputs with different noise levels.\relax }}{10}{figure.caption.13}}
\newlabel{fig:noiselevel}{{8}{10}{Error plot of the second network where this network was trained with inputs with different noise levels.\relax }{figure.caption.13}{}}
\@writefile{toc}{\contentsline {subsection}{\numberline {2.3}Conclusion}{10}{subsection.2.3}}
\@writefile{toc}{\contentsline {section}{\numberline {3}Classification: Breast Cancer Wisconsin}{10}{section.3}}
\@writefile{lof}{\contentsline {figure}{\numberline {9}{\ignorespaces Error plot of the first neural network as a function of the hidden layer size.\relax }}{11}{figure.caption.14}}
\newlabel{fig:hidden1}{{9}{11}{Error plot of the first neural network as a function of the hidden layer size.\relax }{figure.caption.14}{}}
\@writefile{lof}{\contentsline {figure}{\numberline {10}{\ignorespaces Error plot of the second neural network as a function of the hidden layer size.\relax }}{11}{figure.caption.15}}
\newlabel{fig:hidden2}{{10}{11}{Error plot of the second neural network as a function of the hidden layer size.\relax }{figure.caption.15}{}}
\@writefile{lof}{\contentsline {figure}{\numberline {11}{\ignorespaces ROC curve for only one hidden unit.\relax }}{12}{figure.caption.16}}
\newlabel{fig:h1}{{11}{12}{ROC curve for only one hidden unit.\relax }{figure.caption.16}{}}
\@writefile{toc}{\contentsline {subsection}{\numberline {3.1}Optimal choice of hidden neurons}{12}{subsection.3.1}}
\@writefile{lot}{\contentsline {table}{\numberline {5}{\ignorespaces Percentage of misclassified data points of the whole dataset as a function of the number of hidden neurons and the threshold.\relax }}{13}{table.caption.17}}
\newlabel{tab:misclassified}{{5}{13}{Percentage of misclassified data points of the whole dataset as a function of the number of hidden neurons and the threshold.\relax }{table.caption.17}{}}
\@writefile{lof}{\contentsline {figure}{\numberline {12}{\ignorespaces 5 independent ROC curves for two hidden neurons.\relax }}{13}{figure.caption.18}}
\newlabel{fig:h2}{{12}{13}{5 independent ROC curves for two hidden neurons.\relax }{figure.caption.18}{}}
\@writefile{lof}{\contentsline {figure}{\numberline {13}{\ignorespaces ROC-curve for five hidden neurons.\relax }}{14}{figure.caption.19}}
\newlabel{fig:h5}{{13}{14}{ROC-curve for five hidden neurons.\relax }{figure.caption.19}{}}
\@writefile{lot}{\contentsline {table}{\numberline {6}{\ignorespaces Percentage of misclassified data points of the whole dataset for different trainings methods and one hidden neuron.\relax }}{14}{table.caption.20}}
\newlabel{tab:cancertrainingalgorithms}{{6}{14}{Percentage of misclassified data points of the whole dataset for different trainings methods and one hidden neuron.\relax }{table.caption.20}{}}
\@writefile{toc}{\contentsline {subsection}{\numberline {3.2}Comparison of different training algorithms}{14}{subsection.3.2}}
\@writefile{lof}{\contentsline {figure}{\numberline {14}{\ignorespaces The ROC-curve for Bayesian Regularization with one hidden neuron.\relax }}{15}{figure.caption.21}}
\newlabel{fig:rocbayes}{{14}{15}{The ROC-curve for Bayesian Regularization with one hidden neuron.\relax }{figure.caption.21}{}}
\@writefile{lof}{\contentsline {figure}{\numberline {15}{\ignorespaces The ROC-curve for Bayesian Regularization with one hidden neuron. The results are very bad and there is a high variability between successive runs.\relax }}{15}{figure.caption.22}}
\newlabel{fig:rocscg}{{15}{15}{The ROC-curve for Bayesian Regularization with one hidden neuron. The results are very bad and there is a high variability between successive runs.\relax }{figure.caption.22}{}}
\@writefile{lot}{\contentsline {table}{\numberline {7}{\ignorespaces Percentage of misclassified data points of the whole dataset as a function the regularization parameter for the Levenberg-Marquardt method with one hidden neuron.\relax }}{16}{table.caption.23}}
\newlabel{tab:lmreg}{{7}{16}{Percentage of misclassified data points of the whole dataset as a function the regularization parameter for the Levenberg-Marquardt method with one hidden neuron.\relax }{table.caption.23}{}}
\@writefile{toc}{\contentsline {subsection}{\numberline {3.3}Impact of regularization}{16}{subsection.3.3}}
\@writefile{toc}{\contentsline {subsection}{\numberline {3.4}Conclusion}{16}{subsection.3.4}}
\newlabel{LastPage}{{}{16}{}{page.16}{}}
\xdef\lastpage@lastpage{16}
\xdef\lastpage@lastpageHy{16}
